Description,Charge,Category
 MAJOR SMALL & LARGE BOWEL PROCEDURES W/O CC/MCC,12824.692308,Standard
 MAJOR SMALL & LARGE BOWEL PROCEDURES W CC,18757.777778,Standard
 MAJOR SMALL & LARGE BOWEL PROCEDURES W MCC,35649.454545,Standard
 EXTENSIVE O.R. PROCEDURE UNRELATED TO PRINCIPAL DIAGNOSIS W MCC,28443.909091,Standard
 SEPTICEMIA OR SEVERE SEPSIS W/O MV >96 HOURS W/O MCC,8387.969697,Standard
" CIRCULATORY DISORDERS EXCEPT AMI, W CARD CATH W/O MCC",9825.9,Standard
 SYNCOPE & COLLAPSE,6400.228571399999,Standard
 CARDIAC ARRHYTHMIA & CONDUCTION DISORDERS W CC,6188.9615385,Standard
 HEART FAILURE & SHOCK W/O CC/MCC,5281.8333333,Standard
 HEART FAILURE & SHOCK W CC,7253.4878049,Standard
 HEART FAILURE & SHOCK W MCC,11216.0,Standard
 SEPTICEMIA OR SEVERE SEPSIS W/O MV >96 HOURS W MCC,13964.881443,Standard
 CARDIAC ARRHYTHMIA & CONDUCTION DISORDERS W/O CC/MCC,4568.4827586,Standard
 RESPIRATORY SYSTEM DIAGNOSIS W VENTILATOR SUPPORT <=96 HOURS,17231.28125,Standard
" ""ACUTE MYOCARDIAL INFARCTION, DISCHARGED ALIVE W/O CC/MCC""",6824.7692308,Standard
 CELLULITIS W MCC,11762.5,Standard
 CELLULITIS W/O MCC,6661.0,Standard
 INTRACRANIAL HEMORRHAGE OR CEREBRAL INFARCTION W MCC,12833.117647,Standard
 INTRACRANIAL HEMORRHAGE OR CEREBRAL INFARCTION W CC OR TPA IN 24 HRS,7743.05,Standard
 INTRACRANIAL HEMORRHAGE OR CEREBRAL INFARCTION W/O CC/MCC,5889.5,Standard
 TRANSIENT ISCHEMIA W/O THROMBOLYTIC,5947.8333333,Standard
 OTHER RESP SYSTEM O.R. PROCEDURES W MCC,27199.8,Standard
 PULMONARY EMBOLISM W MCC,10811.642856999999,Standard
 PULMONARY EMBOLISM W/O MCC,6724.7272727,Standard
 RESPIRATORY INFECTIONS & INFLAMMATIONS W MCC,13019.042553,Standard
 PULMONARY EDEMA & RESPIRATORY FAILURE,9609.267857100001,Standard
 CHRONIC OBSTRUCTIVE PULMONARY DISEASE W MCC,8963.0,Standard
 CHRONIC OBSTRUCTIVE PULMONARY DISEASE W CC,7402.1764706,Standard
 SIMPLE PNEUMONIA & PLEURISY W MCC,10069.253333,Standard
 SIMPLE PNEUMONIA & PLEURISY W CC,7173.8857143000005,Standard
 BRONCHITIS & ASTHMA W CC/MCC,7643.1052632,Standard
 PERCUTANEOUS CARDIOVASCULAR PROCEDURES W DRUG,23375.0625,Standard
 PERC CARDIOVASC PROC W DRUG,18246.961538,Standard
 OTHER VASCULAR PROCEDURES W CC,18491.454545,Standard
" ""ACUTE MYOCARDIAL INFARCTION, DISCHARGED ALIVE W MCC""",12232.871795000001,Standard
" ACUTE MYOCARDIAL INFARCTION, DISCHARGED ALIVE W CC",6991.5294118,Standard
" ""CIRCULATORY DISORDERS EXCEPT AMI, W CARD CATH W MCC""",17984.153846,Standard
 INFECTIOUS & PARASITIC DISEASES W O.R. PROCEDURE W MCC,33794.85,Standard
" ""ESOPHAGITIS, GASTROENT & MISC DIGEST DISORDERS W/O MCC""",6035.5882353,Standard
 MAJOR GASTROINTESTINAL DISORDERS & PERITONEAL INFECTIONS W CC,8281.3636364,Standard
Abdominal/Peritoneal/Biliary and Related Procedures,2374.3519444444396,DRG
Level 1 Laparoscopy and Related Services,3773.7599999999898,DRG
Level 2 Laparoscopy and Related Services,6142.13076923077,DRG
Level 3 Urology and Related Services,1422.62083333333,DRG
Level 4 Urology and Related Services,2205.71405405405,DRG
Level 5 Urology and Related Services,2938.68638888888,DRG
 RENAL FAILURE W CC,7534.3333333,Standard
 KIDNEY & URINARY TRACT INFECTIONS W MCC,8279.2857143,Standard
 KIDNEY & URINARY TRACT INFECTIONS W/O MCC,6230.551724100001,Standard
Level 4 Gynecologic Procedures,1910.77999999999,DRG
Level 1 Nerve Procedures,1354.0,DRG
Level 1 Intraocular Procedures,1567.2977647058701,DRG
Level 2 Intraocular Procedures,3035.6699999999896,DRG
Comprehensive Observation Services,1942.9405080213899,DRG
Level 2 Musculoskeletal Procedures,1081.775,DRG
Level 2 Breast/Lymphatic Surgery and Related Procedures,4045.5,DRG
Level 1 Breast/Lymphatic Surgery and Related Procedures,2293.38,DRG
Level 3 Excision/ Biopsy/ Incision and Drainage,1876.8744444444396,DRG
Level 2 Excision/ Biopsy/ Incision and Drainage,1106.56105590061,DRG
Level 3 Lower GI Procedures,1622.3483333333302,DRG
 RED BLOOD CELL DISORDERS W/O MCC,6866.2727273,Standard
Level 2 Upper GI Procedures,1200.05,DRG
Level 2 Pacemaker and Similar Procedures,6429.817391304339,DRG
 G.I. HEMORRHAGE W MCC,12141.607143000001,Standard
 G.I. HEMORRHAGE W CC,7598.440678,Standard
 G.I. OBSTRUCTION W CC,6645.8333333,Standard
 G.I. OBSTRUCTION W/O CC/MCC,4928.9411765,Standard
" ESOPHAGITIS, GASTROENT & MISC DIGEST DISORDERS W MCC",9315.0,Standard
 MAJOR HIP AND KNEE JOINT REPLACEMENT OR REATTACHMENT OF LOWER EXTREM,15607.714286000002,Standard
 HIP & FEMUR PROCEDURES EXCEPT MAJOR JOINT W CC,15685.666667,Standard
 O.R. PROCEDURES FOR OBESITY W/O CC/MCC,12580.833333,Standard
 DIABETES W CC,6659.5714286,Standard
" MISC DISORDERS OF NUTRITION,METABOLISM,FLUIDS/ELECTROLYTES W MCC",8824.0,Standard
" ""MISC DISORDERS OF NUTRITION,METABOLISM,FLUIDS/ELECTROLYTES W/O MCC""",6084.5,Standard
 RENAL FAILURE W MCC,11680.444444,Standard
Level 3 Musculoskeletal Procedures,2223.91999999999,DRG
Level 4 Musculoskeletal Procedures,4436.21647058823,DRG
Level 5 Musculoskeletal Procedures,9245.398461538449,DRG
Level 4 Airway Endoscopy,2191.26178571428,DRG
Level 1 Endovascular Procedures,2026.26071428571,DRG
Level 3 Endovascular Procedures,9725.75658823529,DRG
Level 4 Endovascular Procedures,15522.84,DRG
Level 3 Pacemaker and Similar Procedures,8931.07999999999,DRG
Level 2 Endovascular Procedures,4273.831136363629,DRG
