Description,Charge,Category
Level 2 Excision/ Biopsy/ Incision and Drainage,1223.31737931034,DRG
Level 1 Breast/Lymphatic Surgery and Related Procedures,2521.91,DRG
Level 2 Musculoskeletal Procedures,1194.51076923076,DRG
Level 3 Excision/ Biopsy/ Incision and Drainage,2149.36,DRG
 INFECTIOUS & PARASITIC DISEASES W O.R. PROCEDURE W MCC,40952.02,Standard
 OTHER DISORDERS OF NERVOUS SYSTEM W CC,8174.7272727,Standard
" TRAUMATIC STUPOR & COMA, COMA <1 HR W/O CC/MCC",8517.3125,Standard
" ""TRAUMATIC STUPOR & COMA, COMA <1 HR W CC""",10192.666667,Standard
 CRANIAL & PERIPHERAL NERVE DISORDERS W/O MCC,9412.6666667,Standard
" ""MISC DISORDERS OF NUTRITION,METABOLISM,FLUIDS/ELECTROLYTES W/O MCC""",6770.8,Standard
 OTHER KIDNEY & URINARY TRACT PROCEDURES W MCC,41496.857143,Standard
Level 3 Musculoskeletal Procedures,2334.3790909090803,DRG
Level 4 Musculoskeletal Procedures,5099.94125,DRG
Level 3 Urology and Related Services,1566.12720430107,DRG
Level 1 Endovascular Procedures,2206.60967948718,DRG
 SEIZURES W MCC,14043.357143000001,Standard
 SEIZURES W/O MCC,7370.4,Standard
 OTHER RESP SYSTEM O.R. PROCEDURES W MCC,28833.818182,Standard
 PULMONARY EMBOLISM W MCC,12641.181818000001,Standard
 RESPIRATORY INFECTIONS & INFLAMMATIONS W MCC,15200.368421000001,Standard
 PULMONARY EDEMA & RESPIRATORY FAILURE,11229.767123,Standard
 CHRONIC OBSTRUCTIVE PULMONARY DISEASE W MCC,10193.934426,Standard
Comprehensive Observation Services,2140.49614077667,DRG
 CHRONIC OBSTRUCTIVE PULMONARY DISEASE W CC,8410.7647059,Standard
 SIMPLE PNEUMONIA & PLEURISY W CC,8374.081081100001,Standard
 BRONCHITIS & ASTHMA W CC/MCC,8430.368421100002,Standard
 RESPIRATORY SYSTEM DIAGNOSIS W VENTILATOR SUPPORT <=96 HOURS,21377.818182,Standard
 OTHER CARDIOTHORACIC PROCEDURES W/O MCC,37256.2,Standard
 CORONARY BYPASS W CARDIAC CATH W/O MCC,42181.833332999995,Standard
 PERMANENT CARDIAC PACEMAKER IMPLANT W CC,21084.5625,Standard
 PERCUTANEOUS CARDIOVASCULAR PROCEDURES W DRUG,26824.648649000002,Standard
 SIMPLE PNEUMONIA & PLEURISY W MCC,12903.89011,Standard
Level 1 Intraocular Procedures,1774.64285714285,DRG
Level 1 Nerve Procedures,1249.5547368421,DRG
Level 5 Gynecologic Procedures,3708.4199999999896,DRG
Level 2 Endovascular Procedures,4591.7916279069705,DRG
Level 3 Endovascular Procedures,10430.3111111111,DRG
Level 4 Endovascular Procedures,17198.9115,DRG
Level 3 Electrophysiologic Procedures,19246.1086046511,DRG
Level 2 Pacemaker and Similar Procedures,6979.824375,DRG
Level 3 Pacemaker and Similar Procedures,9951.92,DRG
Level 2 ICD and Similar Procedures,34467.74,DRG
Level 2 Upper GI Procedures,1292.29898148148,DRG
Level 3 Upper GI Procedures,2536.34,DRG
Complex GI Procedures,3969.48,DRG
Abdominal/Peritoneal/Biliary and Related Procedures,2660.08488372093,DRG
Level 1 Laparoscopy and Related Services,4012.72659090909,DRG
Level 2 Laparoscopy and Related Services,7464.33999999999,DRG
 RENAL FAILURE W MCC,13242.519231,Standard
Level 4 Urology and Related Services,2486.93217391304,DRG
Level 5 Urology and Related Services,3228.59115384615,DRG
Level 4 Gynecologic Procedures,1984.4572222222198,DRG
Level 5 Musculoskeletal Procedures,10385.21,DRG
 RENAL FAILURE W CC,9165.1076923,Standard
 HEART FAILURE & SHOCK W CC,8756.2692308,Standard
 OTHER VASCULAR PROCEDURES W MCC,27193.846154000003,Standard
 G.I. OBSTRUCTION W CC,7788.8,Standard
 PERCUTANEOUS INTRACARDIAC PROCEDURES W/O MCC,22596.375,Standard
" ""ACUTE MYOCARDIAL INFARCTION, DISCHARGED ALIVE W MCC""",15591.617647,Standard
" ACUTE MYOCARDIAL INFARCTION, DISCHARGED ALIVE W CC",8741.263157899999,Standard
 MEDICAL BACK PROBLEMS W/O MCC,8006.84375,Standard
 INTRACRANIAL HEMORRHAGE OR CEREBRAL INFARCTION W MCC,15267.916667,Standard
 DEGENERATIVE NERVOUS SYSTEM DISORDERS W/O MCC,9844.75,Standard
 NERVOUS SYSTEM NEOPLASMS W MCC,12004.75,Standard
 EXTRACRANIAL PROCEDURES W/O CC/MCC,10100.588235,Standard
 PERC CARDIOVASC PROC W DRUG,21096.275862000002,Standard
 CARDIAC ARRHYTHMIA & CONDUCTION DISORDERS W/O CC/MCC,5359.0666667,Standard
 SYNCOPE & COLLAPSE,7233.5882353,Standard
 OTHER CIRCULATORY SYSTEM DIAGNOSES W MCC,17499.354839,Standard
 AORTIC AND HEART ASSIST PROCEDURES EXCEPT PULSATION BALLOON W/O MCC,33778.090909,Standard
 MAJOR SMALL & LARGE BOWEL PROCEDURES W CC,23292.733333,Standard
 HIP & FEMUR PROCEDURES EXCEPT MAJOR JOINT W/O CC/MCC,13598.833333,Standard
 HIP & FEMUR PROCEDURES EXCEPT MAJOR JOINT W CC,17759.194444,Standard
 HIP & FEMUR PROCEDURES EXCEPT MAJOR JOINT W MCC,23794.416666999998,Standard
 BIOPSIES OF MUSCULOSKELETAL SYSTEM & CONNECTIVE TISSUE W CC,17984.75,Standard
 MAJOR HIP AND KNEE JOINT REPLACEMENT OR REATTACHMENT OF LOWER EXTREM,17945.884297999997,Standard
 SPINAL FUSION EXCEPT CERVICAL W/O MCC,35770.545455,Standard
 DISORDERS OF THE BILIARY TRACT W CC,9393.727272700002,Standard
 G.I. HEMORRHAGE W MCC,14605.5,Standard
 OTHER DIGESTIVE SYSTEM DIAGNOSES W/O CC/MCC,6523.5833333,Standard
 OTHER DIGESTIVE SYSTEM DIAGNOSES W CC,8578.0526316,Standard
" ""ESOPHAGITIS, GASTROENT & MISC DIGEST DISORDERS W/O MCC""",7037.5964912,Standard
" ESOPHAGITIS, GASTROENT & MISC DIGEST DISORDERS W MCC",10928.4375,Standard
 G.I. OBSTRUCTION W/O CC/MCC,6009.4615385,Standard
 FRACTURES OF HIP & PELVIS W/O MCC,6325.7692308,Standard
 ENDOVASCULAR CARDIAC VALVE REPLACEMENT W/O MCC,49468.466667,Standard
 G.I. HEMORRHAGE W CC,8444.2625,Standard
 CELLULITIS W MCC,12685.769231,Standard
 ALCOHOL/DRUG ABUSE OR DEPENDENCE W/O REHABILITATION THERAPY W/O MCC,7181.325,Standard
 SIGNS & SYMPTOMS W/O MCC,6896.8461538,Standard
" MISC DISORDERS OF NUTRITION,METABOLISM,FLUIDS/ELECTROLYTES W MCC",10754.410256000001,Standard
 DIABETES W CC,10092.684211,Standard
 INTRACRANIAL HEMORRHAGE OR CEREBRAL INFARCTION W/O CC/MCC,6754.8,Standard
 INTRACRANIAL HEMORRHAGE OR CEREBRAL INFARCTION W CC OR TPA IN 24 HRS,8998.7045455,Standard
 CELLULITIS W/O MCC,8532.666666699999,Standard
 ENDOVASCULAR CARDIAC VALVE REPLACEMENT W MCC,60994.736842,Standard
" FX, SPRN, STRN & DISL EXCEPT FEMUR, HIP, PELVIS & THIGH W/O MCC",7762.8461538,Standard
 EXTENSIVE O.R. PROCEDURE UNRELATED TO PRINCIPAL DIAGNOSIS W MCC,40690.846154,Standard
 SEPTICEMIA OR SEVERE SEPSIS W/O MV >96 HOURS W MCC,15416.633229,Standard
 CARDIAC ARRHYTHMIA & CONDUCTION DISORDERS W CC,7210.594594600001,Standard
 CARDIAC ARRHYTHMIA & CONDUCTION DISORDERS W MCC,11281.268293000001,Standard
 SEPTICEMIA OR SEVERE SEPSIS W MV >96 HOURS OR PERIPHERAL EXTRACORPOR,51056.583332999995,Standard
 HEART FAILURE & SHOCK W/O CC/MCC,6355.75,Standard
 COAGULATION DISORDERS,18531.352941,Standard
 RED BLOOD CELL DISORDERS W/O MCC,7925.2941175999995,Standard
 OTHER KIDNEY & URINARY TRACT DIAGNOSES W MCC,12346.777778,Standard
 KIDNEY & URINARY TRACT INFECTIONS W/O MCC,7289.1803279,Standard
 KIDNEY & URINARY TRACT INFECTIONS W MCC,9582.3061224,Standard
 HEART FAILURE & SHOCK W MCC,12857.086957,Standard
" CIRCULATORY DISORDERS EXCEPT AMI, W CARD CATH W/O MCC",10264.892856999999,Standard
" ""CIRCULATORY DISORDERS EXCEPT AMI, W CARD CATH W MCC""",20728.875,Standard
" ""ACUTE MYOCARDIAL INFARCTION, DISCHARGED ALIVE W/O CC/MCC""",6980.0,Standard
 ORGANIC DISTURBANCES & INTELLECTUAL DISABILITY,10730.846154,Standard
 SEPTICEMIA OR SEVERE SEPSIS W/O MV >96 HOURS W/O MCC,9556.7247706,Standard
