Description,Charge,Category
 RESPIRATORY INFECTIONS & INFLAMMATIONS W CC,8793.4285714,Standard
Comprehensive Observation Services,1678.3883243243201,DRG
Level 5 Urology and Related Services,2655.48459459459,DRG
"Level 3 Extraocular, Repair, and Plastic Eye Procedures",1300.8099999999902,DRG
Level 1 Intraocular Procedures,1377.42190789473,DRG
Level 1 Nerve Procedures,1156.58,DRG
 PULMONARY EDEMA & RESPIRATORY FAILURE,8417.846153800001,Standard
 SIMPLE PNEUMONIA & PLEURISY W CC,6450.5882353,Standard
 SIMPLE PNEUMONIA & PLEURISY W MCC,9402.214285700002,Standard
 HEART FAILURE & SHOCK W MCC,9984.055555600002,Standard
 HEART FAILURE & SHOCK W CC,6640.08,Standard
 MAJOR SMALL & LARGE BOWEL PROCEDURES W CC,16779.833333000002,Standard
 G.I. HEMORRHAGE W CC,6723.2307692,Standard
" ""ESOPHAGITIS, GASTROENT & MISC DIGEST DISORDERS W/O MCC""",5292.6666667,Standard
 MAJOR HIP AND KNEE JOINT REPLACEMENT OR REATTACHMENT OF LOWER EXTREM,14106.744681,Standard
 CHRONIC OBSTRUCTIVE PULMONARY DISEASE W MCC,7938.3333333,Standard
 CHRONIC OBSTRUCTIVE PULMONARY DISEASE W CC,6356.2051282,Standard
 RENAL FAILURE W CC,6427.9285714,Standard
 KIDNEY & URINARY TRACT INFECTIONS W/O MCC,5531.9583333,Standard
Level 2 Excision/ Biopsy/ Incision and Drainage,946.567111111112,DRG
 RED BLOOD CELL DISORDERS W/O MCC,6129.0,Standard
 SEPTICEMIA OR SEVERE SEPSIS W/O MV >96 HOURS W MCC,12338.142856999999,Standard
 SEPTICEMIA OR SEVERE SEPSIS W/O MV >96 HOURS W/O MCC,7266.259259299999,Standard
Level 1 Breast/Lymphatic Surgery and Related Procedures,1958.98,DRG
" ""MISC DISORDERS OF NUTRITION,METABOLISM,FLUIDS/ELECTROLYTES W/O MCC""",5178.9411765,Standard
Level 4 Urology and Related Services,1936.66,DRG
Level 2 Laparoscopy and Related Services,5505.05,DRG
Level 1 Laparoscopy and Related Services,3223.5099999999898,DRG
Level 3 Musculoskeletal Procedures,1899.65,DRG
Level 2 Musculoskeletal Procedures,969.4599999999989,DRG
Level 4 Musculoskeletal Procedures,4026.21,DRG
Level 3 Urology and Related Services,1217.74,DRG
