Description,Charge,Category
Level 1 Intraocular Procedures,1365.11116719242,DRG
"Level 3 Extraocular, Repair, and Plastic Eye Procedures",1300.81,DRG
Comprehensive Observation Services,1681.16,DRG
 INTRACRANIAL HEMORRHAGE OR CEREBRAL INFARCTION W CC OR TPA IN 24 HRS,7930.5,Standard
 RESPIRATORY INFECTIONS & INFLAMMATIONS W MCC,14136.913043,Standard
 PULMONARY EDEMA & RESPIRATORY FAILURE,9456.9285714,Standard
 CHRONIC OBSTRUCTIVE PULMONARY DISEASE W MCC,8920.3255814,Standard
 CHRONIC OBSTRUCTIVE PULMONARY DISEASE W CC,7129.1052632,Standard
 SIMPLE PNEUMONIA & PLEURISY W MCC,10816.265306000001,Standard
 SIMPLE PNEUMONIA & PLEURISY W CC,7277.357142899999,Standard
" ""ACUTE MYOCARDIAL INFARCTION, DISCHARGED ALIVE W MCC""",12521.083333,Standard
 CELLULITIS W/O MCC,6969.5652174,Standard
 MAJOR HIP AND KNEE JOINT REPLACEMENT OR REATTACHMENT OF LOWER EXTREM,15818.0,Standard
" ""ESOPHAGITIS, GASTROENT & MISC DIGEST DISORDERS W/O MCC""",5955.235294100001,Standard
" ACUTE MYOCARDIAL INFARCTION, DISCHARGED ALIVE W CC",8137.2631579,Standard
" ""ACUTE MYOCARDIAL INFARCTION, DISCHARGED ALIVE W/O CC/MCC""",5942.1538462,Standard
Level 3 Urology and Related Services,1173.4585454545402,DRG
 SYNCOPE & COLLAPSE,6230.25,Standard
 CARDIAC ARRHYTHMIA & CONDUCTION DISORDERS W/O CC/MCC,4453.4166667,Standard
 CARDIAC ARRHYTHMIA & CONDUCTION DISORDERS W CC,6037.1052632,Standard
Level 2 Laparoscopy and Related Services,5505.05,DRG
Level 1 Nerve Procedures,1132.73298969072,DRG
Level 5 Urology and Related Services,2661.46,DRG
 HEART FAILURE & SHOCK W CC,7444.4545455,Standard
Level 3 Musculoskeletal Procedures,1899.65,DRG
 RENAL FAILURE W CC,7325.6764706,Standard
" ""MISC DISORDERS OF NUTRITION,METABOLISM,FLUIDS/ELECTROLYTES W/O MCC""",6815.368421100001,Standard
 DIABETES W CC,6595.7058824,Standard
Level 2 Excision/ Biopsy/ Incision and Drainage,948.9223364485989,DRG
Level 3 Excision/ Biopsy/ Incision and Drainage,1669.59,DRG
Level 2 Musculoskeletal Procedures,969.4599999999989,DRG
Level 4 Urology and Related Services,1828.12583333333,DRG
Level 4 Musculoskeletal Procedures,3789.37411764706,DRG
 KIDNEY & URINARY TRACT INFECTIONS W MCC,8392.083333300001,Standard
Level 4 Airway Endoscopy,1879.07,DRG
Level 3 Pacemaker and Similar Procedures,7437.38,DRG
Level 2 Upper GI Procedures,1025.07,DRG
Abdominal/Peritoneal/Biliary and Related Procedures,2090.62,DRG
Level 1 Laparoscopy and Related Services,3135.7591891891802,DRG
 SEPTICEMIA OR SEVERE SEPSIS W/O MV >96 HOURS W MCC,13956.208333,Standard
 SEPTICEMIA OR SEVERE SEPSIS W/O MV >96 HOURS W/O MCC,8129.5,Standard
 HEART FAILURE & SHOCK W MCC,11304.089286,Standard
Level 1 Endovascular Procedures,1748.66,DRG
 KIDNEY & URINARY TRACT INFECTIONS W/O MCC,6227.8333333,Standard
