Description,Charge,Category
 G.I. HEMORRHAGE W CC,6133.636363600001,Standard
 G.I. OBSTRUCTION W CC,5552.645161300001,Standard
 G.I. OBSTRUCTION W MCC,9654.2777778,Standard
 G.I. HEMORRHAGE W/O CC/MCC,4262.2307692,Standard
 G.I. OBSTRUCTION W/O CC/MCC,4001.9,Standard
" ""ESOPHAGITIS, GASTROENT & MISC DIGEST DISORDERS W/O MCC""",4998.816092,Standard
" ESOPHAGITIS, GASTROENT & MISC DIGEST DISORDERS W MCC",8881.1764706,Standard
 G.I. HEMORRHAGE W MCC,10079.575757999999,Standard
 CELLULITIS W/O MCC,5562.952381,Standard
 CARDIAC ARRHYTHMIA & CONDUCTION DISORDERS W MCC,7745.1470588,Standard
 OTHER MAJOR CARDIOVASCULAR PROCEDURES W MCC,27392.214286000002,Standard
" ""ACUTE MYOCARDIAL INFARCTION, DISCHARGED ALIVE W MCC""",10736.171875,Standard
 RESPIRATORY SYSTEM DIAGNOSIS W VENTILATOR SUPPORT <=96 HOURS,15376.137931000001,Standard
 RENAL FAILURE W CC,5754.0266667,Standard
" ACUTE MYOCARDIAL INFARCTION, DISCHARGED ALIVE W CC",7054.0638298,Standard
" ""ACUTE MYOCARDIAL INFARCTION, DISCHARGED ALIVE W/O CC/MCC""",4815.5714286,Standard
 RENAL FAILURE W MCC,9903.8085106,Standard
" ""CIRCULATORY DISORDERS EXCEPT AMI, W CARD CATH W MCC""",11924.0,Standard
 TRANSURETHRAL PROCEDURES W CC,8195.5384615,Standard
" ""MISC DISORDERS OF NUTRITION,METABOLISM,FLUIDS/ELECTROLYTES W/O MCC""",4826.462963,Standard
" MISC DISORDERS OF NUTRITION,METABOLISM,FLUIDS/ELECTROLYTES W MCC",6919.363636399999,Standard
" CIRCULATORY DISORDERS EXCEPT AMI, W CARD CATH W/O MCC",6874.024390199999,Standard
 CARDIAC ARRHYTHMIA & CONDUCTION DISORDERS W CC,5095.912087899999,Standard
 DIABETES W CC,5520.8958333,Standard
 DIABETES W MCC,9710.85,Standard
 HEART FAILURE & SHOCK W MCC,8879.4429825,Standard
 HEART FAILURE & SHOCK W CC,6070.6972477,Standard
 HEART FAILURE & SHOCK W/O CC/MCC,4736.904761899999,Standard
 PERIPHERAL VASCULAR DISORDERS W CC,6390.1538462,Standard
 ATHEROSCLEROSIS W/O MCC,4657.4117647,Standard
 HYPERTENSION W/O MCC,4433.8260869999995,Standard
 CARDIAC ARRHYTHMIA & CONDUCTION DISORDERS W/O CC/MCC,3671.1962617,Standard
 CELLULITIS W MCC,8126.7777778,Standard
 MEDICAL BACK PROBLEMS W/O MCC,5775.9545455,Standard
 PERMANENT CARDIAC PACEMAKER IMPLANT W CC,14657.8125,Standard
 OTHER CIRCULATORY SYSTEM DIAGNOSES W CC,6771.8181818,Standard
 OTHER VASCULAR PROCEDURES W CC,15969.6875,Standard
 OTHER CIRCULATORY SYSTEM DIAGNOSES W MCC,10850.416667,Standard
 CHEST PAIN,4598.9787234,Standard
 OTHER DIGESTIVE SYSTEM DIAGNOSES W CC,6400.1764706,Standard
 DISORDERS OF PANCREAS EXCEPT MALIGNANCY W MCC,9981.307692299999,Standard
 DISORDERS OF PANCREAS EXCEPT MALIGNANCY W CC,5470.9,Standard
" DISORDERS OF LIVER EXCEPT MALIG,CIRR,ALC HEPA W CC",5988.142857100001,Standard
 COMBINED ANTERIOR/POSTERIOR SPINAL FUSION W CC,36002.333332999995,Standard
 SPINAL FUSION EXCEPT CERVICAL W/O MCC,23298.584906,Standard
 MAJOR SMALL & LARGE BOWEL PROCEDURES W CC,15251.818181999999,Standard
 MAJOR HIP AND KNEE JOINT REPLACEMENT OR REATTACHMENT OF LOWER EXTREM,17804.266667,Standard
 CERVICAL SPINAL FUSION W CC,18303.166666999998,Standard
 CERVICAL SPINAL FUSION W/O CC/MCC,12230.304348,Standard
 HIP & FEMUR PROCEDURES EXCEPT MAJOR JOINT W MCC,17147.944444,Standard
 SYNCOPE & COLLAPSE,5182.6111111,Standard
 HIP & FEMUR PROCEDURES EXCEPT MAJOR JOINT W CC,11700.225806,Standard
 HIP & FEMUR PROCEDURES EXCEPT MAJOR JOINT W/O CC/MCC,10730.037037,Standard
 FRACTURES OF HIP & PELVIS W/O MCC,4893.357142899999,Standard
 PERC CARDIOVASC PROC W DRUG,12714.809524,Standard
 PERCUTANEOUS CARDIOVASCULAR PROCEDURES W DRUG,23044.020408,Standard
 PERMANENT CARDIAC PACEMAKER IMPLANT W/O CC/MCC,13936.0,Standard
 MAJOR HIP AND KNEE JOINT REPLACEMENT OR REATTACHMENT OF LOWER EXTREM,12974.07767,Standard
 MAJOR SMALL & LARGE BOWEL PROCEDURES W MCC,30556.0,Standard
 OTHER VASCULAR PROCEDURES W/O CC/MCC,10394.111111,Standard
Level 1 Intraocular Procedures,1244.41029850746,DRG
 INFECTIOUS & PARASITIC DISEASES W O.R. PROCEDURE W MCC,33638.634146,Standard
Comprehensive Observation Services,1513.03319240727,DRG
 RED BLOOD CELL DISORDERS W MCC,8197.8636364,Standard
 OTHER KIDNEY & URINARY TRACT DIAGNOSES W CC,5846.4705882,Standard
 OTHER KIDNEY & URINARY TRACT DIAGNOSES W MCC,8979.6969697,Standard
 KIDNEY & URINARY TRACT INFECTIONS W/O MCC,5182.1898734,Standard
 KIDNEY & URINARY TRACT INFECTIONS W MCC,6754.1935484,Standard
 SIMPLE PNEUMONIA & PLEURISY W/O CC/MCC,4785.0512821,Standard
 SIMPLE PNEUMONIA & PLEURISY W CC,5832.7272727,Standard
 SIMPLE PNEUMONIA & PLEURISY W MCC,8743.520325200001,Standard
 CHRONIC OBSTRUCTIVE PULMONARY DISEASE W/O CC/MCC,4638.068965500001,Standard
 CHRONIC OBSTRUCTIVE PULMONARY DISEASE W CC,5720.2676056,Standard
 CHRONIC OBSTRUCTIVE PULMONARY DISEASE W MCC,7397.7179487,Standard
 PULMONARY EDEMA & RESPIRATORY FAILURE,7645.929824600001,Standard
 RESPIRATORY INFECTIONS & INFLAMMATIONS W CC,7723.347826100001,Standard
 RESPIRATORY INFECTIONS & INFLAMMATIONS W MCC,10887.666667,Standard
 PULMONARY EMBOLISM W/O MCC,5471.636363600001,Standard
 SEPTICEMIA OR SEVERE SEPSIS W/O MV >96 HOURS W MCC,11652.617188,Standard
 SEPTICEMIA OR SEVERE SEPSIS W/O MV >96 HOURS W/O MCC,6855.246913600001,Standard
 ALCOHOL/DRUG ABUSE OR DEPENDENCE W/O REHABILITATION THERAPY W/O MCC,5210.0833333,Standard
 POISONING & TOXIC EFFECTS OF DRUGS W/O MCC,4652.1666667,Standard
Level 3 Musculoskeletal Procedures,1567.683,DRG
Level 2 Musculoskeletal Procedures,876.917567567567,DRG
Level 2 Breast/Lymphatic Surgery and Related Procedures,3168.5999999999894,DRG
Level 4 Musculoskeletal Procedures,3579.9369696969607,DRG
Level 5 Musculoskeletal Procedures,7019.19,DRG
Level 3 Airway Endoscopy,871.649999999999,DRG
Level 4 Airway Endoscopy,1507.625,DRG
Level 1 Endovascular Procedures,1524.9581987577499,DRG
 PULMONARY EMBOLISM W MCC,9039.9166667,Standard
Level 2 Endovascular Procedures,3219.66346153846,DRG
Level 4 Endovascular Procedures,9714.70636363636,DRG
Level 2 Pacemaker and Similar Procedures,4437.333333333329,DRG
Level 1 Breast/Lymphatic Surgery and Related Procedures,1794.6129629629602,DRG
Level 3 Excision/ Biopsy/ Incision and Drainage,1530.91,DRG
Level 2 Excision/ Biopsy/ Incision and Drainage,865.1747916666679,DRG
Level 3 Pacemaker and Similar Procedures,6710.58,DRG
 NON,19867.909091,Standard
 SIGNS & SYMPTOMS W/O MCC,5061.6857143,Standard
Level 3 Endovascular Procedures,6879.553125,DRG
 OTHER RESP SYSTEM O.R. PROCEDURES W MCC,21205.366667,Standard
 RED BLOOD CELL DISORDERS W/O MCC,5462.897435899999,Standard
 SEIZURES W MCC,9890.3333333,Standard
 AORTIC AND HEART ASSIST PROCEDURES EXCEPT PULSATION BALLOON W/O MCC,23681.916666999998,Standard
Level 1 Laparoscopy and Related Services,2885.8325609756,DRG
 SEIZURES W/O MCC,5067.4583333,Standard
Level 4 Urology and Related Services,1611.2737037037,DRG
Level 5 Urology and Related Services,2374.4627027027,DRG
Abdominal/Peritoneal/Biliary and Related Procedures,1916.98,DRG
Level 3 Lower GI Procedures,1469.54142857142,DRG
Level 4 Gynecologic Procedures,1448.8752941176401,DRG
Level 5 Gynecologic Procedures,2641.38,DRG
Level 1 Nerve Procedures,1030.6851999999901,DRG
Level 4 Neurostimulator and Related Procedures,20562.8735,DRG
Level 3 Urology and Related Services,1103.3883495145599,DRG
Level 2 Upper GI Procedures,890.4510344827561,DRG
Implantation of Drug Infusion Device,10339.6446153846,DRG
 OTHER DISORDERS OF NERVOUS SYSTEM W CC,6212.6153846,Standard
 INTRACRANIAL HEMORRHAGE OR CEREBRAL INFARCTION W/O CC/MCC,5664.4761905000005,Standard
 INTRACRANIAL HEMORRHAGE OR CEREBRAL INFARCTION W CC OR TPA IN 24 HRS,6857.956521699999,Standard
 TRANSIENT ISCHEMIA W/O THROMBOLYTIC,4712.625,Standard
 EXTRACRANIAL PROCEDURES W/O CC/MCC,6539.642857100001,Standard
 SPINAL PROCEDURES W CC OR SPINAL NEUROSTIMULATORS,22792.454545,Standard
Level 1 ICD and Similar Procedures,15351.3181818181,DRG
Level 2 ICD and Similar Procedures,24166.139166666602,DRG
 INTRACRANIAL HEMORRHAGE OR CEREBRAL INFARCTION W MCC,13052.974359,Standard
