Description,Charge,Category
Abdominal/Peritoneal/Biliary and Related Procedures,1909.635,DRG
Level 2 Excision/ Biopsy/ Incision and Drainage,947.854545454545,DRG
Level 3 Excision/ Biopsy/ Incision and Drainage,1640.14049999999,DRG
Level 2 Breast/Lymphatic Surgery and Related Procedures,3399.26,DRG
Level 2 Musculoskeletal Procedures,919.5814285714281,DRG
Level 4 Musculoskeletal Procedures,3572.2517647058794,DRG
 MAJOR HIP AND KNEE JOINT REPLACEMENT OR REATTACHMENT OF LOWER EXTREM,11585.670213,Standard
Level 4 Airway Endoscopy,1848.43,DRG
Level 5 Airway Endoscopy,3234.06117647058,DRG
Level 5 ENT Procedures,2853.67655172413,DRG
Level 2 Upper GI Procedures,979.945774647887,DRG
"Level 3 Extraocular, Repair, and Plastic Eye Procedures",1279.5999999999901,DRG
Level 2 Intraocular Procedures,2446.18428571428,DRG
Level 3 Lower GI Procedures,1533.6,DRG
Level 3 Musculoskeletal Procedures,1764.6047126436702,DRG
Level 4 ENT Procedures,1553.48,DRG
Level 1 Breast/Lymphatic Surgery and Related Procedures,1927.02999999999,DRG
Level 1 Nerve Procedures,1094.69836363636,DRG
Level 2 Laparoscopy and Related Services,5393.85,DRG
Level 1 Laparoscopy and Related Services,3026.8159090909003,DRG
Level 1 Intraocular Procedures,1318.66027002702,DRG
