Description,Charge,Category
Level 4 Gynecologic Procedures,1327.72764705882,DRG
 COAGULATION DISORDERS,10027.272727,Standard
 HIP & FEMUR PROCEDURES EXCEPT MAJOR JOINT W MCC,17567.807692,Standard
 MAJOR HIP AND KNEE JOINT REPLACEMENT OR REATTACHMENT OF LOWER EXTREM,11853.5,Standard
 COMBINED ANTERIOR/POSTERIOR SPINAL FUSION W/O CC/MCC,42374.714286,Standard
 COMBINED ANTERIOR/POSTERIOR SPINAL FUSION W CC,58197.11764700001,Standard
 DISORDERS OF PANCREAS EXCEPT MALIGNANCY W CC,5444.9333333,Standard
 OTHER DIGESTIVE SYSTEM DIAGNOSES W CC,5762.357142899999,Standard
" ""ESOPHAGITIS, GASTROENT & MISC DIGEST DISORDERS W/O MCC""",4935.6764706,Standard
" ESOPHAGITIS, GASTROENT & MISC DIGEST DISORDERS W MCC",7937.4285714,Standard
 G.I. OBSTRUCTION W/O CC/MCC,4411.363636399999,Standard
 G.I. OBSTRUCTION W CC,5338.235294100001,Standard
 G.I. HEMORRHAGE W/O CC/MCC,4103.1666667,Standard
 RED BLOOD CELL DISORDERS W MCC,10010.095238,Standard
Level 1 Nerve Procedures,1137.71,DRG
Level 5 Urology and Related Services,2588.03325301204,DRG
 G.I. HEMORRHAGE W CC,5905.9245283,Standard
 G.I. HEMORRHAGE W MCC,9839.0,Standard
Level 5 Gynecologic Procedures,2735.94758620689,DRG
 MAJOR SMALL & LARGE BOWEL PROCEDURES W CC,14412.454544999999,Standard
 MAJOR SMALL & LARGE BOWEL PROCEDURES W/O CC/MCC,9570.9166667,Standard
 MAJOR GASTROINTESTINAL DISORDERS & PERITONEAL INFECTIONS W MCC,10160.0,Standard
 MAJOR GASTROINTESTINAL DISORDERS & PERITONEAL INFECTIONS W CC,6426.347826100001,Standard
 RED BLOOD CELL DISORDERS W/O MCC,5394.6111111,Standard
Level 2 Upper GI Procedures,978.7586301369851,DRG
 HIP & FEMUR PROCEDURES EXCEPT MAJOR JOINT W/O CC/MCC,9650.4166667,Standard
 RENAL FAILURE W CC,5875.9259259,Standard
 KIDNEY & URINARY TRACT INFECTIONS W MCC,6492.6440678,Standard
 KIDNEY & URINARY TRACT INFECTIONS W/O MCC,5027.0545455,Standard
 URINARY STONES W/O ESW LITHOTRIPSY W/O MCC,5000.3846154,Standard
 OTHER KIDNEY & URINARY TRACT DIAGNOSES W MCC,9470.0,Standard
 MAJOR HEMATOL/IMMUN DIAG EXC SICKLE CELL CRISIS & COAGUL W MCC,11963.176470999999,Standard
 MAJOR HEMATOL/IMMUN DIAG EXC SICKLE CELL CRISIS & COAGUL W CC,6984.6875,Standard
Level 1 Laparoscopy and Related Services,3119.14436507937,DRG
Level 2 Laparoscopy and Related Services,5008.575,DRG
Level 3 Urology and Related Services,1164.60555555555,DRG
 RENAL FAILURE W MCC,9524.682539700001,Standard
 OTHER KIDNEY & URINARY TRACT PROCEDURES W MCC,19798.916666999998,Standard
 HIP & FEMUR PROCEDURES EXCEPT MAJOR JOINT W CC,11850.2,Standard
" ""MISC DISORDERS OF NUTRITION,METABOLISM,FLUIDS/ELECTROLYTES W/O MCC""",4968.875,Standard
 DIABETES W CC,5238.222222199999,Standard
 DIABETES W MCC,7827.25,Standard
 CELLULITIS W/O MCC,5230.0684931999995,Standard
Abdominal/Peritoneal/Biliary and Related Procedures,2056.53,DRG
Level 4 Urology and Related Services,1587.55,DRG
 INFECTIOUS & PARASITIC DISEASES W O.R. PROCEDURE W MCC,28454.421053,Standard
Level 3 Pacemaker and Similar Procedures,7294.6499999999905,DRG
 CELLULITIS W MCC,8722.8461538,Standard
" FX, SPRN, STRN & DISL EXCEPT FEMUR, HIP, PELVIS & THIGH W/O MCC",5107.2142857,Standard
 MEDICAL BACK PROBLEMS W/O MCC,5519.4210526,Standard
 FRACTURES OF HIP & PELVIS W/O MCC,4492.636363600001,Standard
" LOWER EXTREM & HUMER PROC EXCEPT HIP,FOOT,FEMUR W CC",12897.789474,Standard
" MISC DISORDERS OF NUTRITION,METABOLISM,FLUIDS/ELECTROLYTES W MCC",7425.655172399999,Standard
 INFECTIOUS & PARASITIC DISEASES W O.R. PROCEDURE W CC,15091.538462,Standard
 RESPIRATORY INFECTIONS & INFLAMMATIONS W MCC,10818.333333,Standard
 SEPTICEMIA OR SEVERE SEPSIS W MV >96 HOURS OR PERIPHERAL EXTRACORPOR,29102.714286000002,Standard
 OTHER CIRCULATORY SYSTEM O.R. PROCEDURES,21180.944444,Standard
" ""ACUTE MYOCARDIAL INFARCTION, DISCHARGED ALIVE W MCC""",9689.1326531,Standard
" ACUTE MYOCARDIAL INFARCTION, DISCHARGED ALIVE W CC",5701.3888889,Standard
" ""ACUTE MYOCARDIAL INFARCTION, DISCHARGED ALIVE W/O CC/MCC""",4663.2692308,Standard
Level 3 Excision/ Biopsy/ Incision and Drainage,1545.74117647058,DRG
Level 2 Excision/ Biopsy/ Incision and Drainage,924.434444444445,DRG
 OTHER VASCULAR PROCEDURES W CC,14408.833333,Standard
 PULMONARY EMBOLISM W MCC,8959.7894737,Standard
" ""CIRCULATORY DISORDERS EXCEPT AMI, W CARD CATH W MCC""",13766.317072999998,Standard
" CIRCULATORY DISORDERS EXCEPT AMI, W CARD CATH W/O MCC",7061.9527559,Standard
 HEART FAILURE & SHOCK W MCC,8585.7195122,Standard
 HEART FAILURE & SHOCK W CC,5851.75,Standard
 HEART FAILURE & SHOCK W/O CC/MCC,4222.380952400001,Standard
 PERIPHERAL VASCULAR DISORDERS W MCC,8914.357142899999,Standard
 OTHER RESP SYSTEM O.R. PROCEDURES W MCC,20673.333333000002,Standard
 OTHER VASCULAR PROCEDURES W MCC,18655.32,Standard
 PERC CARDIOVASC PROC W/O CORONARY ARTERY STENT W/O MCC,11979.615385,Standard
 PERC CARDIOVASC PROC W NON,11402.882353,Standard
 PULMONARY EDEMA & RESPIRATORY FAILURE,7760.5185185,Standard
 CHRONIC OBSTRUCTIVE PULMONARY DISEASE W MCC,7077.8807947,Standard
 CHRONIC OBSTRUCTIVE PULMONARY DISEASE W CC,5779.586956499999,Standard
 CHRONIC OBSTRUCTIVE PULMONARY DISEASE W/O CC/MCC,4567.9230769,Standard
 SIMPLE PNEUMONIA & PLEURISY W MCC,8078.848275900001,Standard
 SIMPLE PNEUMONIA & PLEURISY W CC,6105.0357143,Standard
 SIMPLE PNEUMONIA & PLEURISY W/O CC/MCC,4377.3333333,Standard
 BRONCHITIS & ASTHMA W CC/MCC,5678.1818182,Standard
 RESPIRATORY SYSTEM DIAGNOSIS W VENTILATOR SUPPORT >96 HOURS,28912.916667,Standard
 RESPIRATORY SYSTEM DIAGNOSIS W VENTILATOR SUPPORT <=96 HOURS,13678.441175999998,Standard
 PERMANENT CARDIAC PACEMAKER IMPLANT W MCC,21953.538462,Standard
 PERMANENT CARDIAC PACEMAKER IMPLANT W CC,14431.285713999998,Standard
Level 1 Breast/Lymphatic Surgery and Related Procedures,1927.02999999999,DRG
 PERC CARDIOVASC PROC W DRUG,12825.847222,Standard
 PERCUTANEOUS CARDIOVASCULAR PROCEDURES W NON,19063.578946999998,Standard
 PERIPHERAL VASCULAR DISORDERS W CC,5986.2692308,Standard
 POSTOPERATIVE & POST,6112.5833333,Standard
 PERIPHERAL VASCULAR DISORDERS W/O CC/MCC,4614.3125,Standard
 ATHEROSCLEROSIS W/O MCC,4206.8490566,Standard
Level 2 Endovascular Procedures,3453.3392592592604,DRG
Level 3 Endovascular Procedures,7678.50821052629,DRG
 OTHER CIRCULATORY SYSTEM DIAGNOSES W CC,5858.4117647,Standard
 MAJOR SMALL & LARGE BOWEL PROCEDURES W MCC,30171.2,Standard
 TRANSIENT ISCHEMIA W/O THROMBOLYTIC,4765.8333333,Standard
 PULMONARY EMBOLISM W/O MCC,5539.8823529,Standard
Level 1 Endovascular Procedures,1686.4801775148,DRG
Level 5 ENT Procedures,2758.5539999999896,DRG
 EXTENSIVE O.R. PROCEDURE UNRELATED TO PRINCIPAL DIAGNOSIS W CC,14058.333333,Standard
 EXTENSIVE O.R. PROCEDURE UNRELATED TO PRINCIPAL DIAGNOSIS W MCC,25259.829268,Standard
 SIGNS & SYMPTOMS W/O MCC,4819.2,Standard
 POISONING & TOXIC EFFECTS OF DRUGS W MCC,8185.363636399999,Standard
 SEPTICEMIA OR SEVERE SEPSIS W/O MV >96 HOURS W/O MCC,6448.9354839,Standard
 SEPTICEMIA OR SEVERE SEPSIS W/O MV >96 HOURS W MCC,10907.135134999999,Standard
 EXTRACRANIAL PROCEDURES W/O CC/MCC,6630.3529412,Standard
Level 3 Airway Endoscopy,897.039583333333,DRG
Level 5 Musculoskeletal Procedures,7262.6,DRG
Level 4 Musculoskeletal Procedures,3815.70961038961,DRG
 HYPERTENSION W MCC,6395.8,Standard
 HYPERTENSION W/O MCC,4370.8260869999995,Standard
 CARDIAC ARRHYTHMIA & CONDUCTION DISORDERS W MCC,6951.0714286,Standard
 CARDIAC ARRHYTHMIA & CONDUCTION DISORDERS W CC,4869.311475399999,Standard
 CARDIAC ARRHYTHMIA & CONDUCTION DISORDERS W/O CC/MCC,3630.6756757,Standard
 ANGINA PECTORIS,4270.5384615,Standard
 SYNCOPE & COLLAPSE,4923.142857100001,Standard
 CHEST PAIN,4428.8846154,Standard
 OTHER CIRCULATORY SYSTEM DIAGNOSES W MCC,11261.354839,Standard
Level 2 Breast/Lymphatic Surgery and Related Procedures,3399.26,DRG
Level 2 Musculoskeletal Procedures,935.833333333333,DRG
Comprehensive Observation Services,1624.8283895130899,DRG
Level 3 Neurostimulator and Related Procedures,13975.5375,DRG
Level 2 Neurostimulator and Related Procedures,4006.90774193548,DRG
Level 3 Musculoskeletal Procedures,1764.85499999999,DRG
 ATHEROSCLEROSIS W MCC,6551.8181818,Standard
 PERCUTANEOUS CARDIOVASCULAR PROCEDURES W DRUG,19091.717647,Standard
