Description,Charge,Category
 PULMONARY EDEMA & RESPIRATORY FAILURE,7582.475,Standard
 KIDNEY & URINARY TRACT INFECTIONS W/O MCC,5138.5,Standard
 CHRONIC OBSTRUCTIVE PULMONARY DISEASE W CC,5884.095238100001,Standard
 SIMPLE PNEUMONIA & PLEURISY W MCC,8424.875,Standard
 SIMPLE PNEUMONIA & PLEURISY W CC,6013.6923077,Standard
 HEART FAILURE & SHOCK W MCC,8964.3870968,Standard
 CARDIAC ARRHYTHMIA & CONDUCTION DISORDERS W/O CC/MCC,3841.1666666999995,Standard
 MAJOR HIP AND KNEE JOINT REPLACEMENT OR REATTACHMENT OF LOWER EXTREM,12543.265306000001,Standard
 RESPIRATORY INFECTIONS & INFLAMMATIONS W MCC,10942.75,Standard
" ""MISC DISORDERS OF NUTRITION,METABOLISM,FLUIDS/ELECTROLYTES W/O MCC""",4788.8461538,Standard
 CHRONIC OBSTRUCTIVE PULMONARY DISEASE W MCC,7119.8,Standard
 RENAL FAILURE W CC,5896.4444444,Standard
Comprehensive Observation Services,1487.22795348837,DRG
Level 5 Urology and Related Services,2440.41999999999,DRG
 SEPTICEMIA OR SEVERE SEPSIS W/O MV >96 HOURS W MCC,10836.75,Standard
Level 1 Laparoscopy and Related Services,2744.65285714285,DRG
Level 3 Urology and Related Services,1116.5999999999901,DRG
Level 4 Urology and Related Services,1627.8166666666598,DRG
