Description,Charge,Category
 CHRONIC OBSTRUCTIVE PULMONARY DISEASE W/O CC/MCC,9676.8,Standard
 CHRONIC OBSTRUCTIVE PULMONARY DISEASE W CC,12235.384615,Standard
" ""ESOPHAGITIS, GASTROENT & MISC DIGEST DISORDERS W/O MCC""",10107.833333,Standard
