Description,Charge,Category
Level 2 Excision/ Biopsy/ Incision and Drainage,1180.5580645161301,DRG
Comprehensive Observation Services,2114.9109013605303,DRG
Level 1 Intraocular Procedures,1720.7155893536099,DRG
Level 4 Gynecologic Procedures,1885.36333333333,DRG
Level 5 Urology and Related Services,3284.05425742573,DRG
Level 3 Urology and Related Services,1528.60133333333,DRG
Level 2 Laparoscopy and Related Services,7051.240625,DRG
Level 1 Laparoscopy and Related Services,3864.8726213592204,DRG
Abdominal/Peritoneal/Biliary and Related Procedures,2488.20392857142,DRG
Level 2 Endovascular Procedures,4294.92866666666,DRG
Level 1 Endovascular Procedures,2203.55,DRG
Level 5 ENT Procedures,3552.4661904761897,DRG
Level 5 Airway Endoscopy,4210.47478260869,DRG
Level 4 Airway Endoscopy,2367.88,DRG
Level 5 Musculoskeletal Procedures,9852.565,DRG
Level 4 Musculoskeletal Procedures,5051.87555555555,DRG
Level 3 Musculoskeletal Procedures,2392.9880434782604,DRG
Level 2 Musculoskeletal Procedures,1221.64,DRG
Level 2 Breast/Lymphatic Surgery and Related Procedures,4354.53999999999,DRG
Level 1 Breast/Lymphatic Surgery and Related Procedures,2331.43666666666,DRG
Level 3 Excision/ Biopsy/ Incision and Drainage,2103.9,DRG
Level 3 Endovascular Procedures,10576.1799999999,DRG
Level 4 Urology and Related Services,2400.77096774193,DRG
 INTRACRANIAL HEMORRHAGE OR CEREBRAL INFARCTION W MCC,17750.733333,Standard
 O.R. PROCEDURES FOR OBESITY W/O CC/MCC,14986.181818000001,Standard
 G.I. OBSTRUCTION W CC,8019.8125,Standard
 SPINAL FUSION EXCEPT CERVICAL W/O MCC,37613.181818,Standard
 MAJOR HIP AND KNEE JOINT REPLACEMENT OR REATTACHMENT OF LOWER EXTREM,30020.285713999998,Standard
 MAJOR HIP AND KNEE JOINT REPLACEMENT OR REATTACHMENT OF LOWER EXTREM,19647.888888999998,Standard
 HIP & FEMUR PROCEDURES EXCEPT MAJOR JOINT W CC,19216.75,Standard
 MAJOR JOINT/LIMB REATTACHMENT PROCEDURE OF UPPER EXTREMITIES,23625.956522,Standard
 CELLULITIS W MCC,13580.307691999998,Standard
 CELLULITIS W/O MCC,7995.9354839,Standard
 PSYCHOSES,11916.308824,Standard
 DIABETES W CC,7989.307692300001,Standard
 G.I. HEMORRHAGE W CC,9112.030303,Standard
" ""MISC DISORDERS OF NUTRITION,METABOLISM,FLUIDS/ELECTROLYTES W/O MCC""",7017.0769231,Standard
 RENAL FAILURE W CC,8905.8125,Standard
 KIDNEY & URINARY TRACT INFECTIONS W MCC,10115.588235,Standard
 KIDNEY & URINARY TRACT INFECTIONS W/O MCC,7473.466666699999,Standard
 OTHER KIDNEY & URINARY TRACT DIAGNOSES W MCC,14875.0,Standard
 CHEMOTHERAPY W/O ACUTE LEUKEMIA AS SECONDARY DIAGNOSIS W CC,12218.6,Standard
 SEPTICEMIA OR SEVERE SEPSIS W/O MV >96 HOURS W MCC,17257.209945,Standard
 SEPTICEMIA OR SEVERE SEPSIS W/O MV >96 HOURS W/O MCC,10250.243902,Standard
 ALCOHOL/DRUG ABUSE OR DEPENDENCE W/O REHABILITATION THERAPY W/O MCC,7416.0769231,Standard
 POISONING & TOXIC EFFECTS OF DRUGS W MCC,13159.363636,Standard
 INTRACRANIAL HEMORRHAGE OR CEREBRAL INFARCTION W CC OR TPA IN 24 HRS,9678.1212121,Standard
 RENAL FAILURE W MCC,13884.5,Standard
 G.I. HEMORRHAGE W MCC,17596.24,Standard
" ""ESOPHAGITIS, GASTROENT & MISC DIGEST DISORDERS W/O MCC""",7138.3030303000005,Standard
 SYNCOPE & COLLAPSE,7485.5,Standard
 INTRACRANIAL HEMORRHAGE OR CEREBRAL INFARCTION W/O CC/MCC,7022.0714286,Standard
 TRANSIENT ISCHEMIA W/O THROMBOLYTIC,7066.8235294,Standard
 PULMONARY EMBOLISM W MCC,14058.866666999998,Standard
 PULMONARY EMBOLISM W/O MCC,8787.3846154,Standard
 RESPIRATORY INFECTIONS & INFLAMMATIONS W MCC,17265.923077,Standard
 PULMONARY EDEMA & RESPIRATORY FAILURE,11442.113208,Standard
 CHRONIC OBSTRUCTIVE PULMONARY DISEASE W MCC,10822.594595,Standard
 CHRONIC OBSTRUCTIVE PULMONARY DISEASE W CC,8619.3846154,Standard
 MAJOR SMALL & LARGE BOWEL PROCEDURES W CC,23148.0,Standard
 SIMPLE PNEUMONIA & PLEURISY W MCC,12886.488889,Standard
 SIMPLE PNEUMONIA & PLEURISY W CC,8772.3913043,Standard
 RESPIRATORY SYSTEM DIAGNOSIS W VENTILATOR SUPPORT <=96 HOURS,22129.608696,Standard
 CHRONIC OBSTRUCTIVE PULMONARY DISEASE W/O CC/MCC,6823.533333300001,Standard
 PERC CARDIOVASC PROC W DRUG,20656.25,Standard
 CARDIAC ARRHYTHMIA & CONDUCTION DISORDERS W/O CC/MCC,5294.357142899999,Standard
 PERCUTANEOUS CARDIOVASCULAR PROCEDURES W DRUG,31352.75,Standard
 CARDIAC ARRHYTHMIA & CONDUCTION DISORDERS W MCC,11162.236842,Standard
 HEART FAILURE & SHOCK W CC,9001.75,Standard
 CARDIAC ARRHYTHMIA & CONDUCTION DISORDERS W CC,7550.7241379,Standard
" CIRCULATORY DISORDERS EXCEPT AMI, W CARD CATH W/O MCC",11003.882353,Standard
" ""ACUTE MYOCARDIAL INFARCTION, DISCHARGED ALIVE W/O CC/MCC""",7135.307692300001,Standard
" ACUTE MYOCARDIAL INFARCTION, DISCHARGED ALIVE W CC",9708.3111111,Standard
" ""ACUTE MYOCARDIAL INFARCTION, DISCHARGED ALIVE W MCC""",16113.309091,Standard
 HEART FAILURE & SHOCK W MCC,13954.158730000001,Standard
