Description,Charge,Category
" ""TRAUMATIC STUPOR & COMA, COMA <1 HR W CC""",8962.785714299998,Standard
 OTHER RESP SYSTEM O.R. PROCEDURES W MCC,31513.2,Standard
" TRAUMATIC STUPOR & COMA, COMA <1 HR W/O CC/MCC",6492.4615385,Standard
 OTHER CIRCULATORY SYSTEM DIAGNOSES W CC,7619.95,Standard
 OTHER CIRCULATORY SYSTEM DIAGNOSES W MCC,14597.25,Standard
 MAJOR CHEST TRAUMA W MCC,12179.727273,Standard
 RESPIRATORY NEOPLASMS W MCC,13186.928570999999,Standard
 OTHER DISORDERS OF NERVOUS SYSTEM W CC,7130.555555600001,Standard
 SEIZURES W MCC,14691.178571,Standard
 SEIZURES W/O MCC,6431.2058824,Standard
 RESPIRATORY INFECTIONS & INFLAMMATIONS W CC,9479.0,Standard
 RESPIRATORY INFECTIONS & INFLAMMATIONS W MCC,13467.446809000001,Standard
 PULMONARY EMBOLISM W MCC,10740.636364,Standard
 DYSEQUILIBRIUM,5628.363636399999,Standard
 MAJOR CHEST PROCEDURES W MCC,34043.666667000005,Standard
 MAJOR CHEST PROCEDURES W CC,20636.3125,Standard
" STOMACH, ESOPHAGEAL & DUODENAL PROC W MCC",38585.1875,Standard
 OTHER DISORDERS OF NERVOUS SYSTEM W MCC,11689.555556,Standard
 COMPLICATIONS OF TREATMENT W CC,9856.25,Standard
 REVISION OF HIP OR KNEE REPLACEMENT W/O CC/MCC,20124.421053000002,Standard
 BACK & NECK PROC EXC SPINAL FUSION W CC,13520.978722999998,Standard
 BACK & NECK PROC EXC SPINAL FUSION W MCC OR DISC DEVICE/NEUROSTIM,22922.0,Standard
 OTHER MUSCULOSKELET SYS & CONN TISS O.R. PROC W/O CC/MCC,10598.666667,Standard
 SOFT TISSUE PROCEDURES W/O CC/MCC,10663.583333,Standard
" ""LOWER EXTREM & HUMER PROC EXCEPT HIP,FOOT,FEMUR W/O CC/MCC""",16876.478261,Standard
" LOWER EXTREM & HUMER PROC EXCEPT HIP,FOOT,FEMUR W CC",17260.173913,Standard
 MAJOR JOINT/LIMB REATTACHMENT PROCEDURE OF UPPER EXTREMITIES,19235.662651,Standard
 HIP & FEMUR PROCEDURES EXCEPT MAJOR JOINT W/O CC/MCC,14844.090909,Standard
 REVISION OF HIP OR KNEE REPLACEMENT W CC,26800.294118,Standard
 MAJOR SMALL & LARGE BOWEL PROCEDURES W MCC,40886.883721,Standard
 HIP & FEMUR PROCEDURES EXCEPT MAJOR JOINT W MCC,21089.2,Standard
 CERVICAL SPINAL FUSION W/O CC/MCC,18388.636363999998,Standard
 SIGNS & SYMPTOMS W/O MCC,6086.8125,Standard
 EXTENSIVE O.R. PROCEDURE UNRELATED TO PRINCIPAL DIAGNOSIS W MCC,41178.285714,Standard
 EXTENSIVE O.R. PROCEDURE UNRELATED TO PRINCIPAL DIAGNOSIS W CC,18246.909091,Standard
 CERVICAL SPINAL FUSION W CC,23306.304347999998,Standard
 MAJOR HIP AND KNEE JOINT REPLACEMENT OR REATTACHMENT OF LOWER EXTREM,16583.904494,Standard
 MAJOR HIP AND KNEE JOINT REPLACEMENT OR REATTACHMENT OF LOWER EXTREM,21822.166666999998,Standard
 HIP & FEMUR PROCEDURES EXCEPT MAJOR JOINT W CC,14975.03125,Standard
 MAJOR SMALL & LARGE BOWEL PROCEDURES W CC,18829.171428999998,Standard
 CRANIOTOMY & ENDOVASCULAR INTRACRANIAL PROCEDURES W CC,28786.769231000002,Standard
 MAJOR GASTROINTESTINAL DISORDERS & PERITONEAL INFECTIONS W MCC,18636.5,Standard
 OTHER VASCULAR PROCEDURES W CC,19907.717949,Standard
 OTHER VASCULAR PROCEDURES W MCC,29179.27907,Standard
 PERC CARDIOVASC PROC W DRUG,16075.026316,Standard
 PERCUTANEOUS CARDIOVASCULAR PROCEDURES W DRUG,26148.42,Standard
 PERMANENT CARDIAC PACEMAKER IMPLANT W CC,20672.666666999998,Standard
 PERMANENT CARDIAC PACEMAKER IMPLANT W MCC,26568.375,Standard
 CORONARY BYPASS W/O CARDIAC CATH W/O MCC,32852.107143,Standard
 CORONARY BYPASS W/O CARDIAC CATH W MCC,48036.2,Standard
 CORONARY BYPASS W CARDIAC CATH W/O MCC,48557.428571,Standard
 CORONARY BYPASS W CARDIAC CATH W MCC,86618.06666699999,Standard
 DISORDERS OF PANCREAS EXCEPT MALIGNANCY W CC,8177.2307692,Standard
" ""DISORDERS OF LIVER EXCEPT MALIG,CIRR,ALC HEPA W MCC""",14646.388888999998,Standard
" DISORDERS OF LIVER EXCEPT MALIG,CIRR,ALC HEPA W CC",7030.8461538,Standard
 DISORDERS OF THE BILIARY TRACT W MCC,11768.210526,Standard
 CARDIAC VALVE & OTH MAJ CARDIOTHORACIC PROC W/O CARD CATH W MCC,93070.571429,Standard
 RESPIRATORY SYSTEM DIAGNOSIS W VENTILATOR SUPPORT <=96 HOURS,18537.384615,Standard
 BRONCHITIS & ASTHMA W CC/MCC,7133.95,Standard
 PNEUMOTHORAX W CC,8749.9166667,Standard
 SIMPLE PNEUMONIA & PLEURISY W CC,7517.1020408,Standard
 SIMPLE PNEUMONIA & PLEURISY W MCC,10698.897959,Standard
 CHRONIC OBSTRUCTIVE PULMONARY DISEASE W/O CC/MCC,5779.2307692,Standard
 COMBINED ANTERIOR/POSTERIOR SPINAL FUSION W CC,54425.039216,Standard
 DISORDERS OF THE BILIARY TRACT W CC,8728.875,Standard
 OTHER VASCULAR PROCEDURES W/O CC/MCC,15671.380952000001,Standard
 MAJOR SMALL & LARGE BOWEL PROCEDURES W/O CC/MCC,13280.615385,Standard
 ENDOVASCULAR CARDIAC VALVE REPLACEMENT W MCC,57319.692308000005,Standard
 AORTIC AND HEART ASSIST PROCEDURES EXCEPT PULSATION BALLOON W/O MCC,29393.095237999998,Standard
 BILATERAL OR MULTIPLE MAJOR JOINT PROCS OF LOWER EXTREMITY W/O MCC,31177.827586000003,Standard
 SPINAL FUSION EXCEPT CERVICAL W/O MCC,32502.583333,Standard
 COMBINED ANTERIOR/POSTERIOR SPINAL FUSION W/O CC/MCC,39042.279412,Standard
 MAJOR GASTROINTESTINAL DISORDERS & PERITONEAL INFECTIONS W CC,7919.05,Standard
 DIGESTIVE MALIGNANCY W CC,10695.076923,Standard
 G.I. HEMORRHAGE W MCC,12996.020833,Standard
 G.I. HEMORRHAGE W CC,7749.6535433,Standard
 G.I. OBSTRUCTION W CC,7558.857142899999,Standard
 G.I. OBSTRUCTION W/O CC/MCC,4893.8181818,Standard
" ESOPHAGITIS, GASTROENT & MISC DIGEST DISORDERS W MCC",11197.0,Standard
" ""ESOPHAGITIS, GASTROENT & MISC DIGEST DISORDERS W/O MCC""",6223.3125,Standard
 OTHER DIGESTIVE SYSTEM DIAGNOSES W MCC,12023.590909,Standard
 OTHER DIGESTIVE SYSTEM DIAGNOSES W CC,7235.5652174,Standard
 LAPAROSCOPIC CHOLECYSTECTOMY W/O C.D.E. W MCC,20852.833333000002,Standard
 LAPAROSCOPIC CHOLECYSTECTOMY W/O C.D.E. W CC,13235.411765,Standard
 LAPAROSCOPIC CHOLECYSTECTOMY W/O C.D.E. W/O CC/MCC,9722.1666667,Standard
 CIRRHOSIS & ALCOHOLIC HEPATITIS W MCC,13591.931034000001,Standard
 PULMONARY EDEMA & RESPIRATORY FAILURE,9552.625850299999,Standard
 MALIGNANCY OF HEPATOBILIARY SYSTEM OR PANCREAS W MCC,12209.181818000001,Standard
 CHRONIC OBSTRUCTIVE PULMONARY DISEASE W MCC,8503.8604651,Standard
 CHRONIC OBSTRUCTIVE PULMONARY DISEASE W CC,7072.6756757,Standard
Level 2 Neurostimulator and Related Procedures,4427.75214285714,DRG
 OTHER MAJOR CARDIOVASCULAR PROCEDURES W MCC,40657.190475999996,Standard
 ENDOVASCULAR CARDIAC VALVE REPLACEMENT W/O MCC,42651.916667000005,Standard
 BACK & NECK PROC EXC SPINAL FUSION W/O CC/MCC,10241.636364,Standard
 INTRACRANIAL HEMORRHAGE OR CEREBRAL INFARCTION W CC OR TPA IN 24 HRS,8319.0595238,Standard
 PATHOLOGICAL FRACTURES & MUSCULOSKELET & CONN TISS MALIG W CC,7953.0,Standard
 BONE DISEASES & ARTHROPATHIES W/O MCC,5942.5,Standard
 MEDICAL BACK PROBLEMS W/O MCC,8088.555555600001,Standard
" ""ACUTE MYOCARDIAL INFARCTION, DISCHARGED ALIVE W/O CC/MCC""",5991.75,Standard
" ACUTE MYOCARDIAL INFARCTION, EXPIRED W MCC",12772.571429000001,Standard
" ""CIRCULATORY DISORDERS EXCEPT AMI, W CARD CATH W MCC""",17275.741935,Standard
" CIRCULATORY DISORDERS EXCEPT AMI, W CARD CATH W/O MCC",9642.68,Standard
 HEART FAILURE & SHOCK W MCC,11624.558282,Standard
Level 4 Urology and Related Services,2298.7378888888898,DRG
Level 5 Urology and Related Services,3088.56152173913,DRG
 KIDNEY & URETER PROCEDURES FOR NON,12968.363636,Standard
 TRANSURETHRAL PROCEDURES W CC,11249.333333,Standard
Level 4 Gynecologic Procedures,1876.46129032258,DRG
Level 1 Nerve Procedures,1374.0,DRG
 OTHER KIDNEY & URINARY TRACT PROCEDURES W MCC,31793.647059,Standard
 RENAL FAILURE W MCC,11392.205128,Standard
 RENAL FAILURE W CC,7386.021739100001,Standard
 RENAL FAILURE W/O CC/MCC,5810.636363600001,Standard
 SEPTICEMIA OR SEVERE SEPSIS W MV >96 HOURS OR PERIPHERAL EXTRACORPOR,74292.785714,Standard
 POSTOPERATIVE OR POST,34429.363636,Standard
 INFECTIOUS & PARASITIC DISEASES W O.R. PROCEDURE W CC,16256.5,Standard
 INFECTIOUS & PARASITIC DISEASES W O.R. PROCEDURE W MCC,44869.678571,Standard
 COAGULATION DISORDERS,12613.357143000001,Standard
 RED BLOOD CELL DISORDERS W/O MCC,6835.217391300001,Standard
Level 3 Urology and Related Services,1419.70733333333,DRG
 UTERINE & ADNEXA PROC FOR NON,8571.5,Standard
 UTERINE & ADNEXA PROC FOR OVARIAN OR ADNEXAL MALIGNANCY W CC,17242.555556,Standard
 FRACTURES OF HIP & PELVIS W/O MCC,6963.5714286,Standard
 OTHER KIDNEY & URINARY TRACT DIAGNOSES W MCC,11684.875,Standard
 URINARY STONES W/O ESW LITHOTRIPSY W/O MCC,7046.785714300001,Standard
 KIDNEY & URINARY TRACT INFECTIONS W/O MCC,6418.1276596,Standard
 KIDNEY & URINARY TRACT INFECTIONS W MCC,7953.95,Standard
" UTERINE,ADNEXA PROC FOR NON",14177.416667,Standard
 SEPTICEMIA OR SEVERE SEPSIS W/O MV >96 HOURS W MCC,15057.533653999999,Standard
" FX, SPRN, STRN & DISL EXCEPT FEMUR, HIP, PELVIS & THIGH W/O MCC",6226.5882353,Standard
 CELLULITIS W MCC,10986.0,Standard
 CRANIOTOMY & ENDOVASCULAR INTRACRANIAL PROCEDURES W MCC,41040.135135000004,Standard
  CRANIOTOMY W MAJOR DEVICE IMPLANT OR ACUTE COMPLEX CNS PDX W MCC OR,42418.166667000005,Standard
Level 3 Airway Endoscopy,1106.72379999999,DRG
Level 4 Airway Endoscopy,2199.4819117647,DRG
Level 5 Airway Endoscopy,3976.94916666666,DRG
Level 5 ENT Procedures,3595.87885714285,DRG
Level 1 Endovascular Procedures,2031.5545652173998,DRG
Level 2 Endovascular Procedures,4263.2721476510105,DRG
Level 3 Endovascular Procedures,9769.47229299365,DRG
Level 4 Endovascular Procedures,15771.52,DRG
Level 2 Electrophysiologic Procedures,4527.75666666666,DRG
Level 3 Electrophysiologic Procedures,18174.5544444444,DRG
Level 2 Pacemaker and Similar Procedures,6434.602241379301,DRG
Level 3 Pacemaker and Similar Procedures,8907.73846153847,DRG
Level 4 Pacemaker and Similar Procedures,16817.7696428571,DRG
Level 2 ICD and Similar Procedures,30286.0586486486,DRG
Level 2 Upper GI Procedures,1184.24956896551,DRG
 CELLULITIS W/O MCC,6933.3538462,Standard
" ""TRAUMA TO THE SKIN, SUBCUT TISS & BREAST W/O MCC""",6598.9090909,Standard
" ""AMPUTAT OF LOWER LIMB FOR ENDOCRINE,NUTRIT,& METABOL DIS W CC""",16382.529412,Standard
 DIABETES W MCC,15936.103447999998,Standard
 DIABETES W CC,6978.793103399999,Standard
" MISC DISORDERS OF NUTRITION,METABOLISM,FLUIDS/ELECTROLYTES W MCC",8890.493333299999,Standard
" OTHER SKIN, SUBCUT TISS & BREAST PROC W CC",11112.529412,Standard
" ""MISC DISORDERS OF NUTRITION,METABOLISM,FLUIDS/ELECTROLYTES W/O MCC""",6054.0588235,Standard
Level 2 Laparoscopy and Related Services,6719.23980198019,DRG
Level 1 Laparoscopy and Related Services,3691.8284285714294,DRG
Abdominal/Peritoneal/Biliary and Related Procedures,2422.3155555555604,DRG
Complex GI Procedures,3658.2858333333293,DRG
Level 3 Lower GI Procedures,1975.58,DRG
Level 3 Upper GI Procedures,2340.56,DRG
 KIDNEY & URETER PROCEDURES FOR NEOPLASM W/O CC/MCC,14405.909091,Standard
 SEPTICEMIA OR SEVERE SEPSIS W/O MV >96 HOURS W/O MCC,8345.3636364,Standard
 OTHER KIDNEY & URINARY TRACT DIAGNOSES W CC,7883.2413793,Standard
 OTHER O.R. PROCEDURES FOR INJURIES W MCC,37546.083332999995,Standard
 PERIPHERAL VASCULAR DISORDERS W MCC,12372.777778,Standard
 PERIPHERAL VASCULAR DISORDERS W CC,8538.4705882,Standard
Comprehensive Observation Services,1934.5531014492603,DRG
 ALCOHOL/DRUG ABUSE OR DEPENDENCE W/O REHABILITATION THERAPY W MCC,12618.909091,Standard
Level 7 Radiation Therapy,6755.11999999999,DRG
Level 2 Intraocular Procedures,3080.17476190476,DRG
Implantation of Drug Infusion Device,16219.8599999999,DRG
Level 4 Neurostimulator and Related Procedures,25715.658095238,DRG
 ATHEROSCLEROSIS W/O MCC,5348.7272727,Standard
 HYPERTENSION W MCC,9222.5454545,Standard
 HYPERTENSION W/O MCC,6297.0,Standard
 CARDIAC ARRHYTHMIA & CONDUCTION DISORDERS W MCC,8916.85,Standard
 CARDIAC ARRHYTHMIA & CONDUCTION DISORDERS W CC,6289.949152499999,Standard
 CARDIAC ARRHYTHMIA & CONDUCTION DISORDERS W/O CC/MCC,4989.3103448,Standard
 HEART FAILURE & SHOCK W/O CC/MCC,5419.5,Standard
 SYNCOPE & COLLAPSE,6906.9454545,Standard
Level 3 Neurostimulator and Related Procedures,18276.0499999999,DRG
 CRANIOTOMY & ENDOVASCULAR INTRACRANIAL PROCEDURES W/O CC/MCC,19957.3,Standard
 EXTRACRANIAL PROCEDURES W/O CC/MCC,10566.190476,Standard
 NERVOUS SYSTEM NEOPLASMS W MCC,10380.307692,Standard
 DEGENERATIVE NERVOUS SYSTEM DISORDERS W MCC,13934.818181999999,Standard
 DEGENERATIVE NERVOUS SYSTEM DISORDERS W/O MCC,10440.25,Standard
 INTRACRANIAL HEMORRHAGE OR CEREBRAL INFARCTION W MCC,13488.160919999998,Standard
 INTRACRANIAL HEMORRHAGE OR CEREBRAL INFARCTION W/O CC/MCC,7077.6969696999995,Standard
 TRANSIENT ISCHEMIA W/O THROMBOLYTIC,6518.222222199999,Standard
 NONSPECIFIC CEREBROVASCULAR DISORDERS W MCC,13012.565217,Standard
 NONSPECIFIC CEREBROVASCULAR DISORDERS W CC,8537.75,Standard
 CRANIAL & PERIPHERAL NERVE DISORDERS W/O MCC,7318.3333333,Standard
" TRAUMATIC STUPOR & COMA, COMA <1 HR W MCC",14526.0,Standard
 MEDICAL BACK PROBLEMS W MCC,12717.714286,Standard
 CHEST PAIN,6021.1463415,Standard
 HEART FAILURE & SHOCK W CC,7672.297872300001,Standard
 OTHER CIRCULATORY SYSTEM O.R. PROCEDURES,23840.733333,Standard
Level 1 Breast/Lymphatic Surgery and Related Procedures,2327.25,DRG
Level 3 Excision/ Biopsy/ Incision and Drainage,1912.61249999999,DRG
Level 2 Excision/ Biopsy/ Incision and Drainage,1139.37734513274,DRG
 POISONING & TOXIC EFFECTS OF DRUGS W MCC,11193.415094,Standard
Level 2 Breast/Lymphatic Surgery and Related Procedures,4105.25,DRG
" ""ACUTE MYOCARDIAL INFARCTION, DISCHARGED ALIVE W MCC""",12012.783784000001,Standard
" ACUTE MYOCARDIAL INFARCTION, DISCHARGED ALIVE W CC",7533.8333333,Standard
 OTHER O.R. PROCEDURES FOR INJURIES W CC,17913.176471000002,Standard
 POISONING & TOXIC EFFECTS OF DRUGS W/O MCC,5915.2272727,Standard
Level 5 Musculoskeletal Procedures,8705.01448275861,DRG
Level 4 Musculoskeletal Procedures,4551.6691935483705,DRG
Level 3 Musculoskeletal Procedures,2198.8828205128198,DRG
Level 2 Musculoskeletal Procedures,1151.7,DRG
 OTHER MAJOR CARDIOVASCULAR PROCEDURES W CC,26205.785713999998,Standard
