Description,Charge,Category
Level 3 Musculoskeletal Procedures,2163.7,DRG
 CHRONIC OBSTRUCTIVE PULMONARY DISEASE W MCC,9431.6666667,Standard
Level 1 Laparoscopy and Related Services,3511.93652173913,DRG
Level 1 Intraocular Procedures,1568.96068965517,DRG
 SEPTICEMIA OR SEVERE SEPSIS W/O MV >96 HOURS W/O MCC,8741.1818182,Standard
Comprehensive Observation Services,1922.05,DRG
