Description,Charge,Category
Level 1 Nerve Procedures,1352.28,DRG
 CHRONIC OBSTRUCTIVE PULMONARY DISEASE W MCC,11942.945946,Standard
 HIP & FEMUR PROCEDURES EXCEPT MAJOR JOINT W CC,21222.846154,Standard
Comprehensive Observation Services,1958.4818081180701,DRG
 SIMPLE PNEUMONIA & PLEURISY W MCC,14243.890909,Standard
 RENAL FAILURE W MCC,15355.384615,Standard
 KIDNEY & URINARY TRACT INFECTIONS W MCC,11163.090909,Standard
 HEART FAILURE & SHOCK W MCC,15280.955556,Standard
 INTRACRANIAL HEMORRHAGE OR CEREBRAL INFARCTION W CC OR TPA IN 24 HRS,10684.461538,Standard
 RESPIRATORY INFECTIONS & INFLAMMATIONS W MCC,20582.5625,Standard
Level 1 Intraocular Procedures,1530.0909090909,DRG
 PERC CARDIOVASC PROC W DRUG,22996.777778,Standard
 SEPTICEMIA OR SEVERE SEPSIS W/O MV >96 HOURS W MCC,18975.210526,Standard
 CARDIAC ARRHYTHMIA & CONDUCTION DISORDERS W MCC,13820.625,Standard
 MAJOR HIP AND KNEE JOINT REPLACEMENT OR REATTACHMENT OF LOWER EXTREM,21271.144330000003,Standard
Level 2 Excision/ Biopsy/ Incision and Drainage,1128.8983076923,DRG
Level 2 Breast/Lymphatic Surgery and Related Procedures,4040.36,DRG
Level 2 Musculoskeletal Procedures,1123.9353333333302,DRG
Level 3 Musculoskeletal Procedures,2097.70555555555,DRG
Level 4 Musculoskeletal Procedures,4707.51,DRG
Level 1 Endovascular Procedures,2044.55999999999,DRG
 SPINAL FUSION EXCEPT CERVICAL W/O MCC,43041.533333,Standard
 HEART FAILURE & SHOCK W CC,9918.090909100001,Standard
Level 2 Upper GI Procedures,1198.52,DRG
Abdominal/Peritoneal/Biliary and Related Procedures,2312.25135135135,DRG
 SEPTICEMIA OR SEVERE SEPSIS W/O MV >96 HOURS W/O MCC,11892.380952,Standard
Level 1 Laparoscopy and Related Services,3589.50476190476,DRG
Level 3 Urology and Related Services,1356.20826086956,DRG
Level 3 Endovascular Procedures,8713.021379310341,DRG
 PSYCHOSES,12046.928570999999,Standard
 CARDIAC ARRHYTHMIA & CONDUCTION DISORDERS W CC,8017.0714286,Standard
 G.I. HEMORRHAGE W CC,10067.166667,Standard
Level 5 Urology and Related Services,3108.9425641025605,DRG
Level 4 Urology and Related Services,2264.36999999999,DRG
 G.I. OBSTRUCTION W CC,8858.142857100001,Standard
" ""ESOPHAGITIS, GASTROENT & MISC DIGEST DISORDERS W/O MCC""",7885.625,Standard
