Description,Charge,Category
Level 3 Urology and Related Services,1170.71926829268,DRG
 SIMPLE PNEUMONIA & PLEURISY W/O CC/MCC,5042.1764706,Standard
 HEART FAILURE & SHOCK W MCC,9853.214285700002,Standard
 HEART FAILURE & SHOCK W CC,6490.4285714,Standard
" ""ESOPHAGITIS, GASTROENT & MISC DIGEST DISORDERS W/O MCC""",5392.4615385,Standard
 MAJOR HIP AND KNEE JOINT REPLACEMENT OR REATTACHMENT OF LOWER EXTREM,14402.425,Standard
 HIP & FEMUR PROCEDURES EXCEPT MAJOR JOINT W CC,13648.545455000001,Standard
 KIDNEY & URINARY TRACT INFECTIONS W/O MCC,5552.8461538,Standard
 SEPTICEMIA OR SEVERE SEPSIS W/O MV >96 HOURS W MCC,11620.25,Standard
Level 2 Excision/ Biopsy/ Incision and Drainage,928.432222222222,DRG
Level 2 Musculoskeletal Procedures,946.787241379311,DRG
Level 3 Musculoskeletal Procedures,1856.23,DRG
Level 4 Musculoskeletal Procedures,1381.248203125,DRG
Level 2 Upper GI Procedures,1001.6399999999901,DRG
Abdominal/Peritoneal/Biliary and Related Procedures,2042.83,DRG
 SIMPLE PNEUMONIA & PLEURISY W CC,6500.2631579,Standard
 PULMONARY EDEMA & RESPIRATORY FAILURE,8297.261904800002,Standard
Level 5 Urology and Related Services,2600.63,DRG
Level 4 Urology and Related Services,1892.38,DRG
Comprehensive Observation Services,1635.45108359132,DRG
Level 1 Intraocular Procedures,1345.8322388059598,DRG
