Description,Charge,Category
 SIMPLE PNEUMONIA & PLEURISY W MCC,9115.9206349,Standard
Level 5 ENT Procedures,3182.0456756756703,DRG
Level 5 Airway Endoscopy,3616.2123076923,DRG
Level 4 Airway Endoscopy,1924.59637681159,DRG
 SEPTICEMIA OR SEVERE SEPSIS W/O MV >96 HOURS W/O MCC,7507.231884100001,Standard
Level 1 Breast/Lymphatic Surgery and Related Procedures,1955.8851612903197,DRG
 CHRONIC OBSTRUCTIVE PULMONARY DISEASE W CC,6169.5238094999995,Standard
 CHRONIC OBSTRUCTIVE PULMONARY DISEASE W MCC,7668.807692300001,Standard
 MAJOR CHEST TRAUMA W MCC,9875.7894737,Standard
Level 3 Airway Endoscopy,968.1486956521741,DRG
Level 5 Musculoskeletal Procedures,7681.128536585359,DRG
Level 4 Musculoskeletal Procedures,4082.94524137931,DRG
 PULMONARY EDEMA & RESPIRATORY FAILURE,8263.0164835,Standard
Level 3 Musculoskeletal Procedures,1913.7527777777698,DRG
 PLEURAL EFFUSION W MCC,9804.7391304,Standard
Level 2 Musculoskeletal Procedures,1002.19,DRG
 MAJOR CHEST TRAUMA W CC,7286.285714300001,Standard
Level 2 Breast/Lymphatic Surgery and Related Procedures,3502.78648648649,DRG
 PLEURAL EFFUSION W CC,7817.0909091,Standard
 RENAL FAILURE W/O CC/MCC,4477.5,Standard
 SIMPLE PNEUMONIA & PLEURISY W/O CC/MCC,5247.5384615,Standard
 OTHER MUSCULOSKELET SYS & CONN TISS O.R. PROC W/O CC/MCC,9618.8235294,Standard
 OTHER MUSCULOSKELET SYS & CONN TISS O.R. PROC W CC,21133.0,Standard
 PNEUMOTHORAX W CC,7105.2,Standard
 BRONCHITIS & ASTHMA W CC/MCC,6577.5384615,Standard
 BRONCHITIS & ASTHMA W/O CC/MCC,4945.8333333,Standard
 RESPIRATORY SYSTEM DIAGNOSIS W VENTILATOR SUPPORT <=96 HOURS,15984.7,Standard
 EXTENSIVE O.R. PROCEDURE UNRELATED TO PRINCIPAL DIAGNOSIS W MCC,27155.3125,Standard
 INFECTIOUS & PARASITIC DISEASES W O.R. PROCEDURE W MCC,33996.804124,Standard
 INFECTIOUS & PARASITIC DISEASES W O.R. PROCEDURE W CC,18290.2,Standard
 OTHER DIGESTIVE SYSTEM DIAGNOSES W MCC,11061.315789,Standard
" ""LOWER EXTREM & HUMER PROC EXCEPT HIP,FOOT,FEMUR W/O CC/MCC""",12389.866667,Standard
 FRACTURES OF HIP & PELVIS W MCC,7661.6666667,Standard
 FRACTURES OF HIP & PELVIS W/O MCC,5296.9032258,Standard
 SIGNS & SYMPTOMS W/O MCC,5580.3,Standard
 POSTOPERATIVE & POST,11647.636364,Standard
 FEVER AND INFLAMMATORY CONDITIONS,6103.3809524,Standard
 SEPTICEMIA OR SEVERE SEPSIS W MV >96 HOURS OR PERIPHERAL EXTRACORPOR,41009.65,Standard
 SEPTICEMIA OR SEVERE SEPSIS W/O MV >96 HOURS W MCC,12085.294753,Standard
 SIGNS & SYMPTOMS W MCC,7657.6,Standard
Level 1 Endovascular Procedures,1748.25234541578,DRG
 COMPLICATIONS OF TREATMENT W MCC,11387.666667,Standard
 SIMPLE PNEUMONIA & PLEURISY W CC,6427.6707317,Standard
 COMPLICATIONS OF TREATMENT W CC,6797.95,Standard
 RESPIRATORY NEOPLASMS W CC,7897.863636399999,Standard
Level 3 Endovascular Procedures,8260.24533018866,DRG
Level 7 Radiation Therapy,5721.42833333333,DRG
Comprehensive Observation Services,1684.1388056206101,DRG
 CRANIOTOMY & ENDOVASCULAR INTRACRANIAL PROCEDURES W MCC,27171.631579,Standard
 CRANIOTOMY & ENDOVASCULAR INTRACRANIAL PROCEDURES W CC,18023.4,Standard
 DEGENERATIVE NERVOUS SYSTEM DISORDERS W MCC,12535.230769,Standard
 CRANIOTOMY & ENDOVASCULAR INTRACRANIAL PROCEDURES W/O CC/MCC,15962.928571,Standard
 CAROTID ARTERY STENT PROCEDURE W/O CC/MCC,11312.071429000001,Standard
 EXTRACRANIAL PROCEDURES W/O CC/MCC,7663.3658537,Standard
 PERIPH/CRANIAL NERVE & OTHER NERV SYST PROC W CC OR PERIPH NEUROSTIM,15296.533333000001,Standard
 CHEMOTHERAPY W/O ACUTE LEUKEMIA AS SECONDARY DIAGNOSIS W CC,8520.1470588,Standard
 COAGULATION DISORDERS,14487.238094999999,Standard
Level 2 Intraocular Procedures,2662.05222222222,DRG
 RED BLOOD CELL DISORDERS W/O MCC,6084.8214286,Standard
 MAJOR HEMATOL/IMMUN DIAG EXC SICKLE CELL CRISIS & COAGUL W CC,8563.7826087,Standard
 MAJOR HEMATOL/IMMUN DIAG EXC SICKLE CELL CRISIS & COAGUL W MCC,14620.571429,Standard
 UTERINE & ADNEXA PROC FOR NON,7146.2307692,Standard
 UTERINE & ADNEXA PROC FOR OVARIAN OR ADNEXAL MALIGNANCY W CC,15299.272727000001,Standard
 MAJOR MALE PELVIC PROCEDURES W/O CC/MCC,10057.727273,Standard
 OTHER KIDNEY & URINARY TRACT DIAGNOSES W CC,7521.6842105000005,Standard
 OTHER KIDNEY & URINARY TRACT DIAGNOSES W MCC,11051.638554000001,Standard
 URINARY STONES W/O ESW LITHOTRIPSY W/O MCC,5444.5789474,Standard
 KIDNEY & URINARY TRACT INFECTIONS W/O MCC,5525.6612903000005,Standard
 NERVOUS SYSTEM NEOPLASMS W MCC,9146.9166667,Standard
 KIDNEY & URINARY TRACT INFECTIONS W MCC,7495.5625,Standard
 RED BLOOD CELL DISORDERS W MCC,8947.111111100001,Standard
Level 2 Endovascular Procedures,3696.8461016949104,DRG
Level 1 Intraocular Procedures,1400.3995559845498,DRG
Level 5 Gynecologic Procedures,2772.24266666666,DRG
Level 4 Endovascular Procedures,13279.711000000001,DRG
Level 3 Electrophysiologic Procedures,15601.9955555555,DRG
Level 2 Pacemaker and Similar Procedures,5211.60333333333,DRG
Level 3 Pacemaker and Similar Procedures,7705.700147058829,DRG
 RESPIRATORY NEOPLASMS W MCC,12219.423077,Standard
 ALCOHOL/DRUG ABUSE OR DEPENDENCE W/O REHABILITATION THERAPY W/O MCC,6497.625,Standard
" ""ISCHEMIC STROKE, PRECEREBRAL OCCLUSION OR TRANSIENT ISCHEMIA W THRO",12849.583333,Standard
 POISONING & TOXIC EFFECTS OF DRUGS W MCC,8508.15,Standard
 DEGENERATIVE NERVOUS SYSTEM DISORDERS W/O MCC,7618.478260899999,Standard
Level 2 ICD and Similar Procedures,27418.976315789398,DRG
Level 2 Upper GI Procedures,1042.11302788844,DRG
Level 1 Nerve Procedures,1035.26066666666,DRG
 PATHOLOGICAL FRACTURES & MUSCULOSKELET & CONN TISS MALIG W CC,7399.6666667,Standard
Level 3 Upper GI Procedures,1940.61208333333,DRG
Level 3 Lower GI Procedures,1593.4367857142802,DRG
Complex GI Procedures,3187.59,DRG
Abdominal/Peritoneal/Biliary and Related Procedures,2133.4035036496302,DRG
Level 1 Laparoscopy and Related Services,3243.1143750000106,DRG
Level 2 Laparoscopy and Related Services,5575.4418627450905,DRG
Level 3 Urology and Related Services,1237.1086419753,DRG
" TRACH W MV >96 HRS OR PDX EXC FACE, MOUTH & NECK W/O MAJ O.R.",72610.857143,Standard
Level 4 Urology and Related Services,1982.5027826086898,DRG
Level 5 Urology and Related Services,2718.41983471074,DRG
Level 4 Gynecologic Procedures,1635.07729729729,DRG
 MEDICAL BACK PROBLEMS W MCC,9918.272727299998,Standard
 OTHER O.R. PROCEDURES FOR INJURIES W CC,12703.666667,Standard
" ""ESOPHAGITIS, GASTROENT & MISC DIGEST DISORDERS W/O MCC""",5533.776,Standard
 NONSPECIFIC CEREBROVASCULAR DISORDERS W/O CC/MCC,5415.5384615,Standard
 DIABETES W MCC,8863.8529412,Standard
 DIABETES W CC,5972.2142857,Standard
" MISC DISORDERS OF NUTRITION,METABOLISM,FLUIDS/ELECTROLYTES W MCC",8307.696202500001,Standard
" ""MISC DISORDERS OF NUTRITION,METABOLISM,FLUIDS/ELECTROLYTES W/O MCC""",5293.350649399999,Standard
 CORONARY BYPASS W CARDIAC CATH W MCC,48580.8125,Standard
 CARDIAC VALVE & OTH MAJ CARDIOTHORACIC PROC W/O CARD CATH W CC,35817.96,Standard
 KIDNEY TRANSPLANT,41949.297872,Standard
 OTHER CIRCULATORY SYSTEM DIAGNOSES W MCC,12720.083333,Standard
 INTRACRANIAL HEMORRHAGE OR CEREBRAL INFARCTION W/O CC/MCC,5343.0645161,Standard
 SIGNS & SYMPTOMS OF MUSCULOSKELETAL SYSTEM & CONN TISSUE W/O MCC,5498.4375,Standard
 MEDICAL BACK PROBLEMS W/O MCC,6241.308642,Standard
Level 2 Excision/ Biopsy/ Incision and Drainage,993.8026143790871,DRG
Level 3 Excision/ Biopsy/ Incision and Drainage,1659.70916666666,DRG
 DISORDERS OF THE BILIARY TRACT W CC,7233.8125,Standard
" DISORDERS OF LIVER EXCEPT MALIG,CIRR,ALC HEPA W CC",6802.3181818,Standard
 MAJOR JOINT/LIMB REATTACHMENT PROCEDURE OF UPPER EXTREMITIES,15994.615385,Standard
 DISORDERS OF PANCREAS EXCEPT MALIGNANCY W CC,6205.3157895,Standard
 DISORDERS OF PANCREAS EXCEPT MALIGNANCY W MCC,12850.411765,Standard
 MALIGNANCY OF HEPATOBILIARY SYSTEM OR PANCREAS W CC,8304.5,Standard
 HIP & FEMUR PROCEDURES EXCEPT MAJOR JOINT W/O CC/MCC,10993.366667,Standard
 HIP & FEMUR PROCEDURES EXCEPT MAJOR JOINT W CC,13266.301723999999,Standard
 HIP & FEMUR PROCEDURES EXCEPT MAJOR JOINT W MCC,18990.574074,Standard
 CERVICAL SPINAL FUSION W/O CC/MCC,14984.916667,Standard
 MAJOR HIP AND KNEE JOINT REPLACEMENT OR REATTACHMENT OF LOWER EXTREM,13486.959025,Standard
 MAJOR HIP AND KNEE JOINT REPLACEMENT OR REATTACHMENT OF LOWER EXTREM,20110.52381,Standard
 REVISION OF HIP OR KNEE REPLACEMENT W/O CC/MCC,17946.675676,Standard
 REVISION OF HIP OR KNEE REPLACEMENT W CC,22078.5,Standard
 O.R. PROCEDURES FOR OBESITY W/O CC/MCC,10340.631579,Standard
 TRANSIENT ISCHEMIA W/O THROMBOLYTIC,5249.709677399999,Standard
 O.R. PROCEDURES FOR OBESITY W CC,11852.454545,Standard
 CORONARY BYPASS W/O CARDIAC CATH W MCC,36018.333332999995,Standard
 INTRACRANIAL HEMORRHAGE OR CEREBRAL INFARCTION W CC OR TPA IN 24 HRS,7112.593220300001,Standard
 OTHER MAJOR CARDIOVASCULAR PROCEDURES W MCC,37635.869565,Standard
 INTRACRANIAL HEMORRHAGE OR CEREBRAL INFARCTION W MCC,12608.064934999999,Standard
 AORTIC AND HEART ASSIST PROCEDURES EXCEPT PULSATION BALLOON W/O MCC,26281.166666999998,Standard
 ENDOVASCULAR CARDIAC VALVE REPLACEMENT W/O MCC,38285.941176,Standard
 ENDOVASCULAR CARDIAC VALVE REPLACEMENT W MCC,48757.0,Standard
 OTHER VASCULAR PROCEDURES W/O CC/MCC,12182.769231,Standard
" OTHER SKIN, SUBCUT TISS & BREAST PROC W CC",10335.181818000001,Standard
" FX, SPRN, STRN & DISL EXCEPT FEMUR, HIP, PELVIS & THIGH W/O MCC",5596.8809524,Standard
" ""FX, SPRN, STRN & DISL EXCEPT FEMUR, HIP, PELVIS & THIGH W MCC""",9168.5454545,Standard
 DIGESTIVE MALIGNANCY W MCC,17011.75,Standard
 MAJOR GASTROINTESTINAL DISORDERS & PERITONEAL INFECTIONS W CC,7476.1538462,Standard
 MAJOR SMALL & LARGE BOWEL PROCEDURES W/O CC/MCC,11453.144444,Standard
 OTHER VASCULAR PROCEDURES W CC,17446.052632,Standard
 OTHER VASCULAR PROCEDURES W MCC,34645.285714,Standard
" ""AMPUTAT OF LOWER LIMB FOR ENDOCRINE,NUTRIT,& METABOL DIS W CC""",12838.538462,Standard
 PERC CARDIOVASC PROC W/O CORONARY ARTERY STENT W/O MCC,11597.454545,Standard
 PERC CARDIOVASC PROC W DRUG,13626.980769,Standard
 MAJOR SMALL & LARGE BOWEL PROCEDURES W CC,16888.425287000002,Standard
 PERCUTANEOUS CARDIOVASCULAR PROCEDURES W DRUG,25065.078431,Standard
 PERMANENT CARDIAC PACEMAKER IMPLANT W/O CC/MCC,13642.8,Standard
 MAJOR SMALL & LARGE BOWEL PROCEDURES W MCC,30943.88,Standard
" STOMACH, ESOPHAGEAL & DUODENAL PROC W/O CC/MCC",9773.0,Standard
" ""STOMACH, ESOPHAGEAL & DUODENAL PROC W CC""",19673.25,Standard
 PERMANENT CARDIAC PACEMAKER IMPLANT W CC,16450.2,Standard
 PERMANENT CARDIAC PACEMAKER IMPLANT W MCC,22530.695652000002,Standard
 CORONARY BYPASS W/O CARDIAC CATH W/O MCC,25177.087719,Standard
 CORONARY BYPASS W CARDIAC CATH W/O MCC,32281.576923,Standard
 CELLULITIS W MCC,9616.0666667,Standard
 NONSPECIFIC CEREBROVASCULAR DISORDERS W MCC,10578.909091,Standard
 OTHER MAJOR CARDIOVASCULAR PROCEDURES W/O CC/MCC,17626.25,Standard
 MAJOR CHEST PROCEDURES W/O CC/MCC,13577.0,Standard
 OTHER RESP SYSTEM O.R. PROCEDURES W MCC,23059.380952,Standard
 OTHER RESP SYSTEM O.R. PROCEDURES W CC,12435.5,Standard
 PULMONARY EMBOLISM W MCC,9356.5,Standard
 PULMONARY EMBOLISM W/O MCC,6161.8148148,Standard
 RENAL FAILURE W MCC,9820.4534884,Standard
 RESPIRATORY INFECTIONS & INFLAMMATIONS W MCC,11939.181818000001,Standard
 RENAL FAILURE W CC,6509.6893204,Standard
 CARDIAC ARRHYTHMIA & CONDUCTION DISORDERS W MCC,8002.155555600001,Standard
 HYPERTENSION W/O MCC,4848.5,Standard
 HYPERTENSION W MCC,7270.5,Standard
" ""ACUTE MYOCARDIAL INFARCTION, DISCHARGED ALIVE W/O CC/MCC""",5381.354838699999,Standard
 MAJOR CHEST PROCEDURES W CC,16723.909091,Standard
" ACUTE MYOCARDIAL INFARCTION, EXPIRED W MCC",12687.066667000001,Standard
 RESPIRATORY INFECTIONS & INFLAMMATIONS W CC,8408.583333300001,Standard
 PERIPHERAL VASCULAR DISORDERS W MCC,8502.5454545,Standard
 HEART FAILURE & SHOCK W/O CC/MCC,4783.6666667,Standard
 HEART FAILURE & SHOCK W CC,6581.3728814,Standard
 MALIGNANCY OF HEPATOBILIARY SYSTEM OR PANCREAS W MCC,10517.0,Standard
 LAPAROSCOPIC CHOLECYSTECTOMY W/O C.D.E. W/O CC/MCC,8974.8461538,Standard
 LAPAROSCOPIC CHOLECYSTECTOMY W/O C.D.E. W CC,13254.631579,Standard
 LAPAROSCOPIC CHOLECYSTECTOMY W/O C.D.E. W MCC,15746.75,Standard
 OTHER DIGESTIVE SYSTEM DIAGNOSES W CC,6631.3076923,Standard
" ""CIRCULATORY DISORDERS EXCEPT AMI, W CARD CATH W MCC""",16290.269231,Standard
" CIRCULATORY DISORDERS EXCEPT AMI, W CARD CATH W/O MCC",7847.3521127,Standard
 HEART FAILURE & SHOCK W MCC,9627.051282100001,Standard
 PERIPHERAL VASCULAR DISORDERS W CC,7151.3529412,Standard
 OTHER MAJOR CARDIOVASCULAR PROCEDURES W CC,22765.368421,Standard
 MAJOR CHEST PROCEDURES W MCC,35437.714286,Standard
 SEIZURES W/O MCC,5687.6,Standard
" ""ACUTE MYOCARDIAL INFARCTION, DISCHARGED ALIVE W MCC""",11215.522222,Standard
 NONSPECIFIC CEREBROVASCULAR DISORDERS W CC,6764.125,Standard
 CHEST PAIN,4899.4545455,Standard
 CRANIAL & PERIPHERAL NERVE DISORDERS W/O MCC,6015.8181818,Standard
" TRAUMATIC STUPOR & COMA, COMA >1 HR W CC",8459.6363636,Standard
" TRAUMATIC STUPOR & COMA, COMA <1 HR W MCC",13062.545455,Standard
 DIGESTIVE MALIGNANCY W CC,8385.166666699999,Standard
 G.I. HEMORRHAGE W MCC,11622.145161,Standard
 SYNCOPE & COLLAPSE,5598.508771899999,Standard
 G.I. HEMORRHAGE W CC,6706.5887096999995,Standard
 G.I. OBSTRUCTION W MCC,9851.3125,Standard
 G.I. OBSTRUCTION W CC,6160.471698100001,Standard
 DYSEQUILIBRIUM,4922.375,Standard
 G.I. OBSTRUCTION W/O CC/MCC,4443.527777800001,Standard
 SPINAL FUSION EXCEPT CERVICAL W/O MCC,26688.380952,Standard
 SEIZURES W MCC,12807.538462,Standard
 OTHER DISORDERS OF NERVOUS SYSTEM W/O CC/MCC,5268.5454545,Standard
 OTHER DISORDERS OF NERVOUS SYSTEM W CC,6515.9473683999995,Standard
 OTHER DISORDERS OF NERVOUS SYSTEM W MCC,10331.235294,Standard
" TRAUMATIC STUPOR & COMA, COMA <1 HR W/O CC/MCC",5687.086956499999,Standard
" ESOPHAGITIS, GASTROENT & MISC DIGEST DISORDERS W MCC",10381.025,Standard
" ""TRAUMATIC STUPOR & COMA, COMA <1 HR W CC""",8133.103448299999,Standard
" LOWER EXTREM & HUMER PROC EXCEPT HIP,FOOT,FEMUR W CC",14267.341462999999,Standard
 CARDIAC ARRHYTHMIA & CONDUCTION DISORDERS W CC,5383.2682927000005,Standard
 CARDIAC ARRHYTHMIA & CONDUCTION DISORDERS W/O CC/MCC,4062.8095238000005,Standard
" ACUTE MYOCARDIAL INFARCTION, DISCHARGED ALIVE W CC",6612.16,Standard
 COMBINED ANTERIOR/POSTERIOR SPINAL FUSION W CC,48326.090909,Standard
 COMBINED ANTERIOR/POSTERIOR SPINAL FUSION W/O CC/MCC,33157.259259,Standard
 CELLULITIS W/O MCC,5884.72,Standard
