Description,Charge,Category
" ESOPHAGITIS, GASTROENT & MISC DIGEST DISORDERS W MCC",7462.0769231,Standard
 OTHER DIGESTIVE SYSTEM DIAGNOSES W CC,5774.875,Standard
 DISORDERS OF PANCREAS EXCEPT MALIGNANCY W CC,5238.375,Standard
 DISORDERS OF THE BILIARY TRACT W CC,6314.6842105,Standard
 REVISION OF HIP OR KNEE REPLACEMENT W CC,20392.181818,Standard
 MAJOR HIP AND KNEE JOINT REPLACEMENT OR REATTACHMENT OF LOWER EXTREM,21488.4375,Standard
 MAJOR HIP AND KNEE JOINT REPLACEMENT OR REATTACHMENT OF LOWER EXTREM,12147.147268,Standard
 HIP & FEMUR PROCEDURES EXCEPT MAJOR JOINT W MCC,17826.642857,Standard
 HIP & FEMUR PROCEDURES EXCEPT MAJOR JOINT W CC,11943.30303,Standard
 HIP & FEMUR PROCEDURES EXCEPT MAJOR JOINT W/O CC/MCC,9979.714285700002,Standard
 MAJOR JOINT/LIMB REATTACHMENT PROCEDURE OF UPPER EXTREMITIES,14403.375,Standard
" ""ESOPHAGITIS, GASTROENT & MISC DIGEST DISORDERS W/O MCC""",5221.1794872,Standard
" LOWER EXTREM & HUMER PROC EXCEPT HIP,FOOT,FEMUR W CC",12547.666667,Standard
 RENAL FAILURE W MCC,8815.172413799999,Standard
 FRACTURES OF HIP & PELVIS W/O MCC,4666.9333333,Standard
Level 3 Urology and Related Services,1234.70943181818,DRG
Level 2 Laparoscopy and Related Services,5484.6432,DRG
Level 1 Laparoscopy and Related Services,3293.5176068376,DRG
Abdominal/Peritoneal/Biliary and Related Procedures,2112.19607843137,DRG
Level 3 Lower GI Procedures,1635.82272727272,DRG
Level 2 Upper GI Procedures,1047.22716981132,DRG
Level 2 ICD and Similar Procedures,27329.27,DRG
Level 3 Pacemaker and Similar Procedures,6229.154042553189,DRG
Level 2 Pacemaker and Similar Procedures,5505.55999999999,DRG
Level 3 Electrophysiologic Procedures,15099.101052631499,DRG
Level 4 Endovascular Procedures,13506.959999999899,DRG
Level 3 Endovascular Procedures,8409.81999999998,DRG
Level 4 Urology and Related Services,1995.52739130434,DRG
Level 2 Endovascular Procedures,3686.4293877551,DRG
Level 5 ENT Procedures,3210.98,DRG
Level 5 Airway Endoscopy,3599.79,DRG
Level 4 Airway Endoscopy,1936.4299999999898,DRG
Level 3 Airway Endoscopy,979.629999999999,DRG
Level 5 Musculoskeletal Procedures,7989.13190839692,DRG
Level 4 Musculoskeletal Procedures,4122.77574380164,DRG
Level 3 Musculoskeletal Procedures,1918.66814569537,DRG
Level 2 Musculoskeletal Procedures,998.924736842104,DRG
Level 2 Breast/Lymphatic Surgery and Related Procedures,3561.1,DRG
Level 1 Breast/Lymphatic Surgery and Related Procedures,2018.77999999999,DRG
Level 3 Excision/ Biopsy/ Incision and Drainage,1649.34086956521,DRG
Level 2 Excision/ Biopsy/ Incision and Drainage,983.450243055558,DRG
Level 1 Endovascular Procedures,1759.8145173745102,DRG
Level 5 Urology and Related Services,2698.10325203252,DRG
Level 4 Gynecologic Procedures,1681.98,DRG
Level 5 Gynecologic Procedures,2968.57,DRG
 CELLULITIS W MCC,8388.7777778,Standard
 CELLULITIS W/O MCC,5189.1898734,Standard
 DIABETES W MCC,7816.0625,Standard
 DIABETES W CC,5155.739130399999,Standard
" MISC DISORDERS OF NUTRITION,METABOLISM,FLUIDS/ELECTROLYTES W MCC",7195.5714286,Standard
" ""MISC DISORDERS OF NUTRITION,METABOLISM,FLUIDS/ELECTROLYTES W/O MCC""",4613.7272727,Standard
 G.I. OBSTRUCTION W CC,5126.1818182,Standard
 RENAL FAILURE W CC,5506.3333333,Standard
 KIDNEY & URINARY TRACT INFECTIONS W MCC,6339.6538462,Standard
 KIDNEY & URINARY TRACT INFECTIONS W/O MCC,4845.118644100001,Standard
 OTHER KIDNEY & URINARY TRACT DIAGNOSES W MCC,9157.5263158,Standard
 OTHER KIDNEY & URINARY TRACT DIAGNOSES W CC,6380.2,Standard
 MAJOR HEMATOL/IMMUN DIAG EXC SICKLE CELL CRISIS & COAGUL W CC,7234.0,Standard
 RED BLOOD CELL DISORDERS W/O MCC,5403.733333300001,Standard
 INFECTIOUS & PARASITIC DISEASES W O.R. PROCEDURE W MCC,26722.352941,Standard
 SEPTICEMIA OR SEVERE SEPSIS W/O MV >96 HOURS W MCC,11216.763514,Standard
 SEPTICEMIA OR SEVERE SEPSIS W/O MV >96 HOURS W/O MCC,6419.2727273,Standard
 ALCOHOL/DRUG ABUSE OR DEPENDENCE W/O REHABILITATION THERAPY W/O MCC,4812.8461538,Standard
 POISONING & TOXIC EFFECTS OF DRUGS W MCC,8067.0,Standard
 POISONING & TOXIC EFFECTS OF DRUGS W/O MCC,4767.5454545,Standard
 MAJOR CHEST PROCEDURES W CC,14924.416667,Standard
Comprehensive Observation Services,1722.99941870262,DRG
"Level 3 Extraocular, Repair, and Plastic Eye Procedures",888.09125,DRG
Level 2 Intraocular Procedures,1149.2758333333302,DRG
Level 1 Intraocular Procedures,624.495293602097,DRG
Level 3 Neurostimulator and Related Procedures,14473.393846153798,DRG
Level 1 Nerve Procedures,1173.8282857142801,DRG
 BACK & NECK PROC EXC SPINAL FUSION W/O CC/MCC,7785.5,Standard
 G.I. HEMORRHAGE W CC,5908.902439,Standard
 SEIZURES W/O MCC,5105.9230769,Standard
 G.I. HEMORRHAGE W MCC,10339.16,Standard
" ""CIRCULATORY DISORDERS EXCEPT AMI, W CARD CATH W MCC""",12859.952381000001,Standard
 PERMANENT CARDIAC PACEMAKER IMPLANT W MCC,21665.461538,Standard
 PERMANENT CARDIAC PACEMAKER IMPLANT W CC,16001.214286000002,Standard
 PULMONARY EMBOLISM W/O MCC,5570.0857143,Standard
 PERC CARDIOVASC PROC W DRUG,12536.472222,Standard
" ""ACUTE MYOCARDIAL INFARCTION, DISCHARGED ALIVE W MCC""",9844.6296296,Standard
 SIMPLE PNEUMONIA & PLEURISY W CC,5637.8333333,Standard
 SIMPLE PNEUMONIA & PLEURISY W MCC,8066.0963855,Standard
 CHRONIC OBSTRUCTIVE PULMONARY DISEASE W/O CC/MCC,4510.8,Standard
 CHRONIC OBSTRUCTIVE PULMONARY DISEASE W CC,5530.5192308,Standard
 CHRONIC OBSTRUCTIVE PULMONARY DISEASE W MCC,6968.5897436000005,Standard
 PULMONARY EDEMA & RESPIRATORY FAILURE,7467.5714286,Standard
 RESPIRATORY INFECTIONS & INFLAMMATIONS W CC,7380.65,Standard
" ACUTE MYOCARDIAL INFARCTION, DISCHARGED ALIVE W CC",5793.3103448,Standard
 RESPIRATORY INFECTIONS & INFLAMMATIONS W MCC,10585.170213,Standard
 CORONARY BYPASS W/O CARDIAC CATH W/O MCC,22379.470588,Standard
 EXTRACRANIAL PROCEDURES W/O CC/MCC,6723.4285714,Standard
 PERCUTANEOUS CARDIOVASCULAR PROCEDURES W DRUG,19208.714286000002,Standard
 BRONCHITIS & ASTHMA W CC/MCC,5652.8,Standard
 MAJOR GASTROINTESTINAL DISORDERS & PERITONEAL INFECTIONS W CC,6208.2,Standard
 MAJOR SMALL & LARGE BOWEL PROCEDURES W CC,14572.818181999999,Standard
 SYNCOPE & COLLAPSE,4895.2857143,Standard
 CARDIAC ARRHYTHMIA & CONDUCTION DISORDERS W/O CC/MCC,3544.2857143,Standard
 CARDIAC ARRHYTHMIA & CONDUCTION DISORDERS W CC,4767.8214286,Standard
 CARDIAC ARRHYTHMIA & CONDUCTION DISORDERS W MCC,7189.7741935,Standard
 TRANSIENT ISCHEMIA W/O THROMBOLYTIC,4744.9230769,Standard
 INTRACRANIAL HEMORRHAGE OR CEREBRAL INFARCTION W/O CC/MCC,4613.5384615,Standard
 INTRACRANIAL HEMORRHAGE OR CEREBRAL INFARCTION W CC OR TPA IN 24 HRS,5997.1388889,Standard
 CORONARY BYPASS W CARDIAC CATH W/O MCC,29612.454545,Standard
 PULMONARY EMBOLISM W MCC,8620.6666667,Standard
" CIRCULATORY DISORDERS EXCEPT AMI, W CARD CATH W/O MCC",7013.7,Standard
 HEART FAILURE & SHOCK W MCC,8719.1377551,Standard
 HEART FAILURE & SHOCK W CC,5724.3404255000005,Standard
 HYPERTENSION W/O MCC,4293.0833333,Standard
 SIMPLE PNEUMONIA & PLEURISY W/O CC/MCC,4405.3214286,Standard
 INTRACRANIAL HEMORRHAGE OR CEREBRAL INFARCTION W MCC,9690.1,Standard
