Description,Charge,Category
Level 3 Endovascular Procedures,8309.63769230769,DRG
Level 2 Endovascular Procedures,3690.30898305085,DRG
Level 1 Endovascular Procedures,1793.6938888888897,DRG
Level 4 Musculoskeletal Procedures,4213.19999999999,DRG
Level 3 Musculoskeletal Procedures,1987.88,DRG
Level 2 Musculoskeletal Procedures,882.1565217391301,DRG
Level 2 Breast/Lymphatic Surgery and Related Procedures,3506.5212121212103,DRG
Level 3 Excision/ Biopsy/ Incision and Drainage,1747.11999999999,DRG
Level 2 Excision/ Biopsy/ Incision and Drainage,967.679999999997,DRG
 CHRONIC OBSTRUCTIVE PULMONARY DISEASE W CC,5721.8181818,Standard
 SIMPLE PNEUMONIA & PLEURISY W MCC,8397.046296299999,Standard
 SIMPLE PNEUMONIA & PLEURISY W/O CC/MCC,4694.1666667,Standard
 RESPIRATORY SYSTEM DIAGNOSIS W VENTILATOR SUPPORT <=96 HOURS,14187.870968000001,Standard
 PERMANENT CARDIAC PACEMAKER IMPLANT W MCC,22076.533333000003,Standard
 PERC CARDIOVASC PROC W DRUG,12944.928570999999,Standard
 OTHER VASCULAR PROCEDURES W MCC,20145.619048,Standard
 OTHER VASCULAR PROCEDURES W CC,17013.8,Standard
 AORTIC AND HEART ASSIST PROCEDURES EXCEPT PULSATION BALLOON W/O MCC,26113.833333000002,Standard
 OTHER MAJOR CARDIOVASCULAR PROCEDURES W MCC,34284.833332999995,Standard
" ""ACUTE MYOCARDIAL INFARCTION, DISCHARGED ALIVE W MCC""",10977.268293000001,Standard
" ACUTE MYOCARDIAL INFARCTION, DISCHARGED ALIVE W CC",6104.8333333,Standard
" ACUTE MYOCARDIAL INFARCTION, EXPIRED W MCC",10627.25,Standard
 SIMPLE PNEUMONIA & PLEURISY W CC,5827.0,Standard
Level 3 Electrophysiologic Procedures,16080.28,DRG
Level 2 Pacemaker and Similar Procedures,4316.061538461529,DRG
Level 3 Pacemaker and Similar Procedures,7843.76,DRG
 EXTRACRANIAL PROCEDURES W/O CC/MCC,6827.1304348,Standard
 CRANIOTOMY & ENDOVASCULAR INTRACRANIAL PROCEDURES W MCC,25476.9,Standard
 NERVOUS SYSTEM NEOPLASMS W MCC,7917.6153846,Standard
 DEGENERATIVE NERVOUS SYSTEM DISORDERS W/O MCC,6929.714285699999,Standard
 INTRACRANIAL HEMORRHAGE OR CEREBRAL INFARCTION W MCC,10900.684211,Standard
 INTRACRANIAL HEMORRHAGE OR CEREBRAL INFARCTION W CC OR TPA IN 24 HRS,6455.3877551000005,Standard
 INTRACRANIAL HEMORRHAGE OR CEREBRAL INFARCTION W/O CC/MCC,4949.2,Standard
" ""TRAUMATIC STUPOR & COMA, COMA >1 HR W MCC""",14511.909091,Standard
 OTHER DISORDERS OF NERVOUS SYSTEM W CC,6266.7142857,Standard
 SEIZURES W/O MCC,5195.363636399999,Standard
 OTHER RESP SYSTEM O.R. PROCEDURES W MCC,24542.176471000002,Standard
" ""CIRCULATORY DISORDERS EXCEPT AMI, W CARD CATH W MCC""",15541.090909,Standard
 RESPIRATORY INFECTIONS & INFLAMMATIONS W MCC,11431.666667,Standard
 PULMONARY EDEMA & RESPIRATORY FAILURE,7598.6818182,Standard
 CHRONIC OBSTRUCTIVE PULMONARY DISEASE W MCC,7355.7586207,Standard
Comprehensive Observation Services,1718.8398275862,DRG
Level 1 Nerve Procedures,1210.28,DRG
Level 4 Urology and Related Services,2026.58999999999,DRG
Level 3 Urology and Related Services,1271.4206,DRG
Level 2 Laparoscopy and Related Services,5498.27222222222,DRG
Level 1 Laparoscopy and Related Services,3151.2976315789397,DRG
Abdominal/Peritoneal/Biliary and Related Procedures,2123.36558823529,DRG
Complex GI Procedures,3226.63,DRG
Level 2 Upper GI Procedures,1071.8415,DRG
 RESPIRATORY INFECTIONS & INFLAMMATIONS W CC,7739.9375,Standard
" CIRCULATORY DISORDERS EXCEPT AMI, W CARD CATH W/O MCC",7277.625,Standard
Level 5 Urology and Related Services,2785.0599999999895,DRG
 HEART FAILURE & SHOCK W CC,5641.4444444,Standard
" FX, SPRN, STRN & DISL EXCEPT FEMUR, HIP, PELVIS & THIGH W/O MCC",5352.6666667,Standard
 CELLULITIS W MCC,10010.5,Standard
 CELLULITIS W/O MCC,5333.5641026,Standard
" ""SKIN GRAFTS & WOUND DEBRID FOR ENDOC, NUTRIT & METAB DIS W CC""",11025.944444,Standard
 DIABETES W CC,5393.0,Standard
" MISC DISORDERS OF NUTRITION,METABOLISM,FLUIDS/ELECTROLYTES W MCC",7722.717391300001,Standard
 EXTENSIVE O.R. PROCEDURE UNRELATED TO PRINCIPAL DIAGNOSIS W MCC,26091.6,Standard
 SIGNS & SYMPTOMS W/O MCC,4886.8333333,Standard
 POISONING & TOXIC EFFECTS OF DRUGS W MCC,8443.7692308,Standard
 ALCOHOL/DRUG ABUSE OR DEPENDENCE W/O REHABILITATION THERAPY W/O MCC,4978.0909091,Standard
 PSYCHOSES,7346.304964499999,Standard
 SEPTICEMIA OR SEVERE SEPSIS W/O MV >96 HOURS W/O MCC,6530.4102563999995,Standard
 SEPTICEMIA OR SEVERE SEPSIS W/O MV >96 HOURS W MCC,11222.159722,Standard
 POSTOPERATIVE OR POST,11965.363636,Standard
 INFECTIOUS & PARASITIC DISEASES W O.R. PROCEDURE W MCC,33749.268293,Standard
 CHEMOTHERAPY W/O ACUTE LEUKEMIA AS SECONDARY DIAGNOSIS W CC,8550.2727273,Standard
 MAJOR MALE PELVIC PROCEDURES W/O CC/MCC,10297.193548000001,Standard
 OTHER KIDNEY & URINARY TRACT DIAGNOSES W CC,6649.0,Standard
 OTHER KIDNEY & URINARY TRACT DIAGNOSES W MCC,9446.5,Standard
 KIDNEY & URINARY TRACT INFECTIONS W/O MCC,5118.119403,Standard
 KIDNEY & URINARY TRACT INFECTIONS W MCC,6774.3111111,Standard
 RENAL FAILURE W CC,5780.018867899999,Standard
 RENAL FAILURE W MCC,9236.0,Standard
" ""MISC DISORDERS OF NUTRITION,METABOLISM,FLUIDS/ELECTROLYTES W/O MCC""",4705.471698100001,Standard
 HEART FAILURE & SHOCK W MCC,9509.0277778,Standard
 MEDICAL BACK PROBLEMS W/O MCC,5782.0344828,Standard
 OTHER MUSCULOSKELET SYS & CONN TISS O.R. PROC W CC,11599.272727,Standard
Level 4 Endovascular Procedures,13735.8599999999,DRG
 HIP & FEMUR PROCEDURES EXCEPT MAJOR JOINT W CC,12214.829268000001,Standard
" LOWER EXTREM & HUMER PROC EXCEPT HIP,FOOT,FEMUR W CC",13674.190476,Standard
 HYPERTENSION W MCC,6592.3333333,Standard
 HYPERTENSION W/O MCC,4506.0,Standard
 CARDIAC ARRHYTHMIA & CONDUCTION DISORDERS W MCC,7289.1851852,Standard
 CARDIAC ARRHYTHMIA & CONDUCTION DISORDERS W CC,4859.857142899999,Standard
 SYNCOPE & COLLAPSE,5021.2916667,Standard
 CHEST PAIN,4627.95,Standard
 OTHER CIRCULATORY SYSTEM DIAGNOSES W MCC,12213.045455,Standard
 MAJOR SMALL & LARGE BOWEL PROCEDURES W MCC,28712.933332999997,Standard
 MAJOR SMALL & LARGE BOWEL PROCEDURES W CC,14550.592593000001,Standard
 MAJOR SMALL & LARGE BOWEL PROCEDURES W/O CC/MCC,10170.043478,Standard
 PERITONEAL ADHESIOLYSIS W CC,13024.230769,Standard
 CARDIAC ARRHYTHMIA & CONDUCTION DISORDERS W/O CC/MCC,3772.5,Standard
 MAJOR GASTROINTESTINAL DISORDERS & PERITONEAL INFECTIONS W CC,6352.2941176,Standard
 MAJOR HIP AND KNEE JOINT REPLACEMENT OR REATTACHMENT OF LOWER EXTREM,20850.833333000002,Standard
 MAJOR HIP AND KNEE JOINT REPLACEMENT OR REATTACHMENT OF LOWER EXTREM,12891.401786,Standard
 MAJOR GASTROINTESTINAL DISORDERS & PERITONEAL INFECTIONS W MCC,10330.368421,Standard
 SPINAL FUSION EXCEPT CERVICAL W/O MCC,25772.173913,Standard
 CIRRHOSIS & ALCOHOLIC HEPATITIS W MCC,12667.909091,Standard
 DISORDERS OF PANCREAS EXCEPT MALIGNANCY W MCC,10040.230769,Standard
 OTHER DIGESTIVE SYSTEM DIAGNOSES W CC,5798.8181818,Standard
" ""ESOPHAGITIS, GASTROENT & MISC DIGEST DISORDERS W/O MCC""",4947.8529412,Standard
 G.I. OBSTRUCTION W CC,5423.4705882,Standard
 G.I. HEMORRHAGE W CC,6028.142857100001,Standard
 G.I. HEMORRHAGE W MCC,10355.619048,Standard
 LAPAROSCOPIC CHOLECYSTECTOMY W/O C.D.E. W CC,10833.928570999999,Standard
