Description,Charge,Category
 HIP & FEMUR PROCEDURES EXCEPT MAJOR JOINT W CC,11831.65,Standard
 SIMPLE PNEUMONIA & PLEURISY W/O CC/MCC,4667.4166667,Standard
 SIMPLE PNEUMONIA & PLEURISY W CC,5888.222222199999,Standard
 SIMPLE PNEUMONIA & PLEURISY W MCC,8615.174603200001,Standard
 CHRONIC OBSTRUCTIVE PULMONARY DISEASE W CC,5975.9285714,Standard
 CHRONIC OBSTRUCTIVE PULMONARY DISEASE W MCC,7416.0232558,Standard
 PULMONARY EDEMA & RESPIRATORY FAILURE,8136.7586207,Standard
 RESPIRATORY INFECTIONS & INFLAMMATIONS W CC,7807.8461538,Standard
 RESPIRATORY INFECTIONS & INFLAMMATIONS W MCC,11274.541667,Standard
 PULMONARY EMBOLISM W/O MCC,5774.1875,Standard
 PERMANENT CARDIAC PACEMAKER IMPLANT W CC,16947.357143,Standard
 OTHER RESP SYSTEM O.R. PROCEDURES W MCC,19415.625,Standard
 INTRACRANIAL HEMORRHAGE OR CEREBRAL INFARCTION W CC OR TPA IN 24 HRS,6800.0714286,Standard
 SIGNS & SYMPTOMS W/O MCC,4927.9090909,Standard
 RENAL FAILURE W CC,6653.6666667,Standard
 SEPTICEMIA OR SEVERE SEPSIS W/O MV >96 HOURS W/O MCC,6902.4,Standard
 SEPTICEMIA OR SEVERE SEPSIS W/O MV >96 HOURS W MCC,11205.631148,Standard
 INFECTIOUS & PARASITIC DISEASES W O.R. PROCEDURE W MCC,31245.0,Standard
 RED BLOOD CELL DISORDERS W/O MCC,6245.1764706,Standard
 OTHER KIDNEY & URINARY TRACT DIAGNOSES W CC,6540.5,Standard
 OTHER KIDNEY & URINARY TRACT DIAGNOSES W MCC,9626.6842105,Standard
 TRANSIENT ISCHEMIA W/O THROMBOLYTIC,4915.2307692,Standard
 KIDNEY & URINARY TRACT INFECTIONS W/O MCC,5102.8163265,Standard
 PERC CARDIOVASC PROC W DRUG,15307.0625,Standard
" ACUTE MYOCARDIAL INFARCTION, DISCHARGED ALIVE W CC",6745.6818182,Standard
 RENAL FAILURE W MCC,8325.0526316,Standard
" ""MISC DISORDERS OF NUTRITION,METABOLISM,FLUIDS/ELECTROLYTES W/O MCC""",4816.533333300001,Standard
" MISC DISORDERS OF NUTRITION,METABOLISM,FLUIDS/ELECTROLYTES W MCC",7707.1538462,Standard
 DIABETES W CC,6379.9166667,Standard
 CELLULITIS W/O MCC,5382.1081081,Standard
 MEDICAL BACK PROBLEMS W/O MCC,5629.1538462,Standard
 FRACTURES OF HIP & PELVIS W/O MCC,4692.7692308,Standard
 MAJOR JOINT/LIMB REATTACHMENT PROCEDURE OF UPPER EXTREMITIES,16085.555556,Standard
 MAJOR HIP AND KNEE JOINT REPLACEMENT OR REATTACHMENT OF LOWER EXTREM,13385.692308,Standard
" ""ACUTE MYOCARDIAL INFARCTION, DISCHARGED ALIVE W MCC""",11750.807692,Standard
 OTHER DIGESTIVE SYSTEM DIAGNOSES W CC,6053.4545455,Standard
 G.I. OBSTRUCTION W CC,5410.0526316000005,Standard
 G.I. HEMORRHAGE W CC,6295.0,Standard
 MAJOR SMALL & LARGE BOWEL PROCEDURES W CC,14821.636363999998,Standard
 CHEST PAIN,4624.8333333,Standard
 SYNCOPE & COLLAPSE,5183.086956499999,Standard
 CARDIAC ARRHYTHMIA & CONDUCTION DISORDERS W CC,4982.3529412,Standard
 CARDIAC ARRHYTHMIA & CONDUCTION DISORDERS W MCC,7520.6666667,Standard
 HEART FAILURE & SHOCK W MCC,8711.0204082,Standard
" CIRCULATORY DISORDERS EXCEPT AMI, W CARD CATH W/O MCC",7140.0,Standard
" ""ESOPHAGITIS, GASTROENT & MISC DIGEST DISORDERS W/O MCC""",5151.767857100001,Standard
 KIDNEY & URINARY TRACT INFECTIONS W MCC,6580.4375,Standard
 PSYCHOSES,7447.8072917,Standard
Level 4 Musculoskeletal Procedures,4213.2,DRG
Level 5 Gynecologic Procedures,3014.42,DRG
Level 4 Gynecologic Procedures,1707.97,DRG
Level 5 Urology and Related Services,2785.0599999999895,DRG
Level 4 Urology and Related Services,2026.58999999999,DRG
Level 3 Urology and Related Services,893.311190476191,DRG
Level 1 Laparoscopy and Related Services,3373.22,DRG
Level 2 Musculoskeletal Procedures,1014.48,DRG
Level 3 Musculoskeletal Procedures,1987.88,DRG
Abdominal/Peritoneal/Biliary and Related Procedures,2114.7863333333303,DRG
Level 2 Upper GI Procedures,1021.6,DRG
Level 2 ICD and Similar Procedures,27771.67,DRG
Level 3 Pacemaker and Similar Procedures,7843.76,DRG
Level 4 Endovascular Procedures,13735.86,DRG
Level 3 Endovascular Procedures,8326.5768,DRG
Level 2 Endovascular Procedures,3655.20434782608,DRG
Level 5 Musculoskeletal Procedures,8195.95999999999,DRG
Level 3 Airway Endoscopy,979.100992907805,DRG
Level 1 Nerve Procedures,1179.24717948717,DRG
Level 4 Airway Endoscopy,1880.8469565217301,DRG
Level 2 Neurostimulator and Related Procedures,3900.6514285714293,DRG
Comprehensive Observation Services,1730.7948387096699,DRG
Level 4 Neurostimulator and Related Procedures,23805.425217391297,DRG
Level 2 Excision/ Biopsy/ Incision and Drainage,994.770260869563,DRG
Level 3 Excision/ Biopsy/ Incision and Drainage,1747.11999999999,DRG
Level 1 Breast/Lymphatic Surgery and Related Procedures,2049.95,DRG
Level 1 Endovascular Procedures,1790.8461224489802,DRG
Level 2 Breast/Lymphatic Surgery and Related Procedures,3616.1,DRG
