Description,Charge,Category
Level 3 Endovascular Procedures,10531.4084018265,DRG
 CARDIAC ARRHYTHMIA & CONDUCTION DISORDERS W CC,6866.5648148,Standard
 CARDIAC ARRHYTHMIA & CONDUCTION DISORDERS W/O CC/MCC,5550.223301,Standard
 SYNCOPE & COLLAPSE,7150.3255813999995,Standard
 CHEST PAIN,6311.119403,Standard
 OTHER CIRCULATORY SYSTEM DIAGNOSES W MCC,15209.033333000001,Standard
 OTHER CIRCULATORY SYSTEM DIAGNOSES W CC,8294.333333300001,Standard
" STOMACH, ESOPHAGEAL & DUODENAL PROC W MCC",33211.181818,Standard
 MAJOR SMALL & LARGE BOWEL PROCEDURES W MCC,38437.137931,Standard
 MAJOR SMALL & LARGE BOWEL PROCEDURES W CC,19914.027778,Standard
 MAJOR SMALL & LARGE BOWEL PROCEDURES W/O CC/MCC,13686.928571,Standard
 MAJOR GASTROINTESTINAL DISORDERS & PERITONEAL INFECTIONS W MCC,14100.5,Standard
 MAJOR GASTROINTESTINAL DISORDERS & PERITONEAL INFECTIONS W CC,8959.4545455,Standard
 MAJOR GASTROINTESTINAL DISORDERS & PERITONEAL INFECTIONS W/O CC/MCC,6621.5454545,Standard
 DIGESTIVE MALIGNANCY W CC,10489.214286,Standard
 G.I. HEMORRHAGE W MCC,14199.259259,Standard
 G.I. HEMORRHAGE W CC,8747.4246575,Standard
 CIRRHOSIS & ALCOHOLIC HEPATITIS W CC,8826.857142899999,Standard
 CIRRHOSIS & ALCOHOLIC HEPATITIS W MCC,14996.090909,Standard
 LAPAROSCOPIC CHOLECYSTECTOMY W/O C.D.E. W/O CC/MCC,11851.357143000001,Standard
 LAPAROSCOPIC CHOLECYSTECTOMY W/O C.D.E. W CC,15024.1875,Standard
 OTHER DIGESTIVE SYSTEM DIAGNOSES W/O CC/MCC,6105.0625,Standard
 OTHER DIGESTIVE SYSTEM DIAGNOSES W CC,8218.02,Standard
 CARDIAC ARRHYTHMIA & CONDUCTION DISORDERS W MCC,10333.333333,Standard
 OTHER DIGESTIVE SYSTEM DIAGNOSES W MCC,13879.6,Standard
" ESOPHAGITIS, GASTROENT & MISC DIGEST DISORDERS W MCC",10436.384615,Standard
 G.I. OBSTRUCTION W/O CC/MCC,5901.1818182,Standard
 G.I. OBSTRUCTION W CC,7690.4705882,Standard
 G.I. OBSTRUCTION W MCC,14506.055556,Standard
 INFLAMMATORY BOWEL DISEASE W CC,8445.4,Standard
 G.I. HEMORRHAGE W/O CC/MCC,5878.472222199999,Standard
" ""ESOPHAGITIS, GASTROENT & MISC DIGEST DISORDERS W/O MCC""",6973.160173199999,Standard
 CARDIAC CONGENITAL & VALVULAR DISORDERS W/O MCC,7341.533333300001,Standard
 HYPERTENSION W/O MCC,6399.4745763,Standard
 HYPERTENSION W MCC,9039.8235294,Standard
 OTHER VASCULAR PROCEDURES W MCC,26414.615385,Standard
 PERC CARDIOVASC PROC W NON,16953.26087,Standard
 PERCUTANEOUS CARDIOVASCULAR PROCEDURES W NON,25218.230768999998,Standard
 PERC CARDIOVASC PROC W DRUG,18072.3,Standard
 PERCUTANEOUS CARDIOVASCULAR PROCEDURES W DRUG,26001.113924,Standard
 PERMANENT CARDIAC PACEMAKER IMPLANT W/O CC/MCC,20409.181818,Standard
 OTHER VASCULAR PROCEDURES W CC,20453.8125,Standard
 PERMANENT CARDIAC PACEMAKER IMPLANT W CC,22045.692308,Standard
 CORONARY BYPASS W/O CARDIAC CATH W/O MCC,32358.192307999998,Standard
Level 2 Endovascular Procedures,4555.347590909079,DRG
 CORONARY BYPASS W CARDIAC CATH W MCC,55878.705882,Standard
 CARDIAC VALVE & OTH MAJ CARDIOTHORACIC PROC W/O CARD CATH W CC,40049.705882,Standard
 RESPIRATORY SYSTEM DIAGNOSIS W VENTILATOR SUPPORT <=96 HOURS,18492.27451,Standard
 RESPIRATORY SYSTEM DIAGNOSIS W VENTILATOR SUPPORT >96 HOURS,40281.066667,Standard
 PERMANENT CARDIAC PACEMAKER IMPLANT W MCC,27900.863636000002,Standard
 DISORDERS OF PANCREAS EXCEPT MALIGNANCY W MCC,13197.461538,Standard
 OTHER CIRCULATORY SYSTEM O.R. PROCEDURES,30838.363636000002,Standard
 OTHER MAJOR CARDIOVASCULAR PROCEDURES W MCC,37788.2,Standard
 ATHEROSCLEROSIS W/O MCC,5992.0625,Standard
 PERIPHERAL VASCULAR DISORDERS W CC,8534.5357143,Standard
 PERIPHERAL VASCULAR DISORDERS W MCC,12418.142856999999,Standard
" ""CARDIAC ARREST, UNEXPLAINED W MCC OR PERIPHERAL EXTRACORPOREAL MEMB",12307.647059,Standard
 HEART FAILURE & SHOCK W/O CC/MCC,6201.0227273,Standard
 HEART FAILURE & SHOCK W CC,8356.4851485,Standard
 ENDOVASCULAR CARDIAC VALVE REPLACEMENT W/O MCC,50190.323529,Standard
" CIRCULATORY DISORDERS EXCEPT AMI, W CARD CATH W/O MCC",10267.408284000001,Standard
" ACUTE MYOCARDIAL INFARCTION, EXPIRED W MCC",14451.142856999999,Standard
" ""ACUTE MYOCARDIAL INFARCTION, DISCHARGED ALIVE W/O CC/MCC""",7008.5625,Standard
" ACUTE MYOCARDIAL INFARCTION, DISCHARGED ALIVE W CC",8550.9726027,Standard
" ""ACUTE MYOCARDIAL INFARCTION, DISCHARGED ALIVE W MCC""",13855.366071,Standard
 PERCUTANEOUS INTRACARDIAC PROCEDURES W MCC,28786.2,Standard
 OTHER MAJOR CARDIOVASCULAR PROCEDURES W CC,27290.8125,Standard
" ""CIRCULATORY DISORDERS EXCEPT AMI, W CARD CATH W MCC""",18815.569231,Standard
 DISORDERS OF PANCREAS EXCEPT MALIGNANCY W CC,7573.8333333,Standard
 DISORDERS OF PANCREAS EXCEPT MALIGNANCY W/O CC/MCC,6925.2,Standard
" ""DISORDERS OF LIVER EXCEPT MALIG,CIRR,ALC HEPA W MCC""",18011.722222,Standard
 ENDOCRINE DISORDERS W CC,9183.0,Standard
 RENAL FAILURE W MCC,12674.205479,Standard
 RENAL FAILURE W CC,8181.56,Standard
 RENAL FAILURE W/O CC/MCC,5744.9565217,Standard
 KIDNEY & URINARY TRACT INFECTIONS W MCC,9894.558139499999,Standard
 KIDNEY & URINARY TRACT INFECTIONS W/O MCC,7195.2631579,Standard
 URINARY STONES W/O ESW LITHOTRIPSY W/O MCC,7370.612903200001,Standard
 OTHER KIDNEY & URINARY TRACT DIAGNOSES W MCC,13781.355931999999,Standard
 OTHER KIDNEY & URINARY TRACT DIAGNOSES W CC,9273.883333299998,Standard
 RED BLOOD CELL DISORDERS W MCC,11309.095238,Standard
 RED BLOOD CELL DISORDERS W/O MCC,7739.1886792,Standard
 COAGULATION DISORDERS,13830.428571,Standard
 INFECTIOUS & PARASITIC DISEASES W O.R. PROCEDURE W MCC,39539.781818,Standard
 POSTOPERATIVE & POST,8274.166666699999,Standard
 FEVER AND INFLAMMATORY CONDITIONS,7584.7272727,Standard
 VIRAL ILLNESS W/O MCC,7095.0,Standard
 SEPTICEMIA OR SEVERE SEPSIS W MV >96 HOURS OR PERIPHERAL EXTRACORPOR,42427.057143,Standard
 EXTENSIVE O.R. PROCEDURE UNRELATED TO PRINCIPAL DIAGNOSIS W CC,19489.25,Standard
 EXTENSIVE O.R. PROCEDURE UNRELATED TO PRINCIPAL DIAGNOSIS W MCC,39391.151515,Standard
 SIGNS & SYMPTOMS W/O MCC,6753.0,Standard
 COMPLICATIONS OF TREATMENT W CC,8632.3636364,Standard
 POISONING & TOXIC EFFECTS OF DRUGS W/O MCC,6763.1153846,Standard
 POISONING & TOXIC EFFECTS OF DRUGS W MCC,12240.190476,Standard
" ""MISC DISORDERS OF NUTRITION,METABOLISM,FLUIDS/ELECTROLYTES W/O MCC""",6687.8037383,Standard
 ALCOHOL/DRUG ABUSE OR DEPENDENCE W/O REHABILITATION THERAPY W/O MCC,7059.5590551,Standard
" ""ALCOHOL/DRUG ABUSE OR DEPENDENCE, LEFT AMA""",4929.8846154,Standard
 PSYCHOSES,10184.328125,Standard
 ORGANIC DISTURBANCES & INTELLECTUAL DISABILITY,10172.456522,Standard
 DEPRESSIVE NEUROSES,6769.782608699999,Standard
 SEPTICEMIA OR SEVERE SEPSIS W/O MV >96 HOURS W/O MCC,9182.3448276,Standard
 SEPTICEMIA OR SEVERE SEPSIS W/O MV >96 HOURS W MCC,15166.052036000001,Standard
 ALCOHOL/DRUG ABUSE OR DEPENDENCE W/O REHABILITATION THERAPY W MCC,13549.789474000001,Standard
" MISC DISORDERS OF NUTRITION,METABOLISM,FLUIDS/ELECTROLYTES W MCC",10032.914894,Standard
 DIABETES W/O CC/MCC,5726.1538462,Standard
 DIABETES W CC,7639.202381,Standard
 MAJOR JOINT/LIMB REATTACHMENT PROCEDURE OF UPPER EXTREMITIES,20024.724137999998,Standard
 HIP & FEMUR PROCEDURES EXCEPT MAJOR JOINT W/O CC/MCC,13820.451613,Standard
 HIP & FEMUR PROCEDURES EXCEPT MAJOR JOINT W CC,16582.51087,Standard
 HIP & FEMUR PROCEDURES EXCEPT MAJOR JOINT W MCC,23390.736842,Standard
 CERVICAL SPINAL FUSION W CC,22810.833333000002,Standard
 MAJOR HIP AND KNEE JOINT REPLACEMENT OR REATTACHMENT OF LOWER EXTREM,17461.892473,Standard
" ""LOWER EXTREM & HUMER PROC EXCEPT HIP,FOOT,FEMUR W MCC""",46758.142857,Standard
 MAJOR HIP AND KNEE JOINT REPLACEMENT OR REATTACHMENT OF LOWER EXTREM,24425.954545,Standard
 REVISION OF HIP OR KNEE REPLACEMENT W CC,28032.0,Standard
 BILATERAL OR MULTIPLE MAJOR JOINT PROCS OF LOWER EXTREMITY W/O MCC,29274.545455,Standard
 SPINAL FUSION EXCEPT CERVICAL W/O MCC,33090.19697,Standard
 DISORDERS OF THE BILIARY TRACT W CC,9016.785714299998,Standard
 DISORDERS OF THE BILIARY TRACT W MCC,13375.214286,Standard
" DISORDERS OF LIVER EXCEPT MALIG,CIRR,ALC HEPA W CC",8091.4347826,Standard
 REVISION OF HIP OR KNEE REPLACEMENT W/O CC/MCC,22256.982456,Standard
 OTHER RESPIRATORY SYSTEM DIAGNOSES W/O MCC,7538.8666667,Standard
" LOWER EXTREM & HUMER PROC EXCEPT HIP,FOOT,FEMUR W CC",22694.294118,Standard
 OTHER MUSCULOSKELET SYS & CONN TISS O.R. PROC W CC,15447.458333,Standard
 DIABETES W MCC,13303.76,Standard
 O.R. PROCEDURES FOR OBESITY W/O CC/MCC,14345.538462,Standard
" ""TRAUMA TO THE SKIN, SUBCUT TISS & BREAST W/O MCC""",7492.9545455,Standard
 CELLULITIS W/O MCC,7700.4552238999995,Standard
 CELLULITIS W MCC,12120.607143000001,Standard
" FX, SPRN, STRN & DISL EXCEPT FEMUR, HIP, PELVIS & THIGH W/O MCC",7345.644444399999,Standard
" ""LOWER EXTREM & HUMER PROC EXCEPT HIP,FOOT,FEMUR W/O CC/MCC""",17854.777778,Standard
" ""TENDONITIS, MYOSITIS & BURSITIS W/O MCC""",7537.055555600001,Standard
 BONE DISEASES & ARTHROPATHIES W/O MCC,7678.6666667,Standard
 MEDICAL BACK PROBLEMS W/O MCC,9140.456310700001,Standard
 PATHOLOGICAL FRACTURES & MUSCULOSKELET & CONN TISS MALIG W CC,8649.9285714,Standard
 FRACTURES OF HIP & PELVIS W/O MCC,6593.4285714,Standard
 BACK & NECK PROC EXC SPINAL FUSION W/O CC/MCC,12230.636364,Standard
 OTHER MUSCULOSKELET SYS & CONN TISS O.R. PROC W/O CC/MCC,11964.333333,Standard
 SIGNS & SYMPTOMS OF MUSCULOSKELETAL SYSTEM & CONN TISSUE W/O MCC,6948.0909091,Standard
 BRONCHITIS & ASTHMA W/O CC/MCC,6834.05,Standard
 CORONARY BYPASS W CARDIAC CATH W/O MCC,47899.0,Standard
 PNEUMOTHORAX W CC,9185.25,Standard
Level 4 Airway Endoscopy,2149.00199999999,DRG
Level 5 Musculoskeletal Procedures,10145.7956896551,DRG
Level 4 Musculoskeletal Procedures,5079.11615942027,DRG
Level 3 Musculoskeletal Procedures,2332.10186440677,DRG
Level 2 Musculoskeletal Procedures,1221.80245901639,DRG
Level 2 Breast/Lymphatic Surgery and Related Procedures,4391.13,DRG
Level 1 Breast/Lymphatic Surgery and Related Procedures,2449.16967741935,DRG
Level 3 Excision/ Biopsy/ Incision and Drainage,2120.37304347826,DRG
Level 2 Excision/ Biopsy/ Incision and Drainage,1206.0294117647,DRG
" ""ECMO OR TRACH W MV >96 HRS OR PDX EXC FACE, MOUTH & NECK W MAJ O.R.",106112.73684,Standard
  CRANIOTOMY W MAJOR DEVICE IMPLANT OR ACUTE COMPLEX CNS PDX W MCC OR,42769.142857,Standard
 CRANIOTOMY & ENDOVASCULAR INTRACRANIAL PROCEDURES W MCC,36294.470588,Standard
 CRANIOTOMY & ENDOVASCULAR INTRACRANIAL PROCEDURES W CC,24621.181818,Standard
 SPINAL PROCEDURES W CC OR SPINAL NEUROSTIMULATORS,28179.5,Standard
 NERVOUS SYSTEM NEOPLASMS W MCC,11138.166667,Standard
 BRONCHITIS & ASTHMA W CC/MCC,8129.8363636,Standard
 DEGENERATIVE NERVOUS SYSTEM DISORDERS W MCC,15126.0,Standard
Level 1 Endovascular Procedures,2195.1820185614997,DRG
Level 1 Nerve Procedures,1314.97684210526,DRG
Level 4 Endovascular Procedures,16481.6985294117,DRG
Level 3 Electrophysiologic Procedures,19470.5779310344,DRG
Level 2 Pacemaker and Similar Procedures,7090.926585365859,DRG
Level 3 Pacemaker and Similar Procedures,9806.339999999991,DRG
Level 4 Pacemaker and Similar Procedures,18737.4536842105,DRG
Level 2 ICD and Similar Procedures,34005.31,DRG
Level 2 Upper GI Procedures,1276.3405102040801,DRG
Level 3 Upper GI Procedures,2503.56,DRG
Abdominal/Peritoneal/Biliary and Related Procedures,2538.8487999999898,DRG
Level 1 Laparoscopy and Related Services,4094.4921176470502,DRG
Level 2 Laparoscopy and Related Services,6762.82799999999,DRG
Level 3 Urology and Related Services,1536.5875,DRG
Level 4 Urology and Related Services,2460.95,DRG
Level 5 Urology and Related Services,3381.97,DRG
Level 4 Gynecologic Procedures,2029.5340384615301,DRG
Comprehensive Observation Services,2090.81515179395,DRG
 DEGENERATIVE NERVOUS SYSTEM DISORDERS W/O MCC,9504.0869565,Standard
 HEART FAILURE & SHOCK W MCC,12248.811671,Standard
" ""ISCHEMIC STROKE, PRECEREBRAL OCCLUSION OR TRANSIENT ISCHEMIA W THRO",15803.529412,Standard
 SIMPLE PNEUMONIA & PLEURISY W MCC,11403.330508,Standard
 CHRONIC OBSTRUCTIVE PULMONARY DISEASE W/O CC/MCC,6482.9534883999995,Standard
 CHRONIC OBSTRUCTIVE PULMONARY DISEASE W CC,8033.1440678,Standard
 CHRONIC OBSTRUCTIVE PULMONARY DISEASE W MCC,9850.3454545,Standard
 MAJOR CHEST TRAUMA W CC,13321.933332999999,Standard
 RESPIRATORY NEOPLASMS W CC,10077.083333,Standard
 RESPIRATORY NEOPLASMS W MCC,14005.75,Standard
 RESPIRATORY INFECTIONS & INFLAMMATIONS W CC,11203.035714,Standard
 RESPIRATORY INFECTIONS & INFLAMMATIONS W MCC,14920.9,Standard
 PULMONARY EMBOLISM W/O MCC,7773.2368421,Standard
 PULMONARY EMBOLISM W MCC,12326.272727,Standard
 OTHER DISORDERS OF NERVOUS SYSTEM W/O CC/MCC,6471.5833333,Standard
 OTITIS MEDIA & URI W/O MCC,6452.1818182,Standard
 DYSEQUILIBRIUM,6338.9285714,Standard
 SEIZURES W/O MCC,7503.3833333,Standard
 SEIZURES W MCC,13366.8,Standard
" ISCHEMIC STROKE, PRECEREBRAL OCCLUSION OR TRANSIENT ISCHEMIA W THROM",22445.2,Standard
 SIMPLE PNEUMONIA & PLEURISY W CC,8223.7307692,Standard
 SIMPLE PNEUMONIA & PLEURISY W/O CC/MCC,6529.0555556,Standard
 PULMONARY EDEMA & RESPIRATORY FAILURE,10522.623656,Standard
 INTRACRANIAL HEMORRHAGE OR CEREBRAL INFARCTION W MCC,14656.8,Standard
 OTHER DISORDERS OF NERVOUS SYSTEM W CC,8128.0,Standard
 CONCUSSION W CC,14334.529412,Standard
" ""TRAUMATIC STUPOR & COMA, COMA >1 HR W/O CC/MCC""",7856.826087,Standard
" TRAUMATIC STUPOR & COMA, COMA >1 HR W CC",10674.913043,Standard
" ""TRAUMATIC STUPOR & COMA, COMA >1 HR W MCC""",17503.933333,Standard
 CRANIAL & PERIPHERAL NERVE DISORDERS W/O MCC,8259.6842105,Standard
 TRANSIENT ISCHEMIA W/O THROMBOLYTIC,6701.5542169,Standard
 INTRACRANIAL HEMORRHAGE OR CEREBRAL INFARCTION W CC OR TPA IN 24 HRS,9140.3125,Standard
 INTRACRANIAL HEMORRHAGE OR CEREBRAL INFARCTION W/O CC/MCC,7418.680851100001,Standard
 NONSPECIFIC CVA & PRECEREBRAL OCCLUSION W/O INFARCT W/O MCC,7835.0,Standard
