Description,Charge,Category
 ALCOHOL/DRUG ABUSE OR DEPENDENCE W/O REHABILITATION THERAPY W/O MCC,6550.3888889,Standard
" ""ACUTE MYOCARDIAL INFARCTION, DISCHARGED ALIVE W MCC""",12384.865385,Standard
 OTHER CIRCULATORY SYSTEM O.R. PROCEDURES,23883.214286000002,Standard
 ORGANIC DISTURBANCES & INTELLECTUAL DISABILITY,9652.5625,Standard
 OTHER VASCULAR PROCEDURES W CC,20343.782609,Standard
 OTHER VASCULAR PROCEDURES W MCC,24236.352941,Standard
 PERC CARDIOVASC PROC W DRUG,15912.205881999998,Standard
 PERCUTANEOUS CARDIOVASCULAR PROCEDURES W DRUG,24340.666666999998,Standard
" ACUTE MYOCARDIAL INFARCTION, DISCHARGED ALIVE W CC",7882.421052600001,Standard
 SIMPLE PNEUMONIA & PLEURISY W/O CC/MCC,5795.6666667,Standard
 INTERSTITIAL LUNG DISEASE W MCC,12484.166667,Standard
 SIMPLE PNEUMONIA & PLEURISY W CC,7819.5225224999995,Standard
 SIMPLE PNEUMONIA & PLEURISY W MCC,10671.818181999999,Standard
 CHRONIC OBSTRUCTIVE PULMONARY DISEASE W/O CC/MCC,6599.5348837,Standard
 OTHER MAJOR CARDIOVASCULAR PROCEDURES W CC,25374.076923,Standard
 HEART FAILURE & SHOCK W CC,7746.985074600001,Standard
 HEART FAILURE & SHOCK W MCC,11431.534247,Standard
" CIRCULATORY DISORDERS EXCEPT AMI, W CARD CATH W/O MCC",9124.7,Standard
" ""CIRCULATORY DISORDERS EXCEPT AMI, W CARD CATH W MCC""",17095.26087,Standard
 BRONCHITIS & ASTHMA W CC/MCC,7708.594594600001,Standard
 OTHER MAJOR CARDIOVASCULAR PROCEDURES W MCC,36685.923077,Standard
 COMPLICATIONS OF TREATMENT W MCC,13305.454545,Standard
Level 2 Breast/Lymphatic Surgery and Related Procedures,4423.5,DRG
 CARDIAC ARRHYTHMIA & CONDUCTION DISORDERS W MCC,9657.7090909,Standard
" ESOPHAGITIS, GASTROENT & MISC DIGEST DISORDERS W MCC",9969.0869565,Standard
" ""ESOPHAGITIS, GASTROENT & MISC DIGEST DISORDERS W/O MCC""",6516.8387096999995,Standard
 OTHER DIGESTIVE SYSTEM DIAGNOSES W MCC,12646.714286,Standard
 OTHER DIGESTIVE SYSTEM DIAGNOSES W CC,7371.961538500001,Standard
 OTHER DIGESTIVE SYSTEM DIAGNOSES W/O CC/MCC,5829.6111111,Standard
 HYPERTENSION W/O MCC,5740.375,Standard
 LAPAROSCOPIC CHOLECYSTECTOMY W/O C.D.E. W MCC,18094.571429,Standard
 SEPTICEMIA OR SEVERE SEPSIS W/O MV >96 HOURS W/O MCC,8480.3942308,Standard
 SEPTICEMIA OR SEVERE SEPSIS W/O MV >96 HOURS W MCC,14421.38,Standard
 SEPTICEMIA OR SEVERE SEPSIS W MV >96 HOURS OR PERIPHERAL EXTRACORPOR,44664.133333,Standard
 FEVER AND INFLAMMATORY CONDITIONS,7099.4285714,Standard
 POSTOPERATIVE & POST,8332.0,Standard
 POSTOPERATIVE & POST,13881.416667,Standard
 LAPAROSCOPIC CHOLECYSTECTOMY W/O C.D.E. W CC,13415.352941,Standard
 PERIPHERAL VASCULAR DISORDERS W/O CC/MCC,6033.6,Standard
 PERIPHERAL VASCULAR DISORDERS W CC,8080.142857100001,Standard
 PERIPHERAL VASCULAR DISORDERS W MCC,10605.761905,Standard
Level 1 Endovascular Procedures,2233.3883464566898,DRG
Level 4 Airway Endoscopy,2405.38,DRG
Level 5 Musculoskeletal Procedures,10319.14,DRG
Level 4 Musculoskeletal Procedures,5107.17625000001,DRG
Level 3 Musculoskeletal Procedures,2429.37293577981,DRG
Level 2 Musculoskeletal Procedures,1240.85566666666,DRG
 DIABETES W CC,7026.7741935,Standard
Level 1 Breast/Lymphatic Surgery and Related Procedures,2375.68736842105,DRG
Level 3 Excision/ Biopsy/ Incision and Drainage,2070.42218749999,DRG
Level 2 Excision/ Biopsy/ Incision and Drainage,1230.5274999999901,DRG
 G.I. OBSTRUCTION W/O CC/MCC,6060.5294118,Standard
" ""TRAUMATIC STUPOR & COMA, COMA <1 HR W CC""",9126.272727299998,Standard
 CRANIAL & PERIPHERAL NERVE DISORDERS W/O MCC,7666.636363600001,Standard
 BRONCHITIS & ASTHMA W/O CC/MCC,5675.6470588,Standard
 HEART FAILURE & SHOCK W/O CC/MCC,5451.6,Standard
 INFECTIOUS & PARASITIC DISEASES W O.R. PROCEDURE W MCC,38824.709677,Standard
Level 2 Endovascular Procedures,4652.659122807,DRG
 CHEMOTHERAPY W/O ACUTE LEUKEMIA AS SECONDARY DIAGNOSIS W CC,9753.4736842,Standard
 UTERINE & ADNEXA PROC FOR NON,8164.0909091,Standard
 EXTRACRANIAL PROCEDURES W/O CC/MCC,8520.7857143,Standard
 NERVOUS SYSTEM NEOPLASMS W MCC,10242.846154,Standard
 DEGENERATIVE NERVOUS SYSTEM DISORDERS W/O MCC,8714.35,Standard
 INTRACRANIAL HEMORRHAGE OR CEREBRAL INFARCTION W MCC,13460.3,Standard
 INTRACRANIAL HEMORRHAGE OR CEREBRAL INFARCTION W CC OR TPA IN 24 HRS,9762.378378399999,Standard
 INTRACRANIAL HEMORRHAGE OR CEREBRAL INFARCTION W/O CC/MCC,6267.2631579,Standard
" ""MISC DISORDERS OF NUTRITION,METABOLISM,FLUIDS/ELECTROLYTES W/O MCC""",5956.5918366999995,Standard
 HIP & FEMUR PROCEDURES EXCEPT MAJOR JOINT W MCC,22503.846154,Standard
 HIP & FEMUR PROCEDURES EXCEPT MAJOR JOINT W/O CC/MCC,13179.0,Standard
 MAJOR JOINT/LIMB REATTACHMENT PROCEDURE OF UPPER EXTREMITIES,18242.28,Standard
 PATHOLOGICAL FRACTURES & MUSCULOSKELET & CONN TISS MALIG W CC,8366.7222222,Standard
 MEDICAL BACK PROBLEMS W/O MCC,6940.486486499999,Standard
" FX, SPRN, STRN & DISL EXCEPT FEMUR, HIP, PELVIS & THIGH W/O MCC",6437.0666667,Standard
 CELLULITIS W/O MCC,6894.0545455,Standard
 HIP & FEMUR PROCEDURES EXCEPT MAJOR JOINT W CC,15282.973684,Standard
 TRANSURETHRAL PROCEDURES W CC,12128.714286,Standard
 MAJOR HIP AND KNEE JOINT REPLACEMENT OR REATTACHMENT OF LOWER EXTREM,15463.525424000001,Standard
 MAJOR HIP AND KNEE JOINT REPLACEMENT OR REATTACHMENT OF LOWER EXTREM,24533.636363999998,Standard
 MAJOR MALE PELVIC PROCEDURES W/O CC/MCC,10219.545455,Standard
 OTHER KIDNEY & URINARY TRACT DIAGNOSES W CC,8022.0526316,Standard
 MALIGNANCY OF HEPATOBILIARY SYSTEM OR PANCREAS W CC,8859.133333299998,Standard
" ""DISORDERS OF LIVER EXCEPT MALIG,CIRR,ALC HEPA W MCC""",13964.769231,Standard
 DISORDERS OF THE BILIARY TRACT W CC,12410.916667,Standard
 SPINAL FUSION EXCEPT CERVICAL W/O MCC,31575.2,Standard
 BILATERAL OR MULTIPLE MAJOR JOINT PROCS OF LOWER EXTREMITY W/O MCC,27140.678570999997,Standard
 REVISION OF HIP OR KNEE REPLACEMENT W CC,25960.363636000002,Standard
 REVISION OF HIP OR KNEE REPLACEMENT W/O CC/MCC,21520.96,Standard
 OTHER KIDNEY & URINARY TRACT DIAGNOSES W MCC,12241.97561,Standard
 URINARY STONES W/O ESW LITHOTRIPSY W/O MCC,6485.0,Standard
 KIDNEY & URINARY TRACT INFECTIONS W/O MCC,6433.4390244,Standard
 KIDNEY & URINARY TRACT INFECTIONS W MCC,8504.75,Standard
 RENAL FAILURE W CC,7401.507692300001,Standard
 RENAL FAILURE W MCC,11614.756098,Standard
 RED BLOOD CELL DISORDERS W/O MCC,7023.8095238000005,Standard
Level 3 Endovascular Procedures,10736.1457297297,DRG
" MISC DISORDERS OF NUTRITION,METABOLISM,FLUIDS/ELECTROLYTES W MCC",9131.888888899999,Standard
Level 2 Pacemaker and Similar Procedures,7156.86999999999,DRG
 MAJOR SMALL & LARGE BOWEL PROCEDURES W CC,18781.137931,Standard
 POISONING & TOXIC EFFECTS OF DRUGS W/O MCC,6059.5454545,Standard
 MAJOR SMALL & LARGE BOWEL PROCEDURES W/O CC/MCC,13153.666667,Standard
 OTHER DIGESTIVE SYSTEM O.R. PROCEDURES W CC,15872.076922999999,Standard
 MAJOR GASTROINTESTINAL DISORDERS & PERITONEAL INFECTIONS W CC,8449.12,Standard
 MAJOR GASTROINTESTINAL DISORDERS & PERITONEAL INFECTIONS W/O CC/MCC,6582.3125,Standard
 DIGESTIVE MALIGNANCY W CC,9918.035714299998,Standard
 G.I. HEMORRHAGE W MCC,13116.333333,Standard
 G.I. HEMORRHAGE W CC,7834.8333333,Standard
 G.I. HEMORRHAGE W/O CC/MCC,5240.0,Standard
 CHRONIC OBSTRUCTIVE PULMONARY DISEASE W CC,7422.1355932,Standard
 CHRONIC OBSTRUCTIVE PULMONARY DISEASE W MCC,9195.0779221,Standard
Level 4 Endovascular Procedures,17095.2403947368,DRG
 PULMONARY EDEMA & RESPIRATORY FAILURE,9526.555555600002,Standard
 RESPIRATORY NEOPLASMS W CC,9100.5,Standard
 RESPIRATORY NEOPLASMS W MCC,12891.818181999999,Standard
 RESPIRATORY INFECTIONS & INFLAMMATIONS W CC,10104.771429,Standard
 SEIZURES W/O MCC,6690.432432399999,Standard
 OTITIS MEDIA & URI W/O MCC,6009.0833333,Standard
 MAJOR CHEST PROCEDURES W CC,23803.571429,Standard
 OTHER RESP SYSTEM O.R. PROCEDURES W MCC,26338.818182,Standard
 RESPIRATORY SYSTEM DIAGNOSIS W VENTILATOR SUPPORT <=96 HOURS,17920.5625,Standard
 PERMANENT CARDIAC PACEMAKER IMPLANT W MCC,27227.8125,Standard
 PERMANENT CARDIAC PACEMAKER IMPLANT W CC,19399.705882,Standard
 PERMANENT CARDIAC PACEMAKER IMPLANT W/O CC/MCC,16004.533333000001,Standard
 G.I. OBSTRUCTION W CC,7019.238095199999,Standard
 PULMONARY EMBOLISM W MCC,11286.363636,Standard
 MAJOR SMALL & LARGE BOWEL PROCEDURES W MCC,38937.95,Standard
 PULMONARY EMBOLISM W/O MCC,7281.08,Standard
 SEIZURES W MCC,12842.428570999999,Standard
" TRAUMATIC STUPOR & COMA, COMA <1 HR W/O CC/MCC",6504.0909091,Standard
Level 3 Pacemaker and Similar Procedures,9729.05949999999,DRG
Level 2 Upper GI Procedures,1312.18,DRG
Level 3 Lower GI Procedures,2128.73999999999,DRG
Abdominal/Peritoneal/Biliary and Related Procedures,2672.56962962962,DRG
Level 1 Laparoscopy and Related Services,4095.5978260869606,DRG
Level 2 Laparoscopy and Related Services,7414.77,DRG
Level 3 Urology and Related Services,1549.74625,DRG
Level 4 Urology and Related Services,2451.23505617977,DRG
Level 5 Urology and Related Services,3406.5501941747602,DRG
Level 4 Gynecologic Procedures,2051.23218181818,DRG
Level 5 Gynecologic Procedures,3687.48,DRG
 OTHER DISORDERS OF NERVOUS SYSTEM W CC,7357.9230769,Standard
 RESPIRATORY INFECTIONS & INFLAMMATIONS W MCC,14255.096774000001,Standard
 CARDIAC ARRHYTHMIA & CONDUCTION DISORDERS W CC,6335.1538462,Standard
 CARDIAC ARRHYTHMIA & CONDUCTION DISORDERS W/O CC/MCC,4598.8461538,Standard
 SYNCOPE & COLLAPSE,6513.38,Standard
 CHEST PAIN,5563.9230769,Standard
 OTHER CIRCULATORY SYSTEM DIAGNOSES W MCC,15139.733333000002,Standard
Level 1 Nerve Procedures,1478.20314285714,DRG
Level 2 Neurostimulator and Related Procedures,5645.36,DRG
Implantation of Drug Infusion Device,17579.06,DRG
Level 1 Intraocular Procedures,1755.27482935155,DRG
Level 2 Intraocular Procedures,3318.8475,DRG
Comprehensive Observation Services,2155.21921095003,DRG
