Description,Charge,Category
 SEPTICEMIA OR SEVERE SEPSIS W/O MV >96 HOURS W MCC,14414.757575999998,Standard
 CHRONIC OBSTRUCTIVE PULMONARY DISEASE W MCC,10277.117647,Standard
 SIMPLE PNEUMONIA & PLEURISY W CC,7647.7647059,Standard
 HEART FAILURE & SHOCK W MCC,11198.9375,Standard
 HEART FAILURE & SHOCK W CC,7774.5714286,Standard
" ""ESOPHAGITIS, GASTROENT & MISC DIGEST DISORDERS W/O MCC""",6386.7619048,Standard
 SYNCOPE & COLLAPSE,6667.7272727,Standard
Level 4 Musculoskeletal Procedures,5153.89999999999,DRG
Level 4 Neurostimulator and Related Procedures,30737.5,DRG
Comprehensive Observation Services,2160.15,DRG
 RED BLOOD CELL DISORDERS W/O MCC,7315.3333333,Standard
 KIDNEY & URINARY TRACT INFECTIONS W/O MCC,6641.4117647,Standard
 CELLULITIS W/O MCC,7042.2307692,Standard
Level 1 Nerve Procedures,1381.8186666666597,DRG
