Description,Charge,Category
Level 1 Endovascular Procedures,2065.92512195122,DRG
Level 2 Excision/ Biopsy/ Incision and Drainage,1058.99478260869,DRG
Level 3 Excision/ Biopsy/ Incision and Drainage,1964.4853333333301,DRG
Level 1 Breast/Lymphatic Surgery and Related Procedures,2316.22,DRG
Level 2 Musculoskeletal Procedures,1146.24,DRG
Level 4 Musculoskeletal Procedures,4701.549999999989,DRG
Level 5 Musculoskeletal Procedures,9431.06000000001,DRG
Level 4 Airway Endoscopy,2221.73,DRG
Level 2 Endovascular Procedures,3741.998,DRG
Level 3 Urology and Related Services,1375.78244444444,DRG
Level 2 Upper GI Procedures,1212.00999999999,DRG
Level 3 Lower GI Procedures,1608.7172727272698,DRG
Abdominal/Peritoneal/Biliary and Related Procedures,2325.4644117647,DRG
Level 1 Laparoscopy and Related Services,3711.0610526315704,DRG
Level 4 Urology and Related Services,2181.08534883721,DRG
Level 5 Urology and Related Services,2984.01777777777,DRG
Level 1 Intraocular Procedures,1396.22785714285,DRG
Comprehensive Observation Services,1968.6062536022898,DRG
Level 3 Endovascular Procedures,8706.720769230771,DRG
Level 3 Musculoskeletal Procedures,1976.5416,DRG
 MEDICAL BACK PROBLEMS W/O MCC,5996.764705899999,Standard
 DIABETES W CC,6282.0,Standard
 PULMONARY EDEMA & RESPIRATORY FAILURE,8743.772727299998,Standard
 RESPIRATORY INFECTIONS & INFLAMMATIONS W CC,8699.611111100001,Standard
 RESPIRATORY INFECTIONS & INFLAMMATIONS W MCC,12823.275,Standard
 INTRACRANIAL HEMORRHAGE OR CEREBRAL INFARCTION W/O CC/MCC,5093.25,Standard
 INTRACRANIAL HEMORRHAGE OR CEREBRAL INFARCTION W CC OR TPA IN 24 HRS,6882.4242423999995,Standard
 INTRACRANIAL HEMORRHAGE OR CEREBRAL INFARCTION W MCC,10684.615385,Standard
 SPINAL FUSION EXCEPT CERVICAL W/O MCC,25044.583333000002,Standard
 MAJOR HIP AND KNEE JOINT REPLACEMENT OR REATTACHMENT OF LOWER EXTREM,13608.061224000001,Standard
 HIP & FEMUR PROCEDURES EXCEPT MAJOR JOINT W CC,13532.366666999998,Standard
 FRACTURES OF HIP & PELVIS W/O MCC,5225.8333333,Standard
 CELLULITIS W MCC,9393.5263158,Standard
 CHRONIC OBSTRUCTIVE PULMONARY DISEASE W MCC,7737.787234,Standard
 CELLULITIS W/O MCC,5995.0238094999995,Standard
" MISC DISORDERS OF NUTRITION,METABOLISM,FLUIDS/ELECTROLYTES W MCC",8222.0,Standard
" ""MISC DISORDERS OF NUTRITION,METABOLISM,FLUIDS/ELECTROLYTES W/O MCC""",5164.592592600001,Standard
 RENAL FAILURE W MCC,10065.081081,Standard
 RENAL FAILURE W CC,6410.1842105,Standard
 KIDNEY & URINARY TRACT INFECTIONS W MCC,7182.6206897,Standard
 KIDNEY & URINARY TRACT INFECTIONS W/O MCC,5411.563636399999,Standard
 OTHER KIDNEY & URINARY TRACT DIAGNOSES W MCC,10232.62069,Standard
 RED BLOOD CELL DISORDERS W/O MCC,6450.136363600001,Standard
 COAGULATION DISORDERS,11754.0,Standard
 INFECTIOUS & PARASITIC DISEASES W O.R. PROCEDURE W MCC,32302.772727,Standard
 SEPTICEMIA OR SEVERE SEPSIS W/O MV >96 HOURS W MCC,12348.985577,Standard
 DIABETES W MCC,9144.4210526,Standard
 CHRONIC OBSTRUCTIVE PULMONARY DISEASE W CC,6393.078431399999,Standard
 CHRONIC OBSTRUCTIVE PULMONARY DISEASE W/O CC/MCC,4969.266666699999,Standard
 SIMPLE PNEUMONIA & PLEURISY W MCC,9144.8846154,Standard
 SYNCOPE & COLLAPSE,5490.9444444,Standard
 OTHER CIRCULATORY SYSTEM DIAGNOSES W MCC,11863.1,Standard
 MAJOR SMALL & LARGE BOWEL PROCEDURES W CC,17648.171428999998,Standard
 MAJOR GASTROINTESTINAL DISORDERS & PERITONEAL INFECTIONS W MCC,11905.083333,Standard
 MAJOR GASTROINTESTINAL DISORDERS & PERITONEAL INFECTIONS W CC,7505.8,Standard
 G.I. HEMORRHAGE W MCC,11126.904762,Standard
 G.I. HEMORRHAGE W CC,6793.7878788,Standard
 G.I. OBSTRUCTION W CC,5857.652173899999,Standard
" ""ESOPHAGITIS, GASTROENT & MISC DIGEST DISORDERS W/O MCC""",5251.5609756,Standard
 OTHER DIGESTIVE SYSTEM DIAGNOSES W MCC,10922.2,Standard
 OTHER DIGESTIVE SYSTEM DIAGNOSES W CC,6419.642857100001,Standard
 CARDIAC ARRHYTHMIA & CONDUCTION DISORDERS W MCC,8860.6875,Standard
 ATHEROSCLEROSIS W/O MCC,4944.4375,Standard
 HEART FAILURE & SHOCK W/O CC/MCC,4695.764705899999,Standard
 HEART FAILURE & SHOCK W CC,7127.9814815,Standard
 HEART FAILURE & SHOCK W MCC,10062.408805,Standard
" CIRCULATORY DISORDERS EXCEPT AMI, W CARD CATH W/O MCC",8399.130434800001,Standard
" ""CIRCULATORY DISORDERS EXCEPT AMI, W CARD CATH W MCC""",14291.037037,Standard
" ACUTE MYOCARDIAL INFARCTION, DISCHARGED ALIVE W CC",6418.3333333,Standard
" ""ACUTE MYOCARDIAL INFARCTION, DISCHARGED ALIVE W MCC""",10407.0,Standard
 OTHER VASCULAR PROCEDURES W MCC,21074.923077,Standard
 RESPIRATORY SYSTEM DIAGNOSIS W VENTILATOR SUPPORT <=96 HOURS,15534.4,Standard
 BRONCHITIS & ASTHMA W CC/MCC,6322.125,Standard
 SIMPLE PNEUMONIA & PLEURISY W/O CC/MCC,5273.8666667,Standard
 SIMPLE PNEUMONIA & PLEURISY W CC,6524.5849057,Standard
 SEPTICEMIA OR SEVERE SEPSIS W/O MV >96 HOURS W/O MCC,7079.285714300001,Standard
 CARDIAC ARRHYTHMIA & CONDUCTION DISORDERS W/O CC/MCC,3990.9375,Standard
 CARDIAC ARRHYTHMIA & CONDUCTION DISORDERS W CC,5569.206896600001,Standard
