Description,Charge,Category
 SYNCOPE & COLLAPSE,5469.0,Standard
 SEPTICEMIA OR SEVERE SEPSIS W/O MV >96 HOURS W MCC,12010.505495,Standard
 HEART FAILURE & SHOCK W CC,6404.1395349,Standard
 HEART FAILURE & SHOCK W MCC,9256.7746479,Standard
" ACUTE MYOCARDIAL INFARCTION, DISCHARGED ALIVE W CC",6208.3333333,Standard
" ""ACUTE MYOCARDIAL INFARCTION, DISCHARGED ALIVE W MCC""",9701.8333333,Standard
 RESPIRATORY SYSTEM DIAGNOSIS W VENTILATOR SUPPORT <=96 HOURS,15559.3125,Standard
 BRONCHITIS & ASTHMA W CC/MCC,6242.8235294,Standard
 SIMPLE PNEUMONIA & PLEURISY W/O CC/MCC,4879.733333300001,Standard
 HEART FAILURE & SHOCK W/O CC/MCC,4630.4,Standard
 SIMPLE PNEUMONIA & PLEURISY W CC,6250.7894737,Standard
 CHRONIC OBSTRUCTIVE PULMONARY DISEASE W CC,6312.735294100001,Standard
 CHRONIC OBSTRUCTIVE PULMONARY DISEASE W MCC,7669.732142899999,Standard
 PULMONARY EDEMA & RESPIRATORY FAILURE,8531.892857100001,Standard
 OTITIS MEDIA & URI W/O MCC,4993.857142899999,Standard
 OTHER DISORDERS OF NERVOUS SYSTEM W CC,6263.5833333,Standard
 INTRACRANIAL HEMORRHAGE OR CEREBRAL INFARCTION W CC OR TPA IN 24 HRS,6897.9375,Standard
 RED BLOOD CELL DISORDERS W/O MCC,5939.8333333,Standard
 CHRONIC OBSTRUCTIVE PULMONARY DISEASE W/O CC/MCC,5073.0588235,Standard
 PERIPHERAL VASCULAR DISORDERS W CC,6371.0769231,Standard
 SIMPLE PNEUMONIA & PLEURISY W MCC,9006.6086957,Standard
 CARDIAC ARRHYTHMIA & CONDUCTION DISORDERS W/O CC/MCC,4004.2307692,Standard
 KIDNEY & URINARY TRACT INFECTIONS W/O MCC,5513.6818182,Standard
 CARDIAC ARRHYTHMIA & CONDUCTION DISORDERS W CC,5364.8461538,Standard
 KIDNEY & URINARY TRACT INFECTIONS W MCC,6901.0909091,Standard
 RENAL FAILURE W CC,6228.982142899999,Standard
 RENAL FAILURE W MCC,9672.590909100001,Standard
" MISC DISORDERS OF NUTRITION,METABOLISM,FLUIDS/ELECTROLYTES W MCC",7906.8181818,Standard
 DIABETES W CC,5730.6666667,Standard
 CELLULITIS W/O MCC,5807.0232558,Standard
" ""MISC DISORDERS OF NUTRITION,METABOLISM,FLUIDS/ELECTROLYTES W/O MCC""",5201.516129,Standard
" FX, SPRN, STRN & DISL EXCEPT FEMUR, HIP, PELVIS & THIGH W/O MCC",5710.0,Standard
 HIP & FEMUR PROCEDURES EXCEPT MAJOR JOINT W CC,13583.8,Standard
 MAJOR HIP AND KNEE JOINT REPLACEMENT OR REATTACHMENT OF LOWER EXTREM,14151.666667,Standard
 OTHER DIGESTIVE SYSTEM DIAGNOSES W CC,6446.3333333,Standard
" ""ESOPHAGITIS, GASTROENT & MISC DIGEST DISORDERS W/O MCC""",5358.7380952,Standard
 G.I. OBSTRUCTION W/O CC/MCC,4227.2142857,Standard
 G.I. HEMORRHAGE W CC,6616.7,Standard
 CHEST PAIN,5035.0,Standard
