Description,Charge,Category
Level 7 Radiation Therapy,6009.7070967742,DRG
Level 5 Musculoskeletal Procedures,8564.48398648644,DRG
Level 4 Musculoskeletal Procedures,4341.455763157871,DRG
Comprehensive Observation Services,1798.19691249108,DRG
Level 2 Musculoskeletal Procedures,1040.6835,DRG
Level 4 Breast/Lymphatic Surgery and Related Procedures,9885.75,DRG
Level 2 Breast/Lymphatic Surgery and Related Procedures,3741.3666972477004,DRG
Level 1 Breast/Lymphatic Surgery and Related Procedures,2124.7944047619,DRG
Level 3 Excision/ Biopsy/ Incision and Drainage,1807.05684563758,DRG
Level 2 Excision/ Biopsy/ Incision and Drainage,1047.50312559016,DRG
"Level 4 Extraocular, Repair, and Plastic Eye Procedures",2321.89875,DRG
Level 3 Airway Endoscopy,976.073095238096,DRG
Level 3 Musculoskeletal Procedures,2055.2438367347,DRG
 BRONCHITIS & ASTHMA W CC/MCC,7344.6350365,Standard
" TRACH W MV >96 HRS OR PDX EXC FACE, MOUTH & NECK W/O MAJ O.R.",109684.8,Standard
" ""MISC DISORDERS OF NUTRITION,METABOLISM,FLUIDS/ELECTROLYTES W/O MCC""",5902.2405659999995,Standard
 ENDOCRINE DISORDERS W MCC,12891.703704000001,Standard
 ENDOCRINE DISORDERS W CC,7977.25,Standard
 KIDNEY TRANSPLANT,34392.566667,Standard
 MAJOR GASTROINTESTINAL DISORDERS & PERITONEAL INFECTIONS W CC,8323.2325581,Standard
 MAJOR GASTROINTESTINAL DISORDERS & PERITONEAL INFECTIONS W MCC,13004.674418999999,Standard
 OTHER DIGESTIVE SYSTEM O.R. PROCEDURES W MCC,40356.565217,Standard
 HERNIA PROCEDURES EXCEPT INGUINAL & FEMORAL W/O CC/MCC,10447.933332999999,Standard
 KIDNEY & URETER PROCEDURES FOR NEOPLASM W CC,14487.0625,Standard
 KIDNEY & URETER PROCEDURES FOR NEOPLASM W/O CC/MCC,11454.75,Standard
 KIDNEY & URETER PROCEDURES FOR NON,25565.058824,Standard
 KIDNEY & URETER PROCEDURES FOR NON,13238.916667,Standard
 TRANSURETHRAL PROCEDURES W CC,10501.769231,Standard
 OTHER KIDNEY & URINARY TRACT PROCEDURES W MCC,29496.416667,Standard
 OTHER KIDNEY & URINARY TRACT PROCEDURES W CC,19755.846154,Standard
" MISC DISORDERS OF NUTRITION,METABOLISM,FLUIDS/ELECTROLYTES W MCC",9098.4971429,Standard
 RENAL FAILURE W MCC,11709.396906999998,Standard
 DIGESTIVE MALIGNANCY W MCC,15320.642856999999,Standard
 G.I. HEMORRHAGE W MCC,13651.862068999999,Standard
" PANCREAS, LIVER & SHUNT PROCEDURES W CC",22471.210526,Standard
" ""PANCREAS, LIVER & SHUNT PROCEDURES W MCC""",41216.074074000004,Standard
 OTHER DIGESTIVE SYSTEM DIAGNOSES W/O CC/MCC,5259.6875,Standard
 OTHER DIGESTIVE SYSTEM DIAGNOSES W CC,7813.702970300001,Standard
 OTHER DIGESTIVE SYSTEM DIAGNOSES W MCC,12837.191176,Standard
" ""ESOPHAGITIS, GASTROENT & MISC DIGEST DISORDERS W/O MCC""",6072.8411458,Standard
" ESOPHAGITIS, GASTROENT & MISC DIGEST DISORDERS W MCC",9628.0814815,Standard
 G.I. OBSTRUCTION W/O CC/MCC,4973.2058824,Standard
 G.I. OBSTRUCTION W CC,6801.2278481,Standard
 G.I. OBSTRUCTION W MCC,15371.357143000001,Standard
 INFLAMMATORY BOWEL DISEASE W CC,7446.1176471,Standard
 UNCOMPLICATED PEPTIC ULCER W/O MCC,6734.1818182,Standard
 COMPLICATED PEPTIC ULCER W CC,8221.5333333,Standard
 G.I. HEMORRHAGE W/O CC/MCC,5048.45,Standard
 G.I. HEMORRHAGE W CC,7892.042857100001,Standard
 DIGESTIVE MALIGNANCY W CC,9599.71875,Standard
 RENAL FAILURE W CC,7252.580392199999,Standard
 RENAL FAILURE W/O CC/MCC,5039.5263158,Standard
Level 1 ICD and Similar Procedures,19607.9643999999,DRG
 FEMALE REPRODUCTIVE SYSTEM RECONSTRUCTIVE PROCEDURES,9600.9166667,Standard
 MAJOR HEMATOL/IMMUN DIAG EXC SICKLE CELL CRISIS & COAGUL W MCC,18618.888888999998,Standard
 MAJOR HEMATOL/IMMUN DIAG EXC SICKLE CELL CRISIS & COAGUL W CC,9196.0588235,Standard
 RED BLOOD CELL DISORDERS W MCC,10381.980392,Standard
 RED BLOOD CELL DISORDERS W/O MCC,6931.0,Standard
 COAGULATION DISORDERS,13006.933332999999,Standard
 LYMPHOMA & NON,24497.206897,Standard
 LYMPHOMA & NON,13481.5,Standard
 CHEMOTHERAPY W/O ACUTE LEUKEMIA AS SECONDARY DIAGNOSIS W CC,10017.619048,Standard
 INFECTIOUS & PARASITIC DISEASES W O.R. PROCEDURE W MCC,43218.909091,Standard
 INFECTIOUS & PARASITIC DISEASES W O.R. PROCEDURE W CC,18108.058824,Standard
 POSTOPERATIVE OR POST,38568.555556,Standard
" ""STOMACH, ESOPHAGEAL & DUODENAL PROC W CC""",17252.64,Standard
" STOMACH, ESOPHAGEAL & DUODENAL PROC W MCC",36177.0,Standard
 OTHER CIRCULATORY SYSTEM DIAGNOSES W CC,8040.75,Standard
 UTERINE & ADNEXA PROC FOR NON,8087.4,Standard
 INFLAMMATION OF THE MALE REPRODUCTIVE SYSTEM W/O MCC,6301.9166667,Standard
 MAJOR MALE PELVIC PROCEDURES W/O CC/MCC,13034.24,Standard
" STOMACH, ESOPHAGEAL & DUODENAL PROC W/O CC/MCC",11747.588235,Standard
Level 2 ICD and Similar Procedures,29130.194342105202,DRG
Level 2 Upper GI Procedures,1113.80486577181,DRG
 HERNIA PROCEDURES EXCEPT INGUINAL & FEMORAL W CC,12573.677419,Standard
Level 3 Upper GI Procedures,2121.16242424242,DRG
Level 3 Lower GI Procedures,1818.52076923077,DRG
 KIDNEY & URINARY TRACT INFECTIONS W MCC,8388.8979592,Standard
 KIDNEY & URINARY TRACT INFECTIONS W/O MCC,6262.506383,Standard
 DIABETES W CC,6827.295082,Standard
 URINARY STONES W/O ESW LITHOTRIPSY W/O MCC,6335.7027026999995,Standard
 OTHER KIDNEY & URINARY TRACT DIAGNOSES W MCC,12300.318519,Standard
 OTHER KIDNEY & URINARY TRACT DIAGNOSES W CC,8300.275,Standard
 OTHER KIDNEY & URINARY TRACT DIAGNOSES W/O CC/MCC,5881.25,Standard
 PERITONEAL ADHESIOLYSIS W CC,17889.391304,Standard
 MAJOR SMALL & LARGE BOWEL PROCEDURES W/O CC/MCC,12767.627118999999,Standard
 MAJOR SMALL & LARGE BOWEL PROCEDURES W CC,18591.855768999998,Standard
 MAJOR SMALL & LARGE BOWEL PROCEDURES W MCC,42061.365079,Standard
 KIDNEY & URINARY TRACT SIGNS & SYMPTOMS W/O MCC,5506.5714286,Standard
 DIABETES W MCC,9913.5454545,Standard
" ""OTHER ENDOCRINE, NUTRIT & METAB O.R. PROC W CC""",17151.0,Standard
 O.R. PROCEDURES FOR OBESITY W/O CC/MCC,12081.157895,Standard
Level 3 Electrophysiologic Procedures,16743.2351923076,DRG
Level 4 Endovascular Procedures,14429.9305882352,DRG
Level 3 Endovascular Procedures,8853.64599999994,DRG
Level 2 Endovascular Procedures,3870.6321192053,DRG
Level 1 Endovascular Procedures,1894.59934560328,DRG
Level 5 ENT Procedures,3388.14677419354,DRG
Level 4 ENT Procedures,1729.95,DRG
Level 5 Airway Endoscopy,3826.55,DRG
Level 4 Airway Endoscopy,2032.34430379746,DRG
 HIP & FEMUR PROCEDURES EXCEPT MAJOR JOINT W MCC,27589.25,Standard
 HIP & FEMUR PROCEDURES EXCEPT MAJOR JOINT W CC,15244.794872,Standard
 HIP & FEMUR PROCEDURES EXCEPT MAJOR JOINT W/O CC/MCC,12750.807692,Standard
 MAJOR JOINT/LIMB REATTACHMENT PROCEDURE OF UPPER EXTREMITIES,18317.477156999998,Standard
" ""LOWER EXTREM & HUMER PROC EXCEPT HIP,FOOT,FEMUR W MCC""",24461.727273,Standard
" LOWER EXTREM & HUMER PROC EXCEPT HIP,FOOT,FEMUR W CC",16636.435484,Standard
Level 2 Pacemaker and Similar Procedures,5934.04076923077,DRG
Level 3 Pacemaker and Similar Procedures,8271.45776595744,DRG
" ""DISORDERS OF LIVER EXCEPT MALIG,CIRR,ALC HEPA W MCC""",14042.065217,Standard
" DISORDERS OF LIVER EXCEPT MALIG,CIRR,ALC HEPA W CC",7619.607142899999,Standard
 CERVICAL SPINAL FUSION W CC,20725.0,Standard
 BIOPSIES OF MUSCULOSKELETAL SYSTEM & CONNECTIVE TISSUE W CC,16560.083333000002,Standard
 MAJOR HIP AND KNEE JOINT REPLACEMENT OR REATTACHMENT OF LOWER EXTREM,14982.844394,Standard
 MAJOR HIP AND KNEE JOINT REPLACEMENT OR REATTACHMENT OF LOWER EXTREM,22365.41573,Standard
" ""ECMO OR TRACH W MV >96 HRS OR PDX EXC FACE, MOUTH & NECK W MAJ O.R.",152985.72,Standard
 REVISION OF HIP OR KNEE REPLACEMENT W/O CC/MCC,20445.90625,Standard
 REVISION OF HIP OR KNEE REPLACEMENT W CC,23352.790322999997,Standard
" ""LOWER EXTREM & HUMER PROC EXCEPT HIP,FOOT,FEMUR W/O CC/MCC""",12888.84,Standard
 REVISION OF HIP OR KNEE REPLACEMENT W MCC,32094.375,Standard
 SPINAL FUSION EXCEPT CERVICAL W/O MCC,29374.854545,Standard
 SPINAL FUSION EXCEPT CERVICAL W MCC,41975.777777999996,Standard
 SPINAL FUS EXC CERV W SPINAL CURV/MALIG/INFEC OR EXT FUS W CC,48501.363636,Standard
 COMBINED ANTERIOR/POSTERIOR SPINAL FUSION W/O CC/MCC,36078.027027,Standard
 COMBINED ANTERIOR/POSTERIOR SPINAL FUSION W CC,47152.03125,Standard
 DISORDERS OF THE BILIARY TRACT W CC,8089.96875,Standard
 DISORDERS OF THE BILIARY TRACT W MCC,13789.793103,Standard
" WND DEBRID & SKN GRFT EXC HAND, FOR MUSCULO",20381.230768999998,Standard
 OTHER CIRCULATORY SYSTEM DIAGNOSES W MCC,15117.061856,Standard
 SOFT TISSUE PROCEDURES W CC,12731.176470999999,Standard
 OTHER MUSCULOSKELET SYS & CONN TISS O.R. PROC W CC,14493.775,Standard
 DISORDERS OF PANCREAS EXCEPT MALIGNANCY W MCC,12622.476190000001,Standard
 MALIGNANCY OF HEPATOBILIARY SYSTEM OR PANCREAS W CC,8838.357142899999,Standard
 MALIGNANCY OF HEPATOBILIARY SYSTEM OR PANCREAS W MCC,13716.741935,Standard
 CIRRHOSIS & ALCOHOLIC HEPATITIS W CC,8360.8947368,Standard
 CIRRHOSIS & ALCOHOLIC HEPATITIS W MCC,16289.966666999999,Standard
 LAPAROSCOPIC CHOLECYSTECTOMY W/O C.D.E. W/O CC/MCC,10185.117647,Standard
 LAPAROSCOPIC CHOLECYSTECTOMY W/O C.D.E. W CC,12837.0625,Standard
 LAPAROSCOPIC CHOLECYSTECTOMY W/O C.D.E. W MCC,18242.647059,Standard
 BIOPSIES OF MUSCULOSKELETAL SYSTEM & CONNECTIVE TISSUE W MCC,34221.133333,Standard
 CELLULITIS W/O MCC,6716.564220199999,Standard
" ""TRAUMA TO THE SKIN, SUBCUT TISS & BREAST W/O MCC""",7869.260869600001,Standard
 MINOR SKIN DISORDERS W/O MCC,6413.5454545,Standard
 ADRENAL & PITUITARY PROCEDURES W CC/MCC,19737.333333000002,Standard
" ""AMPUTAT OF LOWER LIMB FOR ENDOCRINE,NUTRIT,& METABOL DIS W CC""",15982.769231,Standard
 O.R. PROCEDURES FOR OBESITY W CC,13409.846154,Standard
 DISORDERS OF PANCREAS EXCEPT MALIGNANCY W CC,6940.9148936,Standard
 DISORDERS OF PANCREAS EXCEPT MALIGNANCY W/O CC/MCC,5074.75,Standard
 CELLULITIS W MCC,10912.945205,Standard
 SKIN ULCERS W CC,7913.857142899999,Standard
 OTHER MUSCULOSKELET SYS & CONN TISS O.R. PROC W/O CC/MCC,11898.076923,Standard
 BACK & NECK PROC EXC SPINAL FUSION W CC,13286.176470999999,Standard
 FRACTURES OF HIP & PELVIS W/O MCC,5904.4285714,Standard
 PATHOLOGICAL FRACTURES & MUSCULOSKELET & CONN TISS MALIG W MCC,13455.115385,Standard
 PATHOLOGICAL FRACTURES & MUSCULOSKELET & CONN TISS MALIG W CC,8433.6904762,Standard
 MEDICAL BACK PROBLEMS W MCC,13000.105263,Standard
 MEDICAL BACK PROBLEMS W/O MCC,6916.5395683,Standard
 OTHER MUSCULOSKELET SYS & CONN TISS O.R. PROC W MCC,23530.5,Standard
 BONE DISEASES & ARTHROPATHIES W/O MCC,6042.239130399999,Standard
" ""TENDONITIS, MYOSITIS & BURSITIS W/O MCC""",6686.4285714,Standard
" ""AFTERCARE, MUSCULOSKELETAL SYSTEM & CONNECTIVE TISSUE W CC""",8354.333333300001,Standard
" ""FX, SPRN, STRN & DISL EXCEPT FEMUR, HIP, PELVIS & THIGH W MCC""",10654.470588,Standard
" FX, SPRN, STRN & DISL EXCEPT FEMUR, HIP, PELVIS & THIGH W/O MCC",6303.907407399999,Standard
 OTHER MUSCULOSKELETAL SYS & CONNECTIVE TISSUE DIAGNOSES W CC,7727.692307699999,Standard
" OTHER SKIN, SUBCUT TISS & BREAST PROC W CC",12103.3125,Standard
 SKIN ULCERS W MCC,11142.090909,Standard
 SIGNS & SYMPTOMS OF MUSCULOSKELETAL SYSTEM & CONN TISSUE W/O MCC,6022.6551724,Standard
 CHEST PAIN,5602.4971098000005,Standard
 CERVICAL SPINAL FUSION W/O CC/MCC,17662.1,Standard
 CARDIAC ARRHYTHMIA & CONDUCTION DISORDERS W/O CC/MCC,4752.601769899999,Standard
 CRANIOTOMY & ENDOVASCULAR INTRACRANIAL PROCEDURES W CC,22833.190476,Standard
 EXTRACRANIAL PROCEDURES W CC,11622.787879000001,Standard
 SYNCOPE & COLLAPSE,6422.3031496,Standard
 RESPIRATORY INFECTIONS & INFLAMMATIONS W MCC,14346.165414,Standard
 PULMONARY EMBOLISM W/O MCC,7311.6875,Standard
 PULMONARY EMBOLISM W MCC,11495.192308,Standard
 OTHER RESP SYSTEM O.R. PROCEDURES W CC,14367.111111000002,Standard
Level 2 Laparoscopy and Related Services,5954.02824324324,DRG
Level 3 Urology and Related Services,1315.6099734748,DRG
Level 4 Urology and Related Services,2089.06164750957,DRG
Level 5 Urology and Related Services,2883.8945685279,DRG
Level 6 Urology and Related Services,6137.385,DRG
Level 7 Urology and Related Services,14123.28,DRG
Level 4 Gynecologic Procedures,1748.6963559322,DRG
Level 5 Gynecologic Procedures,3149.50857142857,DRG
 RESPIRATORY INFECTIONS & INFLAMMATIONS W CC,9866.8709677,Standard
Level 6 Gynecologic Procedures,4865.25874999999,DRG
 RESPIRATORY NEOPLASMS W MCC,14726.551724,Standard
 MAJOR CHEST TRAUMA W CC,8390.1935484,Standard
Level 1 Laparoscopy and Related Services,3478.7730819672197,DRG
 PNEUMOTHORAX W CC,8641.2352941,Standard
 INTERSTITIAL LUNG DISEASE W MCC,14849.538462,Standard
 SIMPLE PNEUMONIA & PLEURISY W/O CC/MCC,6235.7241379,Standard
 SIMPLE PNEUMONIA & PLEURISY W CC,7215.0331492,Standard
 SIMPLE PNEUMONIA & PLEURISY W MCC,10418.792952,Standard
  CRANIOTOMY W MAJOR DEVICE IMPLANT OR ACUTE COMPLEX CNS PDX W MCC OR,39602.625,Standard
 CHRONIC OBSTRUCTIVE PULMONARY DISEASE W/O CC/MCC,5779.4615385,Standard
 CHRONIC OBSTRUCTIVE PULMONARY DISEASE W CC,7788.355140199999,Standard
 NONSPECIFIC CEREBROVASCULAR DISORDERS W MCC,13379.261905,Standard
 CRANIOTOMY & ENDOVASCULAR INTRACRANIAL PROCEDURES W MCC,32452.622642000002,Standard
 CHRONIC OBSTRUCTIVE PULMONARY DISEASE W MCC,9018.059139799998,Standard
 PULMONARY EDEMA & RESPIRATORY FAILURE,10187.792157,Standard
 PLEURAL EFFUSION W CC,7880.0,Standard
 PLEURAL EFFUSION W MCC,10845.428570999999,Standard
 RESPIRATORY NEOPLASMS W CC,9909.076923100001,Standard
Level 1 Nerve Procedures,1242.2624193548402,DRG
Level 2 Neurostimulator and Related Procedures,4287.447,DRG
Level 3 Neurostimulator and Related Procedures,16749.88,DRG
 INTRACRANIAL HEMORRHAGE OR CEREBRAL INFARCTION W/O CC/MCC,6136.2368421,Standard
 NEUROLOGICAL EYE DISORDERS,5837.3125,Standard
 HEADACHES W/O MCC,5932.0,Standard
 SEIZURES W/O MCC,6736.4545455,Standard
 SEIZURES W MCC,14231.272727000001,Standard
 OTHER DISORDERS OF NERVOUS SYSTEM W/O CC/MCC,5770.0,Standard
 OTHER DISORDERS OF NERVOUS SYSTEM W CC,7246.080645199999,Standard
 OTHER DISORDERS OF NERVOUS SYSTEM W MCC,11356.666667,Standard
" ""TRAUMATIC STUPOR & COMA, COMA <1 HR W CC""",9056.1363636,Standard
" TRAUMATIC STUPOR & COMA, COMA <1 HR W MCC",18420.454545,Standard
" ""TRAUMATIC STUPOR & COMA, COMA >1 HR W MCC""",16240.941175999998,Standard
 HYPERTENSIVE ENCEPHALOPATHY W CC,7638.2222222,Standard
 CRANIAL & PERIPHERAL NERVE DISORDERS W/O MCC,7477.8181818,Standard
 CRANIAL & PERIPHERAL NERVE DISORDERS W MCC,10853.25,Standard
 NONSPECIFIC CEREBROVASCULAR DISORDERS W CC,7759.3877551,Standard
 INTRACRANIAL HEMORRHAGE OR CEREBRAL INFARCTION W CC OR TPA IN 24 HRS,8263.7597403,Standard
 INTRACRANIAL HEMORRHAGE OR CEREBRAL INFARCTION W MCC,14240.173077000001,Standard
 MULTIPLE SCLEROSIS & CEREBELLAR ATAXIA W/O CC/MCC,8013.9411765,Standard
 MULTIPLE SCLEROSIS & CEREBELLAR ATAXIA W CC,8951.6363636,Standard
Level 4 Neurostimulator and Related Procedures,23365.372631578903,DRG
Level 1 Intraocular Procedures,1478.6975774134803,DRG
Level 2 Intraocular Procedures,2787.6114367816,DRG
"Level 3 Extraocular, Repair, and Plastic Eye Procedures",1401.9573983739801,DRG
 OTHER RESP SYSTEM O.R. PROCEDURES W MCC,30029.203704000003,Standard
 MAJOR CHEST PROCEDURES W/O CC/MCC,13850.411765,Standard
 MAJOR CHEST PROCEDURES W CC,19657.73913,Standard
 BRONCHITIS & ASTHMA W/O CC/MCC,5569.64,Standard
 MAJOR CHEST PROCEDURES W MCC,40716.0,Standard
 OTITIS MEDIA & URI W/O MCC,5675.12,Standard
 DYSEQUILIBRIUM,5765.3428571,Standard
 OTHER DISORDERS OF THE EYE W/O MCC,5886.0,Standard
 EXTRACRANIAL PROCEDURES W/O CC/MCC,9019.105263200001,Standard
 NERVOUS SYSTEM NEOPLASMS W MCC,10798.032258,Standard
 DEGENERATIVE NERVOUS SYSTEM DISORDERS W MCC,14984.745762999999,Standard
 DEGENERATIVE NERVOUS SYSTEM DISORDERS W/O MCC,8797.0666667,Standard
" ""OTHER EAR, NOSE, MOUTH & THROAT DIAGNOSES W CC""",6684.095238100001,Standard
 RESPIRATORY SIGNS & SYMPTOMS,6162.7307692,Standard
 TRANSIENT ISCHEMIA W/O THROMBOLYTIC,5988.036363600001,Standard
 OTHER RESPIRATORY SYSTEM DIAGNOSES W/O MCC,6754.2222222,Standard
 SIGNS & SYMPTOMS W MCC,8737.625,Standard
 SIGNS & SYMPTOMS W/O MCC,6272.0,Standard
 EXTENSIVE O.R. PROCEDURE UNRELATED TO PRINCIPAL DIAGNOSIS W MCC,34696.835616000004,Standard
 OTHER VASCULAR PROCEDURES W/O CC/MCC,13331.076923,Standard
 OTHER CIRCULATORY SYSTEM O.R. PROCEDURES,25981.647059,Standard
 ENDOVASCULAR CARDIAC VALVE REPLACEMENT W MCC,67573.5,Standard
 EXTENSIVE O.R. PROCEDURE UNRELATED TO PRINCIPAL DIAGNOSIS W CC,20420.425,Standard
 ENDOVASCULAR CARDIAC VALVE REPLACEMENT W/O MCC,44561.444444,Standard
 VIRAL ILLNESS W/O MCC,6339.5,Standard
 OTHER RESPIRATORY SYSTEM DIAGNOSES W MCC,12727.458333,Standard
 ALCOHOL/DRUG ABUSE OR DEPENDENCE W/O REHABILITATION THERAPY W MCC,12665.777778,Standard
 SEPTICEMIA OR SEVERE SEPSIS W MV >96 HOURS OR PERIPHERAL EXTRACORPOR,48628.911765,Standard
 SEPTICEMIA OR SEVERE SEPSIS W/O MV >96 HOURS W MCC,14626.34076,Standard
 SEPTICEMIA OR SEVERE SEPSIS W/O MV >96 HOURS W/O MCC,8399.1831683,Standard
 ACUTE ADJUSTMENT REACTION & PSYCHOSOCIAL DYSFUNCTION,6281.0,Standard
 COMPLICATIONS OF TREATMENT W CC,7778.76,Standard
 OTHER O.R. PROCEDURES FOR INJURIES W CC,13969.692308000002,Standard
 COMPLICATIONS OF TREATMENT W MCC,14214.511628,Standard
 OTHER VASCULAR PROCEDURES W CC,18683.288889,Standard
 CORONARY BYPASS W/O CARDIAC CATH W MCC,43338.676471,Standard
 CORONARY BYPASS W/O CARDIAC CATH W/O MCC,30808.0,Standard
 FEVER AND INFLAMMATORY CONDITIONS,6804.0,Standard
 POSTOPERATIVE & POST,8191.548387100001,Standard
 POSTOPERATIVE & POST,16096.741935,Standard
 POSTOPERATIVE OR POST,14202.62069,Standard
 AMPUTATION FOR CIRC SYS DISORDERS EXC UPPER LIMB & TOE W MCC,34265.95,Standard
 PERMANENT CARDIAC PACEMAKER IMPLANT W MCC,28220.413793,Standard
 ALLERGIC REACTIONS W/O MCC,4750.5454545,Standard
 POISONING & TOXIC EFFECTS OF DRUGS W MCC,10568.53125,Standard
 PERMANENT CARDIAC PACEMAKER IMPLANT W CC,20218.954545,Standard
 PERMANENT CARDIAC PACEMAKER IMPLANT W/O CC/MCC,16498.863636000002,Standard
 PERCUTANEOUS CARDIOVASCULAR PROCEDURES W DRUG,25025.367815999998,Standard
 PERC CARDIOVASC PROC W DRUG,17040.708609,Standard
 OTHER VASCULAR PROCEDURES W MCC,28985.125,Standard
 POISONING & TOXIC EFFECTS OF DRUGS W/O MCC,5942.4117647,Standard
 NON,31579.916667,Standard
 AORTIC AND HEART ASSIST PROCEDURES EXCEPT PULSATION BALLOON W/O MCC,33837.708332999995,Standard
 OTHER MAJOR CARDIOVASCULAR PROCEDURES W MCC,40397.333332999995,Standard
 PERIPHERAL VASCULAR DISORDERS W CC,7871.175257699999,Standard
 PERIPHERAL VASCULAR DISORDERS W/O CC/MCC,5810.48,Standard
 ATHEROSCLEROSIS W MCC,8205.5454545,Standard
 ATHEROSCLEROSIS W/O MCC,5238.7631579,Standard
 HYPERTENSION W MCC,8193.2439024,Standard
 HYPERTENSION W/O MCC,5495.8351648,Standard
 CARDIAC ARRHYTHMIA & CONDUCTION DISORDERS W MCC,9510.712328799998,Standard
 OTHER CARDIOTHORACIC PROCEDURES W/O MCC,34779.73913,Standard
 CARDIAC ARRHYTHMIA & CONDUCTION DISORDERS W CC,6146.4545455,Standard
 OTHER CARDIOTHORACIC PROCEDURES W MCC,51264.5,Standard
 CARDIAC VALVE & OTH MAJ CARDIOTHORACIC PROC W/O CARD CATH W CC,38670.025641,Standard
 CARDIAC VALVE & OTH MAJ CARDIOTHORACIC PROC W/O CARD CATH W MCC,61725.98,Standard
 CARDIAC VALVE & OTH MAJ CARDIOTHORACIC PROC W CARD CATH W MCC,74858.529412,Standard
 RESPIRATORY SYSTEM DIAGNOSIS W VENTILATOR SUPPORT <=96 HOURS,18755.634921,Standard
 RESPIRATORY SYSTEM DIAGNOSIS W VENTILATOR SUPPORT >96 HOURS,44210.71875,Standard
Abdominal/Peritoneal/Biliary and Related Procedures,2261.07379310344,DRG
 PERIPHERAL VASCULAR DISORDERS W MCC,10803.826087000001,Standard
 HEART FAILURE & SHOCK W/O CC/MCC,5310.4390244,Standard
 HEART FAILURE & SHOCK W CC,7459.1388889,Standard
 OTHER O.R. PROCEDURES FOR INJURIES W MCC,30263.733333,Standard
 ORGANIC DISTURBANCES & INTELLECTUAL DISABILITY,9190.047618999999,Standard
 ALCOHOL/DRUG ABUSE OR DEPENDENCE W/O REHABILITATION THERAPY W/O MCC,6443.2380952,Standard
 OTHER MAJOR CARDIOVASCULAR PROCEDURES W CC,26710.0,Standard
 PSYCHOSES,9046.3030303,Standard
 NON,12714.461538,Standard
 PERCUTANEOUS INTRACARDIAC PROCEDURES W MCC,26543.238095,Standard
 CORONARY BYPASS W CARDIAC CATH W/O MCC,37493.208332999995,Standard
 PERCUTANEOUS INTRACARDIAC PROCEDURES W/O MCC,20296.507041999997,Standard
" ACUTE MYOCARDIAL INFARCTION, DISCHARGED ALIVE W CC",7786.659340700001,Standard
Complex GI Procedures,3377.71,DRG
" ""ACUTE MYOCARDIAL INFARCTION, DISCHARGED ALIVE W/O CC/MCC""",6490.9230769,Standard
" ACUTE MYOCARDIAL INFARCTION, EXPIRED W MCC",16020.5,Standard
" ""CIRCULATORY DISORDERS EXCEPT AMI, W CARD CATH W MCC""",17869.989474,Standard
" CIRCULATORY DISORDERS EXCEPT AMI, W CARD CATH W/O MCC",9206.05,Standard
 HEART FAILURE & SHOCK W MCC,11575.46,Standard
" ""ACUTE MYOCARDIAL INFARCTION, DISCHARGED ALIVE W MCC""",13470.847953,Standard
 CORONARY BYPASS W CARDIAC CATH W MCC,57025.08,Standard
