Description,Charge,Category
Level 4 Musculoskeletal Procedures,4200.4691999999895,DRG
Level 2 Musculoskeletal Procedures,1011.81,DRG
 OTHER DIGESTIVE SYSTEM DIAGNOSES W CC,6913.9047619,Standard
Level 4 Urology and Related Services,2014.61951219512,DRG
Level 5 Urology and Related Services,2707.38259259259,DRG
Level 6 Urology and Related Services,5318.000909090901,DRG
" ""TRAUMATIC STUPOR & COMA, COMA <1 HR W CC""",7916.2,Standard
 SEIZURES W MCC,10598.533333,Standard
 SEIZURES W/O MCC,5893.7058824,Standard
 OTHER RESP SYSTEM O.R. PROCEDURES W MCC,26144.411765,Standard
 PULMONARY EMBOLISM W/O MCC,6397.2,Standard
 RESPIRATORY INFECTIONS & INFLAMMATIONS W MCC,12622.133333,Standard
 SEPTICEMIA OR SEVERE SEPSIS W MV >96 HOURS OR PERIPHERAL EXTRACORPOR,39440.461537999996,Standard
 INFECTIOUS & PARASITIC DISEASES W O.R. PROCEDURE W MCC,34554.0625,Standard
 RED BLOOD CELL DISORDERS W/O MCC,6352.1935484,Standard
 RED BLOOD CELL DISORDERS W MCC,9337.2,Standard
 URINARY STONES W/O ESW LITHOTRIPSY W/O MCC,5887.2272727,Standard
 KIDNEY & URINARY TRACT INFECTIONS W/O MCC,5771.9555556000005,Standard
 KIDNEY & URINARY TRACT INFECTIONS W MCC,7294.038461499999,Standard
 RENAL FAILURE W CC,6609.8333333,Standard
 RENAL FAILURE W MCC,10598.914286,Standard
" ""MISC DISORDERS OF NUTRITION,METABOLISM,FLUIDS/ELECTROLYTES W/O MCC""",5853.782608699999,Standard
Level 3 Urology and Related Services,1245.06497175141,DRG
Level 3 Musculoskeletal Procedures,1874.80846153845,DRG
Level 1 Laparoscopy and Related Services,3244.44761363635,DRG
Level 2 Excision/ Biopsy/ Incision and Drainage,985.182285714284,DRG
 SIGNS & SYMPTOMS W/O MCC,5409.4117647,Standard
 POISONING & TOXIC EFFECTS OF DRUGS W MCC,9746.2222222,Standard
Level 1 Endovascular Procedures,1746.32694214875,DRG
Level 2 Endovascular Procedures,3629.81904761904,DRG
Level 3 Endovascular Procedures,8277.22942028985,DRG
Level 3 Pacemaker and Similar Procedures,7333.72333333333,DRG
Level 2 Upper GI Procedures,1053.43860465116,DRG
Abdominal/Peritoneal/Biliary and Related Procedures,2179.50103448275,DRG
 ORGANIC DISTURBANCES & INTELLECTUAL DISABILITY,7470.363636399999,Standard
" MISC DISORDERS OF NUTRITION,METABOLISM,FLUIDS/ELECTROLYTES W MCC",8367.677419399999,Standard
 SEPTICEMIA OR SEVERE SEPSIS W/O MV >96 HOURS W/O MCC,7407.0625,Standard
 CRANIOTOMY & ENDOVASCULAR INTRACRANIAL PROCEDURES W MCC,26425.076923,Standard
 DEGENERATIVE NERVOUS SYSTEM DISORDERS W/O MCC,7153.9230769,Standard
 INTRACRANIAL HEMORRHAGE OR CEREBRAL INFARCTION W MCC,11952.107143000001,Standard
 INTRACRANIAL HEMORRHAGE OR CEREBRAL INFARCTION W CC OR TPA IN 24 HRS,7650.857142899999,Standard
 INTRACRANIAL HEMORRHAGE OR CEREBRAL INFARCTION W/O CC/MCC,5199.8333333,Standard
 TRANSIENT ISCHEMIA W/O THROMBOLYTIC,5433.9583333,Standard
Level 2 Breast/Lymphatic Surgery and Related Procedures,3606.6,DRG
Level 1 Breast/Lymphatic Surgery and Related Procedures,1979.8275,DRG
Level 3 Excision/ Biopsy/ Incision and Drainage,1704.20333333333,DRG
 SEPTICEMIA OR SEVERE SEPSIS W/O MV >96 HOURS W MCC,12742.469298,Standard
 CELLULITIS W/O MCC,6178.5789474,Standard
 DIABETES W CC,5982.0769231,Standard
 ATHEROSCLEROSIS W/O MCC,4769.4615385,Standard
 PERIPHERAL VASCULAR DISORDERS W/O CC/MCC,5143.9090909,Standard
 PERIPHERAL VASCULAR DISORDERS W CC,7386.4705882,Standard
 HEART FAILURE & SHOCK W CC,6934.9285714,Standard
 HEART FAILURE & SHOCK W MCC,9992.029411799998,Standard
" CIRCULATORY DISORDERS EXCEPT AMI, W CARD CATH W/O MCC",8469.5357143,Standard
" ""CIRCULATORY DISORDERS EXCEPT AMI, W CARD CATH W MCC""",14511.5625,Standard
" ACUTE MYOCARDIAL INFARCTION, DISCHARGED ALIVE W CC",6742.2941175999995,Standard
" ""ACUTE MYOCARDIAL INFARCTION, DISCHARGED ALIVE W MCC""",11081.90625,Standard
 PERC CARDIOVASC PROC W DRUG,14411.18,Standard
 PERCUTANEOUS CARDIOVASCULAR PROCEDURES W DRUG,22402.8,Standard
 RESPIRATORY SYSTEM DIAGNOSIS W VENTILATOR SUPPORT <=96 HOURS,17586.761905,Standard
 SIMPLE PNEUMONIA & PLEURISY W/O CC/MCC,4996.5384615,Standard
 SIMPLE PNEUMONIA & PLEURISY W CC,6831.28125,Standard
 SIMPLE PNEUMONIA & PLEURISY W MCC,9575.5662651,Standard
Level 4 Gynecologic Procedures,1697.26555555555,DRG
Level 1 Intraocular Procedures,1420.4611440678,DRG
"Level 3 Extraocular, Repair, and Plastic Eye Procedures",1351.40217391304,DRG
Comprehensive Observation Services,1738.6278055555401,DRG
Level 4 Airway Endoscopy,1868.955,DRG
 CELLULITIS W MCC,10590.583333,Standard
 CARDIAC ARRHYTHMIA & CONDUCTION DISORDERS W MCC,8427.53125,Standard
 CARDIAC ARRHYTHMIA & CONDUCTION DISORDERS W CC,5979.3181818,Standard
 CARDIAC ARRHYTHMIA & CONDUCTION DISORDERS W/O CC/MCC,4462.0588235,Standard
" FX, SPRN, STRN & DISL EXCEPT FEMUR, HIP, PELVIS & THIGH W/O MCC",5601.5714286,Standard
 MEDICAL BACK PROBLEMS W/O MCC,6646.848484800001,Standard
 OTHER MUSCULOSKELET SYS & CONN TISS O.R. PROC W CC,12445.6,Standard
 HIP & FEMUR PROCEDURES EXCEPT MAJOR JOINT W CC,14258.793103,Standard
 HIP & FEMUR PROCEDURES EXCEPT MAJOR JOINT W MCC,20736.0,Standard
 MAJOR HIP AND KNEE JOINT REPLACEMENT OR REATTACHMENT OF LOWER EXTREM,14514.460432,Standard
 RESPIRATORY INFECTIONS & INFLAMMATIONS W CC,9273.75,Standard
 PULMONARY EDEMA & RESPIRATORY FAILURE,8600.3606557,Standard
 CHRONIC OBSTRUCTIVE PULMONARY DISEASE W MCC,8028.285714300001,Standard
 CHRONIC OBSTRUCTIVE PULMONARY DISEASE W/O CC/MCC,5183.5625,Standard
 CHRONIC OBSTRUCTIVE PULMONARY DISEASE W CC,6221.5555556,Standard
" ESOPHAGITIS, GASTROENT & MISC DIGEST DISORDERS W MCC",8607.8,Standard
 G.I. OBSTRUCTION W CC,5855.2857143,Standard
 G.I. HEMORRHAGE W CC,6616.6944444,Standard
 G.I. HEMORRHAGE W MCC,10923.05,Standard
 MAJOR SMALL & LARGE BOWEL PROCEDURES W CC,18289.941176,Standard
 MAJOR SMALL & LARGE BOWEL PROCEDURES W MCC,31544.470588,Standard
 OTHER CIRCULATORY SYSTEM DIAGNOSES W MCC,12779.25,Standard
 CHEST PAIN,4891.3157895,Standard
 SYNCOPE & COLLAPSE,5639.90625,Standard
" ""ESOPHAGITIS, GASTROENT & MISC DIGEST DISORDERS W/O MCC""",5624.1666667,Standard
