Description,Charge,Category
Level 2 Breast/Lymphatic Surgery and Related Procedures,3785.4199999999896,DRG
Level 1 Breast/Lymphatic Surgery and Related Procedures,2145.94999999999,DRG
Level 2 Excision/ Biopsy/ Incision and Drainage,1047.7120103092698,DRG
Level 3 Excision/ Biopsy/ Incision and Drainage,1828.9199999999898,DRG
Level 5 ENT Procedures,3330.5331034482697,DRG
 FRACTURES OF HIP & PELVIS W MCC,10146.0,Standard
 MAJOR HIP AND KNEE JOINT REPLACEMENT OR REATTACHMENT OF LOWER EXTREM,16754.759615,Standard
 MAJOR HIP AND KNEE JOINT REPLACEMENT OR REATTACHMENT OF LOWER EXTREM,27817.090909,Standard
 DISORDERS OF PANCREAS EXCEPT MALIGNANCY W CC,7989.8461538,Standard
 DISORDERS OF PANCREAS EXCEPT MALIGNANCY W MCC,15249.545455000001,Standard
 OTHER DIGESTIVE SYSTEM DIAGNOSES W CC,8466.1,Standard
 OTHER DIGESTIVE SYSTEM DIAGNOSES W MCC,14385.214286000002,Standard
" ""ESOPHAGITIS, GASTROENT & MISC DIGEST DISORDERS W/O MCC""",6769.8064516,Standard
" ESOPHAGITIS, GASTROENT & MISC DIGEST DISORDERS W MCC",10637.44,Standard
 G.I. OBSTRUCTION W/O CC/MCC,5289.5714286,Standard
 G.I. OBSTRUCTION W CC,7390.3,Standard
 G.I. OBSTRUCTION W MCC,12812.277778,Standard
 G.I. HEMORRHAGE W/O CC/MCC,5688.6666667,Standard
 HIP & FEMUR PROCEDURES EXCEPT MAJOR JOINT W MCC,24207.909091,Standard
 G.I. HEMORRHAGE W CC,8496.5238095,Standard
Level 1 Nerve Procedures,1207.29342105263,DRG
Level 4 Gynecologic Procedures,1787.94,DRG
Level 5 Urology and Related Services,2915.46,DRG
Level 4 Urology and Related Services,2121.48,DRG
Level 3 Urology and Related Services,1333.2725,DRG
 G.I. HEMORRHAGE W MCC,14480.5,Standard
Level 1 Laparoscopy and Related Services,3386.83865671642,DRG
 MEDICAL BACK PROBLEMS W/O MCC,8737.2380952,Standard
Level 3 Upper GI Procedures,2098.26,DRG
Level 2 Upper GI Procedures,1122.89999999999,DRG
Level 3 Pacemaker and Similar Procedures,8261.950588235291,DRG
 MAJOR SMALL & LARGE BOWEL PROCEDURES W CC,19929.428571,Standard
Comprehensive Observation Services,1832.3513441654502,DRG
 HIP & FEMUR PROCEDURES EXCEPT MAJOR JOINT W CC,16530.380952,Standard
 EXTENSIVE O.R. PROCEDURE UNRELATED TO PRINCIPAL DIAGNOSIS W MCC,33278.733333,Standard
 SIGNS & SYMPTOMS W/O MCC,6539.8333333,Standard
" FX, SPRN, STRN & DISL EXCEPT FEMUR, HIP, PELVIS & THIGH W/O MCC",7032.5454545,Standard
" OTHER SKIN, SUBCUT TISS & BREAST PROC W CC",12725.923077,Standard
 CELLULITIS W MCC,12234.909091,Standard
 CELLULITIS W/O MCC,7439.8,Standard
" ""TRAUMA TO THE SKIN, SUBCUT TISS & BREAST W/O MCC""",7480.9230769,Standard
 DIABETES W MCC,11990.2,Standard
 DIABETES W CC,7432.974359000001,Standard
" MISC DISORDERS OF NUTRITION,METABOLISM,FLUIDS/ELECTROLYTES W MCC",10234.823529000001,Standard
" ""MISC DISORDERS OF NUTRITION,METABOLISM,FLUIDS/ELECTROLYTES W/O MCC""",6700.2,Standard
 RENAL FAILURE W MCC,12623.333333,Standard
 RENAL FAILURE W CC,8185.557894699999,Standard
 KIDNEY & URINARY TRACT INFECTIONS W MCC,9135.607142899999,Standard
 KIDNEY & URINARY TRACT INFECTIONS W/O MCC,7102.9166667,Standard
 URINARY STONES W/O ESW LITHOTRIPSY W/O MCC,7116.8125,Standard
 OTHER KIDNEY & URINARY TRACT DIAGNOSES W MCC,13188.321429000001,Standard
 OTHER KIDNEY & URINARY TRACT DIAGNOSES W CC,9274.1176471,Standard
 MAJOR HEMATOL/IMMUN DIAG EXC SICKLE CELL CRISIS & COAGUL W CC,10480.909091,Standard
 RED BLOOD CELL DISORDERS W MCC,11496.5625,Standard
 RED BLOOD CELL DISORDERS W/O MCC,7686.4634146,Standard
 INFECTIOUS & PARASITIC DISEASES W O.R. PROCEDURE W MCC,41175.787233999996,Standard
 SEPTICEMIA OR SEVERE SEPSIS W MV >96 HOURS OR PERIPHERAL EXTRACORPOR,47602.341463,Standard
 SEPTICEMIA OR SEVERE SEPSIS W/O MV >96 HOURS W MCC,15288.811715,Standard
 SEPTICEMIA OR SEVERE SEPSIS W/O MV >96 HOURS W/O MCC,9163.542857100001,Standard
 ORGANIC DISTURBANCES & INTELLECTUAL DISABILITY,9207.466666700002,Standard
 PSYCHOSES,9947.142857100001,Standard
 POISONING & TOXIC EFFECTS OF DRUGS W MCC,11872.6875,Standard
 POISONING & TOXIC EFFECTS OF DRUGS W/O MCC,6317.75,Standard
 MAJOR SMALL & LARGE BOWEL PROCEDURES W MCC,37915.625,Standard
 OTHER CIRCULATORY SYSTEM DIAGNOSES W CC,8350.318181800001,Standard
Abdominal/Peritoneal/Biliary and Related Procedures,2290.14999999999,DRG
 CHEST PAIN,6130.1764706,Standard
 PULMONARY EMBOLISM W/O MCC,7976.1666667,Standard
 PULMONARY EMBOLISM W MCC,13036.8,Standard
 OTHER RESP SYSTEM O.R. PROCEDURES W MCC,30456.727273,Standard
 MAJOR CHEST PROCEDURES W MCC,38385.666667000005,Standard
 DYSEQUILIBRIUM,6427.857142899999,Standard
 SEIZURES W/O MCC,7781.257142899999,Standard
 SEIZURES W MCC,14944.526316,Standard
 OTHER DISORDERS OF NERVOUS SYSTEM W CC,8172.363636399999,Standard
 OTHER DISORDERS OF NERVOUS SYSTEM W MCC,13983.307691999998,Standard
 CRANIAL & PERIPHERAL NERVE DISORDERS W/O MCC,8255.4666667,Standard
 TRANSIENT ISCHEMIA W/O THROMBOLYTIC,6614.113636399999,Standard
 INTRACRANIAL HEMORRHAGE OR CEREBRAL INFARCTION W/O CC/MCC,7373.2,Standard
 INTRACRANIAL HEMORRHAGE OR CEREBRAL INFARCTION W CC OR TPA IN 24 HRS,8726.9310345,Standard
 INTRACRANIAL HEMORRHAGE OR CEREBRAL INFARCTION W MCC,14865.714286000002,Standard
 DEGENERATIVE NERVOUS SYSTEM DISORDERS W/O MCC,9380.692307700001,Standard
 DEGENERATIVE NERVOUS SYSTEM DISORDERS W MCC,14967.666667,Standard
 EXTRACRANIAL PROCEDURES W CC,14913.769231,Standard
Level 2 Pacemaker and Similar Procedures,5610.284375,DRG
Level 3 Endovascular Procedures,9022.28,DRG
Level 2 Endovascular Procedures,3995.32275862069,DRG
Level 1 Endovascular Procedures,1880.4601587301602,DRG
Level 5 Airway Endoscopy,3826.55,DRG
Level 4 Airway Endoscopy,1906.1539393939397,DRG
Level 5 Musculoskeletal Procedures,8453.33804347826,DRG
Level 4 Musculoskeletal Procedures,4229.319420289849,DRG
Level 3 Musculoskeletal Procedures,1998.8072368420999,DRG
Level 2 Musculoskeletal Procedures,1014.2348648648599,DRG
 RESPIRATORY INFECTIONS & INFLAMMATIONS W MCC,15448.604167,Standard
 OTHER CIRCULATORY SYSTEM DIAGNOSES W MCC,16516.588235,Standard
 FRACTURES OF HIP & PELVIS W/O MCC,7029.5833333,Standard
 OTHER VASCULAR PROCEDURES W MCC,26096.315789,Standard
 PERIPHERAL VASCULAR DISORDERS W MCC,11851.6,Standard
 HEART FAILURE & SHOCK W/O CC/MCC,5999.9333333,Standard
 HEART FAILURE & SHOCK W CC,8283.9354839,Standard
 HEART FAILURE & SHOCK W MCC,12360.937778,Standard
" ""CIRCULATORY DISORDERS EXCEPT AMI, W CARD CATH W MCC""",20479.388888999998,Standard
" ""ACUTE MYOCARDIAL INFARCTION, DISCHARGED ALIVE W/O CC/MCC""",6669.5384615,Standard
" ACUTE MYOCARDIAL INFARCTION, DISCHARGED ALIVE W CC",8286.5526316,Standard
" ""ACUTE MYOCARDIAL INFARCTION, DISCHARGED ALIVE W MCC""",14027.190476,Standard
 PERC CARDIOVASC PROC W DRUG,16932.857143,Standard
 PERCUTANEOUS CARDIOVASCULAR PROCEDURES W DRUG,27095.916667,Standard
 RESPIRATORY SYSTEM DIAGNOSIS W VENTILATOR SUPPORT <=96 HOURS,19216.027027,Standard
 RESPIRATORY SYSTEM DIAGNOSIS W VENTILATOR SUPPORT >96 HOURS,40426.8,Standard
 PERIPHERAL VASCULAR DISORDERS W CC,8589.694444399998,Standard
 BRONCHITIS & ASTHMA W CC/MCC,8283.444444399998,Standard
 SIMPLE PNEUMONIA & PLEURISY W MCC,11842.0,Standard
 CHRONIC OBSTRUCTIVE PULMONARY DISEASE W/O CC/MCC,6413.764705899999,Standard
 CHRONIC OBSTRUCTIVE PULMONARY DISEASE W CC,8219.840909100001,Standard
 CHRONIC OBSTRUCTIVE PULMONARY DISEASE W MCC,10152.086206999998,Standard
 PULMONARY EDEMA & RESPIRATORY FAILURE,10978.15625,Standard
 PERIPHERAL VASCULAR DISORDERS W/O CC/MCC,6476.7692308,Standard
 HYPERTENSION W MCC,9480.368421100002,Standard
 HYPERTENSION W/O MCC,6130.260869600001,Standard
 RESPIRATORY INFECTIONS & INFLAMMATIONS W CC,12742.8,Standard
 CARDIAC ARRHYTHMIA & CONDUCTION DISORDERS W MCC,10069.681818000001,Standard
 CARDIAC ARRHYTHMIA & CONDUCTION DISORDERS W CC,6970.924528300001,Standard
 CARDIAC ARRHYTHMIA & CONDUCTION DISORDERS W/O CC/MCC,5118.04,Standard
 SYNCOPE & COLLAPSE,7195.0588235,Standard
 SIMPLE PNEUMONIA & PLEURISY W CC,8236.1129032,Standard
