Description,Charge,Category
Level 2 Musculoskeletal Procedures,999.352142857142,DRG
Level 3 Musculoskeletal Procedures,1931.639,DRG
Level 2 Excision/ Biopsy/ Incision and Drainage,988.068034188033,DRG
Level 4 Musculoskeletal Procedures,4202.11,DRG
Level 5 Musculoskeletal Procedures,7626.22933333333,DRG
" ""ESOPHAGITIS, GASTROENT & MISC DIGEST DISORDERS W/O MCC""",5359.06,Standard
 MAJOR SMALL & LARGE BOWEL PROCEDURES W CC,15798.454544999999,Standard
 G.I. HEMORRHAGE W MCC,11723.65,Standard
 G.I. HEMORRHAGE W CC,6989.3846154,Standard
 G.I. OBSTRUCTION W CC,6496.1111111,Standard
 G.I. OBSTRUCTION W/O CC/MCC,4364.0833333,Standard
" ESOPHAGITIS, GASTROENT & MISC DIGEST DISORDERS W MCC",8087.2727273,Standard
Level 1 Endovascular Procedures,1764.3215217391198,DRG
 MAJOR HIP AND KNEE JOINT REPLACEMENT OR REATTACHMENT OF LOWER EXTREM,14551.534884,Standard
 HIP & FEMUR PROCEDURES EXCEPT MAJOR JOINT W CC,13006.428570999999,Standard
 MEDICAL BACK PROBLEMS W/O MCC,6100.764705899999,Standard
" ""TENDONITIS, MYOSITIS & BURSITIS W/O MCC""",6018.8181818,Standard
 CELLULITIS W MCC,8699.5625,Standard
 CELLULITIS W/O MCC,5885.6170213,Standard
 DIABETES W MCC,9952.0,Standard
 DIABETES W CC,6004.962963,Standard
 OTHER CIRCULATORY SYSTEM DIAGNOSES W MCC,12970.866667,Standard
" MISC DISORDERS OF NUTRITION,METABOLISM,FLUIDS/ELECTROLYTES W MCC",8021.0,Standard
 CHEST PAIN,5037.1176471,Standard
 CHRONIC OBSTRUCTIVE PULMONARY DISEASE W CC,6662.5102041,Standard
" ""ACUTE MYOCARDIAL INFARCTION, DISCHARGED ALIVE W MCC""",13209.7,Standard
" ACUTE MYOCARDIAL INFARCTION, DISCHARGED ALIVE W CC",6728.8333333,Standard
" CIRCULATORY DISORDERS EXCEPT AMI, W CARD CATH W/O MCC",8541.9565217,Standard
 HEART FAILURE & SHOCK W MCC,9691.3653846,Standard
 HEART FAILURE & SHOCK W CC,6479.25,Standard
 PERIPHERAL VASCULAR DISORDERS W CC,7086.789473700001,Standard
 HYPERTENSION W/O MCC,5363.8333333,Standard
 CARDIAC ARRHYTHMIA & CONDUCTION DISORDERS W MCC,9015.2105263,Standard
 CARDIAC ARRHYTHMIA & CONDUCTION DISORDERS W CC,5720.2692308,Standard
 CARDIAC ARRHYTHMIA & CONDUCTION DISORDERS W/O CC/MCC,4152.1363636,Standard
 SYNCOPE & COLLAPSE,6065.4210526,Standard
 RESPIRATORY SYSTEM DIAGNOSIS W VENTILATOR SUPPORT <=96 HOURS,16215.769231,Standard
 SIMPLE PNEUMONIA & PLEURISY W CC,6521.7692308,Standard
 SIMPLE PNEUMONIA & PLEURISY W MCC,9243.759259299999,Standard
 CHRONIC OBSTRUCTIVE PULMONARY DISEASE W/O CC/MCC,5204.2105263,Standard
 CHRONIC OBSTRUCTIVE PULMONARY DISEASE W MCC,7791.4,Standard
" ""MISC DISORDERS OF NUTRITION,METABOLISM,FLUIDS/ELECTROLYTES W/O MCC""",5389.3846154,Standard
 RENAL FAILURE W MCC,10287.522727,Standard
 RENAL FAILURE W CC,6445.6206897,Standard
Level 2 Endovascular Procedures,3804.78863636363,DRG
Level 3 Endovascular Procedures,8330.85833333332,DRG
Level 3 Pacemaker and Similar Procedures,7819.68,DRG
 INTRACRANIAL HEMORRHAGE OR CEREBRAL INFARCTION W MCC,11563.333333,Standard
 INTRACRANIAL HEMORRHAGE OR CEREBRAL INFARCTION W CC OR TPA IN 24 HRS,7048.8333333,Standard
 TRANSIENT ISCHEMIA W/O THROMBOLYTIC,5370.0,Standard
 OTHER DISORDERS OF NERVOUS SYSTEM W CC,6557.25,Standard
 SEIZURES W MCC,10330.454545,Standard
Level 2 Upper GI Procedures,1006.9270588235199,DRG
Level 1 Laparoscopy and Related Services,3109.9003921568606,DRG
Level 3 Urology and Related Services,1242.3060975609699,DRG
 SEIZURES W/O MCC,5795.4,Standard
 PERC CARDIOVASC PROC W DRUG,14274.375,Standard
 RESPIRATORY INFECTIONS & INFLAMMATIONS W CC,8985.8461538,Standard
 PULMONARY EDEMA & RESPIRATORY FAILURE,8332.0285714,Standard
 RESPIRATORY INFECTIONS & INFLAMMATIONS W MCC,12251.780488,Standard
Level 5 Urology and Related Services,2777.74,DRG
 KIDNEY & URINARY TRACT INFECTIONS W MCC,7646.036363600001,Standard
 KIDNEY & URINARY TRACT INFECTIONS W/O MCC,5599.7555556,Standard
 RED BLOOD CELL DISORDERS W MCC,8839.8461538,Standard
 RED BLOOD CELL DISORDERS W/O MCC,6471.3043478,Standard
 INFECTIOUS & PARASITIC DISEASES W O.R. PROCEDURE W MCC,30825.633332999998,Standard
Level 4 Urology and Related Services,2021.27,DRG
 SEPTICEMIA OR SEVERE SEPSIS W/O MV >96 HOURS W/O MCC,7034.4,Standard
 SEPTICEMIA OR SEVERE SEPSIS W/O MV >96 HOURS W MCC,12455.089286,Standard
 EXTENSIVE O.R. PROCEDURE UNRELATED TO PRINCIPAL DIAGNOSIS W MCC,31893.363636000002,Standard
Comprehensive Observation Services,1748.9587767583898,DRG
Level 6 Gynecologic Procedures,4577.42,DRG
Level 5 Gynecologic Procedures,3001.30666666666,DRG
Level 4 Gynecologic Procedures,1613.8231578947302,DRG
 POISONING & TOXIC EFFECTS OF DRUGS W MCC,9067.9473684,Standard
 PERCUTANEOUS CARDIOVASCULAR PROCEDURES W DRUG,22008.764706,Standard
