Description,Charge,Category
 OTHER KIDNEY & URINARY TRACT DIAGNOSES W MCC,15861.8,Standard
 KIDNEY & URINARY TRACT INFECTIONS W MCC,11046.0,Standard
 RENAL FAILURE W/O CC/MCC,6973.8,Standard
 RENAL FAILURE W CC,9787.104477600002,Standard
 RENAL FAILURE W MCC,14359.657894999998,Standard
 KIDNEY & URINARY TRACT INFECTIONS W/O MCC,8653.097561,Standard
 DIABETES W CC,8807.7317073,Standard
 OTHER CIRCULATORY SYSTEM DIAGNOSES W MCC,18989.033333000003,Standard
" CIRCULATORY DISORDERS EXCEPT AMI, W CARD CATH W/O MCC",11747.142856999999,Standard
 HEART FAILURE & SHOCK W MCC,14133.57265,Standard
 HEART FAILURE & SHOCK W CC,9938.033333299998,Standard
 HEART FAILURE & SHOCK W/O CC/MCC,7061.15,Standard
 PERIPHERAL VASCULAR DISORDERS W CC,9833.5714286,Standard
 HYPERTENSION W MCC,10654.285714,Standard
 HYPERTENSION W/O MCC,7455.1333333,Standard
 CARDIAC ARRHYTHMIA & CONDUCTION DISORDERS W MCC,13404.153846,Standard
 CARDIAC ARRHYTHMIA & CONDUCTION DISORDERS W CC,8432.238095199998,Standard
 CARDIAC ARRHYTHMIA & CONDUCTION DISORDERS W/O CC/MCC,6382.5384615,Standard
 SYNCOPE & COLLAPSE,8417.8,Standard
 CHEST PAIN,7302.3703704,Standard
Level 2 Musculoskeletal Procedures,1007.6781818181801,DRG
 G.I. HEMORRHAGE W MCC,16086.875,Standard
 G.I. HEMORRHAGE W CC,10176.536585,Standard
 G.I. HEMORRHAGE W/O CC/MCC,7035.3333333,Standard
 G.I. OBSTRUCTION W CC,8902.909090899999,Standard
" ""ESOPHAGITIS, GASTROENT & MISC DIGEST DISORDERS W/O MCC""",8070.2045455,Standard
 OTHER DIGESTIVE SYSTEM DIAGNOSES W MCC,18859.571429,Standard
 MAJOR HIP AND KNEE JOINT REPLACEMENT OR REATTACHMENT OF LOWER EXTREM,19362.692308,Standard
 HIP & FEMUR PROCEDURES EXCEPT MAJOR JOINT W CC,21658.428571,Standard
 HIP & FEMUR PROCEDURES EXCEPT MAJOR JOINT W/O CC/MCC,15807.666667,Standard
" ""LOWER EXTREM & HUMER PROC EXCEPT HIP,FOOT,FEMUR W/O CC/MCC""",23474.5,Standard
" ""CIRCULATORY DISORDERS EXCEPT AMI, W CARD CATH W MCC""",21472.916666999998,Standard
" ACUTE MYOCARDIAL INFARCTION, DISCHARGED ALIVE W CC",9765.53125,Standard
" ""ACUTE MYOCARDIAL INFARCTION, DISCHARGED ALIVE W MCC""",15672.444444,Standard
 RESPIRATORY SYSTEM DIAGNOSIS W VENTILATOR SUPPORT <=96 HOURS,21853.479166999998,Standard
Level 3 Musculoskeletal Procedures,1982.65,DRG
Level 4 Musculoskeletal Procedures,4197.97909090909,DRG
Level 3 Urology and Related Services,1214.2435,DRG
Level 4 Urology and Related Services,2018.7731818181799,DRG
Level 5 Urology and Related Services,2777.73999999999,DRG
Comprehensive Observation Services,1749.95291446672,DRG
" ""ECMO OR TRACH W MV >96 HRS OR PDX EXC FACE, MOUTH & NECK W MAJ O.R.",152844.17647,Standard
" TRACH W MV >96 HRS OR PDX EXC FACE, MOUTH & NECK W/O MAJ O.R.",98076.666667,Standard
 DEGENERATIVE NERVOUS SYSTEM DISORDERS W/O MCC,11482.25,Standard
 INTRACRANIAL HEMORRHAGE OR CEREBRAL INFARCTION W MCC,18777.194444,Standard
 INTRACRANIAL HEMORRHAGE OR CEREBRAL INFARCTION W CC OR TPA IN 24 HRS,10494.375,Standard
 MEDICAL BACK PROBLEMS W/O MCC,9134.714285700002,Standard
 INTRACRANIAL HEMORRHAGE OR CEREBRAL INFARCTION W/O CC/MCC,7889.3,Standard
 OTHER DISORDERS OF NERVOUS SYSTEM W CC,9814.5454545,Standard
 SEIZURES W MCC,16817.846154,Standard
 SEIZURES W/O MCC,8799.6785714,Standard
 PULMONARY EDEMA & RESPIRATORY FAILURE,11815.554455,Standard
 CHRONIC OBSTRUCTIVE PULMONARY DISEASE W MCC,11683.978723,Standard
 CHRONIC OBSTRUCTIVE PULMONARY DISEASE W CC,9358.2786885,Standard
 CHRONIC OBSTRUCTIVE PULMONARY DISEASE W/O CC/MCC,7970.444444399999,Standard
 SIMPLE PNEUMONIA & PLEURISY W MCC,13630.176471,Standard
 SIMPLE PNEUMONIA & PLEURISY W CC,9740.529411799998,Standard
 BRONCHITIS & ASTHMA W CC/MCC,9590.692307700001,Standard
 RESPIRATORY SYSTEM DIAGNOSIS W VENTILATOR SUPPORT >96 HOURS,45775.764706,Standard
 TRANSIENT ISCHEMIA W/O THROMBOLYTIC,8012.461538500001,Standard
 BONE DISEASES & ARTHROPATHIES W/O MCC,8028.0,Standard
Level 3 Excision/ Biopsy/ Incision and Drainage,1742.52999999999,DRG
 DIABETES W MCC,13008.444444,Standard
 SEPTICEMIA OR SEVERE SEPSIS W/O MV >96 HOURS W/O MCC,10588.866667,Standard
 CELLULITIS W/O MCC,8661.466666700002,Standard
 SIGNS & SYMPTOMS W/O MCC,8194.709677399998,Standard
 NON,16860.6875,Standard
 POISONING & TOXIC EFFECTS OF DRUGS W/O MCC,8054.1304348,Standard
 POISONING & TOXIC EFFECTS OF DRUGS W MCC,13496.5,Standard
 PSYCHOSES,12080.545455,Standard
 SEPTICEMIA OR SEVERE SEPSIS W/O MV >96 HOURS W MCC,17428.010929,Standard
 FULL THICKNESS BURN W SKIN GRAFT OR INHAL INJ W CC/MCC,90368.181818,Standard
 INFECTIOUS & PARASITIC DISEASES W O.R. PROCEDURE W MCC,46744.34375,Standard
 RED BLOOD CELL DISORDERS W/O MCC,9293.0285714,Standard
 RED BLOOD CELL DISORDERS W MCC,14327.818181999999,Standard
 OTHER KIDNEY & URINARY TRACT DIAGNOSES W CC,10723.0,Standard
" ""MISC DISORDERS OF NUTRITION,METABOLISM,FLUIDS/ELECTROLYTES W/O MCC""",8053.3181818,Standard
" MISC DISORDERS OF NUTRITION,METABOLISM,FLUIDS/ELECTROLYTES W MCC",11604.74359,Standard
 DIABETES W/O CC/MCC,6836.9166667,Standard
 SEPTICEMIA OR SEVERE SEPSIS W MV >96 HOURS OR PERIPHERAL EXTRACORPOR,50081.895832999995,Standard
 ORGANIC DISTURBANCES & INTELLECTUAL DISABILITY,11930.0,Standard
