Description,Charge,Category
 ALCOHOL/DRUG ABUSE OR DEPENDENCE W REHABILITATION THERAPY,9170.3125,Standard
 ALCOHOL/DRUG ABUSE OR DEPENDENCE W/O REHABILITATION THERAPY W/O MCC,5828.0714286,Standard
 POISONING & TOXIC EFFECTS OF DRUGS W MCC,10600.058824,Standard
Level 3 Lower GI Procedures,1758.52225806451,DRG
 POISONING & TOXIC EFFECTS OF DRUGS W/O MCC,6289.7142857,Standard
 COMPLICATIONS OF TREATMENT W MCC,12430.727273,Standard
 COMPLICATIONS OF TREATMENT W CC,8020.9090909,Standard
 SIGNS & SYMPTOMS W/O MCC,5940.5357143,Standard
 EXTENSIVE O.R. PROCEDURE UNRELATED TO PRINCIPAL DIAGNOSIS W MCC,27945.0,Standard
Level 3 Urology and Related Services,1300.3270192307598,DRG
Level 1 Laparoscopy and Related Services,3392.61520408162,DRG
Level 2 Upper GI Procedures,1104.46807017544,DRG
Abdominal/Peritoneal/Biliary and Related Procedures,2223.52878378378,DRG
Level 2 ICD and Similar Procedures,28658.29,DRG
Level 2 Laparoscopy and Related Services,5866.651428571429,DRG
 OTHER KIDNEY & URINARY TRACT DIAGNOSES W MCC,11108.574468,Standard
 SEPTICEMIA OR SEVERE SEPSIS W/O MV >96 HOURS W MCC,12937.028346,Standard
" ""MISC DISORDERS OF NUTRITION,METABOLISM,FLUIDS/ELECTROLYTES W/O MCC""",6468.14,Standard
 TRANSURETHRAL PROCEDURES W CC,9954.25,Standard
Level 3 Pacemaker and Similar Procedures,7735.531428571421,DRG
 OTHER KIDNEY & URINARY TRACT PROCEDURES W MCC,29219.636363999998,Standard
 RENAL FAILURE W MCC,10231.31,Standard
 RENAL FAILURE W CC,6787.4375,Standard
 RENAL FAILURE W/O CC/MCC,4776.3157895,Standard
 KIDNEY & URINARY TRACT INFECTIONS W MCC,7717.2567568,Standard
 KIDNEY & URINARY TRACT INFECTIONS W/O MCC,6034.6507937,Standard
 OTHER KIDNEY & URINARY TRACT DIAGNOSES W CC,7348.636363600001,Standard
 RED BLOOD CELL DISORDERS W/O MCC,6508.2307692,Standard
 INFECTIOUS & PARASITIC DISEASES W O.R. PROCEDURE W MCC,34852.081633,Standard
 INFECTIOUS & PARASITIC DISEASES W O.R. PROCEDURE W CC,14891.266666999998,Standard
 POSTOPERATIVE & POST,12113.5,Standard
 SEPTICEMIA OR SEVERE SEPSIS W MV >96 HOURS OR PERIPHERAL EXTRACORPOR,46225.733333,Standard
 SEPTICEMIA OR SEVERE SEPSIS W/O MV >96 HOURS W/O MCC,8061.335616399999,Standard
Level 2 Pacemaker and Similar Procedures,5821.94999999999,DRG
" TRACH W MV >96 HRS OR PDX EXC FACE, MOUTH & NECK W/O MAJ O.R.",49204.545455,Standard
Level 4 Endovascular Procedures,13406.0205555555,DRG
" MISC DISORDERS OF NUTRITION,METABOLISM,FLUIDS/ELECTROLYTES W MCC",8653.9787234,Standard
 CRANIOTOMY & ENDOVASCULAR INTRACRANIAL PROCEDURES W MCC,29492.642857,Standard
 CRANIOTOMY & ENDOVASCULAR INTRACRANIAL PROCEDURES W CC,20681.0,Standard
 NERVOUS SYSTEM NEOPLASMS W MCC,9428.3333333,Standard
 DEGENERATIVE NERVOUS SYSTEM DISORDERS W/O MCC,8713.0714286,Standard
 INTRACRANIAL HEMORRHAGE OR CEREBRAL INFARCTION W MCC,12843.283333,Standard
Level 5 Urology and Related Services,2802.54415384614,DRG
 INTRACRANIAL HEMORRHAGE OR CEREBRAL INFARCTION W CC OR TPA IN 24 HRS,7473.988764,Standard
 TRANSIENT ISCHEMIA W/O THROMBOLYTIC,5608.2307692,Standard
" ""TRAUMATIC STUPOR & COMA, COMA <1 HR W CC""",7903.642857100001,Standard
 OTHER DISORDERS OF NERVOUS SYSTEM W CC,6876.238095199999,Standard
 SEIZURES W MCC,12530.85,Standard
 HEADACHES W/O MCC,5615.7272727,Standard
 SEIZURES W/O MCC,6245.75,Standard
 INTRACRANIAL HEMORRHAGE OR CEREBRAL INFARCTION W/O CC/MCC,5571.6296296,Standard
Level 4 Gynecologic Procedures,1705.2290624999898,DRG
Level 5 Gynecologic Procedures,2823.92727272727,DRG
Level 1 Nerve Procedures,1229.3154037267,DRG
Level 3 Endovascular Procedures,40.8664796443145,DRG
Level 2 Endovascular Procedures,3862.12205128205,DRG
Level 1 Endovascular Procedures,1840.11537383178,DRG
Level 5 ENT Procedures,3359.97,DRG
Level 4 ENT Procedures,1665.92913043478,DRG
Level 5 Airway Endoscopy,3759.2784210526293,DRG
Level 4 Airway Endoscopy,2026.27999999999,DRG
Level 3 Airway Endoscopy,1025.08,DRG
Level 5 Musculoskeletal Procedures,8316.1232,DRG
Level 4 Musculoskeletal Procedures,4208.47275590551,DRG
Level 3 Musculoskeletal Procedures,1983.00967567566,DRG
Level 2 Musculoskeletal Procedures,1037.4272027972,DRG
Level 2 Breast/Lymphatic Surgery and Related Procedures,3726.3299999999895,DRG
Level 1 Breast/Lymphatic Surgery and Related Procedures,2034.56615384615,DRG
Level 3 Excision/ Biopsy/ Incision and Drainage,1800.38,DRG
Level 3 Electrophysiologic Procedures,16610.5,DRG
 DIABETES W CC,6255.4594595,Standard
 MAJOR HIP AND KNEE JOINT REPLACEMENT OR REATTACHMENT OF LOWER EXTREM,24119.5,Standard
" ""TRAUMA TO THE SKIN, SUBCUT TISS & BREAST W/O MCC""",6261.1538462,Standard
 CORONARY BYPASS W/O CARDIAC CATH W/O MCC,26980.333333,Standard
 PERMANENT CARDIAC PACEMAKER IMPLANT W CC,18420.466666999997,Standard
 PERCUTANEOUS CARDIOVASCULAR PROCEDURES W DRUG,22591.311475,Standard
 PERC CARDIOVASC PROC W DRUG,15681.67619,Standard
 OTHER VASCULAR PROCEDURES W MCC,23426.944444,Standard
 OTHER VASCULAR PROCEDURES W CC,17956.052632,Standard
 OTHER VASCULAR PROCEDURES W/O CC/MCC,12849.153846,Standard
 OTHER CIRCULATORY SYSTEM O.R. PROCEDURES,24367.076923,Standard
 CORONARY BYPASS W CARDIAC CATH W/O MCC,35025.066667,Standard
 AORTIC AND HEART ASSIST PROCEDURES EXCEPT PULSATION BALLOON W/O MCC,29121.857143,Standard
" ""ACUTE MYOCARDIAL INFARCTION, DISCHARGED ALIVE W MCC""",12098.020833,Standard
" ACUTE MYOCARDIAL INFARCTION, DISCHARGED ALIVE W CC",7215.5094340000005,Standard
" ""ACUTE MYOCARDIAL INFARCTION, DISCHARGED ALIVE W/O CC/MCC""",7093.4545455,Standard
Level 4 Urology and Related Services,2088.36999999999,DRG
" ""CIRCULATORY DISORDERS EXCEPT AMI, W CARD CATH W MCC""",15689.333333,Standard
" CIRCULATORY DISORDERS EXCEPT AMI, W CARD CATH W/O MCC",9005.0666667,Standard
 HEART FAILURE & SHOCK W MCC,10729.541667,Standard
 HEART FAILURE & SHOCK W CC,6987.6976744,Standard
 OTHER MAJOR CARDIOVASCULAR PROCEDURES W MCC,32192.181818,Standard
 CORONARY BYPASS W CARDIAC CATH W MCC,48323.473684,Standard
 CARDIAC VALVE & OTH MAJ CARDIOTHORACIC PROC W/O CARD CATH W CC,33417.5,Standard
 RESPIRATORY SYSTEM DIAGNOSIS W VENTILATOR SUPPORT <=96 HOURS,16349.769231,Standard
 DYSEQUILIBRIUM,5440.8823529,Standard
 MAJOR CHEST PROCEDURES W CC,16771.0,Standard
 MAJOR CHEST PROCEDURES W/O CC/MCC,13501.076922999999,Standard
 OTHER RESP SYSTEM O.R. PROCEDURES W CC,14328.6,Standard
 OTHER RESP SYSTEM O.R. PROCEDURES W/O CC/MCC,12412.642856999999,Standard
 PULMONARY EMBOLISM W MCC,10291.964286,Standard
 PULMONARY EMBOLISM W/O MCC,7039.88,Standard
 RESPIRATORY INFECTIONS & INFLAMMATIONS W MCC,13232.82,Standard
 RESPIRATORY INFECTIONS & INFLAMMATIONS W CC,9205.611111100001,Standard
 RESPIRATORY NEOPLASMS W MCC,12963.0,Standard
 MAJOR CHEST TRAUMA W CC,9473.15,Standard
 PULMONARY EDEMA & RESPIRATORY FAILURE,8997.5314685,Standard
 CHRONIC OBSTRUCTIVE PULMONARY DISEASE W MCC,8243.0285714,Standard
 CHRONIC OBSTRUCTIVE PULMONARY DISEASE W CC,6643.466666699999,Standard
 SIMPLE PNEUMONIA & PLEURISY W MCC,9625.16875,Standard
 SIMPLE PNEUMONIA & PLEURISY W CC,6892.7586207,Standard
 SIMPLE PNEUMONIA & PLEURISY W/O CC/MCC,5324.5714286,Standard
 PNEUMOTHORAX W CC,8374.3636364,Standard
 BRONCHITIS & ASTHMA W CC/MCC,6965.9473684,Standard
 PERIPHERAL VASCULAR DISORDERS W MCC,9707.923076899999,Standard
 DIABETES W MCC,9431.857142899999,Standard
 PERIPHERAL VASCULAR DISORDERS W CC,7529.5,Standard
 HYPERTENSION W MCC,8896.357142899999,Standard
 DISORDERS OF PANCREAS EXCEPT MALIGNANCY W CC,6449.217391300001,Standard
" DISORDERS OF LIVER EXCEPT MALIG,CIRR,ALC HEPA W CC",6599.3888889,Standard
 COMBINED ANTERIOR/POSTERIOR SPINAL FUSION W CC,47506.897436,Standard
 COMBINED ANTERIOR/POSTERIOR SPINAL FUSION W/O CC/MCC,35093.454545,Standard
 SPINAL FUSION EXCEPT CERVICAL W/O MCC,33062.869565,Standard
 MAJOR HIP AND KNEE JOINT REPLACEMENT OR REATTACHMENT OF LOWER EXTREM,15142.881081,Standard
 CERVICAL SPINAL FUSION W CC,22002.75,Standard
 CERVICAL SPINAL FUSION W/O CC/MCC,16253.266666999998,Standard
 DISORDERS OF PANCREAS EXCEPT MALIGNANCY W MCC,12185.266667,Standard
 HIP & FEMUR PROCEDURES EXCEPT MAJOR JOINT W MCC,19749.846154,Standard
 MAJOR JOINT/LIMB REATTACHMENT PROCEDURE OF UPPER EXTREMITIES,17040.178571,Standard
 FRACTURES OF HIP & PELVIS W/O MCC,5429.136363600001,Standard
 PATHOLOGICAL FRACTURES & MUSCULOSKELET & CONN TISS MALIG W CC,7664.461538500001,Standard
 MEDICAL BACK PROBLEMS W/O MCC,6777.2777778,Standard
 SIGNS & SYMPTOMS OF MUSCULOSKELETAL SYSTEM & CONN TISSUE W/O MCC,6643.0833333,Standard
" FX, SPRN, STRN & DISL EXCEPT FEMUR, HIP, PELVIS & THIGH W/O MCC",6129.206896600001,Standard
 CELLULITIS W MCC,10368.037037,Standard
 CELLULITIS W/O MCC,6302.229508199999,Standard
 HIP & FEMUR PROCEDURES EXCEPT MAJOR JOINT W CC,14813.540541,Standard
 OTHER DIGESTIVE SYSTEM DIAGNOSES W CC,6928.0416667,Standard
" ""ESOPHAGITIS, GASTROENT & MISC DIGEST DISORDERS W/O MCC""",5971.7669903000005,Standard
" ESOPHAGITIS, GASTROENT & MISC DIGEST DISORDERS W MCC",9656.466666700002,Standard
 HYPERTENSION W/O MCC,5233.7272727,Standard
 CARDIAC ARRHYTHMIA & CONDUCTION DISORDERS W CC,5917.4875,Standard
 CARDIAC ARRHYTHMIA & CONDUCTION DISORDERS W/O CC/MCC,4343.9696969999995,Standard
 SYNCOPE & COLLAPSE,5933.8356164,Standard
 CHEST PAIN,5478.44,Standard
 OTHER CIRCULATORY SYSTEM DIAGNOSES W MCC,14628.916667,Standard
 OTHER CIRCULATORY SYSTEM DIAGNOSES W CC,7067.285714300001,Standard
 MAJOR SMALL & LARGE BOWEL PROCEDURES W MCC,30625.272727,Standard
 MAJOR SMALL & LARGE BOWEL PROCEDURES W CC,18035.722222,Standard
 MAJOR SMALL & LARGE BOWEL PROCEDURES W/O CC/MCC,11925.181818000001,Standard
 G.I. HEMORRHAGE W MCC,11725.155172,Standard
 G.I. HEMORRHAGE W CC,7088.5441175999995,Standard
 G.I. HEMORRHAGE W/O CC/MCC,4895.0833333,Standard
 G.I. OBSTRUCTION W CC,6669.690909100001,Standard
Level 2 Neurostimulator and Related Procedures,4689.49,DRG
Level 3 Neurostimulator and Related Procedures,16467.97,DRG
Level 4 Neurostimulator and Related Procedures,25686.18,DRG
Comprehensive Observation Services,1781.9566198830103,DRG
 G.I. OBSTRUCTION W/O CC/MCC,4568.4117647,Standard
 PERIPHERAL VASCULAR DISORDERS W/O CC/MCC,6221.636363600001,Standard
 CARDIAC ARRHYTHMIA & CONDUCTION DISORDERS W MCC,8921.923076899999,Standard
Level 2 Excision/ Biopsy/ Incision and Drainage,1002.09514950166,DRG
