Description,Charge,Category
 DIABETES W MCC,8191.1666667,Standard
 DIABETES W CC,5521.0,Standard
" MISC DISORDERS OF NUTRITION,METABOLISM,FLUIDS/ELECTROLYTES W MCC",7430.473684199999,Standard
 CELLULITIS W/O MCC,5584.3809524,Standard
 CELLULITIS W MCC,8968.727272700002,Standard
 HEART FAILURE & SHOCK W CC,5812.2380952,Standard
" ""MISC DISORDERS OF NUTRITION,METABOLISM,FLUIDS/ELECTROLYTES W/O MCC""",4837.9473683999995,Standard
 RENAL FAILURE W MCC,10073.727273,Standard
 RENAL FAILURE W CC,6305.4285714,Standard
 KIDNEY & URINARY TRACT INFECTIONS W MCC,6952.392857100001,Standard
 KIDNEY & URINARY TRACT INFECTIONS W/O MCC,5217.0625,Standard
 OTHER KIDNEY & URINARY TRACT DIAGNOSES W MCC,9789.4166667,Standard
 SEPTICEMIA OR SEVERE SEPSIS W/O MV >96 HOURS W MCC,11785.340909,Standard
 SEPTICEMIA OR SEVERE SEPSIS W/O MV >96 HOURS W/O MCC,6700.0740741,Standard
 RESPIRATORY INFECTIONS & INFLAMMATIONS W MCC,10340.133333,Standard
 PATHOLOGICAL FRACTURES & MUSCULOSKELET & CONN TISS MALIG W CC,6921.5833333,Standard
 MAJOR JOINT/LIMB REATTACHMENT PROCEDURE OF UPPER EXTREMITIES,15360.923077000001,Standard
 OTHER DIGESTIVE SYSTEM DIAGNOSES W CC,6235.3076923,Standard
 SPINAL FUSION EXCEPT CERVICAL W/O MCC,23990.04,Standard
 CARDIAC ARRHYTHMIA & CONDUCTION DISORDERS W MCC,7472.6153846,Standard
" CIRCULATORY DISORDERS EXCEPT AMI, W CARD CATH W/O MCC",7514.2432432,Standard
" ""CIRCULATORY DISORDERS EXCEPT AMI, W CARD CATH W MCC""",12586.117647,Standard
" ""ACUTE MYOCARDIAL INFARCTION, DISCHARGED ALIVE W MCC""",10030.461538,Standard
 PERC CARDIOVASC PROC W DRUG,13271.769231,Standard
 BRONCHITIS & ASTHMA W CC/MCC,5962.1818182,Standard
 SIMPLE PNEUMONIA & PLEURISY W CC,5962.233333300001,Standard
 CARDIAC ARRHYTHMIA & CONDUCTION DISORDERS W CC,5068.4375,Standard
 SYNCOPE & COLLAPSE,5212.0,Standard
 INTRACRANIAL HEMORRHAGE OR CEREBRAL INFARCTION W/O CC/MCC,5556.0909091,Standard
 INTRACRANIAL HEMORRHAGE OR CEREBRAL INFARCTION W CC OR TPA IN 24 HRS,6394.0,Standard
 INTRACRANIAL HEMORRHAGE OR CEREBRAL INFARCTION W MCC,11366.684211,Standard
 CHEST PAIN,4669.5789474,Standard
 G.I. HEMORRHAGE W MCC,10375.076923,Standard
 SIMPLE PNEUMONIA & PLEURISY W MCC,8707.212121200002,Standard
 CHRONIC OBSTRUCTIVE PULMONARY DISEASE W CC,5880.1666667,Standard
 CHRONIC OBSTRUCTIVE PULMONARY DISEASE W MCC,7095.75,Standard
 G.I. HEMORRHAGE W CC,6353.392857100001,Standard
 PULMONARY EDEMA & RESPIRATORY FAILURE,8176.252336399999,Standard
 G.I. OBSTRUCTION W CC,5542.2727273,Standard
 RESPIRATORY INFECTIONS & INFLAMMATIONS W CC,7989.6470588,Standard
" ESOPHAGITIS, GASTROENT & MISC DIGEST DISORDERS W MCC",8555.7727273,Standard
" ""ESOPHAGITIS, GASTROENT & MISC DIGEST DISORDERS W/O MCC""",5050.3333333,Standard
 HEART FAILURE & SHOCK W MCC,8939.888888899999,Standard
 COMBINED ANTERIOR/POSTERIOR SPINAL FUSION W/O CC/MCC,29956.0,Standard
 MAJOR HIP AND KNEE JOINT REPLACEMENT OR REATTACHMENT OF LOWER EXTREM,12792.665072,Standard
 PSYCHOSES,8085.8307692,Standard
 HIP & FEMUR PROCEDURES EXCEPT MAJOR JOINT W CC,12282.533333,Standard
 PULMONARY EMBOLISM W/O MCC,5778.7857143,Standard
Level 1 Nerve Procedures,1166.04272727272,DRG
Level 6 Urology and Related Services,5721.54,DRG
Level 5 Urology and Related Services,2700.6590163934397,DRG
Level 4 Urology and Related Services,1953.2291111110999,DRG
Level 3 Urology and Related Services,1241.6523255813902,DRG
Level 2 Laparoscopy and Related Services,5466.98625,DRG
Abdominal/Peritoneal/Biliary and Related Procedures,2156.76,DRG
Level 3 Musculoskeletal Procedures,1876.2196721311398,DRG
Level 4 Musculoskeletal Procedures,4005.8329729729708,DRG
Level 5 Musculoskeletal Procedures,8061.44,DRG
Level 3 Airway Endoscopy,980.69,DRG
Level 4 Airway Endoscopy,1928.71,DRG
Level 1 Endovascular Procedures,1749.49029126213,DRG
Level 2 Endovascular Procedures,3761.5608,DRG
Level 3 Endovascular Procedures,8420.32999999999,DRG
Level 2 Pacemaker and Similar Procedures,5512.92999999999,DRG
Level 2 Upper GI Procedures,1014.78125,DRG
Level 1 Intraocular Procedures,1384.01142857143,DRG
Comprehensive Observation Services,1722.65277486911,DRG
Level 1 Laparoscopy and Related Services,3072.8721311475397,DRG
Level 2 Excision/ Biopsy/ Incision and Drainage,942.432446043168,DRG
Level 2 Musculoskeletal Procedures,833.443888888888,DRG
Level 2 Breast/Lymphatic Surgery and Related Procedures,3564.95,DRG
Level 1 Breast/Lymphatic Surgery and Related Procedures,1911.11388888888,DRG
Level 3 Excision/ Biopsy/ Incision and Drainage,1615.7788235294101,DRG
