Description,Charge,Category
Level 1 Laparoscopy and Related Services,3394.73,DRG
Level 3 Urology and Related Services,1282.41,DRG
Level 5 Urology and Related Services,2690.7072,DRG
Level 2 Excision/ Biopsy/ Incision and Drainage,1019.4236363636301,DRG
Abdominal/Peritoneal/Biliary and Related Procedures,1969.90631578947,DRG
 G.I. HEMORRHAGE W CC,9204.0833333,Standard
"Level 3 Extraocular, Repair, and Plastic Eye Procedures",1278.57333333333,DRG
Level 2 Intraocular Procedures,2730.34,DRG
Level 1 Intraocular Procedures,1441.79062857143,DRG
Level 1 Nerve Procedures,1218.0,DRG
 MAJOR HIP AND KNEE JOINT REPLACEMENT OR REATTACHMENT OF LOWER EXTREM,19564.88,Standard
 CELLULITIS W/O MCC,8069.785714300001,Standard
Level 4 Gynecologic Procedures,1718.86,DRG
Level 2 Upper GI Procedures,1079.51,DRG
 RENAL FAILURE W CC,8783.1666667,Standard
Level 4 Musculoskeletal Procedures,3997.7708571428498,DRG
Level 3 Musculoskeletal Procedures,1954.02558139535,DRG
Level 2 Musculoskeletal Procedures,1020.93999999999,DRG
Comprehensive Observation Services,1748.743,DRG
 SIMPLE PNEUMONIA & PLEURISY W CC,8961.272727299998,Standard
 PULMONARY EDEMA & RESPIRATORY FAILURE,11610.858696,Standard
 SEPTICEMIA OR SEVERE SEPSIS W/O MV >96 HOURS W/O MCC,10004.6,Standard
 SEPTICEMIA OR SEVERE SEPSIS W/O MV >96 HOURS W MCC,17111.57377,Standard
Level 5 Musculoskeletal Procedures,8256.57,DRG
