Description,Charge,Category
Level 1 Nerve Procedures,1193.16,DRG
Level 2 Upper GI Procedures,1057.51,DRG
Level 4 Musculoskeletal Procedures,3909.2517647058794,DRG
Level 3 Musculoskeletal Procedures,1750.9989473684197,DRG
Level 2 Excision/ Biopsy/ Incision and Drainage,927.373571428571,DRG
Comprehensive Observation Services,1660.81009090909,DRG
 HEART FAILURE & SHOCK W MCC,7859.96875,Standard
 CHRONIC OBSTRUCTIVE PULMONARY DISEASE W MCC,7159.1818182,Standard
 MAJOR HIP AND KNEE JOINT REPLACEMENT OR REATTACHMENT OF LOWER EXTREM,13081.862745,Standard
 CELLULITIS W/O MCC,5430.8181818,Standard
 O.R. PROCEDURES FOR OBESITY W/O CC/MCC,10254.0,Standard
 SEPTICEMIA OR SEVERE SEPSIS W/O MV >96 HOURS W MCC,11252.929576999999,Standard
 SEPTICEMIA OR SEVERE SEPSIS W/O MV >96 HOURS W/O MCC,6450.5416667,Standard
 SIMPLE PNEUMONIA & PLEURISY W CC,5857.4615385,Standard
