Description,Charge,Category
 RENAL FAILURE W CC,7344.2222222,Standard
" MISC DISORDERS OF NUTRITION,METABOLISM,FLUIDS/ELECTROLYTES W MCC",9110.368421100002,Standard
" ""MISC DISORDERS OF NUTRITION,METABOLISM,FLUIDS/ELECTROLYTES W/O MCC""",5976.948275899999,Standard
 ENDOCRINE DISORDERS W CC,7629.785714300001,Standard
 KIDNEY & URETER PROCEDURES FOR NEOPLASM W/O CC/MCC,11582.833333,Standard
 TRANSURETHRAL PROCEDURES W CC,13728.071429,Standard
 RENAL FAILURE W MCC,11319.507246,Standard
 RENAL FAILURE W/O CC/MCC,5328.375,Standard
 RED BLOOD CELL DISORDERS W/O MCC,7022.28,Standard
 KIDNEY & URINARY TRACT INFECTIONS W/O MCC,6413.6666667,Standard
 EXTENSIVE O.R. PROCEDURE UNRELATED TO PRINCIPAL DIAGNOSIS W CC,17146.090909,Standard
 EXTENSIVE O.R. PROCEDURE UNRELATED TO PRINCIPAL DIAGNOSIS W MCC,29892.230768999998,Standard
 SIGNS & SYMPTOMS W/O MCC,5945.1739130000005,Standard
 COMPLICATIONS OF TREATMENT W CC,7953.0,Standard
 POISONING & TOXIC EFFECTS OF DRUGS W/O MCC,5967.5384615,Standard
 POISONING & TOXIC EFFECTS OF DRUGS W MCC,10972.214286,Standard
 SEPTICEMIA OR SEVERE SEPSIS W/O MV >96 HOURS W/O MCC,8541.8762887,Standard
 SEPTICEMIA OR SEVERE SEPSIS W/O MV >96 HOURS W MCC,13888.713974,Standard
 SEPTICEMIA OR SEVERE SEPSIS W MV >96 HOURS OR PERIPHERAL EXTRACORPOR,43411.5,Standard
 POSTOPERATIVE & POST,7811.8461538,Standard
 INFECTIOUS & PARASITIC DISEASES W O.R. PROCEDURE W MCC,37328.52459,Standard
 COAGULATION DISORDERS,13011.944444,Standard
 RED BLOOD CELL DISORDERS W MCC,10222.894737,Standard
 MAJOR MALE PELVIC PROCEDURES W/O CC/MCC,11700.666667,Standard
 OTHER KIDNEY & URINARY TRACT DIAGNOSES W CC,8204.4285714,Standard
 OTHER KIDNEY & URINARY TRACT DIAGNOSES W MCC,12112.390625,Standard
 URINARY STONES W/O ESW LITHOTRIPSY W/O MCC,6667.2941176,Standard
 KIDNEY & URINARY TRACT INFECTIONS W MCC,8557.9473684,Standard
 NON,23971.2,Standard
 PERC CARDIOVASC PROC W DRUG,16046.785713999998,Standard
" CIRCULATORY DISORDERS EXCEPT AMI, W CARD CATH W/O MCC",9508.1551724,Standard
 NONSPECIFIC CEREBROVASCULAR DISORDERS W CC,7716.3333333,Standard
 NONSPECIFIC CEREBROVASCULAR DISORDERS W MCC,12253.125,Standard
 TRANSIENT ISCHEMIA W/O THROMBOLYTIC,6022.5714286,Standard
 INTRACRANIAL HEMORRHAGE OR CEREBRAL INFARCTION W/O CC/MCC,6584.1666667,Standard
 INTRACRANIAL HEMORRHAGE OR CEREBRAL INFARCTION W CC OR TPA IN 24 HRS,8392.245098000001,Standard
 INTRACRANIAL HEMORRHAGE OR CEREBRAL INFARCTION W MCC,13286.52,Standard
 DEGENERATIVE NERVOUS SYSTEM DISORDERS W/O MCC,8797.272727299998,Standard
 EXTRACRANIAL PROCEDURES W/O CC/MCC,8401.0,Standard
 CRANIOTOMY & ENDOVASCULAR INTRACRANIAL PROCEDURES W/O CC/MCC,20688.083333000002,Standard
  CRANIOTOMY W MAJOR DEVICE IMPLANT OR ACUTE COMPLEX CNS PDX W MCC OR,36678.333332999995,Standard
" TRACH W MV >96 HRS OR PDX EXC FACE, MOUTH & NECK W/O MAJ O.R.",62423.0,Standard
" ""ECMO OR TRACH W MV >96 HRS OR PDX EXC FACE, MOUTH & NECK W MAJ O.R.",105412.11765,Standard
Level 2 Excision/ Biopsy/ Incision and Drainage,1031.01041884816,DRG
Level 3 Excision/ Biopsy/ Incision and Drainage,1774.94535714285,DRG
 CRANIAL & PERIPHERAL NERVE DISORDERS W/O MCC,8387.181818199999,Standard
Level 1 Breast/Lymphatic Surgery and Related Procedures,2145.94999999999,DRG
Level 2 Musculoskeletal Procedures,1061.98,DRG
Level 3 Musculoskeletal Procedures,2080.94999999999,DRG
Level 4 Musculoskeletal Procedures,4204.25714285714,DRG
Level 5 Musculoskeletal Procedures,8635.404838709681,DRG
" ACUTE MYOCARDIAL INFARCTION, EXPIRED W MCC",13045.625,Standard
" ""CIRCULATORY DISORDERS EXCEPT AMI, W CARD CATH W MCC""",16700.185185,Standard
" ACUTE MYOCARDIAL INFARCTION, DISCHARGED ALIVE W CC",7705.511111100001,Standard
 HEART FAILURE & SHOCK W MCC,11278.860317,Standard
 HEART FAILURE & SHOCK W CC,7496.8717949,Standard
 HEART FAILURE & SHOCK W/O CC/MCC,5263.3333333,Standard
 PERIPHERAL VASCULAR DISORDERS W MCC,10825.714286,Standard
 PERIPHERAL VASCULAR DISORDERS W CC,7810.931034499999,Standard
 HYPERTENSION W MCC,8144.45,Standard
 HYPERTENSION W/O MCC,5568.3333333,Standard
Level 2 Breast/Lymphatic Surgery and Related Procedures,3781.19999999999,DRG
 OTHER DISORDERS OF NERVOUS SYSTEM W CC,7325.0,Standard
 SEIZURES W MCC,12329.764706,Standard
 SEIZURES W/O MCC,6630.5151515,Standard
" ""ACUTE MYOCARDIAL INFARCTION, DISCHARGED ALIVE W MCC""",12758.482143000001,Standard
 OTHER MAJOR CARDIOVASCULAR PROCEDURES W CC,26369.705882,Standard
 OTHER MAJOR CARDIOVASCULAR PROCEDURES W MCC,36842.6875,Standard
 AORTIC AND HEART ASSIST PROCEDURES EXCEPT PULSATION BALLOON W/O MCC,30357.176471,Standard
 ENDOVASCULAR CARDIAC VALVE REPLACEMENT W/O MCC,44512.25,Standard
 OTHER VASCULAR PROCEDURES W/O CC/MCC,16440.333333000002,Standard
 OTHER VASCULAR PROCEDURES W CC,20542.0625,Standard
 OTHER VASCULAR PROCEDURES W MCC,24595.533333000003,Standard
 PERCUTANEOUS CARDIOVASCULAR PROCEDURES W DRUG,25003.557143,Standard
 PERMANENT CARDIAC PACEMAKER IMPLANT W CC,19007.090909,Standard
 PERMANENT CARDIAC PACEMAKER IMPLANT W MCC,27350.615385,Standard
 CORONARY BYPASS W CARDIAC CATH W/O MCC,39192.0,Standard
 CARDIAC VALVE & OTH MAJ CARDIOTHORACIC PROC W/O CARD CATH W CC,42854.833332999995,Standard
 OTHER HEART ASSIST SYSTEM IMPLANT,83746.84210499999,Standard
 RESPIRATORY SYSTEM DIAGNOSIS W VENTILATOR SUPPORT <=96 HOURS,17865.895833000002,Standard
 RESPIRATORY SYSTEM DIAGNOSIS W VENTILATOR SUPPORT >96 HOURS,41588.944444,Standard
 BRONCHITIS & ASTHMA W CC/MCC,7374.56,Standard
 DYSEQUILIBRIUM,5625.8333333,Standard
 MAJOR CHEST PROCEDURES W CC,19682.533333000003,Standard
 MAJOR CHEST PROCEDURES W/O CC/MCC,13637.272727000001,Standard
 OTHER RESP SYSTEM O.R. PROCEDURES W MCC,26059.296296,Standard
 PULMONARY EMBOLISM W MCC,11573.466667,Standard
 RESPIRATORY INFECTIONS & INFLAMMATIONS W MCC,13641.363636000002,Standard
 CARDIAC ARRHYTHMIA & CONDUCTION DISORDERS W MCC,9559.0,Standard
 RESPIRATORY INFECTIONS & INFLAMMATIONS W CC,10031.636364,Standard
 CHRONIC OBSTRUCTIVE PULMONARY DISEASE W MCC,8874.523076899999,Standard
 CHRONIC OBSTRUCTIVE PULMONARY DISEASE W CC,7225.835820899999,Standard
 CHRONIC OBSTRUCTIVE PULMONARY DISEASE W/O CC/MCC,5832.0,Standard
 SIMPLE PNEUMONIA & PLEURISY W MCC,10744.726619,Standard
 SIMPLE PNEUMONIA & PLEURISY W CC,7325.6911765,Standard
 SIMPLE PNEUMONIA & PLEURISY W/O CC/MCC,5709.125,Standard
 PULMONARY EDEMA & RESPIRATORY FAILURE,9475.4166667,Standard
 CARDIAC ARRHYTHMIA & CONDUCTION DISORDERS W CC,6097.2207792,Standard
" ""ACUTE MYOCARDIAL INFARCTION, DISCHARGED ALIVE W/O CC/MCC""",6089.75,Standard
 SYNCOPE & COLLAPSE,6665.92,Standard
Level 5 ENT Procedures,3413.23999999999,DRG
Level 1 Endovascular Procedures,1856.4594607842998,DRG
Level 2 Endovascular Procedures,3999.3885416666603,DRG
Comprehensive Observation Services,1806.8325618200101,DRG
Level 3 Neurostimulator and Related Procedures,16749.88,DRG
Level 5 Gynecologic Procedures,3021.47526315789,DRG
Level 4 Gynecologic Procedures,1731.86216216216,DRG
Level 6 Urology and Related Services,6150.41586206897,DRG
 CARDIAC ARRHYTHMIA & CONDUCTION DISORDERS W/O CC/MCC,4892.4,Standard
Level 5 Urology and Related Services,2832.9220472440898,DRG
Level 4 Urology and Related Services,2092.06556962025,DRG
Level 3 Urology and Related Services,1303.85624,DRG
Level 2 Laparoscopy and Related Services,6155.77,DRG
Level 1 Laparoscopy and Related Services,3529.4982644628003,DRG
Level 5 Airway Endoscopy,3826.55,DRG
Abdominal/Peritoneal/Biliary and Related Procedures,2214.5858823529397,DRG
Level 2 Upper GI Procedures,1120.36133333333,DRG
Level 2 ICD and Similar Procedures,29133.4599999999,DRG
Level 3 Pacemaker and Similar Procedures,8272.5,DRG
Level 2 Pacemaker and Similar Procedures,5934.808823529399,DRG
Level 3 Electrophysiologic Procedures,16003.7797297297,DRG
Level 2 Electrophysiologic Procedures,4180.67,DRG
 DIABETES W CC,7041.0652174,Standard
Level 3 Endovascular Procedures,8739.06138888891,DRG
 FRACTURES OF HIP & PELVIS W/O MCC,6081.636363600001,Standard
Level 4 Endovascular Procedures,14440.48,DRG
 MEDICAL BACK PROBLEMS W/O MCC,7335.026315800001,Standard
" FX, SPRN, STRN & DISL EXCEPT FEMUR, HIP, PELVIS & THIGH W/O MCC",6513.2307692,Standard
 CELLULITIS W MCC,11351.730769,Standard
 CELLULITIS W/O MCC,6848.114942499999,Standard
Level 3 Lower GI Procedures,1756.6007142857097,DRG
Level 4 Airway Endoscopy,2058.4,DRG
Level 3 Airway Endoscopy,1041.10291666666,DRG
 MAJOR JOINT/LIMB REATTACHMENT PROCEDURE OF UPPER EXTREMITIES,18660.518797,Standard
 CHEST PAIN,5595.9655172,Standard
 OTHER CIRCULATORY SYSTEM DIAGNOSES W MCC,15195.53125,Standard
 OTHER CIRCULATORY SYSTEM DIAGNOSES W CC,7532.533333300001,Standard
 MAJOR SMALL & LARGE BOWEL PROCEDURES W MCC,36404.9375,Standard
 MAJOR SMALL & LARGE BOWEL PROCEDURES W CC,18904.933333,Standard
 MAJOR SMALL & LARGE BOWEL PROCEDURES W/O CC/MCC,13544.1,Standard
 PERITONEAL ADHESIOLYSIS W/O CC/MCC,13657.583333,Standard
 MAJOR GASTROINTESTINAL DISORDERS & PERITONEAL INFECTIONS W CC,8129.2222222,Standard
 G.I. HEMORRHAGE W MCC,12863.5,Standard
 G.I. HEMORRHAGE W CC,7780.2,Standard
 G.I. OBSTRUCTION W CC,6909.761904800001,Standard
 G.I. OBSTRUCTION W/O CC/MCC,5233.7857143,Standard
" ESOPHAGITIS, GASTROENT & MISC DIGEST DISORDERS W MCC",9559.925925900001,Standard
" ""ESOPHAGITIS, GASTROENT & MISC DIGEST DISORDERS W/O MCC""",6259.6627907,Standard
 OTHER DIGESTIVE SYSTEM DIAGNOSES W MCC,13384.5,Standard
 OTHER DIGESTIVE SYSTEM DIAGNOSES W CC,7372.0,Standard
 LAPAROSCOPIC CHOLECYSTECTOMY W/O C.D.E. W CC,12585.0,Standard
 HIP & FEMUR PROCEDURES EXCEPT MAJOR JOINT W/O CC/MCC,13033.866667,Standard
 HIP & FEMUR PROCEDURES EXCEPT MAJOR JOINT W CC,16038.060606000001,Standard
 HIP & FEMUR PROCEDURES EXCEPT MAJOR JOINT W MCC,21852.375,Standard
 CERVICAL SPINAL FUSION W/O CC/MCC,17220.769231000002,Standard
 CERVICAL SPINAL FUSION W CC,20860.916666999998,Standard
 MAJOR HIP AND KNEE JOINT REPLACEMENT OR REATTACHMENT OF LOWER EXTREM,15682.038005,Standard
" ""AMPUTAT OF LOWER LIMB FOR ENDOCRINE,NUTRIT,& METABOL DIS W CC""",17590.363636000002,Standard
 MAJOR HIP AND KNEE JOINT REPLACEMENT OR REATTACHMENT OF LOWER EXTREM,21794.619048,Standard
 SPINAL FUSION EXCEPT CERVICAL W/O MCC,29719.836364,Standard
 COMBINED ANTERIOR/POSTERIOR SPINAL FUSION W/O CC/MCC,37882.666667000005,Standard
 COMBINED ANTERIOR/POSTERIOR SPINAL FUSION W CC,51880.6,Standard
" DISORDERS OF LIVER EXCEPT MALIG,CIRR,ALC HEPA W CC",7490.8461538,Standard
" ""DISORDERS OF LIVER EXCEPT MALIG,CIRR,ALC HEPA W MCC""",14257.166667,Standard
 LAPAROSCOPIC CHOLECYSTECTOMY W/O C.D.E. W/O CC/MCC,9776.6666667,Standard
 REVISION OF HIP OR KNEE REPLACEMENT W/O CC/MCC,20392.090909,Standard
 DIABETES W MCC,9900.125,Standard
