Description,Charge,Category
Level 2 Musculoskeletal Procedures,1038.33369863013,DRG
Level 2 Excision/ Biopsy/ Incision and Drainage,1058.10364161849,DRG
Level 3 Excision/ Biopsy/ Incision and Drainage,1671.66409090909,DRG
Level 1 Breast/Lymphatic Surgery and Related Procedures,2166.325,DRG
Level 2 Breast/Lymphatic Surgery and Related Procedures,3822.17999999999,DRG
" ""ESOPHAGITIS, GASTROENT & MISC DIGEST DISORDERS W/O MCC""",5884.8333333,Standard
Level 2 Neurostimulator and Related Procedures,4810.1,DRG
Level 4 Musculoskeletal Procedures,4416.36505154639,DRG
 SIMPLE PNEUMONIA & PLEURISY W MCC,10552.441176,Standard
 SIMPLE PNEUMONIA & PLEURISY W CC,7192.0833333,Standard
 RESPIRATORY SYSTEM DIAGNOSIS W VENTILATOR SUPPORT <=96 HOURS,18177.303030000003,Standard
 CORONARY BYPASS W CARDIAC CATH W/O MCC,38901.272726999996,Standard
 CORONARY BYPASS W/O CARDIAC CATH W/O MCC,29807.857143,Standard
 PERMANENT CARDIAC PACEMAKER IMPLANT W CC,20043.285713999998,Standard
 PERMANENT CARDIAC PACEMAKER IMPLANT W/O CC/MCC,16332.571429,Standard
 CHRONIC OBSTRUCTIVE PULMONARY DISEASE W MCC,8862.78125,Standard
 PERCUTANEOUS CARDIOVASCULAR PROCEDURES W DRUG,24494.0,Standard
 OTHER VASCULAR PROCEDURES W MCC,24821.0,Standard
 OTHER VASCULAR PROCEDURES W CC,19388.3125,Standard
 ENDOVASCULAR CARDIAC VALVE REPLACEMENT W/O MCC,46521.947368,Standard
Level 3 Musculoskeletal Procedures,2077.2434782608702,DRG
 PERCUTANEOUS INTRACARDIAC PROCEDURES W/O MCC,21100.419355,Standard
" ""ACUTE MYOCARDIAL INFARCTION, DISCHARGED ALIVE W MCC""",12782.402984999999,Standard
" ACUTE MYOCARDIAL INFARCTION, DISCHARGED ALIVE W CC",7564.9767442,Standard
 PERC CARDIOVASC PROC W DRUG,16305.890411000002,Standard
 PULMONARY EDEMA & RESPIRATORY FAILURE,9402.5445545,Standard
 PULMONARY EMBOLISM W MCC,11706.588235,Standard
 OTHER RESP SYSTEM O.R. PROCEDURES W MCC,27193.733333,Standard
 ALCOHOL/DRUG ABUSE OR DEPENDENCE W REHABILITATION THERAPY,10772.625,Standard
 SEPTICEMIA OR SEVERE SEPSIS W/O MV >96 HOURS W/O MCC,8154.372093000001,Standard
 SEPTICEMIA OR SEVERE SEPSIS W/O MV >96 HOURS W MCC,13976.381503,Standard
 INFECTIOUS & PARASITIC DISEASES W O.R. PROCEDURE W MCC,39834.225806,Standard
 CRANIOTOMY & ENDOVASCULAR INTRACRANIAL PROCEDURES W CC,22902.272727,Standard
 EXTRACRANIAL PROCEDURES W CC,12290.692308,Standard
 EXTRACRANIAL PROCEDURES W/O CC/MCC,8518.0714286,Standard
 INTRACRANIAL HEMORRHAGE OR CEREBRAL INFARCTION W MCC,13509.0625,Standard
 OTHER KIDNEY & URINARY TRACT DIAGNOSES W MCC,12128.352941,Standard
 KIDNEY & URINARY TRACT INFECTIONS W/O MCC,6131.5,Standard
 RENAL FAILURE W CC,7188.15625,Standard
 RENAL FAILURE W MCC,11396.947368000001,Standard
" ""MISC DISORDERS OF NUTRITION,METABOLISM,FLUIDS/ELECTROLYTES W/O MCC""",5743.7857143,Standard
 INTRACRANIAL HEMORRHAGE OR CEREBRAL INFARCTION W CC OR TPA IN 24 HRS,7904.2777778,Standard
 INTRACRANIAL HEMORRHAGE OR CEREBRAL INFARCTION W/O CC/MCC,5739.2857143,Standard
 TRANSIENT ISCHEMIA W/O THROMBOLYTIC,5795.2727273,Standard
 NONSPECIFIC CEREBROVASCULAR DISORDERS W MCC,12630.818181999999,Standard
" ""ACUTE MYOCARDIAL INFARCTION, DISCHARGED ALIVE W/O CC/MCC""",5827.733333300001,Standard
 ALCOHOL/DRUG ABUSE OR DEPENDENCE W/O REHABILITATION THERAPY W/O MCC,6311.5,Standard
" ""CIRCULATORY DISORDERS EXCEPT AMI, W CARD CATH W MCC""",17210.666666999998,Standard
" MISC DISORDERS OF NUTRITION,METABOLISM,FLUIDS/ELECTROLYTES W MCC",8999.05,Standard
 DISORDERS OF THE BILIARY TRACT W CC,8129.3846154,Standard
 DISORDERS OF PANCREAS EXCEPT MALIGNANCY W/O CC/MCC,4939.636363600001,Standard
 OTHER DIGESTIVE SYSTEM DIAGNOSES W CC,7245.142857100001,Standard
 CARDIAC ARRHYTHMIA & CONDUCTION DISORDERS W CC,5942.735294100001,Standard
 CARDIAC ARRHYTHMIA & CONDUCTION DISORDERS W/O CC/MCC,4334.4117647,Standard
 SYNCOPE & COLLAPSE,6119.375,Standard
 CHEST PAIN,5387.8695652,Standard
 COMBINED ANTERIOR/POSTERIOR SPINAL FUSION W CC,49508.818182,Standard
 OTHER CIRCULATORY SYSTEM DIAGNOSES W MCC,15260.928571,Standard
 MAJOR SMALL & LARGE BOWEL PROCEDURES W CC,18907.952381,Standard
 MAJOR SMALL & LARGE BOWEL PROCEDURES W/O CC/MCC,12854.727273,Standard
 G.I. HEMORRHAGE W MCC,14569.589743999999,Standard
 G.I. HEMORRHAGE W CC,7459.9402985,Standard
 G.I. OBSTRUCTION W CC,6643.6666667,Standard
 G.I. OBSTRUCTION W/O CC/MCC,4618.25,Standard
" ESOPHAGITIS, GASTROENT & MISC DIGEST DISORDERS W MCC",9498.4615385,Standard
 MAJOR SMALL & LARGE BOWEL PROCEDURES W MCC,37463.25,Standard
 COMBINED ANTERIOR/POSTERIOR SPINAL FUSION W/O CC/MCC,40338.733333,Standard
 SPINAL FUSION EXCEPT CERVICAL W/O MCC,30534.166667,Standard
 REVISION OF HIP OR KNEE REPLACEMENT W CC,26528.307692,Standard
 DIABETES W CC,6554.2307692,Standard
 CELLULITIS W/O MCC,6538.6666667,Standard
 MEDICAL BACK PROBLEMS W/O MCC,6866.285714300001,Standard
 FRACTURES OF HIP & PELVIS W/O MCC,5781.0909091,Standard
 OTHER MUSCULOSKELET SYS & CONN TISS O.R. PROC W/O CC/MCC,10989.541667,Standard
 OTHER MUSCULOSKELET SYS & CONN TISS O.R. PROC W CC,14410.235294,Standard
 MAJOR JOINT/LIMB REATTACHMENT PROCEDURE OF UPPER EXTREMITIES,18516.448276,Standard
 HIP & FEMUR PROCEDURES EXCEPT MAJOR JOINT W CC,15309.564103,Standard
 HEART FAILURE & SHOCK W MCC,11298.057143,Standard
 HEART FAILURE & SHOCK W CC,7360.0,Standard
 HYPERTENSION W/O MCC,5447.636363600001,Standard
 CARDIAC ARRHYTHMIA & CONDUCTION DISORDERS W MCC,9112.733333299999,Standard
 HIP & FEMUR PROCEDURES EXCEPT MAJOR JOINT W MCC,23095.866667,Standard
 CERVICAL SPINAL FUSION W/O CC/MCC,17414.0,Standard
 MAJOR HIP AND KNEE JOINT REPLACEMENT OR REATTACHMENT OF LOWER EXTREM,15756.444444,Standard
 MAJOR HIP AND KNEE JOINT REPLACEMENT OR REATTACHMENT OF LOWER EXTREM,24340.636363999998,Standard
 REVISION OF HIP OR KNEE REPLACEMENT W/O CC/MCC,21402.636363999998,Standard
" CIRCULATORY DISORDERS EXCEPT AMI, W CARD CATH W/O MCC",9119.826087000001,Standard
 SIGNS & SYMPTOMS W/O MCC,5958.235294100001,Standard
 OTHER MAJOR CARDIOVASCULAR PROCEDURES W MCC,37636.454545,Standard
Level 2 ICD and Similar Procedures,28795.9674468085,DRG
Level 4 Urology and Related Services,2066.92894736841,DRG
Level 5 Urology and Related Services,2911.53731958763,DRG
Level 5 Gynecologic Procedures,3186.22,DRG
Level 1 Nerve Procedures,1260.1000699300698,DRG
Level 3 Neurostimulator and Related Procedures,16925.32,DRG
Level 1 Intraocular Procedures,1508.5640694788901,DRG
Comprehensive Observation Services,1827.9299659864002,DRG
Abdominal/Peritoneal/Biliary and Related Procedures,2309.8211111111104,DRG
Level 3 Lower GI Procedures,1839.36,DRG
Level 3 Upper GI Procedures,2179.18,DRG
Level 2 Upper GI Procedures,1115.13375939849,DRG
Level 3 Urology and Related Services,1338.34694444444,DRG
Level 1 ICD and Similar Procedures,20621.3652380952,DRG
Level 1 Laparoscopy and Related Services,3437.87375,DRG
Level 3 Pacemaker and Similar Procedures,8133.222222222221,DRG
Level 2 Pacemaker and Similar Procedures,5989.23671428571,DRG
Level 3 Electrophysiologic Procedures,17071.52,DRG
Level 4 Endovascular Procedures,14593.4899999999,DRG
Level 3 Endovascular Procedures,9031.632803738321,DRG
Level 2 Endovascular Procedures,3844.8775757575704,DRG
Level 1 Endovascular Procedures,1846.1677192982397,DRG
Level 4 Airway Endoscopy,2078.39,DRG
Level 5 Musculoskeletal Procedures,8610.625714285708,DRG
Level 4 Pacemaker and Similar Procedures,16138.3391666666,DRG
