Description,Charge,Category
 SPINAL FUSION EXCEPT CERVICAL W/O MCC,25048.448276,Standard
 REVISION OF HIP OR KNEE REPLACEMENT W CC,19693.083333000002,Standard
 REVISION OF HIP OR KNEE REPLACEMENT W/O CC/MCC,16613.444444,Standard
Level 1 Nerve Procedures,1222.682,DRG
 MAJOR HIP AND KNEE JOINT REPLACEMENT OR REATTACHMENT OF LOWER EXTREM,14299.2,Standard
 COMBINED ANTERIOR/POSTERIOR SPINAL FUSION W/O CC/MCC,30101.428570999997,Standard
 MAJOR JOINT/LIMB REATTACHMENT PROCEDURE OF UPPER EXTREMITIES,16528.947368,Standard
Level 3 Excision/ Biopsy/ Incision and Drainage,1651.50999999999,DRG
Level 2 Musculoskeletal Procedures,1012.17270491803,DRG
Level 3 Musculoskeletal Procedures,1977.8074537036898,DRG
Level 4 Musculoskeletal Procedures,4188.52894736843,DRG
Level 5 Musculoskeletal Procedures,8102.79807692308,DRG
