Description,Charge,Category
Level 3 Upper GI Procedures,2094.2,DRG
Level 2 Upper GI Procedures,1083.21096590908,DRG
Level 2 ICD and Similar Procedures,26562.069411764704,DRG
Level 1 ICD and Similar Procedures,16665.6725,DRG
 INTRACRANIAL HEMORRHAGE OR CEREBRAL INFARCTION W CC OR TPA IN 24 HRS,8140.5522388,Standard
 INTRACRANIAL HEMORRHAGE OR CEREBRAL INFARCTION W MCC,11750.340426,Standard
" ""ISCHEMIC STROKE, PRECEREBRAL OCCLUSION OR TRANSIENT ISCHEMIA W THRO",14647.714286000002,Standard
 EXTRACRANIAL PROCEDURES W/O CC/MCC,8221.904761900001,Standard
 CRANIOTOMY & ENDOVASCULAR INTRACRANIAL PROCEDURES W/O CC/MCC,15697.125,Standard
 CRANIOTOMY & ENDOVASCULAR INTRACRANIAL PROCEDURES W MCC,38163.947368,Standard
Complex GI Procedures,3277.53,DRG
 OTHER DIGESTIVE SYSTEM DIAGNOSES W CC,6985.4705882,Standard
 HIP & FEMUR PROCEDURES EXCEPT MAJOR JOINT W CC,13630.210525999999,Standard
Abdominal/Peritoneal/Biliary and Related Procedures,2222.23,DRG
Cochlear Implant Procedure,24827.725,DRG
Level 1 Endovascular Procedures,1795.3113907284699,DRG
Level 4 Airway Endoscopy,1634.19545454545,DRG
Level 3 Airway Endoscopy,1010.44,DRG
Level 5 Musculoskeletal Procedures,8072.31229508195,DRG
Level 4 Musculoskeletal Procedures,4200.53390909091,DRG
Level 3 Musculoskeletal Procedures,1862.1787777777697,DRG
Level 2 Musculoskeletal Procedures,974.7689189189191,DRG
Level 3 Excision/ Biopsy/ Incision and Drainage,1774.68,DRG
Level 2 Excision/ Biopsy/ Incision and Drainage,991.296956521736,DRG
Level 2 Endovascular Procedures,3819.2666666666705,DRG
Level 3 Endovascular Procedures,8635.168141592909,DRG
Level 3 Electrophysiologic Procedures,16081.4972727272,DRG
Level 3 Pacemaker and Similar Procedures,7986.36205882353,DRG
Level 4 Pacemaker and Similar Procedures,15466.69,DRG
Level 5 Airway Endoscopy,3403.63833333333,DRG
 HIP & FEMUR PROCEDURES EXCEPT MAJOR JOINT W MCC,18627.428571,Standard
Level 1 Laparoscopy and Related Services,3320.45793814432,DRG
Level 3 Urology and Related Services,1225.05714285714,DRG
 COMBINED ANTERIOR/POSTERIOR SPINAL FUSION W/O CC/MCC,33563.966667,Standard
 COMBINED ANTERIOR/POSTERIOR SPINAL FUSION W CC,40951.15,Standard
" ""DISORDERS OF LIVER EXCEPT MALIG,CIRR,ALC HEPA W MCC""",12137.923077,Standard
 LAPAROSCOPIC CHOLECYSTECTOMY W/O C.D.E. W/O CC/MCC,9158.3846154,Standard
 LAPAROSCOPIC CHOLECYSTECTOMY W/O C.D.E. W CC,11435.076923,Standard
 LAPAROSCOPIC CHOLECYSTECTOMY W/O C.D.E. W MCC,15892.0,Standard
" ""ESOPHAGITIS, GASTROENT & MISC DIGEST DISORDERS W/O MCC""",5834.0588235,Standard
 G.I. OBSTRUCTION W CC,6480.92,Standard
 G.I. HEMORRHAGE W CC,7647.4074074,Standard
 G.I. HEMORRHAGE W MCC,12408.583333,Standard
 MAJOR SMALL & LARGE BOWEL PROCEDURES W/O CC/MCC,11301.333333,Standard
 MAJOR SMALL & LARGE BOWEL PROCEDURES W CC,16254.560975999999,Standard
 MAJOR SMALL & LARGE BOWEL PROCEDURES W MCC,34032.722222000004,Standard
 OTHER CIRCULATORY SYSTEM DIAGNOSES W MCC,12735.384615,Standard
 CARDIAC ARRHYTHMIA & CONDUCTION DISORDERS W/O CC/MCC,4619.2307692,Standard
 CARDIAC ARRHYTHMIA & CONDUCTION DISORDERS W CC,6213.095238100001,Standard
 CARDIAC ARRHYTHMIA & CONDUCTION DISORDERS W MCC,10194.809524,Standard
 SPINAL FUSION EXCEPT CERVICAL W/O MCC,28311.473683999997,Standard
 REVISION OF HIP OR KNEE REPLACEMENT W CC,22611.272727,Standard
 MAJOR HIP AND KNEE JOINT REPLACEMENT OR REATTACHMENT OF LOWER EXTREM,19670.1875,Standard
 MAJOR HIP AND KNEE JOINT REPLACEMENT OR REATTACHMENT OF LOWER EXTREM,14887.883268000001,Standard
 CERVICAL SPINAL FUSION W/O CC/MCC,15213.666667,Standard
" LOWER EXTREM & HUMER PROC EXCEPT HIP,FOOT,FEMUR W CC",16337.583333,Standard
 MEDICAL BACK PROBLEMS W/O MCC,6424.8,Standard
" FX, SPRN, STRN & DISL EXCEPT FEMUR, HIP, PELVIS & THIGH W/O MCC",6240.9090909,Standard
 CELLULITIS W/O MCC,6716.9375,Standard
 DIABETES W MCC,11570.571429000001,Standard
" MISC DISORDERS OF NUTRITION,METABOLISM,FLUIDS/ELECTROLYTES W MCC",8096.729729699999,Standard
" ""MISC DISORDERS OF NUTRITION,METABOLISM,FLUIDS/ELECTROLYTES W/O MCC""",5705.875,Standard
 HEART FAILURE & SHOCK W CC,7065.1470588,Standard
 RENAL FAILURE W MCC,10327.8,Standard
 KIDNEY & URINARY TRACT INFECTIONS W MCC,8023.88,Standard
 KIDNEY & URINARY TRACT INFECTIONS W/O MCC,5981.5,Standard
 OTHER KIDNEY & URINARY TRACT DIAGNOSES W MCC,10797.176470999999,Standard
 INFECTIOUS & PARASITIC DISEASES W O.R. PROCEDURE W MCC,35619.215385,Standard
 SEPTICEMIA OR SEVERE SEPSIS W/O MV >96 HOURS W MCC,12643.036931999999,Standard
 SEPTICEMIA OR SEVERE SEPSIS W/O MV >96 HOURS W/O MCC,7706.911392399999,Standard
 POISONING & TOXIC EFFECTS OF DRUGS W MCC,9580.857142899999,Standard
 EXTENSIVE O.R. PROCEDURE UNRELATED TO PRINCIPAL DIAGNOSIS W MCC,45707.272726999996,Standard
 RENAL FAILURE W CC,6791.8,Standard
Level 2 Laparoscopy and Related Services,5813.1428571428505,DRG
 HEART FAILURE & SHOCK W MCC,10665.05,Standard
" ACUTE MYOCARDIAL INFARCTION, DISCHARGED ALIVE W CC",7227.0769231,Standard
 OTHER RESP SYSTEM O.R. PROCEDURES W MCC,32481.857143,Standard
 SEIZURES W MCC,10672.0,Standard
 OTHER DISORDERS OF NERVOUS SYSTEM W MCC,10761.75,Standard
" ""TRAUMATIC STUPOR & COMA, COMA <1 HR W CC""",9446.6363636,Standard
 NONSPECIFIC CEREBROVASCULAR DISORDERS W CC,7151.0,Standard
 INTRACRANIAL HEMORRHAGE OR CEREBRAL INFARCTION W/O CC/MCC,6023.9166667,Standard
Comprehensive Observation Services,1793.73,DRG
"Level 4 Extraocular, Repair, and Plastic Eye Procedures",2140.3585,DRG
"Level 3 Extraocular, Repair, and Plastic Eye Procedures",1329.50961538461,DRG
Level 2 Intraocular Procedures,2755.9168874172196,DRG
Level 1 Intraocular Procedures,1042.88547619047,DRG
Level 3 Neurostimulator and Related Procedures,16214.1499999999,DRG
Level 1 Nerve Procedures,1228.17833333333,DRG
Level 5 Gynecologic Procedures,2950.9303571428495,DRG
Level 4 Gynecologic Procedures,1734.87705882352,DRG
Level 5 Urology and Related Services,2797.2134831460603,DRG
Level 4 Urology and Related Services,2042.9745454545398,DRG
 OTHER RESP SYSTEM O.R. PROCEDURES W CC,14656.272727000001,Standard
 PULMONARY EMBOLISM W MCC,9755.1818182,Standard
 PULMONARY EMBOLISM W/O MCC,6681.25,Standard
 RESPIRATORY INFECTIONS & INFLAMMATIONS W MCC,11825.227273,Standard
" ""ACUTE MYOCARDIAL INFARCTION, DISCHARGED ALIVE W MCC""",11813.8,Standard
 AORTIC AND HEART ASSIST PROCEDURES EXCEPT PULSATION BALLOON W/O MCC,26583.733333,Standard
 OTHER VASCULAR PROCEDURES W CC,17017.3125,Standard
 OTHER VASCULAR PROCEDURES W MCC,21027.090909,Standard
 PERC CARDIOVASC PROC W DRUG,15261.903225999999,Standard
 PERCUTANEOUS CARDIOVASCULAR PROCEDURES W DRUG,23921.166666999998,Standard
 PERMANENT CARDIAC PACEMAKER IMPLANT W/O CC/MCC,16539.076923,Standard
 PERMANENT CARDIAC PACEMAKER IMPLANT W CC,16281.952381000001,Standard
" CIRCULATORY DISORDERS EXCEPT AMI, W CARD CATH W/O MCC",11184.214286,Standard
 CORONARY BYPASS W/O CARDIAC CATH W/O MCC,24736.923077,Standard
 CORONARY BYPASS W CARDIAC CATH W MCC,44900.583332999995,Standard
 CARDIAC VALVE & OTH MAJ CARDIOTHORACIC PROC W/O CARD CATH W CC,33669.384614999995,Standard
 CARDIAC VALVE & OTH MAJ CARDIOTHORACIC PROC W/O CARD CATH W MCC,73993.0,Standard
 RESPIRATORY SYSTEM DIAGNOSIS W VENTILATOR SUPPORT <=96 HOURS,17177.35,Standard
 SIMPLE PNEUMONIA & PLEURISY W CC,7531.0,Standard
 SIMPLE PNEUMONIA & PLEURISY W MCC,9362.5135135,Standard
 CHRONIC OBSTRUCTIVE PULMONARY DISEASE W MCC,9096.8823529,Standard
 PULMONARY EDEMA & RESPIRATORY FAILURE,10089.068965999999,Standard
 CORONARY BYPASS W CARDIAC CATH W/O MCC,32547.703704000003,Standard
 MAJOR JOINT/LIMB REATTACHMENT PROCEDURE OF UPPER EXTREMITIES,16638.440678,Standard
Level 5 ENT Procedures,3134.8067857142796,DRG
