Description,Charge,Category
Level 1 Laparoscopy and Related Services,3712.5440624999896,DRG
Level 2 Upper GI Procedures,1213.28016949152,DRG
Level 3 Upper GI Procedures,2337.33999999999,DRG
Level 3 Lower GI Procedures,1906.2825806451601,DRG
Complex GI Procedures,3658.05,DRG
Abdominal/Peritoneal/Biliary and Related Procedures,2451.46822916666,DRG
Level 2 Laparoscopy and Related Services,6377.09176470588,DRG
Comprehensive Observation Services,1979.1587825356798,DRG
Level 4 Urology and Related Services,2261.3179012345604,DRG
Level 5 Urology and Related Services,3142.0279024390197,DRG
Level 6 Urology and Related Services,6776.56,DRG
Level 1 Nerve Procedures,1372.0999999999901,DRG
Level 1 Intraocular Procedures,1613.38950617284,DRG
Level 2 ICD and Similar Procedures,31660.42,DRG
Level 3 Urology and Related Services,1392.5801744185999,DRG
Level 3 Pacemaker and Similar Procedures,9068.07999999999,DRG
 KIDNEY & URINARY TRACT INFECTIONS W MCC,8124.7,Standard
Level 4 Endovascular Procedures,13998.1955555555,DRG
 SYNCOPE & COLLAPSE,6419.3333333,Standard
 CARDIAC ARRHYTHMIA & CONDUCTION DISORDERS W/O CC/MCC,4745.1395349,Standard
 CARDIAC ARRHYTHMIA & CONDUCTION DISORDERS W CC,6234.9230769,Standard
 CARDIAC ARRHYTHMIA & CONDUCTION DISORDERS W MCC,9482.1666667,Standard
 HYPERTENSION W/O MCC,5625.0833333,Standard
 PERIPHERAL VASCULAR DISORDERS W CC,7507.8695652,Standard
 CHEST PAIN,5660.3333333,Standard
 HEART FAILURE & SHOCK W/O CC/MCC,5550.3214286,Standard
 HEART FAILURE & SHOCK W MCC,11144.880137,Standard
" ""CIRCULATORY DISORDERS EXCEPT AMI, W CARD CATH W MCC""",18068.190476,Standard
" ""ACUTE MYOCARDIAL INFARCTION, DISCHARGED ALIVE W/O CC/MCC""",6128.4166667,Standard
" ACUTE MYOCARDIAL INFARCTION, DISCHARGED ALIVE W CC",7699.567901199999,Standard
" ""ACUTE MYOCARDIAL INFARCTION, DISCHARGED ALIVE W MCC""",13050.722689,Standard
 OTHER MAJOR CARDIOVASCULAR PROCEDURES W MCC,37821.277777999996,Standard
 HEART FAILURE & SHOCK W CC,7430.945205500001,Standard
 OTHER VASCULAR PROCEDURES W CC,21620.636363999998,Standard
 OTHER CIRCULATORY SYSTEM DIAGNOSES W MCC,15043.904762,Standard
 MAJOR SMALL & LARGE BOWEL PROCEDURES W MCC,36537.75,Standard
" ""ESOPHAGITIS, GASTROENT & MISC DIGEST DISORDERS W/O MCC""",6189.6,Standard
" ESOPHAGITIS, GASTROENT & MISC DIGEST DISORDERS W MCC",10448.730769,Standard
 G.I. OBSTRUCTION W/O CC/MCC,5122.4285714,Standard
 G.I. OBSTRUCTION W CC,6856.6,Standard
 G.I. OBSTRUCTION W MCC,10609.454545,Standard
 INFLAMMATORY BOWEL DISEASE W CC,7767.4,Standard
" ""STOMACH, ESOPHAGEAL & DUODENAL PROC W CC""",15903.090909,Standard
 G.I. HEMORRHAGE W/O CC/MCC,5208.8235294,Standard
 G.I. HEMORRHAGE W MCC,13031.8,Standard
 DIGESTIVE MALIGNANCY W MCC,14762.166667,Standard
 MAJOR GASTROINTESTINAL DISORDERS & PERITONEAL INFECTIONS W CC,8363.1515152,Standard
 MAJOR GASTROINTESTINAL DISORDERS & PERITONEAL INFECTIONS W MCC,11683.461538,Standard
 MAJOR SMALL & LARGE BOWEL PROCEDURES W/O CC/MCC,12880.529412,Standard
 MAJOR SMALL & LARGE BOWEL PROCEDURES W CC,19194.945455,Standard
 G.I. HEMORRHAGE W CC,7672.5714286,Standard
 PERC CARDIOVASC PROC W DRUG,16313.971698,Standard
 PERCUTANEOUS CARDIOVASCULAR PROCEDURES W DRUG,25674.974026,Standard
 PERMANENT CARDIAC PACEMAKER IMPLANT W CC,19950.733333,Standard
 SEIZURES W/O MCC,6556.125,Standard
 OTHER DISORDERS OF NERVOUS SYSTEM W CC,7129.444444399999,Standard
 OTHER DISORDERS OF NERVOUS SYSTEM W MCC,10183.933332999999,Standard
 CRANIAL & PERIPHERAL NERVE DISORDERS W/O MCC,7609.9230769,Standard
 NONSPECIFIC CEREBROVASCULAR DISORDERS W CC,7587.8,Standard
 NONSPECIFIC CEREBROVASCULAR DISORDERS W MCC,13827.3,Standard
 DYSEQUILIBRIUM,5713.277777800001,Standard
 TRANSIENT ISCHEMIA W/O THROMBOLYTIC,6083.3333333,Standard
 INTRACRANIAL HEMORRHAGE OR CEREBRAL INFARCTION W CC OR TPA IN 24 HRS,7912.929824600001,Standard
 INTRACRANIAL HEMORRHAGE OR CEREBRAL INFARCTION W MCC,12211.575757999999,Standard
" ""ISCHEMIC STROKE, PRECEREBRAL OCCLUSION OR TRANSIENT ISCHEMIA W THRO",14931.357143000001,Standard
 DEGENERATIVE NERVOUS SYSTEM DISORDERS W/O MCC,8313.869565199999,Standard
 DEGENERATIVE NERVOUS SYSTEM DISORDERS W MCC,13374.909091,Standard
 CAROTID ARTERY STENT PROCEDURE W/O CC/MCC,13606.545455000001,Standard
 INTRACRANIAL HEMORRHAGE OR CEREBRAL INFARCTION W/O CC/MCC,5867.4117647,Standard
 OTITIS MEDIA & URI W MCC,8327.923076899999,Standard
 OTITIS MEDIA & URI W/O MCC,5902.2857143,Standard
 PULMONARY EMBOLISM W MCC,11480.227273,Standard
 PERMANENT CARDIAC PACEMAKER IMPLANT W MCC,25594.529412,Standard
 RESPIRATORY SYSTEM DIAGNOSIS W VENTILATOR SUPPORT <=96 HOURS,18409.416666999998,Standard
 BRONCHITIS & ASTHMA W CC/MCC,7690.5,Standard
 SIMPLE PNEUMONIA & PLEURISY W/O CC/MCC,5996.136363600001,Standard
 SIMPLE PNEUMONIA & PLEURISY W CC,7268.61,Standard
 SIMPLE PNEUMONIA & PLEURISY W MCC,10447.054545,Standard
 CHRONIC OBSTRUCTIVE PULMONARY DISEASE W/O CC/MCC,5931.357142899999,Standard
 CHRONIC OBSTRUCTIVE PULMONARY DISEASE W CC,7416.6949153,Standard
 CHRONIC OBSTRUCTIVE PULMONARY DISEASE W MCC,9145.1288344,Standard
 PULMONARY EDEMA & RESPIRATORY FAILURE,9852.5479452,Standard
 RESPIRATORY NEOPLASMS W CC,9109.6153846,Standard
 RESPIRATORY NEOPLASMS W MCC,13397.772727,Standard
 RESPIRATORY INFECTIONS & INFLAMMATIONS W CC,10318.392856999999,Standard
 RESPIRATORY INFECTIONS & INFLAMMATIONS W MCC,13558.150684999999,Standard
 PULMONARY EMBOLISM W/O MCC,7059.0,Standard
 OTHER DIGESTIVE SYSTEM DIAGNOSES W MCC,13014.176470999999,Standard
 OTHER DIGESTIVE SYSTEM DIAGNOSES W CC,8239.8727273,Standard
 OTHER DIGESTIVE SYSTEM DIAGNOSES W/O CC/MCC,5501.1666667,Standard
 LAPAROSCOPIC CHOLECYSTECTOMY W/O C.D.E. W CC,12971.5,Standard
 ALCOHOL/DRUG ABUSE OR DEPENDENCE W/O REHABILITATION THERAPY W MCC,12004.0,Standard
 ORGANIC DISTURBANCES & INTELLECTUAL DISABILITY,8795.8235294,Standard
 SEPTICEMIA OR SEVERE SEPSIS W/O MV >96 HOURS W/O MCC,8514.009434,Standard
 SEPTICEMIA OR SEVERE SEPSIS W/O MV >96 HOURS W MCC,14206.179941,Standard
 VIRAL ILLNESS W/O MCC,6496.2142857,Standard
 POSTOPERATIVE & POST,13730.9375,Standard
 ALCOHOL/DRUG ABUSE OR DEPENDENCE W/O REHABILITATION THERAPY W/O MCC,7465.3703704,Standard
 INFECTIOUS & PARASITIC DISEASES W O.R. PROCEDURE W MCC,32906.137931,Standard
 COAGULATION DISORDERS,13455.25,Standard
 RED BLOOD CELL DISORDERS W/O MCC,7108.7878788,Standard
 OTHER KIDNEY & URINARY TRACT DIAGNOSES W CC,7878.233333300001,Standard
 OTHER KIDNEY & URINARY TRACT DIAGNOSES W MCC,11643.897436,Standard
 URINARY STONES W/O ESW LITHOTRIPSY W/O MCC,6533.0,Standard
 KIDNEY & URINARY TRACT INFECTIONS W/O MCC,6499.0,Standard
 LYMPHOMA & NON,11704.785714,Standard
 POISONING & TOXIC EFFECTS OF DRUGS W MCC,10234.333333,Standard
 POISONING & TOXIC EFFECTS OF DRUGS W/O MCC,6109.4444444,Standard
 COMPLICATIONS OF TREATMENT W CC,8108.125,Standard
Level 3 Endovascular Procedures,9059.13881278542,DRG
Level 2 Endovascular Procedures,4329.5828301886795,DRG
Level 1 Endovascular Procedures,2051.17494623656,DRG
Level 4 Airway Endoscopy,2080.63333333333,DRG
Level 3 Airway Endoscopy,1127.75,DRG
Level 5 Musculoskeletal Procedures,9306.66433333333,DRG
Level 4 Musculoskeletal Procedures,4583.37613333333,DRG
Level 3 Musculoskeletal Procedures,2147.49219178082,DRG
Level 2 Musculoskeletal Procedures,1149.5975,DRG
Level 2 Breast/Lymphatic Surgery and Related Procedures,4039.9786111111,DRG
Level 1 Breast/Lymphatic Surgery and Related Procedures,2324.03999999999,DRG
Level 3 Excision/ Biopsy/ Incision and Drainage,1855.76833333333,DRG
Level 2 Excision/ Biopsy/ Incision and Drainage,1107.0278095238,DRG
 EXTENSIVE O.R. PROCEDURE UNRELATED TO PRINCIPAL DIAGNOSIS W MCC,32020.5,Standard
 SIGNS & SYMPTOMS W/O MCC,6051.2272727,Standard
 RENAL FAILURE W CC,7413.8557692,Standard
Level 2 Pacemaker and Similar Procedures,6536.6499999999905,DRG
 RENAL FAILURE W MCC,10826.313725,Standard
 ENDOCRINE DISORDERS W/O CC/MCC,5999.2727273,Standard
 HIP & FEMUR PROCEDURES EXCEPT MAJOR JOINT W CC,15633.735294,Standard
 HIP & FEMUR PROCEDURES EXCEPT MAJOR JOINT W MCC,22693.285713999998,Standard
 MAJOR HIP AND KNEE JOINT REPLACEMENT OR REATTACHMENT OF LOWER EXTREM,16446.558074,Standard
 MAJOR HIP AND KNEE JOINT REPLACEMENT OR REATTACHMENT OF LOWER EXTREM,24707.727273,Standard
 REVISION OF HIP OR KNEE REPLACEMENT W CC,26385.0,Standard
 SPINAL FUSION EXCEPT CERVICAL W/O MCC,30351.955556,Standard
 HIP & FEMUR PROCEDURES EXCEPT MAJOR JOINT W/O CC/MCC,13040.909091,Standard
 DISORDERS OF THE BILIARY TRACT W CC,8450.4375,Standard
" DISORDERS OF LIVER EXCEPT MALIG,CIRR,ALC HEPA W CC",7747.047619,Standard
" ""DISORDERS OF LIVER EXCEPT MALIG,CIRR,ALC HEPA W MCC""",13721.176471,Standard
 DISORDERS OF PANCREAS EXCEPT MALIGNANCY W CC,7682.956521699999,Standard
 MALIGNANCY OF HEPATOBILIARY SYSTEM OR PANCREAS W MCC,14887.636363999998,Standard
 CIRRHOSIS & ALCOHOLIC HEPATITIS W CC,8253.7333333,Standard
 CIRRHOSIS & ALCOHOLIC HEPATITIS W MCC,17691.866667,Standard
 DISORDERS OF THE BILIARY TRACT W MCC,12569.357143000001,Standard
 MAJOR JOINT/LIMB REATTACHMENT PROCEDURE OF UPPER EXTREMITIES,18593.575758000003,Standard
 OTHER MUSCULOSKELET SYS & CONN TISS O.R. PROC W/O CC/MCC,11236.916667,Standard
 PATHOLOGICAL FRACTURES & MUSCULOSKELET & CONN TISS MALIG W CC,8287.7647059,Standard
 ENDOCRINE DISORDERS W CC,7645.7368421,Standard
 ENDOCRINE DISORDERS W MCC,12337.222222,Standard
" ""MISC DISORDERS OF NUTRITION,METABOLISM,FLUIDS/ELECTROLYTES W/O MCC""",5933.3614458,Standard
" MISC DISORDERS OF NUTRITION,METABOLISM,FLUIDS/ELECTROLYTES W MCC",9643.8636364,Standard
 DIABETES W CC,6688.3508772,Standard
 DIABETES W MCC,9795.88,Standard
 O.R. PROCEDURES FOR OBESITY W/O CC/MCC,12284.045455,Standard
" ""AMPUTAT OF LOWER LIMB FOR ENDOCRINE,NUTRIT,& METABOL DIS W CC""",15348.0,Standard
 CELLULITIS W/O MCC,7024.6952381,Standard
 CELLULITIS W MCC,10805.071429000001,Standard
" FX, SPRN, STRN & DISL EXCEPT FEMUR, HIP, PELVIS & THIGH W/O MCC",6499.206896600001,Standard
" ""TENDONITIS, MYOSITIS & BURSITIS W/O MCC""",6696.7692308,Standard
 SIGNS & SYMPTOMS OF MUSCULOSKELETAL SYSTEM & CONN TISSUE W/O MCC,6287.7272727,Standard
 BONE DISEASES & ARTHROPATHIES W/O MCC,6534.6923077,Standard
 MEDICAL BACK PROBLEMS W/O MCC,6568.5609756,Standard
 KIDNEY & URETER PROCEDURES FOR NEOPLASM W CC,15350.833333,Standard
" CIRCULATORY DISORDERS EXCEPT AMI, W CARD CATH W/O MCC",9259.366666700002,Standard
 RENAL FAILURE W/O CC/MCC,4991.357142899999,Standard
