Description,Charge,Category
 REVISION OF HIP OR KNEE REPLACEMENT W CC,17561.454545,Standard
 SIMPLE PNEUMONIA & PLEURISY W CC,5679.5882353,Standard
 REVISION OF HIP OR KNEE REPLACEMENT W/O CC/MCC,16430.041666999998,Standard
 MAJOR HIP AND KNEE JOINT REPLACEMENT OR REATTACHMENT OF LOWER EXTREM,12580.366525,Standard
 MAJOR JOINT/LIMB REATTACHMENT PROCEDURE OF UPPER EXTREMITIES,16327.901408000002,Standard
Level 5 Musculoskeletal Procedures,7568.917142857141,DRG
 SPINAL FUSION EXCEPT CERVICAL W/O MCC,43396.461537999996,Standard
 SIMPLE PNEUMONIA & PLEURISY W/O CC/MCC,4439.2857143,Standard
Level 1 Laparoscopy and Related Services,3166.51,DRG
Level 3 Excision/ Biopsy/ Incision and Drainage,1464.33928571428,DRG
Level 1 Nerve Procedures,1113.0269,DRG
Level 2 Excision/ Biopsy/ Incision and Drainage,950.9599999999989,DRG
Level 2 Neurostimulator and Related Procedures,2135.945,DRG
Level 2 Musculoskeletal Procedures,914.752866666665,DRG
Level 3 Musculoskeletal Procedures,1807.85546174143,DRG
Level 4 Musculoskeletal Procedures,3869.6975925926,DRG
Comprehensive Observation Services,1657.11676470588,DRG
