Description,Charge,Category
Level 1 Intraocular Procedures,1303.41466666666,DRG
Level 5 Gynecologic Procedures,2918.25,DRG
Level 3 Musculoskeletal Procedures,1628.3892307692302,DRG
Level 5 Urology and Related Services,2696.21,DRG
Comprehensive Observation Services,1663.4706578947303,DRG
 CHRONIC OBSTRUCTIVE PULMONARY DISEASE W CC,6110.9166667,Standard
 HEART FAILURE & SHOCK W MCC,9156.3846154,Standard
 MAJOR HIP AND KNEE JOINT REPLACEMENT OR REATTACHMENT OF LOWER EXTREM,13385.111111,Standard
 KIDNEY & URINARY TRACT INFECTIONS W/O MCC,5351.357142899999,Standard
 CHRONIC OBSTRUCTIVE PULMONARY DISEASE W MCC,7559.0,Standard
 SEPTICEMIA OR SEVERE SEPSIS W/O MV >96 HOURS W/O MCC,6737.636363600001,Standard
