Description,Charge,Category
 CHRONIC OBSTRUCTIVE PULMONARY DISEASE W MCC,7476.5,Standard
 INTRACRANIAL HEMORRHAGE OR CEREBRAL INFARCTION W CC OR TPA IN 24 HRS,6592.1666667,Standard
Level 3 Urology and Related Services,1197.744,DRG
 SIMPLE PNEUMONIA & PLEURISY W CC,6081.592592600001,Standard
 HEART FAILURE & SHOCK W MCC,9008.2222222,Standard
 HEART FAILURE & SHOCK W CC,6086.5454545,Standard
 G.I. HEMORRHAGE W CC,6344.84,Standard
 G.I. OBSTRUCTION W CC,5637.733333300001,Standard
 MAJOR HIP AND KNEE JOINT REPLACEMENT OR REATTACHMENT OF LOWER EXTREM,12948.129031999999,Standard
" ""MISC DISORDERS OF NUTRITION,METABOLISM,FLUIDS/ELECTROLYTES W/O MCC""",4936.8181818,Standard
 RENAL FAILURE W CC,6052.8333333,Standard
 KIDNEY & URINARY TRACT INFECTIONS W/O MCC,5235.4444444,Standard
 OTHER KIDNEY & URINARY TRACT DIAGNOSES W MCC,9522.3846154,Standard
 SEPTICEMIA OR SEVERE SEPSIS W/O MV >96 HOURS W/O MCC,6808.3043478,Standard
 POISONING & TOXIC EFFECTS OF DRUGS W/O MCC,4909.6923077,Standard
 SIMPLE PNEUMONIA & PLEURISY W MCC,8715.1818182,Standard
 SEPTICEMIA OR SEVERE SEPSIS W/O MV >96 HOURS W MCC,11191.846154,Standard
Level 2 Upper GI Procedures,1049.0565384615302,DRG
Level 2 Intraocular Procedures,2545.8333333333303,DRG
Level 2 Excision/ Biopsy/ Incision and Drainage,956.093235294118,DRG
Level 3 Musculoskeletal Procedures,1941.28366666666,DRG
Level 4 Musculoskeletal Procedures,4125.089999999989,DRG
Comprehensive Observation Services,1697.44293103448,DRG
Level 2 Endovascular Procedures,3735.46999999999,DRG
Level 3 Endovascular Procedures,8340.7025,DRG
Level 3 Pacemaker and Similar Procedures,7641.3325,DRG
" ""ESOPHAGITIS, GASTROENT & MISC DIGEST DISORDERS W/O MCC""",5291.7692308,Standard
Level 1 Laparoscopy and Related Services,3300.57132075471,DRG
Level 1 Endovascular Procedures,1788.11999999999,DRG
Level 1 Nerve Procedures,1181.22235294117,DRG
Level 1 Intraocular Procedures,1401.7834113712302,DRG
Level 2 Laparoscopy and Related Services,5672.5,DRG
Level 5 Urology and Related Services,2726.83,DRG
