Description,Charge,Category
 HIP & FEMUR PROCEDURES EXCEPT MAJOR JOINT W CC,12622.117647,Standard
" ""ACUTE MYOCARDIAL INFARCTION, DISCHARGED ALIVE W MCC""",10093.875,Standard
" ACUTE MYOCARDIAL INFARCTION, DISCHARGED ALIVE W CC",5985.0909091,Standard
" ""ACUTE MYOCARDIAL INFARCTION, DISCHARGED ALIVE W/O CC/MCC""",4858.533333300001,Standard
 HEART FAILURE & SHOCK W MCC,9151.8026316,Standard
 HEART FAILURE & SHOCK W CC,6015.6176471,Standard
 HEART FAILURE & SHOCK W/O CC/MCC,4361.0588235,Standard
 HYPERTENSION W/O MCC,4416.0,Standard
 CARDIAC ARRHYTHMIA & CONDUCTION DISORDERS W CC,4944.7727273,Standard
 DIABETES W CC,5332.6666667,Standard
 HIP & FEMUR PROCEDURES EXCEPT MAJOR JOINT W/O CC/MCC,10324.083333,Standard
 CELLULITIS W/O MCC,5386.548387100001,Standard
 G.I. HEMORRHAGE W MCC,10510.388889,Standard
 CARDIAC ARRHYTHMIA & CONDUCTION DISORDERS W/O CC/MCC,3820.2,Standard
 MAJOR SMALL & LARGE BOWEL PROCEDURES W CC,16462.307692,Standard
 RESPIRATORY SYSTEM DIAGNOSIS W VENTILATOR SUPPORT <=96 HOURS,14515.419355000002,Standard
 G.I. HEMORRHAGE W CC,6047.2962963,Standard
 G.I. OBSTRUCTION W CC,5439.642857100001,Standard
" ""ESOPHAGITIS, GASTROENT & MISC DIGEST DISORDERS W/O MCC""",4823.6,Standard
 DISORDERS OF PANCREAS EXCEPT MALIGNANCY W CC,5545.0833333,Standard
 MAJOR HIP AND KNEE JOINT REPLACEMENT OR REATTACHMENT OF LOWER EXTREM,13097.626374,Standard
 MAJOR JOINT/LIMB REATTACHMENT PROCEDURE OF UPPER EXTREMITIES,15263.590909,Standard
 SIMPLE PNEUMONIA & PLEURISY W/O CC/MCC,4605.8,Standard
 KIDNEY & URINARY TRACT INFECTIONS W MCC,6775.2692308,Standard
 SIMPLE PNEUMONIA & PLEURISY W MCC,8502.637931000001,Standard
" MISC DISORDERS OF NUTRITION,METABOLISM,FLUIDS/ELECTROLYTES W MCC",7337.1538462,Standard
 SIMPLE PNEUMONIA & PLEURISY W CC,5873.3513514,Standard
 SEPTICEMIA OR SEVERE SEPSIS W/O MV >96 HOURS W/O MCC,6613.5423728999995,Standard
 SEPTICEMIA OR SEVERE SEPSIS W/O MV >96 HOURS W MCC,11227.713004000001,Standard
 RED BLOOD CELL DISORDERS W/O MCC,5504.5,Standard
 KIDNEY & URINARY TRACT INFECTIONS W/O MCC,5053.0303030000005,Standard
 RENAL FAILURE W CC,5926.0833333,Standard
 RENAL FAILURE W MCC,9187.78125,Standard
" ""MISC DISORDERS OF NUTRITION,METABOLISM,FLUIDS/ELECTROLYTES W/O MCC""",4805.7692308,Standard
 INTRACRANIAL HEMORRHAGE OR CEREBRAL INFARCTION W CC OR TPA IN 24 HRS,6385.9285714,Standard
 INTRACRANIAL HEMORRHAGE OR CEREBRAL INFARCTION W/O CC/MCC,5067.1333333,Standard
 TRANSIENT ISCHEMIA W/O THROMBOLYTIC,4777.533333300001,Standard
 RESPIRATORY INFECTIONS & INFLAMMATIONS W MCC,11300.636364,Standard
 PULMONARY EDEMA & RESPIRATORY FAILURE,7550.4925373,Standard
 INTRACRANIAL HEMORRHAGE OR CEREBRAL INFARCTION W MCC,10880.714286,Standard
 CHRONIC OBSTRUCTIVE PULMONARY DISEASE W CC,5712.952381,Standard
 CHRONIC OBSTRUCTIVE PULMONARY DISEASE W MCC,7121.95,Standard
