Description,Charge,Category
Comprehensive Observation Services,1676.97895595431,DRG
"Level 3 Extraocular, Repair, and Plastic Eye Procedures",1269.45566666666,DRG
Level 1 Intraocular Procedures,1365.35181818181,DRG
Level 4 Neurostimulator and Related Procedures,23963.71,DRG
Level 1 Laparoscopy and Related Services,3254.29,DRG
Level 1 Nerve Procedures,1167.61,DRG
Complex GI Procedures,3112.87,DRG
Level 2 Excision/ Biopsy/ Incision and Drainage,948.0808333333321,DRG
Level 2 Musculoskeletal Procedures,915.567419354838,DRG
Level 3 Musculoskeletal Procedures,1879.43419999999,DRG
Level 4 Musculoskeletal Procedures,4064.65,DRG
Level 1 Endovascular Procedures,1722.8114457831302,DRG
Level 2 Endovascular Procedures,3683.5010869565203,DRG
Level 4 Endovascular Procedures,12930.1602083333,DRG
Level 3 Pacemaker and Similar Procedures,7520.91,DRG
Level 2 Upper GI Procedures,1028.11969879517,DRG
Level 3 Upper GI Procedures,1988.99,DRG
Level 2 Neurostimulator and Related Procedures,3714.87769230769,DRG
Level 3 Endovascular Procedures,7993.01328947369,DRG
Level 3 Excision/ Biopsy/ Incision and Drainage,1629.2746666666599,DRG
" MISC DISORDERS OF NUTRITION,METABOLISM,FLUIDS/ELECTROLYTES W MCC",7393.8947368,Standard
 OTHER CIRCULATORY SYSTEM DIAGNOSES W MCC,11938.1875,Standard
 MAJOR SMALL & LARGE BOWEL PROCEDURES W MCC,29688.076923,Standard
 G.I. HEMORRHAGE W CC,6361.7619048,Standard
 G.I. OBSTRUCTION W CC,5719.0,Standard
" ""ESOPHAGITIS, GASTROENT & MISC DIGEST DISORDERS W/O MCC""",5205.037037,Standard
 DISORDERS OF THE BILIARY TRACT W CC,6767.2727273,Standard
 SPINAL FUSION EXCEPT CERVICAL W/O MCC,27306.5,Standard
 CARDIAC ARRHYTHMIA & CONDUCTION DISORDERS W CC,5279.2631579,Standard
 MAJOR HIP AND KNEE JOINT REPLACEMENT OR REATTACHMENT OF LOWER EXTREM,12524.236641,Standard
" ""MISC DISORDERS OF NUTRITION,METABOLISM,FLUIDS/ELECTROLYTES W/O MCC""",5126.0909091,Standard
 POISONING & TOXIC EFFECTS OF DRUGS W MCC,8743.9285714,Standard
 SEPTICEMIA OR SEVERE SEPSIS W/O MV >96 HOURS W/O MCC,6961.710526299999,Standard
 SEPTICEMIA OR SEVERE SEPSIS W/O MV >96 HOURS W MCC,11585.763736,Standard
 INFECTIOUS & PARASITIC DISEASES W O.R. PROCEDURE W MCC,32912.235294,Standard
 OTHER KIDNEY & URINARY TRACT DIAGNOSES W MCC,10633.6,Standard
 RENAL FAILURE W MCC,9637.5789474,Standard
 DIABETES W CC,5608.764705899999,Standard
 RENAL FAILURE W CC,6171.6666667,Standard
 CARDIAC ARRHYTHMIA & CONDUCTION DISORDERS W MCC,8245.066666699999,Standard
 HEART FAILURE & SHOCK W CC,6284.3529412,Standard
 CHRONIC OBSTRUCTIVE PULMONARY DISEASE W MCC,7385.192307699999,Standard
 PULMONARY EDEMA & RESPIRATORY FAILURE,7728.5094340000005,Standard
 RESPIRATORY INFECTIONS & INFLAMMATIONS W MCC,11221.6,Standard
 INTRACRANIAL HEMORRHAGE OR CEREBRAL INFARCTION W CC OR TPA IN 24 HRS,6719.1176471,Standard
 CHRONIC OBSTRUCTIVE PULMONARY DISEASE W CC,6019.3125,Standard
 SIMPLE PNEUMONIA & PLEURISY W MCC,8530.4117647,Standard
 SIMPLE PNEUMONIA & PLEURISY W CC,6107.260869600001,Standard
 HYPERTENSION W/O MCC,4776.8461538,Standard
 RESPIRATORY SYSTEM DIAGNOSIS W VENTILATOR SUPPORT <=96 HOURS,14485.208333,Standard
 PERCUTANEOUS CARDIOVASCULAR PROCEDURES W DRUG,20125.133333,Standard
 PERC CARDIOVASC PROC W DRUG,14343.027778,Standard
 PERC CARDIOVASC PROC W/O CORONARY ARTERY STENT W/O MCC,10112.5,Standard
 OTHER VASCULAR PROCEDURES W CC,16210.791667,Standard
 OTHER MAJOR CARDIOVASCULAR PROCEDURES W CC,22817.235294,Standard
" CIRCULATORY DISORDERS EXCEPT AMI, W CARD CATH W/O MCC",7495.44,Standard
 HEART FAILURE & SHOCK W MCC,9121.280898899999,Standard
 CORONARY BYPASS W/O CARDIAC CATH W/O MCC,26355.375,Standard
 KIDNEY & URINARY TRACT INFECTIONS W/O MCC,5372.0,Standard
