Description,Charge,Category
 SIMPLE PNEUMONIA & PLEURISY W CC,7839.357142899999,Standard
Level 1 Intraocular Procedures,1391.65695652173,DRG
Comprehensive Observation Services,1669.8844230769198,DRG
 SIMPLE PNEUMONIA & PLEURISY W/O CC/MCC,5909.466666699999,Standard
