Description,Charge,Category
Level 6 Musculoskeletal Procedures,12337.608125,DRG
Level 5 Airway Endoscopy,3580.58,DRG
Level 4 ENT Procedures,1535.994,DRG
Level 4 Gynecologic Procedures,1520.9181818181798,DRG
Level 1 Nerve Procedures,675.773353293412,DRG
 MAJOR HIP AND KNEE JOINT REPLACEMENT OR REATTACHMENT OF LOWER EXTREM,11449.75,Standard
"Level 4 Extraocular, Repair, and Plastic Eye Procedures",2172.6651612903197,DRG
"Level 3 Extraocular, Repair, and Plastic Eye Procedures",1309.63115068492,DRG
Level 2 Intraocular Procedures,2564.1752261306697,DRG
Level 1 Intraocular Procedures,1396.9490871934602,DRG
Implantation of Drug Infusion Device,13591.8527419355,DRG
Level 2 Neurostimulator and Related Procedures,4181.767142857129,DRG
Level 2 Nerve Procedures,3236.1085,DRG
Level 2 Excision/ Biopsy/ Incision and Drainage,971.3729411764699,DRG
Level 3 Excision/ Biopsy/ Incision and Drainage,1711.36,DRG
Level 4 Neurostimulator and Related Procedures,23582.801874999903,DRG
Level 4 Musculoskeletal Procedures,4088.5674074074,DRG
Level 5 Musculoskeletal Procedures,7997.07227272725,DRG
Level 3 Musculoskeletal Procedures,1926.6932631578898,DRG
