Description,Charge,Category
 MAJOR SMALL & LARGE BOWEL PROCEDURES W MCC,24740.0,Standard
 CORONARY BYPASS W CARDIAC CATH W/O MCC,26442.333333000002,Standard
 CARDIAC ARRHYTHMIA & CONDUCTION DISORDERS W CC,4143.25,Standard
 SIMPLE PNEUMONIA & PLEURISY W CC,4857.75,Standard
 PULMONARY EDEMA & RESPIRATORY FAILURE,6595.2280702,Standard
 EXTRACRANIAL PROCEDURES W/O CC/MCC,5970.8064516,Standard
 MAJOR SMALL & LARGE BOWEL PROCEDURES W CC,13805.25,Standard
 CORONARY BYPASS W/O CARDIAC CATH W/O MCC,20767.625,Standard
 PERMANENT CARDIAC PACEMAKER IMPLANT W CC,14714.5,Standard
 PERCUTANEOUS CARDIOVASCULAR PROCEDURES W DRUG,16779.736842,Standard
 CARDIAC ARRHYTHMIA & CONDUCTION DISORDERS W/O CC/MCC,3026.8461538,Standard
 PERC CARDIOVASC PROC W DRUG,11322.814815,Standard
" ""ACUTE MYOCARDIAL INFARCTION, DISCHARGED ALIVE W MCC""",8514.541666699999,Standard
" ACUTE MYOCARDIAL INFARCTION, DISCHARGED ALIVE W CC",5995.7272727,Standard
" ""CIRCULATORY DISORDERS EXCEPT AMI, W CARD CATH W MCC""",11920.8,Standard
" CIRCULATORY DISORDERS EXCEPT AMI, W CARD CATH W/O MCC",6302.75,Standard
 HEART FAILURE & SHOCK W MCC,7447.919354800001,Standard
 HEART FAILURE & SHOCK W CC,5262.2272727,Standard
 HEART FAILURE & SHOCK W/O CC/MCC,3617.7333333000006,Standard
 ENDOVASCULAR CARDIAC VALVE REPLACEMENT W MCC,43018.785714,Standard
 G.I. HEMORRHAGE W CC,5102.6315789,Standard
Level 4 Endovascular Procedures,12972.84,DRG
" ""ESOPHAGITIS, GASTROENT & MISC DIGEST DISORDERS W/O MCC""",4149.913043500001,Standard
Level 3 Pacemaker and Similar Procedures,7257.51495867768,DRG
Level 1 ICD and Similar Procedures,18387.2007692307,DRG
Level 2 ICD and Similar Procedures,24727.847333333302,DRG
Level 2 Upper GI Procedures,1018.29,DRG
Abdominal/Peritoneal/Biliary and Related Procedures,2005.2258620689602,DRG
Level 1 Laparoscopy and Related Services,3202.19,DRG
Level 3 Urology and Related Services,1208.10465517241,DRG
Level 2 Pacemaker and Similar Procedures,5259.82,DRG
Level 4 Urology and Related Services,1905.6748275861999,DRG
Level 6 Urology and Related Services,5278.67666666666,DRG
Comprehensive Observation Services,1663.0474675324601,DRG
 MAJOR MALE PELVIC PROCEDURES W CC/MCC,9652.0,Standard
 MAJOR MALE PELVIC PROCEDURES W/O CC/MCC,7808.6,Standard
 RED BLOOD CELL DISORDERS W MCC,7163.636363600001,Standard
 SEPTICEMIA OR SEVERE SEPSIS W/O MV >96 HOURS W MCC,10514.933332999999,Standard
 SEPTICEMIA OR SEVERE SEPSIS W/O MV >96 HOURS W/O MCC,5453.777777800001,Standard
Level 5 Urology and Related Services,2631.60995370369,DRG
 G.I. OBSTRUCTION W/O CC/MCC,3208.8947368,Standard
 RESPIRATORY SYSTEM DIAGNOSIS W VENTILATOR SUPPORT <=96 HOURS,15588.615385,Standard
Level 2 Endovascular Procedures,3621.5498701298707,DRG
 SPINAL FUSION EXCEPT CERVICAL W/O MCC,21469.266667,Standard
 MAJOR HIP AND KNEE JOINT REPLACEMENT OR REATTACHMENT OF LOWER EXTREM,11107.564516,Standard
 HIP & FEMUR PROCEDURES EXCEPT MAJOR JOINT W CC,10968.615385,Standard
 FRACTURES OF HIP & PELVIS W/O MCC,3841.8461538,Standard
" ""MISC DISORDERS OF NUTRITION,METABOLISM,FLUIDS/ELECTROLYTES W/O MCC""",4069.7,Standard
 KIDNEY & URETER PROCEDURES FOR NEOPLASM W CC,10587.666667,Standard
 KIDNEY & URETER PROCEDURES FOR NEOPLASM W/O CC/MCC,8467.833333300001,Standard
Level 3 Endovascular Procedures,7968.71581314877,DRG
 RENAL FAILURE W CC,4752.904761899999,Standard
Level 2 Excision/ Biopsy/ Incision and Drainage,617.7659574468071,DRG
Level 2 Musculoskeletal Procedures,963.04,DRG
Level 3 Musculoskeletal Procedures,1887.09,DRG
Level 4 Musculoskeletal Procedures,3723.7468965517205,DRG
Level 3 Airway Endoscopy,944.32,DRG
Level 4 Airway Endoscopy,1866.64,DRG
Level 1 Endovascular Procedures,1719.03513274335,DRG
 KIDNEY & URINARY TRACT INFECTIONS W/O MCC,4263.5,Standard
 CARDIAC VALVE & OTH MAJ CARDIOTHORACIC PROC W/O CARD CATH W MCC,40984.0,Standard
