Description,Charge,Category
 HYPERTENSION W/O MCC,4393.5,Standard
 ATHEROSCLEROSIS W/O MCC,4434.3333333,Standard
 HEART FAILURE & SHOCK W MCC,8712.827586200001,Standard
" CIRCULATORY DISORDERS EXCEPT AMI, W CARD CATH W/O MCC",7113.5714286,Standard
 SPINAL FUSION EXCEPT CERVICAL W/O MCC,23660.388888999998,Standard
 G.I. HEMORRHAGE W CC,5961.8461538,Standard
 CARDIAC ARRHYTHMIA & CONDUCTION DISORDERS W CC,4848.5625,Standard
 DISORDERS OF THE BILIARY TRACT W CC,6611.5454545,Standard
 OTHER DIGESTIVE SYSTEM DIAGNOSES W CC,5811.5555556,Standard
 OTHER DIGESTIVE SYSTEM DIAGNOSES W MCC,9739.285714299998,Standard
" ""ESOPHAGITIS, GASTROENT & MISC DIGEST DISORDERS W/O MCC""",4806.063157899999,Standard
 MAJOR HIP AND KNEE JOINT REPLACEMENT OR REATTACHMENT OF LOWER EXTREM,13401.546512,Standard
 HIP & FEMUR PROCEDURES EXCEPT MAJOR JOINT W MCC,17193.823528999998,Standard
 CARDIAC ARRHYTHMIA & CONDUCTION DISORDERS W MCC,7187.210526299999,Standard
" ""CIRCULATORY DISORDERS EXCEPT AMI, W CARD CATH W MCC""",14104.078947,Standard
 G.I. OBSTRUCTION W MCC,8745.2222222,Standard
 MAJOR HIP AND KNEE JOINT REPLACEMENT OR REATTACHMENT OF LOWER EXTREM,18145.692308,Standard
 G.I. HEMORRHAGE W MCC,10184.023256,Standard
 OTHER CIRCULATORY SYSTEM DIAGNOSES W MCC,10637.090909,Standard
 CHEST PAIN,4455.84,Standard
 SYNCOPE & COLLAPSE,5037.8,Standard
" ESOPHAGITIS, GASTROENT & MISC DIGEST DISORDERS W MCC",7476.8461538,Standard
" ACUTE MYOCARDIAL INFARCTION, DISCHARGED ALIVE W CC",5956.7058824,Standard
 SIMPLE PNEUMONIA & PLEURISY W MCC,8840.375,Standard
Level 1 Breast/Lymphatic Surgery and Related Procedures,2027.88,DRG
 DEGENERATIVE NERVOUS SYSTEM DISORDERS W MCC,9601.6363636,Standard
 INTRACRANIAL HEMORRHAGE OR CEREBRAL INFARCTION W MCC,10063.03125,Standard
 INTRACRANIAL HEMORRHAGE OR CEREBRAL INFARCTION W CC OR TPA IN 24 HRS,6303.0714286,Standard
 TRANSIENT ISCHEMIA W/O THROMBOLYTIC,4733.764705899999,Standard
 NONSPECIFIC CEREBROVASCULAR DISORDERS W MCC,9020.6,Standard
 CRANIAL & PERIPHERAL NERVE DISORDERS W MCC,8392.666666699999,Standard
 CRANIAL & PERIPHERAL NERVE DISORDERS W/O MCC,5865.875,Standard
 SEIZURES W MCC,9492.7894737,Standard
 SEIZURES W/O MCC,5162.0909091,Standard
 DYSEQUILIBRIUM,4463.75,Standard
 RESPIRATORY INFECTIONS & INFLAMMATIONS W MCC,10846.48062,Standard
 RESPIRATORY NEOPLASMS W MCC,10140.090909,Standard
 PULMONARY EDEMA & RESPIRATORY FAILURE,7307.4333333,Standard
Level 2 Excision/ Biopsy/ Incision and Drainage,967.3612605042031,DRG
 HIP & FEMUR PROCEDURES EXCEPT MAJOR JOINT W CC,11800.5,Standard
 OTHER RESPIRATORY SYSTEM DIAGNOSES W/O MCC,5261.107142899999,Standard
 RESPIRATORY SYSTEM DIAGNOSIS W VENTILATOR SUPPORT <=96 HOURS,13826.32,Standard
 PERCUTANEOUS CARDIOVASCULAR PROCEDURES W DRUG,18923.914286000003,Standard
 OTHER VASCULAR PROCEDURES W MCC,18781.5,Standard
 OTHER MAJOR CARDIOVASCULAR PROCEDURES W MCC,26960.090909,Standard
" ""ACUTE MYOCARDIAL INFARCTION, DISCHARGED ALIVE W MCC""",9456.3442623,Standard
Level 4 Endovascular Procedures,13573.8299999999,DRG
Level 3 Endovascular Procedures,8450.56368421053,DRG
Level 2 Endovascular Procedures,3780.21,DRG
Level 1 Endovascular Procedures,1766.8474712643601,DRG
Level 4 Musculoskeletal Procedures,4027.3082222222206,DRG
Level 3 Musculoskeletal Procedures,1966.48,DRG
Level 2 Musculoskeletal Procedures,1003.55,DRG
 BRONCHITIS & ASTHMA W CC/MCC,5708.8333333,Standard
 MEDICAL BACK PROBLEMS W MCC,8643.2307692,Standard
 OTHER MUSCULOSKELET SYS & CONN TISS O.R. PROC W CC,10865.090909,Standard
 BONE DISEASES & ARTHROPATHIES W/O MCC,4723.2727273,Standard
Level 5 Urology and Related Services,2755.07,DRG
Level 1 Nerve Procedures,1095.3525,DRG
Comprehensive Observation Services,1637.68125,DRG
 MEDICAL BACK PROBLEMS W/O MCC,5480.5428571,Standard
Abdominal/Peritoneal/Biliary and Related Procedures,2157.2107142857103,DRG
Level 2 Upper GI Procedures,1061.1199999999901,DRG
Level 2 Pacemaker and Similar Procedures,5536.33,DRG
 POISONING & TOXIC EFFECTS OF DRUGS W MCC,8334.3,Standard
 SEPTICEMIA OR SEVERE SEPSIS W/O MV >96 HOURS W/O MCC,6696.533333300001,Standard
 SEPTICEMIA OR SEVERE SEPSIS W/O MV >96 HOURS W MCC,10758.262626,Standard
 SEPTICEMIA OR SEVERE SEPSIS W MV >96 HOURS OR PERIPHERAL EXTRACORPOR,33389.1875,Standard
 INFECTIOUS & PARASITIC DISEASES W O.R. PROCEDURE W CC,13370.083333,Standard
 INFECTIOUS & PARASITIC DISEASES W O.R. PROCEDURE W MCC,29167.411111,Standard
Level 1 Laparoscopy and Related Services,3073.9612,DRG
 KIDNEY & URINARY TRACT INFECTIONS W MCC,6570.05,Standard
" MISC DISORDERS OF NUTRITION,METABOLISM,FLUIDS/ELECTROLYTES W MCC",7015.15,Standard
 KIDNEY & URINARY TRACT INFECTIONS W/O MCC,4982.4,Standard
 DIABETES W MCC,8022.631578899999,Standard
" ""TRAUMA TO THE SKIN, SUBCUT TISS & BREAST W/O MCC""",5255.2142857,Standard
 CELLULITIS W/O MCC,5283.0,Standard
 CELLULITIS W MCC,8395.25,Standard
" FX, SPRN, STRN & DISL EXCEPT FEMUR, HIP, PELVIS & THIGH W/O MCC",5019.4615385,Standard
" ""MISC DISORDERS OF NUTRITION,METABOLISM,FLUIDS/ELECTROLYTES W/O MCC""",4651.65,Standard
 OTHER KIDNEY & URINARY TRACT PROCEDURES W MCC,20336.307692,Standard
 RENAL FAILURE W MCC,8691.1830986,Standard
 RENAL FAILURE W CC,5811.625,Standard
