Description,Charge,Category
Level 2 Musculoskeletal Procedures,908.2999999999989,DRG
 MAJOR HIP AND KNEE JOINT REPLACEMENT OR REATTACHMENT OF LOWER EXTREM,10513.065574,Standard
 MAJOR JOINT/LIMB REATTACHMENT PROCEDURE OF UPPER EXTREMITIES,12250.882353,Standard
Level 1 Nerve Procedures,1083.6199999999901,DRG
Level 4 Musculoskeletal Procedures,3688.0310810810797,DRG
Level 3 Musculoskeletal Procedures,1725.066,DRG
