Description,Charge,Category
 PULMONARY EDEMA & RESPIRATORY FAILURE,10677.166667,Standard
 MAJOR JOINT/LIMB REATTACHMENT PROCEDURE OF UPPER EXTREMITIES,20535.111111000002,Standard
 HIP & FEMUR PROCEDURES EXCEPT MAJOR JOINT W CC,17349.75,Standard
 MAJOR HIP AND KNEE JOINT REPLACEMENT OR REATTACHMENT OF LOWER EXTREM,17411.419643,Standard
 G.I. HEMORRHAGE W CC,8211.5454545,Standard
 KIDNEY & URINARY TRACT INFECTIONS W/O MCC,6735.6470588,Standard
 SIMPLE PNEUMONIA & PLEURISY W CC,7904.761904800001,Standard
 SIMPLE PNEUMONIA & PLEURISY W MCC,11619.571429000001,Standard
Level 3 Musculoskeletal Procedures,1813.81213592233,DRG
Level 1 Nerve Procedures,1152.17404761904,DRG
Level 2 Excision/ Biopsy/ Incision and Drainage,971.419999999998,DRG
Level 3 Excision/ Biopsy/ Incision and Drainage,1555.67238095238,DRG
"Level 3 Extraocular, Repair, and Plastic Eye Procedures",1303.7676,DRG
Level 2 Musculoskeletal Procedures,945.0057142857139,DRG
Level 1 Intraocular Procedures,1376.9226753246699,DRG
Comprehensive Observation Services,1548.1691428571398,DRG
Level 4 Musculoskeletal Procedures,3878.5212121212103,DRG
