Description,Charge,Category
" ""ESOPHAGITIS, GASTROENT & MISC DIGEST DISORDERS W/O MCC""",5049.475,Standard
Level 2 Musculoskeletal Procedures,1054.67128205128,DRG
 MAJOR JOINT/LIMB REATTACHMENT PROCEDURE OF UPPER EXTREMITIES,15150.783333000001,Standard
 HIP & FEMUR PROCEDURES EXCEPT MAJOR JOINT W CC,11983.5625,Standard
 MAJOR HIP AND KNEE JOINT REPLACEMENT OR REATTACHMENT OF LOWER EXTREM,12691.654545,Standard
Level 3 Musculoskeletal Procedures,2073.86,DRG
 REVISION OF HIP OR KNEE REPLACEMENT W/O CC/MCC,18085.05,Standard
Level 1 Nerve Procedures,1260.8822222222198,DRG
Implantation of Drug Infusion Device,14798.78,DRG
Level 4 Neurostimulator and Related Procedures,24979.92,DRG
 G.I. OBSTRUCTION W CC,5252.8823529,Standard
Level 5 Urology and Related Services,2905.5199999999895,DRG
Level 4 Urology and Related Services,2114.25,DRG
Level 1 Laparoscopy and Related Services,3519.12,DRG
Level 3 Upper GI Procedures,2150.84999999999,DRG
Level 2 Upper GI Procedures,1110.84154411765,DRG
Comprehensive Observation Services,1841.7649079754601,DRG
 G.I. HEMORRHAGE W CC,6959.55,Standard
 KIDNEY & URINARY TRACT INFECTIONS W/O MCC,5394.358974399999,Standard
" MISC DISORDERS OF NUTRITION,METABOLISM,FLUIDS/ELECTROLYTES W MCC",7145.2307692,Standard
 PULMONARY EMBOLISM W MCC,8397.818181800001,Standard
 PULMONARY EDEMA & RESPIRATORY FAILURE,7609.0,Standard
 CHRONIC OBSTRUCTIVE PULMONARY DISEASE W MCC,7002.1935484,Standard
 SIMPLE PNEUMONIA & PLEURISY W MCC,8444.8085106,Standard
 SIMPLE PNEUMONIA & PLEURISY W CC,5891.6842105,Standard
 HEART FAILURE & SHOCK W MCC,9010.7894737,Standard
 HEART FAILURE & SHOCK W CC,6008.7142857,Standard
 CELLULITIS W/O MCC,6462.9583333,Standard
 SEPTICEMIA OR SEVERE SEPSIS W/O MV >96 HOURS W/O MCC,6843.984127,Standard
 CARDIAC ARRHYTHMIA & CONDUCTION DISORDERS W MCC,7889.0,Standard
 INFECTIOUS & PARASITIC DISEASES W O.R. PROCEDURE W MCC,30754.416667,Standard
 OTHER KIDNEY & URINARY TRACT DIAGNOSES W MCC,9347.8333333,Standard
 CARDIAC ARRHYTHMIA & CONDUCTION DISORDERS W CC,4896.4545455,Standard
 G.I. HEMORRHAGE W MCC,9987.25,Standard
Level 5 Musculoskeletal Procedures,8607.26,DRG
 RENAL FAILURE W CC,5661.125,Standard
 RENAL FAILURE W MCC,8825.7692308,Standard
" ""MISC DISORDERS OF NUTRITION,METABOLISM,FLUIDS/ELECTROLYTES W/O MCC""",4693.2972973000005,Standard
 SEPTICEMIA OR SEVERE SEPSIS W/O MV >96 HOURS W MCC,11090.544909999999,Standard
Level 4 Musculoskeletal Procedures,4377.245564516121,DRG
