Description,Charge,Category
 PERC CARDIOVASC PROC W DRUG,17096.533333000003,Standard
 OTHER VASCULAR PROCEDURES W MCC,22804.916666999998,Standard
" ""ACUTE MYOCARDIAL INFARCTION, DISCHARGED ALIVE W MCC""",12471.894737,Standard
" ACUTE MYOCARDIAL INFARCTION, DISCHARGED ALIVE W CC",6915.0,Standard
" ""CIRCULATORY DISORDERS EXCEPT AMI, W CARD CATH W MCC""",15603.304348,Standard
" CIRCULATORY DISORDERS EXCEPT AMI, W CARD CATH W/O MCC",8973.16,Standard
 POSTOPERATIVE & POST,15227.75,Standard
 HEART FAILURE & SHOCK W CC,6642.636363600001,Standard
 PERCUTANEOUS CARDIOVASCULAR PROCEDURES W DRUG,23489.818182,Standard
 HEART FAILURE & SHOCK W/O CC/MCC,4924.8181818,Standard
 HYPERTENSION W/O MCC,5376.363636399999,Standard
 CARDIAC ARRHYTHMIA & CONDUCTION DISORDERS W MCC,8581.3913043,Standard
 HEART FAILURE & SHOCK W MCC,10324.577465,Standard
 COMPLICATIONS OF TREATMENT W MCC,12037.454545,Standard
 BRONCHITIS & ASTHMA W CC/MCC,6791.9473684,Standard
 SIMPLE PNEUMONIA & PLEURISY W MCC,10352.242424,Standard
Level 3 Urology and Related Services,1307.19681818181,DRG
Level 4 Urology and Related Services,2368.07999999999,DRG
Level 5 Urology and Related Services,3254.3599999999897,DRG
Level 1 Nerve Procedures,1324.17151515151,DRG
Comprehensive Observation Services,1997.44000000001,DRG
 INTRACRANIAL HEMORRHAGE OR CEREBRAL INFARCTION W MCC,12560.0,Standard
 INTRACRANIAL HEMORRHAGE OR CEREBRAL INFARCTION W CC OR TPA IN 24 HRS,7256.25,Standard
 TRANSIENT ISCHEMIA W/O THROMBOLYTIC,5844.478260899999,Standard
 SIMPLE PNEUMONIA & PLEURISY W CC,6781.84,Standard
 OTHER DISORDERS OF NERVOUS SYSTEM W CC,6701.6923077,Standard
 SEIZURES W/O MCC,6389.0526316000005,Standard
 MAJOR CHEST PROCEDURES W MCC,32037.454545,Standard
 OTHER RESP SYSTEM O.R. PROCEDURES W MCC,24490.6875,Standard
 PULMONARY EMBOLISM W MCC,10042.9375,Standard
 RESPIRATORY INFECTIONS & INFLAMMATIONS W MCC,14417.148147999998,Standard
 RESPIRATORY NEOPLASMS W MCC,12410.642856999999,Standard
 PULMONARY EDEMA & RESPIRATORY FAILURE,8977.673469399999,Standard
 CHRONIC OBSTRUCTIVE PULMONARY DISEASE W MCC,7951.0,Standard
 SEIZURES W MCC,12975.176470999999,Standard
 POISONING & TOXIC EFFECTS OF DRUGS W MCC,10389.666667,Standard
 MEDICAL BACK PROBLEMS W/O MCC,6608.5714286,Standard
 SEPTICEMIA OR SEVERE SEPSIS W/O MV >96 HOURS W MCC,13452.527607,Standard
 OTHER DIGESTIVE SYSTEM DIAGNOSES W CC,6898.6956522,Standard
 DISORDERS OF PANCREAS EXCEPT MALIGNANCY W/O CC/MCC,5414.7272727,Standard
 COMBINED ANTERIOR/POSTERIOR SPINAL FUSION W/O CC/MCC,37889.536585,Standard
 SPINAL FUSION EXCEPT CERVICAL W/O MCC,27951.790323,Standard
 MAJOR HIP AND KNEE JOINT REPLACEMENT OR REATTACHMENT OF LOWER EXTREM,20029.166666999998,Standard
 MAJOR HIP AND KNEE JOINT REPLACEMENT OR REATTACHMENT OF LOWER EXTREM,16522.993590000002,Standard
" ""ESOPHAGITIS, GASTROENT & MISC DIGEST DISORDERS W/O MCC""",6292.34,Standard
 CERVICAL SPINAL FUSION W CC,20261.714286000002,Standard
 RENAL FAILURE W MCC,11764.293103,Standard
" ""MISC DISORDERS OF NUTRITION,METABOLISM,FLUIDS/ELECTROLYTES W/O MCC""",5507.636363600001,Standard
" MISC DISORDERS OF NUTRITION,METABOLISM,FLUIDS/ELECTROLYTES W MCC",8379.5714286,Standard
 DIABETES W CC,7142.619047600001,Standard
 HIP & FEMUR PROCEDURES EXCEPT MAJOR JOINT W CC,14117.125,Standard
 MAJOR JOINT/LIMB REATTACHMENT PROCEDURE OF UPPER EXTREMITIES,16997.052632,Standard
 CERVICAL SPINAL FUSION W/O CC/MCC,17786.954545,Standard
" ESOPHAGITIS, GASTROENT & MISC DIGEST DISORDERS W MCC",9341.9655172,Standard
 G.I. OBSTRUCTION W CC,6322.722222199999,Standard
 G.I. HEMORRHAGE W CC,7126.7941175999995,Standard
 SEPTICEMIA OR SEVERE SEPSIS W MV >96 HOURS OR PERIPHERAL EXTRACORPOR,47428.125,Standard
Level 1 Laparoscopy and Related Services,3749.8909756097496,DRG
 INFECTIOUS & PARASITIC DISEASES W O.R. PROCEDURE W MCC,46461.225806,Standard
 RED BLOOD CELL DISORDERS W/O MCC,6465.9565217,Standard
 RED BLOOD CELL DISORDERS W MCC,12735.083333,Standard
 OTHER KIDNEY & URINARY TRACT DIAGNOSES W MCC,11337.583333,Standard
 KIDNEY & URINARY TRACT INFECTIONS W/O MCC,5938.0857143,Standard
 KIDNEY & URINARY TRACT INFECTIONS W MCC,7556.444444399999,Standard
 RENAL FAILURE W CC,6552.6111111,Standard
 CARDIAC ARRHYTHMIA & CONDUCTION DISORDERS W CC,6477.0,Standard
 SYNCOPE & COLLAPSE,5863.777777800001,Standard
 CHEST PAIN,5250.2857143,Standard
 OTHER CIRCULATORY SYSTEM DIAGNOSES W MCC,14722.666667,Standard
 MAJOR SMALL & LARGE BOWEL PROCEDURES W CC,21228.727273,Standard
 G.I. HEMORRHAGE W MCC,12209.153846,Standard
 SEPTICEMIA OR SEVERE SEPSIS W/O MV >96 HOURS W/O MCC,8197.2786885,Standard
Abdominal/Peritoneal/Biliary and Related Procedures,2556.36,DRG
 CELLULITIS W/O MCC,6752.5,Standard
Level 3 Upper GI Procedures,2409.08999999999,DRG
Level 3 Airway Endoscopy,1162.38,DRG
Level 5 Musculoskeletal Procedures,9798.31,DRG
Level 4 Musculoskeletal Procedures,4858.7567361111205,DRG
Level 3 Musculoskeletal Procedures,2299.6215,DRG
Level 2 Musculoskeletal Procedures,1147.88828571428,DRG
Level 2 Breast/Lymphatic Surgery and Related Procedures,4010.8394117647,DRG
Level 1 Breast/Lymphatic Surgery and Related Procedures,2395.36133333333,DRG
Complex GI Procedures,3770.33,DRG
Level 2 Excision/ Biopsy/ Incision and Drainage,1151.87741935483,DRG
Level 3 Endovascular Procedures,9934.35114285715,DRG
Level 4 Airway Endoscopy,2162.52235294117,DRG
Level 5 ENT Procedures,3628.58095238095,DRG
Level 1 Endovascular Procedures,2045.24434782608,DRG
Level 4 Endovascular Procedures,16271.7199999999,DRG
Level 2 Upper GI Procedures,1212.67056910568,DRG
