Description,Charge,Category
 COMPLICATIONS OF TREATMENT W MCC,13414.636364,Standard
 MEDICAL BACK PROBLEMS W/O MCC,7380.6164384,Standard
" ""TENDONITIS, MYOSITIS & BURSITIS W/O MCC""",6903.5625,Standard
 HYPERTENSION W MCC,7733.7647059,Standard
 ATHEROSCLEROSIS W/O MCC,5950.0,Standard
Level 4 Gynecologic Procedures,1898.505,DRG
Level 5 Urology and Related Services,3137.3105468749895,DRG
Level 4 Urology and Related Services,2334.78649122807,DRG
" FX, SPRN, STRN & DISL EXCEPT FEMUR, HIP, PELVIS & THIGH W/O MCC",7177.047619,Standard
 OTHER MUSCULOSKELETAL SYS & CONNECTIVE TISSUE DIAGNOSES W CC,8018.636363600001,Standard
 CELLULITIS W MCC,15106.733333000002,Standard
 CELLULITIS W/O MCC,7277.5,Standard
" ""TRAUMA TO THE SKIN, SUBCUT TISS & BREAST W/O MCC""",7296.0,Standard
 REVISION OF HIP OR KNEE REPLACEMENT W CC,29445.266667,Standard
 SPINAL FUSION EXCEPT CERVICAL W/O MCC,30637.55,Standard
 COMBINED ANTERIOR/POSTERIOR SPINAL FUSION W/O CC/MCC,40035.692308,Standard
 MEDICAL BACK PROBLEMS W MCC,15082.0,Standard
 HYPERTENSION W/O MCC,6147.8857143,Standard
 FRACTURES OF HIP & PELVIS W/O MCC,6639.095238100001,Standard
 OTHER MUSCULOSKELET SYS & CONN TISS O.R. PROC W/O CC/MCC,11482.818181999999,Standard
 COMBINED ANTERIOR/POSTERIOR SPINAL FUSION W CC,50033.923077,Standard
 REHABILITATION W CC/MCC,7800.4705882,Standard
 ALCOHOL/DRUG ABUSE OR DEPENDENCE W/O REHABILITATION THERAPY W/O MCC,6872.1176471,Standard
 ALCOHOL/DRUG ABUSE OR DEPENDENCE W/O REHABILITATION THERAPY W MCC,12397.565217,Standard
 SIGNS & SYMPTOMS W/O MCC,6751.75,Standard
Level 4 Neurostimulator and Related Procedures,29302.469999999903,DRG
Level 2 Intraocular Procedures,3112.6534228188,DRG
 POISONING & TOXIC EFFECTS OF DRUGS W MCC,11725.076923,Standard
"Level 3 Extraocular, Repair, and Plastic Eye Procedures",1535.60846153846,DRG
Level 7 Radiation Therapy,6991.35,DRG
Comprehensive Observation Services,1988.390256,DRG
 PSYCHOSES,12860.642856999999,Standard
 EXTENSIVE O.R. PROCEDURE UNRELATED TO PRINCIPAL DIAGNOSIS W MCC,33155.058824,Standard
" LOWER EXTREM & HUMER PROC EXCEPT HIP,FOOT,FEMUR W CC",17047.357143,Standard
 CARDIAC ARRHYTHMIA & CONDUCTION DISORDERS W MCC,10181.622222,Standard
 CIRRHOSIS & ALCOHOLIC HEPATITIS W MCC,14234.764706,Standard
"Level 4 Extraocular, Repair, and Plastic Eye Procedures",2569.17789473684,DRG
" ""ECMO OR TRACH W MV >96 HRS OR PDX EXC FACE, MOUTH & NECK W MAJ O.R.",121339.33333,Standard
" MISC DISORDERS OF NUTRITION,METABOLISM,FLUIDS/ELECTROLYTES W MCC",9615.7682927,Standard
  CRANIOTOMY W MAJOR DEVICE IMPLANT OR ACUTE COMPLEX CNS PDX W MCC OR,46586.114286,Standard
 RENAL FAILURE W MCC,11690.022222,Standard
 PERIPHERAL VASCULAR DISORDERS W CC,8404.914285699999,Standard
 ORGANIC DISTURBANCES & INTELLECTUAL DISABILITY,11576.409091,Standard
 RENAL FAILURE W CC,7584.3125,Standard
 RENAL FAILURE W/O CC/MCC,8311.4210526,Standard
 ACUTE ADJUSTMENT REACTION & PSYCHOSOCIAL DYSFUNCTION,7016.1538462,Standard
 SEPTICEMIA OR SEVERE SEPSIS W/O MV >96 HOURS W/O MCC,9909.6136364,Standard
 KIDNEY & URINARY TRACT INFECTIONS W MCC,9470.5405405,Standard
 KIDNEY & URINARY TRACT INFECTIONS W/O MCC,7062.3166667,Standard
 OTHER KIDNEY & URINARY TRACT DIAGNOSES W MCC,12343.566667000001,Standard
 SEPTICEMIA OR SEVERE SEPSIS W/O MV >96 HOURS W MCC,15351.008888999999,Standard
 SEPTICEMIA OR SEVERE SEPSIS W MV >96 HOURS OR PERIPHERAL EXTRACORPOR,41744.417910000004,Standard
 INFECTIOUS & PARASITIC DISEASES W O.R. PROCEDURE W CC,16705.5,Standard
Level 3 Urology and Related Services,1453.09242424242,DRG
 INFECTIOUS & PARASITIC DISEASES W O.R. PROCEDURE W MCC,41079.505495,Standard
 OTHER KIDNEY & URINARY TRACT DIAGNOSES W CC,8623.263157899999,Standard
 RED BLOOD CELL DISORDERS W/O MCC,7547.1896552,Standard
 RED BLOOD CELL DISORDERS W MCC,10572.230769,Standard
 MAJOR HEMATOL/IMMUN DIAG EXC SICKLE CELL CRISIS & COAGUL W CC,9834.1818182,Standard
 OTHER KIDNEY & URINARY TRACT PROCEDURES W MCC,24908.285713999998,Standard
 CIRRHOSIS & ALCOHOLIC HEPATITIS W CC,8560.7142857,Standard
 DISORDERS OF PANCREAS EXCEPT MALIGNANCY W MCC,14568.272727000001,Standard
 OTHER CIRCULATORY SYSTEM DIAGNOSES W CC,8004.8461538,Standard
 PERIPHERAL VASCULAR DISORDERS W MCC,11410.181818000001,Standard
" ""AMPUTAT OF LOWER LIMB FOR ENDOCRINE,NUTRIT,& METABOL DIS W CC""",15954.066667,Standard
 CRANIO W MAJOR DEV IMPL/ACUTE COMPLEX CNS PDX W/O MCC,27396.727273,Standard
 DIABETES W MCC,10900.452381000001,Standard
 DIABETES W CC,7327.210526299999,Standard
 CRANIOTOMY & ENDOVASCULAR INTRACRANIAL PROCEDURES W MCC,33023.638889,Standard
 CRANIOTOMY & ENDOVASCULAR INTRACRANIAL PROCEDURES W CC,22931.857143,Standard
 DISORDERS OF THE BILIARY TRACT W MCC,12775.315789,Standard
" ""MISC DISORDERS OF NUTRITION,METABOLISM,FLUIDS/ELECTROLYTES W/O MCC""",7197.521739100001,Standard
" TRACH W MV >96 HRS OR PDX EXC FACE, MOUTH & NECK W/O MAJ O.R.",79942.56666699999,Standard
 TRANSURETHRAL PROCEDURES W CC,11067.8,Standard
 PERIPHERAL VASCULAR DISORDERS W/O CC/MCC,6351.4444444,Standard
" ""DISORDERS OF LIVER EXCEPT MALIG,CIRR,ALC HEPA W MCC""",14366.083333,Standard
 DISORDERS OF PANCREAS EXCEPT MALIGNANCY W/O CC/MCC,6538.9333333,Standard
 DISORDERS OF PANCREAS EXCEPT MALIGNANCY W CC,7671.444444399999,Standard
 CARDIAC ARRHYTHMIA & CONDUCTION DISORDERS W CC,7239.9473684,Standard
 CARDIAC ARRHYTHMIA & CONDUCTION DISORDERS W/O CC/MCC,5332.483871,Standard
 SYNCOPE & COLLAPSE,6847.3521127,Standard
 CHEST PAIN,6749.816092,Standard
 OTHER CIRCULATORY SYSTEM DIAGNOSES W MCC,15122.028571,Standard
" DISORDERS OF LIVER EXCEPT MALIG,CIRR,ALC HEPA W CC",10236.636364,Standard
Level 2 Laparoscopy and Related Services,6772.90666666666,DRG
Level 3 Excision/ Biopsy/ Incision and Drainage,2041.52,DRG
Abdominal/Peritoneal/Biliary and Related Procedures,2443.15720930232,DRG
 RESPIRATORY NEOPLASMS W MCC,14030.352941,Standard
 RESPIRATORY INFECTIONS & INFLAMMATIONS W MCC,14617.611111000002,Standard
 PULMONARY EMBOLISM W MCC,13993.153846000001,Standard
 OTHER RESP SYSTEM O.R. PROCEDURES W MCC,26090.130435,Standard
 OTITIS MEDIA & URI W/O MCC,6325.9333333,Standard
 EPISTAXIS W/O MCC,5923.9166667,Standard
 DYSEQUILIBRIUM,6237.6296296,Standard
 HEADACHES W/O MCC,6509.363636399999,Standard
 SEIZURES W/O MCC,7670.8169014,Standard
Level 2 Musculoskeletal Procedures,1092.92166666666,DRG
Level 3 Musculoskeletal Procedures,2317.72607142857,DRG
Level 4 Musculoskeletal Procedures,4919.90894736841,DRG
Level 5 Musculoskeletal Procedures,9798.31,DRG
Level 4 Airway Endoscopy,2297.68,DRG
Level 5 Airway Endoscopy,3976.1384210526294,DRG
Level 5 ENT Procedures,3796.6957142857104,DRG
 MAJOR HIP AND KNEE JOINT REPLACEMENT OR REATTACHMENT OF LOWER EXTREM,24484.764706,Standard
 MAJOR HIP AND KNEE JOINT REPLACEMENT OR REATTACHMENT OF LOWER EXTREM,17717.392857,Standard
 HIP & FEMUR PROCEDURES EXCEPT MAJOR JOINT W MCC,22505.181818,Standard
Level 1 Endovascular Procedures,2020.99029268293,DRG
 SEIZURES W MCC,12975.0,Standard
 PULMONARY EDEMA & RESPIRATORY FAILURE,10167.246575,Standard
 OTHER DISORDERS OF NERVOUS SYSTEM W CC,7711.0,Standard
 CHRONIC OBSTRUCTIVE PULMONARY DISEASE W MCC,9463.892857100001,Standard
 CHRONIC OBSTRUCTIVE PULMONARY DISEASE W/O CC/MCC,6473.4,Standard
" ""ACUTE MYOCARDIAL INFARCTION, DISCHARGED ALIVE W MCC""",13652.925372999998,Standard
 OTHER MAJOR CARDIOVASCULAR PROCEDURES W MCC,40316.866667,Standard
 ENDOVASCULAR CARDIAC VALVE REPLACEMENT W/O MCC,47137.347826,Standard
 ENDOVASCULAR CARDIAC VALVE REPLACEMENT W MCC,63358.5,Standard
 OTHER CIRCULATORY SYSTEM O.R. PROCEDURES,23233.0,Standard
 OTHER VASCULAR PROCEDURES W CC,19823.5,Standard
 OTHER VASCULAR PROCEDURES W MCC,26449.25,Standard
 PERC CARDIOVASC PROC W DRUG,18260.632653,Standard
 PERCUTANEOUS CARDIOVASCULAR PROCEDURES W DRUG,25799.463415000002,Standard
 PERMANENT CARDIAC PACEMAKER IMPLANT W MCC,28097.727273,Standard
 CORONARY BYPASS W/O CARDIAC CATH W MCC,44894.454545,Standard
 CORONARY BYPASS W CARDIAC CATH W/O MCC,61879.153846,Standard
 CORONARY BYPASS W CARDIAC CATH W MCC,56424.666667,Standard
 OTHER CARDIOTHORACIC PROCEDURES W MCC,50502.75,Standard
 CARDIAC DEFIBRILLATOR IMPLANT W/O CARDIAC CATH W MCC,53134.769231,Standard
 RESPIRATORY SYSTEM DIAGNOSIS W VENTILATOR SUPPORT <=96 HOURS,22317.341772,Standard
 RESPIRATORY SYSTEM DIAGNOSIS W VENTILATOR SUPPORT >96 HOURS,44441.315789,Standard
 BRONCHITIS & ASTHMA W CC/MCC,7615.538461499999,Standard
 SIMPLE PNEUMONIA & PLEURISY W/O CC/MCC,6341.793103399999,Standard
 SIMPLE PNEUMONIA & PLEURISY W CC,7711.6,Standard
 SIMPLE PNEUMONIA & PLEURISY W MCC,11081.827957,Standard
 CHRONIC OBSTRUCTIVE PULMONARY DISEASE W CC,7832.1052632,Standard
 OTHER DISORDERS OF NERVOUS SYSTEM W MCC,11872.0,Standard
" TRAUMATIC STUPOR & COMA, COMA <1 HR W/O CC/MCC",8797.0526316,Standard
" ""TRAUMATIC STUPOR & COMA, COMA <1 HR W CC""",10365.973684,Standard
 DEGENERATIVE NERVOUS SYSTEM DISORDERS W MCC,14044.173912999999,Standard
 NERVOUS SYSTEM NEOPLASMS W MCC,10578.277778,Standard
 PERIPH/CRANIAL NERVE & OTHER NERV SYST PROC W CC OR PERIPH NEUROSTIM,17873.181818,Standard
 PERIPH/CRANIAL NERVE & OTHER NERV SYST PROC W MCC,29041.636363999998,Standard
 CRANIOTOMY & ENDOVASCULAR INTRACRANIAL PROCEDURES W/O CC/MCC,19133.058824,Standard
 G.I. OBSTRUCTION W/O CC/MCC,5473.8333333,Standard
" ESOPHAGITIS, GASTROENT & MISC DIGEST DISORDERS W MCC",11072.833333,Standard
" ""ESOPHAGITIS, GASTROENT & MISC DIGEST DISORDERS W/O MCC""",6675.1028037,Standard
 OTHER DIGESTIVE SYSTEM DIAGNOSES W MCC,12061.842105,Standard
 OTHER DIGESTIVE SYSTEM DIAGNOSES W CC,8248.7333333,Standard
" ""LOWER EXTREM & HUMER PROC EXCEPT HIP,FOOT,FEMUR W MCC""",25204.0,Standard
" ACUTE MYOCARDIAL INFARCTION, DISCHARGED ALIVE W CC",8485.3076923,Standard
" ""CIRCULATORY DISORDERS EXCEPT AMI, W CARD CATH W MCC""",17658.862069,Standard
" CIRCULATORY DISORDERS EXCEPT AMI, W CARD CATH W/O MCC",9757.712121200002,Standard
 HEART FAILURE & SHOCK W MCC,12454.146789,Standard
 HEART FAILURE & SHOCK W CC,7850.6875,Standard
 HEART FAILURE & SHOCK W/O CC/MCC,5879.2,Standard
Level 3 Endovascular Procedures,9787.50847826085,DRG
Level 2 Pacemaker and Similar Procedures,6378.945882352939,DRG
Level 3 Pacemaker and Similar Procedures,9386.76,DRG
Level 2 Upper GI Procedures,1253.43,DRG
 DEGENERATIVE NERVOUS SYSTEM DISORDERS W/O MCC,9063.242424200002,Standard
 INTRACRANIAL HEMORRHAGE OR CEREBRAL INFARCTION W MCC,14065.31,Standard
 INTRACRANIAL HEMORRHAGE OR CEREBRAL INFARCTION W CC OR TPA IN 24 HRS,9479.05,Standard
 G.I. OBSTRUCTION W CC,7166.0,Standard
" TRAUMATIC STUPOR & COMA, COMA <1 HR W MCC",18239.5,Standard
" ""TRAUMATIC STUPOR & COMA, COMA >1 HR W/O CC/MCC""",9051.8333333,Standard
 HIP & FEMUR PROCEDURES EXCEPT MAJOR JOINT W CC,16548.608696,Standard
" TRAUMATIC STUPOR & COMA, COMA >1 HR W CC",11925.588235,Standard
" ""TRAUMATIC STUPOR & COMA, COMA >1 HR W MCC""",18354.807692,Standard
 CRANIAL & PERIPHERAL NERVE DISORDERS W/O MCC,8311.1578947,Standard
 HIP & FEMUR PROCEDURES EXCEPT MAJOR JOINT W/O CC/MCC,12931.961538,Standard
 MAJOR JOINT/LIMB REATTACHMENT PROCEDURE OF UPPER EXTREMITIES,18775.333333000002,Standard
 CRANIAL & PERIPHERAL NERVE DISORDERS W MCC,11371.461538,Standard
 NONSPECIFIC CEREBROVASCULAR DISORDERS W CC,8873.307692299999,Standard
Level 1 Laparoscopy and Related Services,3726.85484375,DRG
 TRANSIENT ISCHEMIA W/O THROMBOLYTIC,6593.033333300001,Standard
Level 2 Excision/ Biopsy/ Incision and Drainage,1138.45137254901,DRG
Level 2 Endovascular Procedures,4202.61647058823,DRG
Level 1 Breast/Lymphatic Surgery and Related Procedures,2150.72607142857,DRG
Level 2 Breast/Lymphatic Surgery and Related Procedures,3953.08325581395,DRG
 MAJOR SMALL & LARGE BOWEL PROCEDURES W MCC,34254.846154,Standard
 MAJOR SMALL & LARGE BOWEL PROCEDURES W CC,18857.277778,Standard
 G.I. HEMORRHAGE W MCC,14845.536585,Standard
 G.I. HEMORRHAGE W CC,8618.3717949,Standard
 G.I. HEMORRHAGE W/O CC/MCC,5807.8235294,Standard
 G.I. OBSTRUCTION W MCC,12093.071429000001,Standard
 INTRACRANIAL HEMORRHAGE OR CEREBRAL INFARCTION W/O CC/MCC,6939.2941175999995,Standard
