Description,Charge,Category
Level 2 ICD and Similar Procedures,30750.2373333333,DRG
 MAJOR SMALL & LARGE BOWEL PROCEDURES W MCC,34573.352941000005,Standard
Abdominal/Peritoneal/Biliary and Related Procedures,2327.12071428571,DRG
Complex GI Procedures,3557.38461538461,DRG
 CHRONIC OBSTRUCTIVE PULMONARY DISEASE W MCC,8077.016129000001,Standard
 CHRONIC OBSTRUCTIVE PULMONARY DISEASE W CC,6443.913043500001,Standard
 SIMPLE PNEUMONIA & PLEURISY W MCC,9947.275362299999,Standard
 SIMPLE PNEUMONIA & PLEURISY W CC,6534.5,Standard
 PNEUMOTHORAX W CC,7450.0,Standard
 RESPIRATORY SYSTEM DIAGNOSIS W VENTILATOR SUPPORT <=96 HOURS,16519.608696,Standard
 CARDIAC VALVE & OTH MAJ CARDIOTHORACIC PROC W/O CARD CATH W CC,36577.833332999995,Standard
 CORONARY BYPASS W CARDIAC CATH W MCC,53884.923077,Standard
 PERMANENT CARDIAC PACEMAKER IMPLANT W CC,18162.761905,Standard
 PERCUTANEOUS CARDIOVASCULAR PROCEDURES W DRUG,22537.8,Standard
 PERC CARDIOVASC PROC W DRUG,15777.365079,Standard
 OTHER VASCULAR PROCEDURES W MCC,24953.875,Standard
 OTHER VASCULAR PROCEDURES W CC,17657.071429,Standard
 OTHER VASCULAR PROCEDURES W/O CC/MCC,12602.230769,Standard
Level 3 Lower GI Procedures,1906.7541666666602,DRG
Level 3 Upper GI Procedures,2263.8673684210503,DRG
Level 2 Upper GI Procedures,1166.58955882353,DRG
Level 1 Laparoscopy and Related Services,3663.76407692307,DRG
Level 2 Laparoscopy and Related Services,6343.3819117647,DRG
Level 3 Urology and Related Services,1403.6712918660198,DRG
Level 4 Urology and Related Services,2232.26819148936,DRG
 EXTRACRANIAL PROCEDURES W CC,10899.590909,Standard
 EXTRACRANIAL PROCEDURES W/O CC/MCC,7757.5,Standard
 DEGENERATIVE NERVOUS SYSTEM DISORDERS W/O MCC,8007.4285714,Standard
 INTRACRANIAL HEMORRHAGE OR CEREBRAL INFARCTION W MCC,12318.756757,Standard
 INTRACRANIAL HEMORRHAGE OR CEREBRAL INFARCTION W CC OR TPA IN 24 HRS,7223.8823529,Standard
 MAJOR CHEST PROCEDURES W MCC,35708.833332999995,Standard
 OTHER RESP SYSTEM O.R. PROCEDURES W MCC,25548.647059,Standard
 PULMONARY EMBOLISM W MCC,10331.789474,Standard
 RESPIRATORY INFECTIONS & INFLAMMATIONS W MCC,12930.366667,Standard
Level 3 Pacemaker and Similar Procedures,8511.32727272727,DRG
" FX, SPRN, STRN & DISL EXCEPT FEMUR, HIP, PELVIS & THIGH W/O MCC",5902.875,Standard
Comprehensive Observation Services,1927.44133261107,DRG
"Level 3 Extraocular, Repair, and Plastic Eye Procedures",1502.56684210526,DRG
Level 2 Intraocular Procedures,2972.8434545454497,DRG
Level 1 Intraocular Procedures,1567.4502040816299,DRG
Level 4 Neurostimulator and Related Procedures,26879.8521428571,DRG
Level 3 Neurostimulator and Related Procedures,16523.9912499999,DRG
Level 1 Nerve Procedures,1313.5761111111099,DRG
Level 4 Gynecologic Procedures,1705.21454545454,DRG
Level 5 Urology and Related Services,3064.2672881355898,DRG
 CELLULITIS W/O MCC,6008.3333333,Standard
Level 3 Electrophysiologic Procedures,17370.1741935483,DRG
Level 4 Endovascular Procedures,15222.805,DRG
Level 3 Endovascular Procedures,8259.43462585035,DRG
 NEUROSES EXCEPT DEPRESSIVE,5563.75,Standard
 SEPTICEMIA OR SEVERE SEPSIS W/O MV >96 HOURS W/O MCC,7417.930232600001,Standard
 SEPTICEMIA OR SEVERE SEPSIS W/O MV >96 HOURS W MCC,13451.065217,Standard
 INFECTIOUS & PARASITIC DISEASES W O.R. PROCEDURE W MCC,36635.454545,Standard
 OTHER KIDNEY & URINARY TRACT DIAGNOSES W CC,7400.9285714,Standard
 OTHER KIDNEY & URINARY TRACT DIAGNOSES W MCC,11234.042553,Standard
 KIDNEY & URINARY TRACT INFECTIONS W/O MCC,5649.0967742,Standard
 KIDNEY & URINARY TRACT INFECTIONS W MCC,7587.636363600001,Standard
 RENAL FAILURE W CC,6583.9807692,Standard
 DISORDERS OF PERSONALITY & IMPULSE CONTROL,8263.7142857,Standard
 RENAL FAILURE W MCC,10556.342857,Standard
" MISC DISORDERS OF NUTRITION,METABOLISM,FLUIDS/ELECTROLYTES W MCC",10992.823529000001,Standard
 DIABETES W CC,5992.857142899999,Standard
 DIABETES W MCC,9362.6363636,Standard
 HEART FAILURE & SHOCK W MCC,10515.865385,Standard
 HEART FAILURE & SHOCK W CC,6746.692307699999,Standard
 PERIPHERAL VASCULAR DISORDERS W CC,7089.636363600001,Standard
 CARDIAC ARRHYTHMIA & CONDUCTION DISORDERS W MCC,8692.95,Standard
 CARDIAC ARRHYTHMIA & CONDUCTION DISORDERS W CC,5629.878787899999,Standard
 MAJOR SMALL & LARGE BOWEL PROCEDURES W CC,17245.36,Standard
" ""MISC DISORDERS OF NUTRITION,METABOLISM,FLUIDS/ELECTROLYTES W/O MCC""",5440.5,Standard
 CRANIOTOMY & ENDOVASCULAR INTRACRANIAL PROCEDURES W MCC,29789.846154000003,Standard
 PSYCHOSES,8400.0714286,Standard
 EXTENSIVE O.R. PROCEDURE UNRELATED TO PRINCIPAL DIAGNOSIS W MCC,31254.944444,Standard
Level 2 Endovascular Procedures,4166.759375,DRG
Level 1 Endovascular Procedures,1996.1825084745801,DRG
Level 5 ENT Procedures,3458.15185185185,DRG
Level 4 ENT Procedures,1815.07923076923,DRG
Level 5 Airway Endoscopy,3948.885,DRG
Level 4 Airway Endoscopy,2155.64785714285,DRG
Level 3 Airway Endoscopy,1097.64499999999,DRG
Level 5 Musculoskeletal Procedures,9129.5255,DRG
Level 4 Musculoskeletal Procedures,4570.73190839695,DRG
 ALCOHOL/DRUG ABUSE OR DEPENDENCE W/O REHABILITATION THERAPY W/O MCC,5689.875,Standard
 AORTIC AND HEART ASSIST PROCEDURES EXCEPT PULSATION BALLOON W/O MCC,29820.153845999997,Standard
" ACUTE MYOCARDIAL INFARCTION, DISCHARGED ALIVE W CC",6899.875,Standard
" ""CIRCULATORY DISORDERS EXCEPT AMI, W CARD CATH W MCC""",15554.0,Standard
" CIRCULATORY DISORDERS EXCEPT AMI, W CARD CATH W/O MCC",8222.3214286,Standard
Level 3 Musculoskeletal Procedures,2154.61828571428,DRG
Level 2 Musculoskeletal Procedures,1099.54238095238,DRG
Level 2 Breast/Lymphatic Surgery and Related Procedures,3996.9248648648604,DRG
Level 1 Breast/Lymphatic Surgery and Related Procedures,2268.0727777777697,DRG
Level 3 Excision/ Biopsy/ Incision and Drainage,1935.2204347826103,DRG
Level 2 Excision/ Biopsy/ Incision and Drainage,1106.53960869565,DRG
" ""ACUTE MYOCARDIAL INFARCTION, DISCHARGED ALIVE W MCC""",11666.583333,Standard
 MEDICAL BACK PROBLEMS W/O MCC,6274.8125,Standard
 PULMONARY EDEMA & RESPIRATORY FAILURE,8568.3043478,Standard
 G.I. OBSTRUCTION W CC,6018.9259259,Standard
 G.I. HEMORRHAGE W MCC,12012.36,Standard
 FRACTURES OF HIP & PELVIS W/O MCC,5392.3076923,Standard
 HIP & FEMUR PROCEDURES EXCEPT MAJOR JOINT W/O CC/MCC,11641.0,Standard
 HIP & FEMUR PROCEDURES EXCEPT MAJOR JOINT W CC,14305.972222,Standard
 G.I. HEMORRHAGE W CC,6991.2272727,Standard
" ""ESOPHAGITIS, GASTROENT & MISC DIGEST DISORDERS W/O MCC""",5424.0303030000005,Standard
 OTHER DIGESTIVE SYSTEM DIAGNOSES W MCC,12940.909091,Standard
 OTHER DIGESTIVE SYSTEM DIAGNOSES W CC,6632.5714286,Standard
 LAPAROSCOPIC CHOLECYSTECTOMY W/O C.D.E. W MCC,16751.272727,Standard
" ESOPHAGITIS, GASTROENT & MISC DIGEST DISORDERS W MCC",8650.727272700002,Standard
 CIRRHOSIS & ALCOHOLIC HEPATITIS W CC,7163.9090909,Standard
 HIP & FEMUR PROCEDURES EXCEPT MAJOR JOINT W MCC,21048.266667,Standard
 CIRRHOSIS & ALCOHOLIC HEPATITIS W MCC,12603.166667,Standard
 MAJOR HIP AND KNEE JOINT REPLACEMENT OR REATTACHMENT OF LOWER EXTREM,14919.17341,Standard
 MAJOR HIP AND KNEE JOINT REPLACEMENT OR REATTACHMENT OF LOWER EXTREM,22193.5,Standard
 SPINAL FUSION EXCEPT CERVICAL W/O MCC,29065.571429000003,Standard
 CERVICAL SPINAL FUSION W/O CC/MCC,15950.25,Standard
" DISORDERS OF LIVER EXCEPT MALIG,CIRR,ALC HEPA W CC",6566.7692308,Standard
