Description,Charge,Category
" ACUTE MYOCARDIAL INFARCTION, DISCHARGED ALIVE W CC",6871.6875,Standard
" ""ACUTE MYOCARDIAL INFARCTION, DISCHARGED ALIVE W MCC""",11362.0,Standard
 OTHER MAJOR CARDIOVASCULAR PROCEDURES W/O CC/MCC,17569.818182,Standard
" ""CIRCULATORY DISORDERS EXCEPT AMI, W CARD CATH W MCC""",14766.409091,Standard
" ""ECMO OR TRACH W MV >96 HRS OR PDX EXC FACE, MOUTH & NECK W MAJ O.R.",114243.63635999999,Standard
 HEART FAILURE & SHOCK W MCC,9807.6606061,Standard
 SPINAL FUSION EXCEPT CERVICAL W/O MCC,25642.208955000002,Standard
 CRANIOTOMY & ENDOVASCULAR INTRACRANIAL PROCEDURES W CC,19433.333333000002,Standard
 COMBINED ANTERIOR/POSTERIOR SPINAL FUSION W CC,45786.958332999995,Standard
" DISORDERS OF LIVER EXCEPT MALIG,CIRR,ALC HEPA W CC",7525.5454545,Standard
" ""DISORDERS OF LIVER EXCEPT MALIG,CIRR,ALC HEPA W MCC""",11994.307692,Standard
 LAPAROSCOPIC CHOLECYSTECTOMY W/O C.D.E. W CC,11183.230769,Standard
 LAPAROSCOPIC CHOLECYSTECTOMY W/O C.D.E. W MCC,15717.923077000001,Standard
" ""ESOPHAGITIS, GASTROENT & MISC DIGEST DISORDERS W/O MCC""",5505.6333333,Standard
" ESOPHAGITIS, GASTROENT & MISC DIGEST DISORDERS W MCC",8478.166666699999,Standard
 G.I. OBSTRUCTION W CC,6089.0,Standard
" CIRCULATORY DISORDERS EXCEPT AMI, W CARD CATH W/O MCC",8876.4074074,Standard
 G.I. HEMORRHAGE W CC,6834.4375,Standard
 MAJOR SMALL & LARGE BOWEL PROCEDURES W/O CC/MCC,11861.148148,Standard
 MAJOR SMALL & LARGE BOWEL PROCEDURES W CC,17762.909091,Standard
 MAJOR SMALL & LARGE BOWEL PROCEDURES W MCC,27892.5,Standard
 OTHER CIRCULATORY SYSTEM DIAGNOSES W MCC,12924.055556,Standard
 SYNCOPE & COLLAPSE,6397.5,Standard
 COMBINED ANTERIOR/POSTERIOR SPINAL FUSION W/O CC/MCC,32952.21875,Standard
 CARDIAC ARRHYTHMIA & CONDUCTION DISORDERS W CC,5525.7317072999995,Standard
 CARDIAC ARRHYTHMIA & CONDUCTION DISORDERS W MCC,8490.305555600002,Standard
 HEART FAILURE & SHOCK W/O CC/MCC,4479.0,Standard
 HEART FAILURE & SHOCK W CC,7200.0303030000005,Standard
 G.I. HEMORRHAGE W MCC,11937.958333,Standard
 CARDIAC ARRHYTHMIA & CONDUCTION DISORDERS W/O CC/MCC,4222.0,Standard
Level 5 Urology and Related Services,2866.77973333333,DRG
 AORTIC AND HEART ASSIST PROCEDURES EXCEPT PULSATION BALLOON W/O MCC,29911.454545,Standard
Level 2 Excision/ Biopsy/ Incision and Drainage,1047.47755102041,DRG
Level 3 Excision/ Biopsy/ Incision and Drainage,1822.69,DRG
Level 1 Breast/Lymphatic Surgery and Related Procedures,2134.3095,DRG
Level 2 Breast/Lymphatic Surgery and Related Procedures,3772.51,DRG
Level 3 Musculoskeletal Procedures,2073.86,DRG
Level 4 Musculoskeletal Procedures,4366.70169934641,DRG
Level 5 Musculoskeletal Procedures,8492.49653333334,DRG
Level 3 Airway Endoscopy,1036.5585714285698,DRG
Level 1 Endovascular Procedures,1882.16675799087,DRG
Level 2 Endovascular Procedures,3939.0568181818203,DRG
Level 3 Endovascular Procedures,8853.86097087381,DRG
Level 4 Endovascular Procedures,13898.2446153846,DRG
Level 3 Electrophysiologic Procedures,16832.6099999999,DRG
Level 2 Pacemaker and Similar Procedures,5909.325769230761,DRG
Level 3 Pacemaker and Similar Procedures,8228.14490566038,DRG
Level 2 ICD and Similar Procedures,29027.371562499902,DRG
Level 2 Upper GI Procedures,1099.3112903225801,DRG
 OTHER MAJOR CARDIOVASCULAR PROCEDURES W CC,22031.230768999998,Standard
Comprehensive Observation Services,1816.4148545176101,DRG
Level 2 Intraocular Procedures,2749.53257142857,DRG
Implantation of Drug Infusion Device,13565.548333333301,DRG
Level 4 Neurostimulator and Related Procedures,24651.2368421052,DRG
Level 3 Neurostimulator and Related Procedures,16688.31,DRG
 ENDOVASCULAR CARDIAC VALVE REPLACEMENT W/O MCC,38763.111111,Standard
Level 2 Neurostimulator and Related Procedures,4334.75608695652,DRG
" WND DEBRID & SKN GRFT EXC HAND, FOR MUSCULO",18558.181818,Standard
Level 4 Urology and Related Services,2110.83404761904,DRG
Level 3 Urology and Related Services,1303.2785714285699,DRG
Level 2 Laparoscopy and Related Services,5874.8804166666605,DRG
Level 1 Laparoscopy and Related Services,3472.1983999999898,DRG
Abdominal/Peritoneal/Biliary and Related Procedures,2242.29894736841,DRG
Level 5 Gynecologic Procedures,3144.8099999999895,DRG
 REVISION OF HIP OR KNEE REPLACEMENT W CC,22997.047619,Standard
 CRANIOTOMY & ENDOVASCULAR INTRACRANIAL PROCEDURES W MCC,31924.521739,Standard
 MAJOR HIP AND KNEE JOINT REPLACEMENT OR REATTACHMENT OF LOWER EXTREM,21792.896552000002,Standard
 OTHER RESP SYSTEM O.R. PROCEDURES W CC,14085.0,Standard
 PULMONARY EMBOLISM W MCC,9895.6785714,Standard
 ENDOVASCULAR CARDIAC VALVE REPLACEMENT W MCC,48580.136364,Standard
 RESPIRATORY INFECTIONS & INFLAMMATIONS W MCC,11721.647059,Standard
 PULMONARY EDEMA & RESPIRATORY FAILURE,8792.5564516,Standard
 SIMPLE PNEUMONIA & PLEURISY W MCC,9436.1097561,Standard
 SIMPLE PNEUMONIA & PLEURISY W CC,6328.9642857,Standard
 INTRACRANIAL HEMORRHAGE OR CEREBRAL INFARCTION W/O CC/MCC,6691.6875,Standard
 INTRACRANIAL HEMORRHAGE OR CEREBRAL INFARCTION W CC OR TPA IN 24 HRS,7194.3333333,Standard
 INTRACRANIAL HEMORRHAGE OR CEREBRAL INFARCTION W MCC,12085.893617,Standard
 DEGENERATIVE NERVOUS SYSTEM DISORDERS W/O MCC,8054.9090909,Standard
 OTHER RESP SYSTEM O.R. PROCEDURES W MCC,31799.5,Standard
 EXTRACRANIAL PROCEDURES W/O CC/MCC,8077.25,Standard
 RESPIRATORY SYSTEM DIAGNOSIS W VENTILATOR SUPPORT <=96 HOURS,15576.133333000002,Standard
 CARDIAC VALVE & OTH MAJ CARDIOTHORACIC PROC W/O CARD CATH W MCC,60600.9375,Standard
 CORONARY BYPASS W CARDIAC CATH W MCC,62260.384614999995,Standard
 CORONARY BYPASS W CARDIAC CATH W/O MCC,39370.352941000005,Standard
 CORONARY BYPASS W/O CARDIAC CATH W MCC,43258.222222000004,Standard
 CORONARY BYPASS W/O CARDIAC CATH W/O MCC,26794.125,Standard
 PERMANENT CARDIAC PACEMAKER IMPLANT W/O CC/MCC,14056.090909,Standard
 PERCUTANEOUS CARDIOVASCULAR PROCEDURES W DRUG,22485.892857,Standard
 PERC CARDIOVASC PROC W DRUG,14522.190476,Standard
 OTHER VASCULAR PROCEDURES W/O CC/MCC,12108.545455,Standard
 REVISION OF HIP OR KNEE REPLACEMENT W/O CC/MCC,19394.555556,Standard
 CRANIOTOMY & ENDOVASCULAR INTRACRANIAL PROCEDURES W/O CC/MCC,15440.3,Standard
 MAJOR CHEST PROCEDURES W CC,19543.0,Standard
 PULMONARY EMBOLISM W/O MCC,6319.5714286,Standard
 TRANSIENT ISCHEMIA W/O THROMBOLYTIC,5416.8,Standard
 MAJOR HIP AND KNEE JOINT REPLACEMENT OR REATTACHMENT OF LOWER EXTREM,14174.136283000002,Standard
 CERVICAL SPINAL FUSION W/O CC/MCC,14992.545455000001,Standard
 HIP & FEMUR PROCEDURES EXCEPT MAJOR JOINT W MCC,18927.264706,Standard
 HIP & FEMUR PROCEDURES EXCEPT MAJOR JOINT W CC,13592.333333,Standard
 HIP & FEMUR PROCEDURES EXCEPT MAJOR JOINT W/O CC/MCC,11104.176470999999,Standard
 MAJOR JOINT/LIMB REATTACHMENT PROCEDURE OF UPPER EXTREMITIES,15833.945055000002,Standard
 MEDICAL BACK PROBLEMS W/O MCC,6341.5833333,Standard
 CELLULITIS W MCC,9573.4545455,Standard
 SEIZURES W/O MCC,5989.7619048,Standard
 DIABETES W CC,6064.6470588,Standard
" MISC DISORDERS OF NUTRITION,METABOLISM,FLUIDS/ELECTROLYTES W MCC",8533.0,Standard
" ""MISC DISORDERS OF NUTRITION,METABOLISM,FLUIDS/ELECTROLYTES W/O MCC""",5655.2592593,Standard
 RENAL FAILURE W MCC,10250.844828,Standard
 CELLULITIS W/O MCC,5996.875,Standard
 KIDNEY & URINARY TRACT INFECTIONS W MCC,8467.7272727,Standard
 KIDNEY & URINARY TRACT INFECTIONS W/O MCC,5705.2592593,Standard
 OTHER KIDNEY & URINARY TRACT DIAGNOSES W MCC,10527.615385,Standard
 RED BLOOD CELL DISORDERS W/O MCC,6243.533333300001,Standard
 COAGULATION DISORDERS,12440.1875,Standard
 INFECTIOUS & PARASITIC DISEASES W O.R. PROCEDURE W MCC,38994.338028,Standard
 INFECTIOUS & PARASITIC DISEASES W O.R. PROCEDURE W CC,15514.866666999998,Standard
 SEPTICEMIA OR SEVERE SEPSIS W/O MV >96 HOURS W MCC,12447.880208,Standard
 SEPTICEMIA OR SEVERE SEPSIS W/O MV >96 HOURS W/O MCC,7575.009901,Standard
 POISONING & TOXIC EFFECTS OF DRUGS W MCC,9500.75,Standard
 RENAL FAILURE W CC,6717.482142899999,Standard
 EXTENSIVE O.R. PROCEDURE UNRELATED TO PRINCIPAL DIAGNOSIS W MCC,27618.857143,Standard
