Description,Charge,Category
 RESPIRATORY INFECTIONS & INFLAMMATIONS W MCC,11504.083333,Standard
 CHRONIC OBSTRUCTIVE PULMONARY DISEASE W MCC,7834.6666667,Standard
 SIMPLE PNEUMONIA & PLEURISY W MCC,9482.5,Standard
 SIMPLE PNEUMONIA & PLEURISY W CC,6242.48,Standard
 HEART FAILURE & SHOCK W MCC,9257.292682899999,Standard
 HEART FAILURE & SHOCK W CC,5952.9,Standard
 G.I. HEMORRHAGE W CC,6464.478260899999,Standard
" ""ESOPHAGITIS, GASTROENT & MISC DIGEST DISORDERS W/O MCC""",5210.5,Standard
 MAJOR HIP AND KNEE JOINT REPLACEMENT OR REATTACHMENT OF LOWER EXTREM,14113.956522,Standard
 HIP & FEMUR PROCEDURES EXCEPT MAJOR JOINT W CC,12584.117647,Standard
 PSYCHOSES,7782.8015267,Standard
 SEPTICEMIA OR SEVERE SEPSIS W/O MV >96 HOURS W/O MCC,7397.7083333,Standard
 SEPTICEMIA OR SEVERE SEPSIS W/O MV >96 HOURS W MCC,11265.91954,Standard
 KIDNEY & URINARY TRACT INFECTIONS W MCC,7034.307692300001,Standard
" MISC DISORDERS OF NUTRITION,METABOLISM,FLUIDS/ELECTROLYTES W MCC",7377.307692300001,Standard
 CELLULITIS W/O MCC,6427.8461538,Standard
 MAJOR JOINT/LIMB REATTACHMENT PROCEDURE OF UPPER EXTREMITIES,16079.052631999999,Standard
 BILATERAL OR MULTIPLE MAJOR JOINT PROCS OF LOWER EXTREMITY W/O MCC,22044.216216,Standard
 ALCOHOL/DRUG ABUSE OR DEPENDENCE W/O REHABILITATION THERAPY W/O MCC,5432.1304348,Standard
 PULMONARY EDEMA & RESPIRATORY FAILURE,8374.84,Standard
Level 5 Urology and Related Services,2782.7999999999897,DRG
Level 4 Urology and Related Services,1965.38294117647,DRG
Level 1 Laparoscopy and Related Services,3310.28303571428,DRG
Level 1 Nerve Procedures,1178.95575,DRG
Level 1 Intraocular Procedures,1427.49363112392,DRG
Comprehensive Observation Services,1737.8171268656602,DRG
Abdominal/Peritoneal/Biliary and Related Procedures,2185.93,DRG
Level 2 Upper GI Procedures,1068.23488372093,DRG
Level 3 Endovascular Procedures,8551.97,DRG
Level 3 Urology and Related Services,1273.25999999999,DRG
Level 2 Endovascular Procedures,3818.25,DRG
Level 1 Endovascular Procedures,1784.84714285714,DRG
Level 5 ENT Procedures,3257.93,DRG
Level 5 Musculoskeletal Procedures,8188.219999999979,DRG
Level 4 Musculoskeletal Procedures,4151.29111111111,DRG
Level 3 Musculoskeletal Procedures,1986.25999999999,DRG
Level 2 Laparoscopy and Related Services,5815.9,DRG
Level 3 Excision/ Biopsy/ Incision and Drainage,1745.7,DRG
Level 2 Excision/ Biopsy/ Incision and Drainage,1012.21,DRG
Level 2 Musculoskeletal Procedures,960.3,DRG
