Description,Charge,Category
 SEPTICEMIA OR SEVERE SEPSIS W/O MV >96 HOURS W MCC,13414.439393999999,Standard
 KIDNEY & URINARY TRACT INFECTIONS W/O MCC,5859.75,Standard
 RENAL FAILURE W CC,6895.2413793,Standard
 RENAL FAILURE W MCC,10890.428570999999,Standard
 CELLULITIS W/O MCC,6272.7692308,Standard
 MAJOR HIP AND KNEE JOINT REPLACEMENT OR REATTACHMENT OF LOWER EXTREM,15131.071429,Standard
 G.I. HEMORRHAGE W CC,7286.96875,Standard
" ""ESOPHAGITIS, GASTROENT & MISC DIGEST DISORDERS W/O MCC""",5604.6,Standard
 G.I. OBSTRUCTION W CC,6281.7272727,Standard
 MAJOR SMALL & LARGE BOWEL PROCEDURES W CC,18484.333333000002,Standard
 CARDIAC ARRHYTHMIA & CONDUCTION DISORDERS W CC,5699.0,Standard
 SEPTICEMIA OR SEVERE SEPSIS W/O MV >96 HOURS W/O MCC,7771.28125,Standard
 PULMONARY EDEMA & RESPIRATORY FAILURE,8989.4,Standard
 OTHER DIGESTIVE SYSTEM DIAGNOSES W CC,6939.8333333,Standard
 ALCOHOL/DRUG ABUSE OR DEPENDENCE W/O REHABILITATION THERAPY W/O MCC,5842.5,Standard
 HEART FAILURE & SHOCK W MCC,10837.413793000002,Standard
Level 4 Urology and Related Services,2168.72,DRG
 SIMPLE PNEUMONIA & PLEURISY W CC,6881.0714286,Standard
 SIMPLE PNEUMONIA & PLEURISY W MCC,10158.535714,Standard
 CHRONIC OBSTRUCTIVE PULMONARY DISEASE W CC,6767.1818182,Standard
 CHRONIC OBSTRUCTIVE PULMONARY DISEASE W MCC,8551.2105263,Standard
Level 1 Laparoscopy and Related Services,3605.8219565217296,DRG
Level 3 Airway Endoscopy,1063.50571428571,DRG
 RESPIRATORY INFECTIONS & INFLAMMATIONS W MCC,13612.5,Standard
Level 2 Laparoscopy and Related Services,6322.06,DRG
Level 5 Urology and Related Services,2980.38,DRG
Level 1 Nerve Procedures,1295.16,DRG
Comprehensive Observation Services,1879.6501010101001,DRG
Level 2 Excision/ Biopsy/ Incision and Drainage,1084.09,DRG
