Description,Charge,Category
 HEART FAILURE & SHOCK W MCC,9369.4615385,Standard
 SEPTICEMIA OR SEVERE SEPSIS W/O MV >96 HOURS W/O MCC,6584.363636399999,Standard
 SEPTICEMIA OR SEVERE SEPSIS W/O MV >96 HOURS W MCC,11603.5,Standard
 MAJOR JOINT/LIMB REATTACHMENT PROCEDURE OF UPPER EXTREMITIES,16830.133333,Standard
 MAJOR HIP AND KNEE JOINT REPLACEMENT OR REATTACHMENT OF LOWER EXTREM,14666.137766999998,Standard
 MAJOR HIP AND KNEE JOINT REPLACEMENT OR REATTACHMENT OF LOWER EXTREM,19530.571429,Standard
 SIMPLE PNEUMONIA & PLEURISY W CC,6430.857142899999,Standard
 G.I. HEMORRHAGE W CC,6737.0,Standard
Level 5 Urology and Related Services,3022.68,DRG
Level 1 Intraocular Procedures,1564.1489351851699,DRG
Level 4 Neurostimulator and Related Procedures,25036.486153846097,DRG
Level 1 Nerve Procedures,1266.53967741935,DRG
Level 3 Urology and Related Services,1383.02,DRG
Level 1 Laparoscopy and Related Services,3661.02,DRG
Level 2 Upper GI Procedures,1115.6820833333302,DRG
Level 5 Musculoskeletal Procedures,8673.65777777778,DRG
Level 4 Musculoskeletal Procedures,4571.87181818181,DRG
Level 3 Musculoskeletal Procedures,2157.47999999999,DRG
Level 2 Musculoskeletal Procedures,1100.09885245901,DRG
Level 2 Breast/Lymphatic Surgery and Related Procedures,3924.63,DRG
Level 2 Excision/ Biopsy/ Incision and Drainage,1099.45999999999,DRG
Comprehensive Observation Services,1903.9319254658399,DRG
 CHRONIC OBSTRUCTIVE PULMONARY DISEASE W MCC,8269.5454545,Standard
