Description,Charge,Category
 CORONARY BYPASS W/O CARDIAC CATH W/O MCC,25042.473684,Standard
 MAJOR SMALL & LARGE BOWEL PROCEDURES W MCC,30930.357143,Standard
 OTHER CIRCULATORY SYSTEM DIAGNOSES W MCC,12280.444444,Standard
 CARDIAC ARRHYTHMIA & CONDUCTION DISORDERS W/O CC/MCC,3732.85,Standard
 CARDIAC ARRHYTHMIA & CONDUCTION DISORDERS W CC,4890.0714286,Standard
 CARDIAC ARRHYTHMIA & CONDUCTION DISORDERS W MCC,8527.1153846,Standard
" ""ACUTE MYOCARDIAL INFARCTION, DISCHARGED ALIVE W/O CC/MCC""",5300.3333333,Standard
 HEART FAILURE & SHOCK W MCC,8744.9390244,Standard
" CIRCULATORY DISORDERS EXCEPT AMI, W CARD CATH W/O MCC",7252.45,Standard
 G.I. HEMORRHAGE W MCC,10103.153846,Standard
" ACUTE MYOCARDIAL INFARCTION, DISCHARGED ALIVE W CC",6142.1538462,Standard
 HEART FAILURE & SHOCK W CC,6016.4117647,Standard
 G.I. HEMORRHAGE W CC,5885.7037037,Standard
 MAJOR HIP AND KNEE JOINT REPLACEMENT OR REATTACHMENT OF LOWER EXTREM,12541.455695999999,Standard
 G.I. OBSTRUCTION W/O CC/MCC,4186.1666667,Standard
" ""ESOPHAGITIS, GASTROENT & MISC DIGEST DISORDERS W/O MCC""",4832.857142899999,Standard
" ""ACUTE MYOCARDIAL INFARCTION, DISCHARGED ALIVE W MCC""",9834.9473684,Standard
 MAJOR JOINT/LIMB REATTACHMENT PROCEDURE OF UPPER EXTREMITIES,15058.76,Standard
 CELLULITIS W/O MCC,5419.0,Standard
" MISC DISORDERS OF NUTRITION,METABOLISM,FLUIDS/ELECTROLYTES W MCC",7061.214285699999,Standard
" ""MISC DISORDERS OF NUTRITION,METABOLISM,FLUIDS/ELECTROLYTES W/O MCC""",4609.7272727,Standard
 RENAL FAILURE W MCC,8897.714285700002,Standard
 RENAL FAILURE W CC,5763.5,Standard
 KIDNEY & URINARY TRACT INFECTIONS W/O MCC,4934.5882353,Standard
 OTHER KIDNEY & URINARY TRACT DIAGNOSES W MCC,9154.9166667,Standard
 G.I. OBSTRUCTION W CC,5381.1875,Standard
 OTHER MAJOR CARDIOVASCULAR PROCEDURES W MCC,31357.363636000002,Standard
 PERC CARDIOVASC PROC W DRUG,13097.842105,Standard
 OTHER VASCULAR PROCEDURES W/O CC/MCC,12900.625,Standard
Abdominal/Peritoneal/Biliary and Related Procedures,2094.96927272727,DRG
Level 1 Laparoscopy and Related Services,3282.78389830508,DRG
Level 2 Laparoscopy and Related Services,5873.67555555555,DRG
Level 3 Urology and Related Services,1241.0403225806401,DRG
Level 4 Urology and Related Services,2001.7186,DRG
Level 5 Urology and Related Services,2677.97114942528,DRG
Level 1 Nerve Procedures,1199.15491525423,DRG
"Level 3 Extraocular, Repair, and Plastic Eye Procedures",1371.95999999999,DRG
Comprehensive Observation Services,1735.7244390243802,DRG
Level 2 Excision/ Biopsy/ Incision and Drainage,1006.25304054054,DRG
Level 3 Excision/ Biopsy/ Incision and Drainage,1760.9,DRG
 AORTIC AND HEART ASSIST PROCEDURES EXCEPT PULSATION BALLOON W/O MCC,28664.272727,Standard
 INTRACRANIAL HEMORRHAGE OR CEREBRAL INFARCTION W CC OR TPA IN 24 HRS,5828.8333333,Standard
 PULMONARY EDEMA & RESPIRATORY FAILURE,7622.125,Standard
 CHRONIC OBSTRUCTIVE PULMONARY DISEASE W MCC,6832.5294118,Standard
 SIMPLE PNEUMONIA & PLEURISY W MCC,8225.074074099999,Standard
 SIMPLE PNEUMONIA & PLEURISY W CC,5649.4444444,Standard
 RESPIRATORY SYSTEM DIAGNOSIS W VENTILATOR SUPPORT <=96 HOURS,14315.466666999999,Standard
 CARDIAC VALVE & OTH MAJ CARDIOTHORACIC PROC W/O CARD CATH W MCC,70368.181818,Standard
 CARDIAC VALVE & OTH MAJ CARDIOTHORACIC PROC W/O CARD CATH W CC,36756.933333,Standard
 PERMANENT CARDIAC PACEMAKER IMPLANT W CC,17205.0,Standard
 PERCUTANEOUS CARDIOVASCULAR PROCEDURES W DRUG,19200.533333000003,Standard
 INFECTIOUS & PARASITIC DISEASES W O.R. PROCEDURE W MCC,28980.185185000002,Standard
 OTHER VASCULAR PROCEDURES W CC,16211.238094999999,Standard
 RESPIRATORY INFECTIONS & INFLAMMATIONS W MCC,11085.166667,Standard
 SEPTICEMIA OR SEVERE SEPSIS W/O MV >96 HOURS W MCC,11374.658384999999,Standard
 ENDOVASCULAR CARDIAC VALVE REPLACEMENT W MCC,45535.913043,Standard
Level 2 Endovascular Procedures,3712.2891566265002,DRG
Level 2 Upper GI Procedures,1076.8505882352902,DRG
Level 2 ICD and Similar Procedures,26601.007,DRG
Level 1 ICD and Similar Procedures,17985.5041666666,DRG
Level 3 Pacemaker and Similar Procedures,7915.98,DRG
Level 3 Electrophysiologic Procedures,16217.46,DRG
Level 4 Endovascular Procedures,13854.55,DRG
Level 3 Lower GI Procedures,1581.42,DRG
Level 3 Endovascular Procedures,8354.66049180328,DRG
Level 1 Endovascular Procedures,1779.8139860139802,DRG
Level 4 Airway Endoscopy,1950.3822222222198,DRG
Level 3 Airway Endoscopy,925.4769230769231,DRG
Level 5 Musculoskeletal Procedures,8117.784259259259,DRG
Level 4 Musculoskeletal Procedures,4059.9641304347797,DRG
Level 3 Musculoskeletal Procedures,1925.7828749999899,DRG
Level 1 Breast/Lymphatic Surgery and Related Procedures,2066.12999999999,DRG
Level 2 Musculoskeletal Procedures,948.0296428571429,DRG
Level 2 Breast/Lymphatic Surgery and Related Procedures,3498.8448,DRG
 SEPTICEMIA OR SEVERE SEPSIS W/O MV >96 HOURS W/O MCC,6396.5471698,Standard
Complex GI Procedures,3251.62714285714,DRG
