Description,Charge,Category
" ""MISC DISORDERS OF NUTRITION,METABOLISM,FLUIDS/ELECTROLYTES W/O MCC""",5444.6666667,Standard
 HIP & FEMUR PROCEDURES EXCEPT MAJOR JOINT W CC,14792.846153999999,Standard
 KIDNEY & URINARY TRACT INFECTIONS W/O MCC,5819.4285714,Standard
 SEPTICEMIA OR SEVERE SEPSIS W/O MV >96 HOURS W MCC,13151.641026000001,Standard
 MAJOR HIP AND KNEE JOINT REPLACEMENT OR REATTACHMENT OF LOWER EXTREM,14868.976190000001,Standard
" ""ESOPHAGITIS, GASTROENT & MISC DIGEST DISORDERS W/O MCC""",5926.125,Standard
 CARDIAC ARRHYTHMIA & CONDUCTION DISORDERS W/O CC/MCC,4888.7272727,Standard
 CARDIAC ARRHYTHMIA & CONDUCTION DISORDERS W MCC,8573.846153800001,Standard
 HEART FAILURE & SHOCK W/O CC/MCC,4931.466666699999,Standard
 HEART FAILURE & SHOCK W CC,7091.875,Standard
 SEPTICEMIA OR SEVERE SEPSIS W/O MV >96 HOURS W/O MCC,7658.6785714,Standard
 CELLULITIS W/O MCC,6184.0714286,Standard
 RENAL FAILURE W CC,7034.7222222,Standard
Level 1 Nerve Procedures,1246.91128205128,DRG
Level 1 Intraocular Procedures,1469.8903829787198,DRG
Level 2 Excision/ Biopsy/ Incision and Drainage,1017.5831578947301,DRG
Level 4 Musculoskeletal Procedures,4353.49,DRG
Level 5 Musculoskeletal Procedures,8512.62,DRG
Level 1 Endovascular Procedures,1862.1613636363602,DRG
Level 2 Endovascular Procedures,3948.61,DRG
Level 3 Endovascular Procedures,8886.51808510638,DRG
 HEART FAILURE & SHOCK W MCC,10574.934783,Standard
Level 3 Pacemaker and Similar Procedures,8148.69,DRG
Level 2 Upper GI Procedures,1098.4708333333301,DRG
Abdominal/Peritoneal/Biliary and Related Procedures,2166.3791666666602,DRG
Level 1 Laparoscopy and Related Services,3485.56,DRG
Level 3 Urology and Related Services,1266.0865384615302,DRG
Level 5 Urology and Related Services,2877.8099999999895,DRG
Comprehensive Observation Services,1785.4615450643698,DRG
 SIMPLE PNEUMONIA & PLEURISY W CC,6808.266666699999,Standard
Level 2 Musculoskeletal Procedures,1045.78039999999,DRG
 CHRONIC OBSTRUCTIVE PULMONARY DISEASE W MCC,8324.0,Standard
 PULMONARY EDEMA & RESPIRATORY FAILURE,9111.529411799998,Standard
 OTITIS MEDIA & URI W/O MCC,5253.0,Standard
 SIMPLE PNEUMONIA & PLEURISY W MCC,9902.4285714,Standard
Level 3 Musculoskeletal Procedures,2051.37757575757,DRG
