Description,Charge,Category
Level 1 Endovascular Procedures,2084.79199999999,DRG
Level 4 Musculoskeletal Procedures,5142.98863636363,DRG
Level 3 Endovascular Procedures,10762.8299999999,DRG
Level 3 Pacemaker and Similar Procedures,9886.8,DRG
Level 2 Excision/ Biopsy/ Incision and Drainage,1213.2364583333301,DRG
Level 3 Excision/ Biopsy/ Incision and Drainage,2136.93,DRG
Abdominal/Peritoneal/Biliary and Related Procedures,2667.76634146341,DRG
Level 1 Breast/Lymphatic Surgery and Related Procedures,2501.03307692307,DRG
Level 2 Breast/Lymphatic Surgery and Related Procedures,4245.9936,DRG
Level 5 Musculoskeletal Procedures,10317.5799999999,DRG
Level 2 Endovascular Procedures,4587.62474226804,DRG
" ""ESOPHAGITIS, GASTROENT & MISC DIGEST DISORDERS W/O MCC""",8875.173912999999,Standard
 RENAL FAILURE W CC,10170.612903,Standard
Level 1 Laparoscopy and Related Services,4123.0186666666605,DRG
 KIDNEY & URINARY TRACT INFECTIONS W MCC,11711.357143000001,Standard
 KIDNEY & URINARY TRACT INFECTIONS W/O MCC,8631.9677419,Standard
 URINARY STONES W/O ESW LITHOTRIPSY W/O MCC,8835.1875,Standard
 INFECTIOUS & PARASITIC DISEASES W O.R. PROCEDURE W MCC,56518.909090999994,Standard
Level 3 Urology and Related Services,1558.61,DRG
Level 4 Urology and Related Services,2471.81038461538,DRG
Level 5 Urology and Related Services,3325.3440476190503,DRG
Level 1 Intraocular Procedures,1740.8772826086902,DRG
Comprehensive Observation Services,2104.74430555555,DRG
 INFECTIOUS & PARASITIC DISEASES W O.R. PROCEDURE W CC,34647.181818,Standard
 SEPTICEMIA OR SEVERE SEPSIS W/O MV >96 HOURS W MCC,21062.299065,Standard
 LAPAROSCOPIC CHOLECYSTECTOMY W/O C.D.E. W CC,17987.25,Standard
Level 2 Musculoskeletal Procedures,1240.82,DRG
Level 3 Musculoskeletal Procedures,2297.74533333333,DRG
 RENAL FAILURE W MCC,16333.578947,Standard
" ACUTE MYOCARDIAL INFARCTION, DISCHARGED ALIVE W CC",10622.8,Standard
 TRANSIENT ISCHEMIA W/O THROMBOLYTIC,8138.285714300001,Standard
 RESPIRATORY INFECTIONS & INFLAMMATIONS W MCC,23200.92,Standard
 RESPIRATORY INFECTIONS & INFLAMMATIONS W CC,14061.363636000002,Standard
 PULMONARY EDEMA & RESPIRATORY FAILURE,17020.0,Standard
 CHRONIC OBSTRUCTIVE PULMONARY DISEASE W MCC,12693.030303,Standard
 CHRONIC OBSTRUCTIVE PULMONARY DISEASE W CC,9970.4210526,Standard
 CHRONIC OBSTRUCTIVE PULMONARY DISEASE W/O CC/MCC,7880.2,Standard
 SIMPLE PNEUMONIA & PLEURISY W MCC,14946.892856999999,Standard
 SIMPLE PNEUMONIA & PLEURISY W CC,10147.8125,Standard
 INTRACRANIAL HEMORRHAGE OR CEREBRAL INFARCTION W/O CC/MCC,8725.6,Standard
 RESPIRATORY SYSTEM DIAGNOSIS W VENTILATOR SUPPORT <=96 HOURS,29820.192307999998,Standard
 HEART FAILURE & SHOCK W MCC,16091.329544999999,Standard
 HEART FAILURE & SHOCK W CC,10886.3,Standard
 CARDIAC ARRHYTHMIA & CONDUCTION DISORDERS W MCC,13101.724138,Standard
 CARDIAC ARRHYTHMIA & CONDUCTION DISORDERS W CC,9354.4166667,Standard
 CARDIAC ARRHYTHMIA & CONDUCTION DISORDERS W/O CC/MCC,6301.7058824,Standard
 SYNCOPE & COLLAPSE,8671.6666667,Standard
 OTHER CIRCULATORY SYSTEM DIAGNOSES W MCC,21166.0,Standard
 G.I. HEMORRHAGE W MCC,19718.173913,Standard
 G.I. HEMORRHAGE W CC,10571.634615,Standard
" ""ACUTE MYOCARDIAL INFARCTION, DISCHARGED ALIVE W MCC""",18836.888888999998,Standard
 INTRACRANIAL HEMORRHAGE OR CEREBRAL INFARCTION W CC OR TPA IN 24 HRS,11916.771429,Standard
 SEPTICEMIA OR SEVERE SEPSIS W/O MV >96 HOURS W/O MCC,12527.693878,Standard
 PSYCHOSES,13013.636364,Standard
 MAJOR HIP AND KNEE JOINT REPLACEMENT OR REATTACHMENT OF LOWER EXTREM,22492.229166999998,Standard
 HIP & FEMUR PROCEDURES EXCEPT MAJOR JOINT W CC,22138.227273,Standard
 HIP & FEMUR PROCEDURES EXCEPT MAJOR JOINT W/O CC/MCC,18502.0,Standard
 INTRACRANIAL HEMORRHAGE OR CEREBRAL INFARCTION W MCC,20987.857143,Standard
" ""MISC DISORDERS OF NUTRITION,METABOLISM,FLUIDS/ELECTROLYTES W/O MCC""",8114.8333333,Standard
 MEDICAL BACK PROBLEMS W/O MCC,9736.727272700002,Standard
 CELLULITIS W/O MCC,9382.326923100001,Standard
" MISC DISORDERS OF NUTRITION,METABOLISM,FLUIDS/ELECTROLYTES W MCC",12753.454545,Standard
 DIABETES W CC,9631.6363636,Standard
