Description,Charge,Category
 RESPIRATORY SYSTEM DIAGNOSIS W VENTILATOR SUPPORT <=96 HOURS,33619.5625,Standard
 SIMPLE PNEUMONIA & PLEURISY W CC,12931.846154,Standard
 SIMPLE PNEUMONIA & PLEURISY W MCC,19011.580645,Standard
 CHRONIC OBSTRUCTIVE PULMONARY DISEASE W MCC,15948.545455000001,Standard
 PULMONARY EDEMA & RESPIRATORY FAILURE,17932.775862000002,Standard
 INTRACRANIAL HEMORRHAGE OR CEREBRAL INFARCTION W/O CC/MCC,10726.636364,Standard
Comprehensive Observation Services,2099.19641114981,DRG
" MISC DISORDERS OF NUTRITION,METABOLISM,FLUIDS/ELECTROLYTES W MCC",25219.166666999998,Standard
 CELLULITIS W/O MCC,11597.24,Standard
 HIP & FEMUR PROCEDURES EXCEPT MAJOR JOINT W CC,28444.037037000002,Standard
 MAJOR HIP AND KNEE JOINT REPLACEMENT OR REATTACHMENT OF LOWER EXTREM,28111.911764999997,Standard
" ""ESOPHAGITIS, GASTROENT & MISC DIGEST DISORDERS W/O MCC""",10733.0625,Standard
 G.I. HEMORRHAGE W CC,14360.2,Standard
 G.I. HEMORRHAGE W MCC,23880.25,Standard
 CARDIAC ARRHYTHMIA & CONDUCTION DISORDERS W CC,10703.454545,Standard
 HEART FAILURE & SHOCK W MCC,26751.302325999997,Standard
 INTRACRANIAL HEMORRHAGE OR CEREBRAL INFARCTION W CC OR TPA IN 24 HRS,15216.590909,Standard
 INTRACRANIAL HEMORRHAGE OR CEREBRAL INFARCTION W MCC,25178.428571,Standard
" ""ACUTE MYOCARDIAL INFARCTION, DISCHARGED ALIVE W MCC""",23128.642857,Standard
 SEPTICEMIA OR SEVERE SEPSIS W/O MV >96 HOURS W MCC,27015.798561000003,Standard
Level 1 Breast/Lymphatic Surgery and Related Procedures,2480.23588235294,DRG
 PSYCHOSES,16242.5,Standard
 SEPTICEMIA OR SEVERE SEPSIS W/O MV >96 HOURS W/O MCC,14986.568181999999,Standard
Level 2 Breast/Lymphatic Surgery and Related Procedures,4422.91,DRG
Level 2 Musculoskeletal Procedures,1219.61227272727,DRG
Level 3 Musculoskeletal Procedures,2200.86833333333,DRG
 INFECTIOUS & PARASITIC DISEASES W O.R. PROCEDURE W MCC,84944.083333,Standard
 RED BLOOD CELL DISORDERS W/O MCC,12239.583333,Standard
Level 2 Excision/ Biopsy/ Incision and Drainage,1192.2936842105198,DRG
Level 5 Urology and Related Services,3335.1740000000004,DRG
 PERC CARDIOVASC PROC W DRUG,29291.529412,Standard
Level 4 Musculoskeletal Procedures,5064.4625,DRG
Level 5 Musculoskeletal Procedures,10175.1399999999,DRG
Level 5 ENT Procedures,3957.5266666666603,DRG
Level 1 Endovascular Procedures,2203.87666666666,DRG
Level 2 Endovascular Procedures,4609.798735632179,DRG
Level 3 Endovascular Procedures,10331.9706976744,DRG
Level 4 Endovascular Procedures,16862.9481818181,DRG
Abdominal/Peritoneal/Biliary and Related Procedures,2664.1171428571397,DRG
Level 1 Laparoscopy and Related Services,4067.0289655172296,DRG
