Description,Charge,Category
Level 1 Intraocular Procedures,1708.4916161616102,DRG
Abdominal/Peritoneal/Biliary and Related Procedures,2674.5955555555497,DRG
Level 5 Musculoskeletal Procedures,9516.459166666658,DRG
 MAJOR HIP AND KNEE JOINT REPLACEMENT OR REATTACHMENT OF LOWER EXTREM,23803.642857,Standard
 HEART FAILURE & SHOCK W MCC,16504.458333000002,Standard
 PULMONARY EDEMA & RESPIRATORY FAILURE,13705.666667,Standard
Comprehensive Observation Services,2102.29486111111,DRG
Level 2 Excision/ Biopsy/ Incision and Drainage,1204.63194444444,DRG
Level 2 Musculoskeletal Procedures,1102.9511111111099,DRG
Level 3 Musculoskeletal Procedures,2426.25137931034,DRG
Level 4 Musculoskeletal Procedures,4888.965,DRG
 SEPTICEMIA OR SEVERE SEPSIS W/O MV >96 HOURS W MCC,20767.121950999997,Standard
 SEPTICEMIA OR SEVERE SEPSIS W/O MV >96 HOURS W/O MCC,13118.857143000001,Standard
