Description,Charge,Category
 SEPTICEMIA OR SEVERE SEPSIS W/O MV >96 HOURS W/O MCC,10094.478261,Standard
 SEPTICEMIA OR SEVERE SEPSIS W/O MV >96 HOURS W MCC,17068.054054,Standard
" ""MISC DISORDERS OF NUTRITION,METABOLISM,FLUIDS/ELECTROLYTES W/O MCC""",7934.636363600001,Standard
 G.I. HEMORRHAGE W CC,9519.2307692,Standard
 HEART FAILURE & SHOCK W MCC,17531.294118,Standard
" ""ACUTE MYOCARDIAL INFARCTION, DISCHARGED ALIVE W MCC""",12720.0,Standard
 SIMPLE PNEUMONIA & PLEURISY W CC,10751.2,Standard
 CHRONIC OBSTRUCTIVE PULMONARY DISEASE W MCC,14876.0,Standard
Comprehensive Observation Services,2106.5720547945198,DRG
