Description,Charge,Category
Level 1 Nerve Procedures,1170.05425465839,DRG
Level 2 Nerve Procedures,2730.192,DRG
Level 5 Gynecologic Procedures,2958.19999999999,DRG
Level 3 Neurostimulator and Related Procedures,15019.3269230769,DRG
Level 4 Neurostimulator and Related Procedures,23244.1888888888,DRG
Level 1 Intraocular Procedures,1392.7219171597599,DRG
Level 2 Intraocular Procedures,2656.37714285712,DRG
"Level 3 Extraocular, Repair, and Plastic Eye Procedures",1319.5641825095,DRG
"Level 4 Extraocular, Repair, and Plastic Eye Procedures",2174.1698245614,DRG
Level 7 Radiation Therapy,5661.21,DRG
Comprehensive Observation Services,1702.0508052708701,DRG
Level 2 Neurostimulator and Related Procedures,2995.8886206896505,DRG
Level 2 Endovascular Procedures,3725.0175918367204,DRG
Level 4 Gynecologic Procedures,1668.99796610169,DRG
Level 5 Musculoskeletal Procedures,7909.863355932221,DRG
Level 3 Airway Endoscopy,962.734318181816,DRG
Level 4 Airway Endoscopy,1887.0706040268499,DRG
Level 5 Airway Endoscopy,3587.00539682539,DRG
Level 4 ENT Procedures,1621.75,DRG
Level 5 ENT Procedures,2845.1474226804103,DRG
Level 4 Musculoskeletal Procedures,3974.9697594501704,DRG
Level 2 Upper GI Procedures,1042.85268408552,DRG
Level 1 ICD and Similar Procedures,18592.3618181818,DRG
Level 4 Pacemaker and Similar Procedures,14897.97,DRG
Level 2 Pacemaker and Similar Procedures,5481.72999999999,DRG
Cochlear Implant Procedure,27806.140645161202,DRG
Level 4 Endovascular Procedures,13452.0036842105,DRG
Level 3 Endovascular Procedures,8249.87505415167,DRG
Level 2 ICD and Similar Procedures,26810.2301538461,DRG
Level 3 Musculoskeletal Procedures,1771.36905594404,DRG
Level 2 Musculoskeletal Procedures,974.9554819277099,DRG
Level 4 Breast/Lymphatic Surgery and Related Procedures,9185.29,DRG
Level 7 Urology and Related Services,13157.78,DRG
Level 6 Urology and Related Services,5689.39,DRG
Level 5 Urology and Related Services,2698.07015384614,DRG
Level 4 Urology and Related Services,1953.51365591397,DRG
Level 3 Urology and Related Services,1226.15719696971,DRG
Level 2 Laparoscopy and Related Services,5624.010257510749,DRG
Level 1 Laparoscopy and Related Services,3291.43501845019,DRG
Abdominal/Peritoneal/Biliary and Related Procedures,2123.7499557522,DRG
Complex GI Procedures,2648.30363636363,DRG
Level 3 Lower GI Procedures,1660.11181818181,DRG
Level 3 Upper GI Procedures,1986.45115646258,DRG
Level 2 Excision/ Biopsy/ Incision and Drainage,973.96086226205,DRG
Level 3 Excision/ Biopsy/ Incision and Drainage,1672.2111585365801,DRG
Level 1 Breast/Lymphatic Surgery and Related Procedures,1980.6236567164103,DRG
Level 2 Breast/Lymphatic Surgery and Related Procedures,3467.38320610687,DRG
Level 1 Endovascular Procedures,1786.80313769751,DRG
Level 3 Electrophysiologic Procedures,15443.136111111102,DRG
Level 3 Pacemaker and Similar Procedures,7525.39326923077,DRG
 G.I. HEMORRHAGE W CC,7787.2352941,Standard
 DIABETES W CC,7044.8666667,Standard
 DIABETES W/O CC/MCC,5580.7142857,Standard
" MISC DISORDERS OF NUTRITION,METABOLISM,FLUIDS/ELECTROLYTES W MCC",10306.330435,Standard
" ""MISC DISORDERS OF NUTRITION,METABOLISM,FLUIDS/ELECTROLYTES W/O MCC""",6729.102564100001,Standard
 ENDOCRINE DISORDERS W MCC,12760.782609,Standard
 ENDOCRINE DISORDERS W CC,7945.95,Standard
 KIDNEY TRANSPLANT,27825.328125,Standard
 MAJOR BLADDER PROCEDURES W CC,20325.227273,Standard
 KIDNEY & URETER PROCEDURES FOR NEOPLASM W MCC,23771.666666999998,Standard
 KIDNEY & URETER PROCEDURES FOR NEOPLASM W CC,14802.9375,Standard
 KIDNEY & URETER PROCEDURES FOR NEOPLASM W/O CC/MCC,13294.0,Standard
 KIDNEY & URETER PROCEDURES FOR NON,40548.933333,Standard
 KIDNEY & URETER PROCEDURES FOR NON,15400.4,Standard
 TRANSURETHRAL PROCEDURES W CC,10818.315789,Standard
 DIABETES W MCC,10038.090909,Standard
 OTHER KIDNEY & URINARY TRACT PROCEDURES W MCC,27138.56,Standard
 RENAL FAILURE W MCC,11434.855072,Standard
 RENAL FAILURE W CC,7420.7267442,Standard
 RENAL FAILURE W/O CC/MCC,5495.8666667,Standard
 KIDNEY & URINARY TRACT INFECTIONS W MCC,8438.933333300001,Standard
 KIDNEY & URINARY TRACT INFECTIONS W/O MCC,6404.472222199999,Standard
 URINARY STONES W/O ESW LITHOTRIPSY W/O MCC,6617.8947368,Standard
 OTHER KIDNEY & URINARY TRACT DIAGNOSES W MCC,12680.395604000001,Standard
 OTHER KIDNEY & URINARY TRACT DIAGNOSES W CC,10263.541667,Standard
 MAJOR MALE PELVIC PROCEDURES W/O CC/MCC,13361.714286,Standard
 INFLAMMATION OF THE MALE REPRODUCTIVE SYSTEM W/O MCC,6598.9090909,Standard
 UTERINE & ADNEXA PROC FOR OVARIAN OR ADNEXAL MALIGNANCY W CC,14679.043478,Standard
" UTERINE,ADNEXA PROC FOR NON",13000.833333,Standard
 UTERINE & ADNEXA PROC FOR NON,12421.428570999999,Standard
 UTERINE & ADNEXA PROC FOR NON,8453.090909100001,Standard
 OTHER KIDNEY & URINARY TRACT PROCEDURES W CC,18205.1,Standard
" ""OTHER ENDOCRINE, NUTRIT & METAB O.R. PROC W CC""",16944.714286000002,Standard
" OTHER ENDOCRINE, NUTRIT & METAB O.R. PROC W MCC",33650.083332999995,Standard
 O.R. PROCEDURES FOR OBESITY W/O CC/MCC,12023.230769,Standard
 BIOPSIES OF MUSCULOSKELETAL SYSTEM & CONNECTIVE TISSUE W MCC,25727.681818,Standard
 BIOPSIES OF MUSCULOSKELETAL SYSTEM & CONNECTIVE TISSUE W CC,16487.380952,Standard
 HIP & FEMUR PROCEDURES EXCEPT MAJOR JOINT W MCC,22176.46875,Standard
 HIP & FEMUR PROCEDURES EXCEPT MAJOR JOINT W CC,15418.870968000001,Standard
 HIP & FEMUR PROCEDURES EXCEPT MAJOR JOINT W/O CC/MCC,12349.75,Standard
 MAJOR JOINT/LIMB REATTACHMENT PROCEDURE OF UPPER EXTREMITIES,19157.75,Standard
" LOWER EXTREM & HUMER PROC EXCEPT HIP,FOOT,FEMUR W CC",16239.088888999999,Standard
" ""LOWER EXTREM & HUMER PROC EXCEPT HIP,FOOT,FEMUR W/O CC/MCC""",15247.916667,Standard
 SOFT TISSUE PROCEDURES W CC,12832.166667,Standard
" SHOULDER,ELBOW OR FOREARM PROC,EXC MAJOR JOINT PROC W CC",13454.909091,Standard
 OTHER MUSCULOSKELET SYS & CONN TISS O.R. PROC W MCC,28738.769231000002,Standard
 OTHER MUSCULOSKELET SYS & CONN TISS O.R. PROC W CC,14062.08,Standard
 OTHER MUSCULOSKELET SYS & CONN TISS O.R. PROC W/O CC/MCC,10995.555556,Standard
 BACK & NECK PROC EXC SPINAL FUSION W CC,16542.073171,Standard
 BACK & NECK PROC EXC SPINAL FUSION W/O CC/MCC,10157.642856999999,Standard
 FRACTURES OF HIP & PELVIS W/O MCC,5989.5882353,Standard
 OSTEOMYELITIS W MCC,13597.461538,Standard
 ADRENAL & PITUITARY PROCEDURES W CC/MCC,28883.130435000003,Standard
 CELLULITIS W/O MCC,6823.7887324,Standard
 CELLULITIS W MCC,16374.186047,Standard
 SKIN GRAFT EXC FOR SKIN ULCER OR CELLULITIS W CC,18602.833333000002,Standard
" FX, SPRN, STRN & DISL EXCEPT FEMUR, HIP, PELVIS & THIGH W/O MCC",6536.3461538,Standard
 BONE DISEASES & ARTHROPATHIES W/O MCC,6176.0,Standard
" D&C, CONIZATION, LAPAROSCOPY & TUBAL INTERRUPTION W CC/MCC",13007.0,Standard
 MEDICAL BACK PROBLEMS W/O MCC,7169.298507500001,Standard
 CONNECTIVE TISSUE DISORDERS W CC,9363.111111100001,Standard
 CONNECTIVE TISSUE DISORDERS W MCC,20812.5,Standard
 PATHOLOGICAL FRACTURES & MUSCULOSKELET & CONN TISS MALIG W/O CC/MCC,6350.6470588,Standard
 PATHOLOGICAL FRACTURES & MUSCULOSKELET & CONN TISS MALIG W CC,8537.8714286,Standard
 PATHOLOGICAL FRACTURES & MUSCULOSKELET & CONN TISS MALIG W MCC,14271.741935,Standard
 OSTEOMYELITIS W CC,9969.5454545,Standard
 MEDICAL BACK PROBLEMS W MCC,11509.0,Standard
 AMPUTATION FOR MUSCULOSKELETAL SYS & CONN TISSUE DIS W CC,15733.4,Standard
" ""MALIGNANCY, FEMALE REPRODUCTIVE SYSTEM W MCC""",13559.0625,Standard
 CRANIAL & PERIPHERAL NERVE DISORDERS W MCC,10756.0,Standard
 RESPIRATORY NEOPLASMS W MCC,13902.472222,Standard
 RESPIRATORY NEOPLASMS W CC,9014.15625,Standard
 MAJOR CHEST TRAUMA W CC,9204.0666667,Standard
 POSTOPERATIVE & POST,8289.933333300001,Standard
 FEVER AND INFLAMMATORY CONDITIONS,7003.8181818,Standard
 VIRAL ILLNESS W/O MCC,8693.9285714,Standard
 OTHER INFECTIOUS & PARASITIC DISEASES DIAGNOSES W MCC,17009.692308,Standard
 SEPTICEMIA OR SEVERE SEPSIS W MV >96 HOURS OR PERIPHERAL EXTRACORPOR,49539.607143,Standard
 SEPTICEMIA OR SEVERE SEPSIS W/O MV >96 HOURS W MCC,16228.080205000002,Standard
 SEPTICEMIA OR SEVERE SEPSIS W/O MV >96 HOURS W/O MCC,8327.255814,Standard
 ACUTE ADJUSTMENT REACTION & PSYCHOSOCIAL DYSFUNCTION,6573.1818182,Standard
 ORGANIC DISTURBANCES & INTELLECTUAL DISABILITY,9316.692307700001,Standard
 PSYCHOSES,9939.7692308,Standard
 ALCOHOL/DRUG ABUSE OR DEPENDENCE W/O REHABILITATION THERAPY W/O MCC,6439.9090909,Standard
 RESPIRATORY INFECTIONS & INFLAMMATIONS W CC,10145.785714,Standard
 OTHER O.R. PROCEDURES FOR INJURIES W MCC,36765.151515,Standard
 INTRACRANIAL HEMORRHAGE OR CEREBRAL INFARCTION W MCC,14051.210525999999,Standard
" ""ISCHEMIC STROKE, PRECEREBRAL OCCLUSION OR TRANSIENT ISCHEMIA W THRO",14478.333333,Standard
 DEGENERATIVE NERVOUS SYSTEM DISORDERS W/O MCC,8762.732142899999,Standard
 DEGENERATIVE NERVOUS SYSTEM DISORDERS W MCC,20615.888888999998,Standard
 NERVOUS SYSTEM NEOPLASMS W/O MCC,7921.785714300001,Standard
 NERVOUS SYSTEM NEOPLASMS W MCC,10531.704225,Standard
 PERIPH/CRANIAL NERVE & OTHER NERV SYST PROC W CC OR PERIPH NEUROSTIM,18673.0625,Standard
 PERIPH/CRANIAL NERVE & OTHER NERV SYST PROC W MCC,31017.823529,Standard
 EXTRACRANIAL PROCEDURES W/O CC/MCC,9150.304347799998,Standard
 EXTRACRANIAL PROCEDURES W CC,11892.90625,Standard
 CAROTID ARTERY STENT PROCEDURE W CC,16820.727273,Standard
 VENTRICULAR SHUNT PROCEDURES W/O CC/MCC,12709.2,Standard
 VENTRICULAR SHUNT PROCEDURES W CC,15808.818181999999,Standard
 SPINAL PROCEDURES W CC OR SPINAL NEUROSTIMULATORS,26210.571429,Standard
 INTRACRANIAL HEMORRHAGE OR CEREBRAL INFARCTION W CC OR TPA IN 24 HRS,8343.040935699999,Standard
 RESPIRATORY INFECTIONS & INFLAMMATIONS W MCC,13908.868132,Standard
 PULMONARY EMBOLISM W/O MCC,7105.7307692,Standard
 PULMONARY EMBOLISM W MCC,11283.0,Standard
 NONSPECIFIC CEREBROVASCULAR DISORDERS W CC,8102.173913,Standard
 NONSPECIFIC CEREBROVASCULAR DISORDERS W MCC,13666.945946000002,Standard
 TRANSIENT ISCHEMIA W/O THROMBOLYTIC,12092.352941,Standard
 INTRACRANIAL HEMORRHAGE OR CEREBRAL INFARCTION W/O CC/MCC,7122.862069,Standard
 CESAREAN SECTION W CC/MCC,10644.307692,Standard
 VAGINAL DELIVERY W COMPLICATING DIAGNOSES,6736.0909091,Standard
 VAGINAL DELIVERY W/O COMPLICATING DIAGNOSES,5437.0833333,Standard
 OTHER ANTEPARTUM DIAGNOSES W MEDICAL COMPLICATIONS,6946.125,Standard
 MAJOR HEMATOL/IMMUN DIAG EXC SICKLE CELL CRISIS & COAGUL W MCC,26747.117647,Standard
 MAJOR HEMATOL/IMMUN DIAG EXC SICKLE CELL CRISIS & COAGUL W CC,10208.9375,Standard
 RED BLOOD CELL DISORDERS W MCC,11382.023809999999,Standard
 RED BLOOD CELL DISORDERS W/O MCC,7415.165413500001,Standard
 COAGULATION DISORDERS,32091.65,Standard
 LYMPHOMA & NON,39684.857143,Standard
 MYELOPROLIF DISORD OR POORLY DIFF NEOPL W MAJ O.R. PROC W CC,17332.090909,Standard
 MYELOPROLIFERATIVE DISORDERS OR POORLY DIFFERENTIATED NEOPLASMS W OT,55631.53333300001,Standard
 ACUTE LEUKEMIA W/O MAJOR O.R. PROCEDURE W MCC,69354.348837,Standard
 OTHER RESP SYSTEM O.R. PROCEDURES W/O CC/MCC,11570.818181999999,Standard
 OTHER RESP SYSTEM O.R. PROCEDURES W CC,13655.135134999999,Standard
 OTHER RESP SYSTEM O.R. PROCEDURES W MCC,27790.847619,Standard
 POSTOPERATIVE & POST,19512.457143,Standard
 POSTOPERATIVE OR POST,14926.619047999999,Standard
 POSTOPERATIVE OR POST,37266.384614999995,Standard
" MALIGNANCY, FEMALE REPRODUCTIVE SYSTEM W CC",8751.2068966,Standard
 INFECTIOUS & PARASITIC DISEASES W O.R. PROCEDURE W MCC,45661.717702999995,Standard
 CHEMOTHERAPY W/O ACUTE LEUKEMIA AS SECONDARY DIAGNOSIS W MCC,37105.291667000005,Standard
 LYMPHOMA & NON,25585.512821,Standard
 LYMPHOMA & NON,42187.408450999996,Standard
 CHEMO W ACUTE LEUKEMIA AS SDX W CC OR HIGH DOSE CHEMO AGENT,21733.5,Standard
 CHEMO W ACUTE LEUKEMIA AS SDX OR W HIGH DOSE CHEMO AGENT W MCC,52418.064516000006,Standard
 ACUTE LEUKEMIA W/O MAJOR O.R. PROCEDURE W CC,17454.117647,Standard
 CHEMOTHERAPY W/O ACUTE LEUKEMIA AS SECONDARY DIAGNOSIS W CC,11643.213740000001,Standard
 CERVICAL SPINAL FUSION W/O CC/MCC,18322.714286000002,Standard
 CERVICAL SPINAL FUSION W CC,25088.0,Standard
 CERVICAL SPINAL FUSION W MCC,38902.181818,Standard
" ""ACUTE MYOCARDIAL INFARCTION, DISCHARGED ALIVE W MCC""",13915.795181,Standard
" ACUTE MYOCARDIAL INFARCTION, DISCHARGED ALIVE W CC",7814.9069767,Standard
" ACUTE MYOCARDIAL INFARCTION, EXPIRED W MCC",13677.909091,Standard
" ""CIRCULATORY DISORDERS EXCEPT AMI, W CARD CATH W MCC""",18349.983333,Standard
" CIRCULATORY DISORDERS EXCEPT AMI, W CARD CATH W/O MCC",9967.4489796,Standard
 HEART FAILURE & SHOCK W MCC,11299.970045999999,Standard
 HEART FAILURE & SHOCK W CC,7708.7194245,Standard
 HEART FAILURE & SHOCK W/O CC/MCC,5627.1176471,Standard
 PERIPHERAL VASCULAR DISORDERS W MCC,12445.5,Standard
 PERIPHERAL VASCULAR DISORDERS W CC,8178.2698413,Standard
 PERIPHERAL VASCULAR DISORDERS W/O CC/MCC,9763.6666667,Standard
 ATHEROSCLEROSIS W MCC,9652.047618999999,Standard
 ATHEROSCLEROSIS W/O MCC,6947.0666667,Standard
 HYPERTENSION W MCC,8420.0,Standard
 PERCUTANEOUS INTRACARDIAC PROCEDURES W/O MCC,22631.318182,Standard
 HYPERTENSION W/O MCC,5759.8,Standard
 CARDIAC CONGENITAL & VALVULAR DISORDERS W/O MCC,6711.75,Standard
 CARDIAC ARRHYTHMIA & CONDUCTION DISORDERS W MCC,9290.8712871,Standard
 CARDIAC ARRHYTHMIA & CONDUCTION DISORDERS W CC,6727.0863309,Standard
 OTHER DISORDERS OF NERVOUS SYSTEM W CC,7342.4848485,Standard
 OTHER DISORDERS OF NERVOUS SYSTEM W/O CC/MCC,6016.8333333,Standard
 SEIZURES W MCC,12980.966667,Standard
 SEIZURES W/O MCC,6876.145454500001,Standard
 HEADACHES W/O MCC,6810.5882353,Standard
 MAJOR HEAD & NECK PROCEDURES W CC/MCC OR MAJOR DEVICE,18526.166666999998,Standard
" ""OTHER EAR, NOSE, MOUTH & THROAT O.R. PROCEDURES W CC/MCC""",14853.133333000002,Standard
 DYSEQUILIBRIUM,5855.0,Standard
 OTITIS MEDIA & URI W MCC,8309.4375,Standard
 OTITIS MEDIA & URI W/O MCC,7556.7647059,Standard
 MAJOR CHEST PROCEDURES W MCC,35049.0,Standard
 CARDIAC CONGENITAL & VALVULAR DISORDERS W MCC,14000.115385,Standard
 PERCUTANEOUS INTRACARDIAC PROCEDURES W MCC,29341.428570999997,Standard
 OTHER MAJOR CARDIOVASCULAR PROCEDURES W/O CC/MCC,19961.611111000002,Standard
 OTHER MAJOR CARDIOVASCULAR PROCEDURES W CC,25509.096774,Standard
 CARDIAC VALVE & OTH MAJ CARDIOTHORACIC PROC W/O CARD CATH W MCC,59928.371257000006,Standard
 CARDIAC VALVE & OTH MAJ CARDIOTHORACIC PROC W CARD CATH W MCC,84551.666667,Standard
 OTHER HEART ASSIST SYSTEM IMPLANT,97350.0,Standard
 RESPIRATORY SYSTEM DIAGNOSIS W VENTILATOR SUPPORT <=96 HOURS,19137.409836000003,Standard
 RESPIRATORY SYSTEM DIAGNOSIS W VENTILATOR SUPPORT >96 HOURS,44605.111111,Standard
 OTHER RESPIRATORY SYSTEM DIAGNOSES W/O MCC,8156.5,Standard
 OTHER RESPIRATORY SYSTEM DIAGNOSES W MCC,12399.425,Standard
 RESPIRATORY SIGNS & SYMPTOMS,6274.6666667,Standard
 CARDIAC VALVE & OTH MAJ CARDIOTHORACIC PROC W/O CARD CATH W CC,40757.057143,Standard
 CARDIAC DEFIBRILLATOR IMPLANT W/O CARDIAC CATH W/O MCC,41770.5,Standard
 OTHER CARDIOTHORACIC PROCEDURES W MCC,51862.73913,Standard
 OTHER CARDIOTHORACIC PROCEDURES W/O MCC,33647.0,Standard
 CORONARY BYPASS W CARDIAC CATH W MCC,63280.15,Standard
 CORONARY BYPASS W/O CARDIAC CATH W MCC,43011.619048,Standard
 CORONARY BYPASS W/O CARDIAC CATH W/O MCC,29993.727273,Standard
 AMPUTATION FOR CIRC SYS DISORDERS EXC UPPER LIMB & TOE W MCC,32949.5,Standard
 AMPUTATION FOR CIRC SYS DISORDERS EXC UPPER LIMB & TOE W CC,19250.421053000002,Standard
 OTHER MAJOR CARDIOVASCULAR PROCEDURES W MCC,40272.214286,Standard
 AORTIC AND HEART ASSIST PROCEDURES EXCEPT PULSATION BALLOON W/O MCC,31736.916667,Standard
 AORTIC AND HEART ASSIST PROCEDURES EXCEPT PULSATION BALLOON W MCC,54265.208333,Standard
 ENDOVASCULAR CARDIAC VALVE REPLACEMENT W/O MCC,45164.230769,Standard
 ENDOVASCULAR CARDIAC VALVE REPLACEMENT W MCC,62768.02381,Standard
 OTHER CIRCULATORY SYSTEM O.R. PROCEDURES,27687.793102999996,Standard
 CARDIAC ARRHYTHMIA & CONDUCTION DISORDERS W/O CC/MCC,4876.3666667,Standard
 OTHER VASCULAR PROCEDURES W/O CC/MCC,14109.84,Standard
 OTHER VASCULAR PROCEDURES W MCC,26828.706422,Standard
 PERC CARDIOVASC PROC W DRUG,16188.542169,Standard
 PERCUTANEOUS CARDIOVASCULAR PROCEDURES W DRUG,25084.851852,Standard
 PERMANENT CARDIAC PACEMAKER IMPLANT W/O CC/MCC,20895.454545,Standard
 PERMANENT CARDIAC PACEMAKER IMPLANT W CC,19155.035713999998,Standard
 PERMANENT CARDIAC PACEMAKER IMPLANT W MCC,34797.666667000005,Standard
 OTHER VASCULAR PROCEDURES W CC,19626.552940999998,Standard
 ANGINA PECTORIS,5664.6666667,Standard
 SYNCOPE & COLLAPSE,6493.6153846,Standard
 CHEST PAIN,6241.7073171,Standard
" ""ESOPHAGITIS, GASTROENT & MISC DIGEST DISORDERS W/O MCC""",6464.0875,Standard
 OTHER DIGESTIVE SYSTEM DIAGNOSES W MCC,13238.536585,Standard
 OTHER DIGESTIVE SYSTEM DIAGNOSES W CC,7573.532608699999,Standard
 OTHER DIGESTIVE SYSTEM DIAGNOSES W/O CC/MCC,6125.8,Standard
" ""PANCREAS, LIVER & SHUNT PROCEDURES W MCC""",41233.186047,Standard
" PANCREAS, LIVER & SHUNT PROCEDURES W CC",20242.395349000002,Standard
" ""PANCREAS, LIVER & SHUNT PROCEDURES W/O CC/MCC""",15689.409091,Standard
 LAPAROSCOPIC CHOLECYSTECTOMY W/O C.D.E. W CC,15866.769231,Standard
 CIRRHOSIS & ALCOHOLIC HEPATITIS W MCC,13655.914286000001,Standard
 CIRRHOSIS & ALCOHOLIC HEPATITIS W CC,9468.925925900001,Standard
 MALIGNANCY OF HEPATOBILIARY SYSTEM OR PANCREAS W MCC,13518.752687999999,Standard
 MALIGNANCY OF HEPATOBILIARY SYSTEM OR PANCREAS W CC,8928.88,Standard
 DISORDERS OF PANCREAS EXCEPT MALIGNANCY W MCC,14638.369565,Standard
 DISORDERS OF PANCREAS EXCEPT MALIGNANCY W CC,7064.0967742,Standard
 DISORDERS OF PANCREAS EXCEPT MALIGNANCY W/O CC/MCC,5375.7857143,Standard
" ""DISORDERS OF LIVER EXCEPT MALIG,CIRR,ALC HEPA W MCC""",14196.444444,Standard
" DISORDERS OF LIVER EXCEPT MALIG,CIRR,ALC HEPA W CC",7929.313725499999,Standard
 MAJOR HIP AND KNEE JOINT REPLACEMENT OR REATTACHMENT OF LOWER EXTREM,15901.194915,Standard
 MAJOR HIP AND KNEE JOINT REPLACEMENT OR REATTACHMENT OF LOWER EXTREM,23814.285713999998,Standard
 REVISION OF HIP OR KNEE REPLACEMENT W/O CC/MCC,19599.1,Standard
 REVISION OF HIP OR KNEE REPLACEMENT W CC,25002.076923,Standard
" WND DEBRID & SKN GRFT EXC HAND, FOR MUSCULO",22485.909091,Standard
" ""WND DEBRID & SKN GRFT EXC HAND, FOR MUSCULO",44624.333332999995,Standard
" ESOPHAGITIS, GASTROENT & MISC DIGEST DISORDERS W MCC",10062.772727,Standard
 SPINAL FUSION EXCEPT CERVICAL W/O MCC,34881.591837,Standard
 SPINAL FUS EXC CERV W SPINAL CURV/MALIG/INFEC OR EXT FUS W CC,50892.038462000004,Standard
 SPINAL FUS EXC CERV W SPINAL CURV/MALIG/INFEC OR EXT FUS W MCC,74296.727273,Standard
 COMBINED ANTERIOR/POSTERIOR SPINAL FUSION W CC,57257.348837,Standard
 COMBINED ANTERIOR/POSTERIOR SPINAL FUSION W MCC,80897.55555599999,Standard
 DISORDERS OF THE BILIARY TRACT W CC,8328.53125,Standard
 DISORDERS OF THE BILIARY TRACT W MCC,13547.122807,Standard
 SPINAL FUSION EXCEPT CERVICAL W MCC,53925.318182,Standard
 SPINAL PROCEDURES W MCC,42323.666667000005,Standard
 G.I. OBSTRUCTION W/O CC/MCC,5053.4210526,Standard
 G.I. OBSTRUCTION W MCC,14445.230769,Standard
 OTHER CIRCULATORY SYSTEM DIAGNOSES W MCC,15725.035211000002,Standard
 OTHER CIRCULATORY SYSTEM DIAGNOSES W CC,8600.2222222,Standard
" STOMACH, ESOPHAGEAL & DUODENAL PROC W MCC",33822.657143000004,Standard
" ""STOMACH, ESOPHAGEAL & DUODENAL PROC W CC""",15995.732143000001,Standard
" STOMACH, ESOPHAGEAL & DUODENAL PROC W/O CC/MCC",11593.960784,Standard
 MAJOR SMALL & LARGE BOWEL PROCEDURES W MCC,39713.258427,Standard
 MAJOR SMALL & LARGE BOWEL PROCEDURES W CC,18443.070422999997,Standard
 MAJOR SMALL & LARGE BOWEL PROCEDURES W/O CC/MCC,13408.4,Standard
 PERITONEAL ADHESIOLYSIS W MCC,28293.166667,Standard
 PERITONEAL ADHESIOLYSIS W CC,17868.0,Standard
 HERNIA PROCEDURES EXCEPT INGUINAL & FEMORAL W CC,13441.533333000001,Standard
 OTHER DIGESTIVE SYSTEM O.R. PROCEDURES W MCC,37813.04,Standard
 MAJOR CHEST PROCEDURES W CC,19782.516129,Standard
 OTHER DIGESTIVE SYSTEM O.R. PROCEDURES W CC,15503.6,Standard
 MAJOR GASTROINTESTINAL DISORDERS & PERITONEAL INFECTIONS W MCC,15654.814815,Standard
 MAJOR GASTROINTESTINAL DISORDERS & PERITONEAL INFECTIONS W CC,8197.8125,Standard
 DIGESTIVE MALIGNANCY W MCC,16195.836734999999,Standard
 INFLAMMATORY BOWEL DISEASE W CC,8313.52,Standard
 CRANIAL & PERIPHERAL NERVE DISORDERS W/O MCC,7553.175,Standard
" ""TRAUMATIC STUPOR & COMA, COMA >1 HR W MCC""",17979.0,Standard
" TRAUMATIC STUPOR & COMA, COMA >1 HR W CC",10014.0,Standard
" ""TRAUMATIC STUPOR & COMA, COMA >1 HR W/O CC/MCC""",9388.25,Standard
" TRAUMATIC STUPOR & COMA, COMA <1 HR W MCC",14591.0,Standard
 G.I. OBSTRUCTION W CC,7190.2051282,Standard
" ""TRAUMATIC STUPOR & COMA, COMA <1 HR W CC""",9059.4285714,Standard
 OTHER DISORDERS OF NERVOUS SYSTEM W MCC,11535.081081,Standard
 COMPLICATED PEPTIC ULCER W MCC,14835.642856999999,Standard
 G.I. HEMORRHAGE W/O CC/MCC,5426.0769231,Standard
 MAJOR CHEST PROCEDURES W/O CC/MCC,14802.735294,Standard
 G.I. HEMORRHAGE W MCC,13578.680851,Standard
 DIGESTIVE MALIGNANCY W CC,9625.7567568,Standard
" TRAUMATIC STUPOR & COMA, COMA <1 HR W/O CC/MCC",7550.8,Standard
 CRANIOTOMY & ENDOVASCULAR INTRACRANIAL PROCEDURES W/O CC/MCC,19826.262295,Standard
" ""TRAUMA TO THE SKIN, SUBCUT TISS & BREAST W/O MCC""",7460.2,Standard
 SIGNS & SYMPTOMS W/O MCC,6503.3409091,Standard
 AUTOLOGOUS BONE MARROW TRANSPLANT W CC/MCC,59250.716417999996,Standard
  CRANIOTOMY W MAJOR DEVICE IMPLANT OR ACUTE COMPLEX CNS PDX W MCC OR,43024.111111,Standard
 CRANIO W MAJOR DEV IMPL/ACUTE COMPLEX CNS PDX W/O MCC,32474.428570999997,Standard
 CRANIOTOMY & ENDOVASCULAR INTRACRANIAL PROCEDURES W MCC,33430.976378,Standard
 CRANIOTOMY & ENDOVASCULAR INTRACRANIAL PROCEDURES W CC,26989.709677,Standard
 POISONING & TOXIC EFFECTS OF DRUGS W MCC,10537.878788,Standard
 ALLOGENEIC BONE MARROW TRANSPLANT,122455.37838,Standard
 ALLERGIC REACTIONS W MCC,12983.0,Standard
 NON,12971.25,Standard
 EXTENSIVE O.R. PROCEDURE UNRELATED TO PRINCIPAL DIAGNOSIS W MCC,32716.266667,Standard
 PNEUMOTHORAX W CC,13649.266666999998,Standard
 PNEUMOTHORAX W MCC,16711.75,Standard
 INTERSTITIAL LUNG DISEASE W MCC,14404.0,Standard
 SIMPLE PNEUMONIA & PLEURISY W CC,7681.444444399999,Standard
 OTHER O.R. PROCEDURES FOR INJURIES W CC,14708.692308000002,Standard
 SIMPLE PNEUMONIA & PLEURISY W MCC,10967.646552,Standard
" ""TRACHEOSTOMY FOR FACE, MOUTH & NECK DIAGNOSES OR LARYNGECTOMY W CC""",25744.526316,Standard
 LUNG TRANSPLANT,86979.846154,Standard
 HIV W MAJOR RELATED CONDITION W MCC,21737.0,Standard
 OTHER MULTIPLE SIGNIFICANT TRAUMA W CC,11621.571429000001,Standard
 OTHER MULTIPLE SIGNIFICANT TRAUMA W MCC,20551.727273,Standard
" LIMB REATTACHMENT, HIP & FEMUR PROC FOR MULTIPLE SIGNIFICANT TRAUMA",30135.3,Standard
 EXTENSIVE O.R. PROCEDURE UNRELATED TO PRINCIPAL DIAGNOSIS W/O CC/MCC,12092.363636,Standard
 SIGNS & SYMPTOMS W MCC,12072.045455,Standard
" TRACHEOSTOMY FOR FACE,MOUTH & NECK DIAGNOSES W MCC",38851.545455,Standard
 COMPLICATIONS OF TREATMENT W CC,8051.760869600001,Standard
 POISONING & TOXIC EFFECTS OF DRUGS W/O MCC,6022.2105263,Standard
 HEART TRANSPLANT OR IMPLANT OF HEART ASSIST SYSTEM W MCC,215967.72093,Standard
" ""ECMO OR TRACH W MV >96 HRS OR PDX EXC FACE, MOUTH & NECK W MAJ O.R.",173253.93333,Standard
 NON,34109.71875,Standard
" TRACH W MV >96 HRS OR PDX EXC FACE, MOUTH & NECK W/O MAJ O.R.",89457.363636,Standard
 LIVER TRANSPLANT W MCC OR INTESTINAL TRANSPLANT,89416.538462,Standard
 COMPLICATIONS OF TREATMENT W MCC,21491.703125,Standard
 CHRONIC OBSTRUCTIVE PULMONARY DISEASE W CC,7231.4262295,Standard
 EXTENSIVE O.R. PROCEDURE UNRELATED TO PRINCIPAL DIAGNOSIS W CC,20711.903226,Standard
 PULMONARY EDEMA & RESPIRATORY FAILURE,9724.8993711,Standard
 PLEURAL EFFUSION W CC,8230.4,Standard
 PLEURAL EFFUSION W MCC,14568.642856999999,Standard
 BRONCHITIS & ASTHMA W CC/MCC,9081.2068966,Standard
 CHRONIC OBSTRUCTIVE PULMONARY DISEASE W MCC,9169.3333333,Standard
