Description,Charge,Category
Level 4 Urology and Related Services,1988.78999999999,DRG
 INTRACRANIAL HEMORRHAGE OR CEREBRAL INFARCTION W CC OR TPA IN 24 HRS,5376.777777800001,Standard
 INTRACRANIAL HEMORRHAGE OR CEREBRAL INFARCTION W MCC,9556.5,Standard
 MAJOR HIP AND KNEE JOINT REPLACEMENT OR REATTACHMENT OF LOWER EXTREM,12867.126667,Standard
Comprehensive Observation Services,1709.17196347031,DRG
Level 1 Nerve Procedures,1187.7,DRG
Level 1 Intraocular Procedures,1414.8560612691401,DRG
 KIDNEY & URINARY TRACT INFECTIONS W/O MCC,4303.5384615,Standard
Level 6 Urology and Related Services,5689.39,DRG
 RESPIRATORY INFECTIONS & INFLAMMATIONS W MCC,10228.968254000001,Standard
 RESPIRATORY INFECTIONS & INFLAMMATIONS W CC,7414.1333333,Standard
Level 2 Intraocular Procedures,2662.47844444444,DRG
Level 2 Excision/ Biopsy/ Incision and Drainage,994.139999999999,DRG
Level 2 Musculoskeletal Procedures,973.416888888889,DRG
 PULMONARY EDEMA & RESPIRATORY FAILURE,7540.0,Standard
Level 3 Musculoskeletal Procedures,1879.8618181818201,DRG
Level 4 Musculoskeletal Procedures,4057.49981481481,DRG
Level 5 Musculoskeletal Procedures,8018.58999999999,DRG
Level 4 Airway Endoscopy,1929.66,DRG
Level 5 Airway Endoscopy,3587.21,DRG
Level 1 Endovascular Procedures,1795.74,DRG
Level 5 Urology and Related Services,2733.10999999999,DRG
 OTHER KIDNEY & URINARY TRACT DIAGNOSES W MCC,8548.4,Standard
 INTRACRANIAL HEMORRHAGE OR CEREBRAL INFARCTION W/O CC/MCC,4073.1666666999995,Standard
 OTHER KIDNEY & URINARY TRACT DIAGNOSES W CC,6292.1538462,Standard
 RED BLOOD CELL DISORDERS W/O MCC,4844.636363600001,Standard
 SEPTICEMIA OR SEVERE SEPSIS W/O MV >96 HOURS W MCC,10164.148936,Standard
 SEPTICEMIA OR SEVERE SEPSIS W/O MV >96 HOURS W/O MCC,5781.6,Standard
Level 1 Breast/Lymphatic Surgery and Related Procedures,2011.72,DRG
 CHRONIC OBSTRUCTIVE PULMONARY DISEASE W MCC,7026.3958333,Standard
 MAJOR SMALL & LARGE BOWEL PROCEDURES W CC,13368.448276000001,Standard
 HIP & FEMUR PROCEDURES EXCEPT MAJOR JOINT W CC,10995.8,Standard
 KIDNEY & URINARY TRACT INFECTIONS W MCC,5670.9655172,Standard
 RENAL FAILURE W CC,5002.404761899999,Standard
 RENAL FAILURE W MCC,8043.6,Standard
Level 2 Upper GI Procedures,1052.66999999999,DRG
 CARDIAC ARRHYTHMIA & CONDUCTION DISORDERS W MCC,6858.0,Standard
Abdominal/Peritoneal/Biliary and Related Procedures,2075.34633333333,DRG
" ""ESOPHAGITIS, GASTROENT & MISC DIGEST DISORDERS W/O MCC""",4568.8222221999995,Standard
Level 1 Laparoscopy and Related Services,3185.69219512195,DRG
Level 3 Urology and Related Services,1226.34846153846,DRG
 HEART FAILURE & SHOCK W CC,5465.5185185,Standard
 HEART FAILURE & SHOCK W MCC,7980.560747699999,Standard
 PERC CARDIOVASC PROC W DRUG,14526.75,Standard
 BRONCHITIS & ASTHMA W CC/MCC,5072.05,Standard
 MAJOR SMALL & LARGE BOWEL PROCEDURES W/O CC/MCC,10941.071429000001,Standard
 G.I. HEMORRHAGE W MCC,8410.666666699999,Standard
 SIMPLE PNEUMONIA & PLEURISY W CC,5747.9166667,Standard
 CHRONIC OBSTRUCTIVE PULMONARY DISEASE W CC,5453.5,Standard
 G.I. HEMORRHAGE W CC,5438.9268293000005,Standard
 SIMPLE PNEUMONIA & PLEURISY W MCC,7746.232876700001,Standard
 G.I. OBSTRUCTION W CC,4625.636363600001,Standard
" ""MISC DISORDERS OF NUTRITION,METABOLISM,FLUIDS/ELECTROLYTES W/O MCC""",4036.2121211999997,Standard
" MISC DISORDERS OF NUTRITION,METABOLISM,FLUIDS/ELECTROLYTES W MCC",6252.1764706,Standard
 DIABETES W CC,4664.0,Standard
 DIABETES W MCC,7167.1818182,Standard
 CELLULITIS W/O MCC,4642.642857100001,Standard
 MEDICAL BACK PROBLEMS W/O MCC,4463.1333333,Standard
 MAJOR JOINT/LIMB REATTACHMENT PROCEDURE OF UPPER EXTREMITIES,14919.294118000002,Standard
Level 2 Endovascular Procedures,3750.08,DRG
Level 3 Endovascular Procedures,8375.83,DRG
