Description,Charge,Category
 PULMONARY EDEMA & RESPIRATORY FAILURE,6646.1666667,Standard
 CHRONIC OBSTRUCTIVE PULMONARY DISEASE W CC,4979.7272727,Standard
 CHRONIC OBSTRUCTIVE PULMONARY DISEASE W MCC,5977.1333333,Standard
 CHRONIC OBSTRUCTIVE PULMONARY DISEASE W/O CC/MCC,3907.55,Standard
Level 4 Musculoskeletal Procedures,4167.82999999999,DRG
 SIMPLE PNEUMONIA & PLEURISY W CC,5352.5,Standard
Level 5 Musculoskeletal Procedures,8093.58,DRG
Level 2 Musculoskeletal Procedures,973.8452941176461,DRG
Level 2 Excision/ Biopsy/ Incision and Drainage,1002.1299999999901,DRG
Level 1 Laparoscopy and Related Services,3336.91,DRG
Level 5 Urology and Related Services,2755.07,DRG
Level 1 Nerve Procedures,1195.87055555555,DRG
 MAJOR HIP AND KNEE JOINT REPLACEMENT OR REATTACHMENT OF LOWER EXTREM,12152.3,Standard
 HIP & FEMUR PROCEDURES EXCEPT MAJOR JOINT W CC,11080.636364,Standard
 MAJOR JOINT/LIMB REATTACHMENT PROCEDURE OF UPPER EXTREMITIES,13177.708333,Standard
 MEDICAL BACK PROBLEMS W/O MCC,4683.3888889,Standard
 DIABETES W CC,4629.3846154,Standard
" MISC DISORDERS OF NUTRITION,METABOLISM,FLUIDS/ELECTROLYTES W MCC",7529.636363600001,Standard
" ""MISC DISORDERS OF NUTRITION,METABOLISM,FLUIDS/ELECTROLYTES W/O MCC""",3977.1304348000003,Standard
 RENAL FAILURE W MCC,8062.0,Standard
 RENAL FAILURE W CC,5060.76,Standard
 KIDNEY & URINARY TRACT INFECTIONS W MCC,5756.6666667,Standard
 KIDNEY & URINARY TRACT INFECTIONS W/O MCC,4206.6206897,Standard
 RED BLOOD CELL DISORDERS W/O MCC,4905.6923077,Standard
 SEPTICEMIA OR SEVERE SEPSIS W/O MV >96 HOURS W MCC,10085.157895,Standard
 SEPTICEMIA OR SEVERE SEPSIS W/O MV >96 HOURS W/O MCC,5676.7407407,Standard
Level 3 Musculoskeletal Procedures,1939.71169014084,DRG
" ""ESOPHAGITIS, GASTROENT & MISC DIGEST DISORDERS W/O MCC""",4136.2653061,Standard
 G.I. HEMORRHAGE W CC,5283.4117647,Standard
 SYNCOPE & COLLAPSE,4583.6190476,Standard
 CARDIAC ARRHYTHMIA & CONDUCTION DISORDERS W/O CC/MCC,3355.8095238000005,Standard
 CARDIAC ARRHYTHMIA & CONDUCTION DISORDERS W CC,4392.375,Standard
 HYPERTENSION W/O MCC,3762.9166666999995,Standard
 HEART FAILURE & SHOCK W MCC,7242.6818182,Standard
 SIMPLE PNEUMONIA & PLEURISY W/O CC/MCC,3867.0625,Standard
 SIMPLE PNEUMONIA & PLEURISY W MCC,6944.5416667,Standard
Comprehensive Observation Services,1743.50005494504,DRG
