Description,Charge,Category
Level 2 Excision/ Biopsy/ Incision and Drainage,944.261940298508,DRG
 SIMPLE PNEUMONIA & PLEURISY W CC,6328.533333300001,Standard
Level 3 Musculoskeletal Procedures,1917.25,DRG
 PERC CARDIOVASC PROC W DRUG,14246.478261000002,Standard
 CHRONIC OBSTRUCTIVE PULMONARY DISEASE W MCC,7789.125,Standard
 PULMONARY EDEMA & RESPIRATORY FAILURE,8275.761904800002,Standard
" ""ACUTE MYOCARDIAL INFARCTION, DISCHARGED ALIVE W MCC""",12048.928570999999,Standard
 HEART FAILURE & SHOCK W MCC,9939.322580600001,Standard
 CARDIAC ARRHYTHMIA & CONDUCTION DISORDERS W CC,5259.375,Standard
 G.I. HEMORRHAGE W CC,6593.625,Standard
 COMBINED ANTERIOR/POSTERIOR SPINAL FUSION W/O CC/MCC,33182.636364,Standard
 MAJOR HIP AND KNEE JOINT REPLACEMENT OR REATTACHMENT OF LOWER EXTREM,13636.950495,Standard
 CERVICAL SPINAL FUSION W/O CC/MCC,14363.083333,Standard
 HIP & FEMUR PROCEDURES EXCEPT MAJOR JOINT W CC,13810.5625,Standard
 MAJOR JOINT/LIMB REATTACHMENT PROCEDURE OF UPPER EXTREMITIES,16331.882353,Standard
" ""MISC DISORDERS OF NUTRITION,METABOLISM,FLUIDS/ELECTROLYTES W/O MCC""",5072.9,Standard
 RENAL FAILURE W CC,6295.6666667,Standard
 SEPTICEMIA OR SEVERE SEPSIS W/O MV >96 HOURS W MCC,12281.553845999999,Standard
 SEPTICEMIA OR SEVERE SEPSIS W/O MV >96 HOURS W/O MCC,7130.3409091,Standard
Comprehensive Observation Services,1702.7987053571499,DRG
Level 4 Musculoskeletal Procedures,3994.64677966101,DRG
 SIMPLE PNEUMONIA & PLEURISY W MCC,8993.172413799999,Standard
Level 3 Airway Endoscopy,927.43,DRG
Level 4 Airway Endoscopy,1896.48999999999,DRG
Level 1 Endovascular Procedures,1764.0752238805899,DRG
Level 3 Endovascular Procedures,8209.23999999999,DRG
Level 2 Musculoskeletal Procedures,953.4721874999989,DRG
Level 3 Pacemaker and Similar Procedures,7518.44999999999,DRG
Abdominal/Peritoneal/Biliary and Related Procedures,2110.0,DRG
Level 1 Laparoscopy and Related Services,3151.711875,DRG
Level 3 Urology and Related Services,1229.01999999999,DRG
Level 4 Gynecologic Procedures,1647.29,DRG
Level 1 Nerve Procedures,1167.29,DRG
Level 1 Intraocular Procedures,1390.50198473282,DRG
Level 2 Upper GI Procedures,1034.56965517241,DRG
 INFECTIOUS & PARASITIC DISEASES W O.R. PROCEDURE W MCC,34202.916667000005,Standard
