Description,Charge,Category
 SEIZURES W/O MCC,6124.6875,Standard
 DIABETES W/O CC/MCC,4617.4545455,Standard
 HIP & FEMUR PROCEDURES EXCEPT MAJOR JOINT W/O CC/MCC,12274.380952,Standard
 CELLULITIS W/O MCC,6295.8888889,Standard
 DIABETES W CC,6263.8461538,Standard
 PULMONARY EMBOLISM W MCC,10776.538462,Standard
" ""MISC DISORDERS OF NUTRITION,METABOLISM,FLUIDS/ELECTROLYTES W/O MCC""",5523.0384615,Standard
 RENAL FAILURE W MCC,10932.4,Standard
 RENAL FAILURE W CC,6853.75,Standard
 KIDNEY & URINARY TRACT INFECTIONS W MCC,7966.6153846,Standard
 KIDNEY & URINARY TRACT INFECTIONS W/O MCC,5882.0512821,Standard
 RED BLOOD CELL DISORDERS W/O MCC,6511.4285714,Standard
 SEPTICEMIA OR SEVERE SEPSIS W/O MV >96 HOURS W MCC,13396.615854000001,Standard
 SEPTICEMIA OR SEVERE SEPSIS W/O MV >96 HOURS W/O MCC,7888.3255813999995,Standard
 POISONING & TOXIC EFFECTS OF DRUGS W MCC,10335.882353,Standard
 HIP & FEMUR PROCEDURES EXCEPT MAJOR JOINT W CC,15067.947368000001,Standard
 RESPIRATORY INFECTIONS & INFLAMMATIONS W MCC,13488.545455000001,Standard
 RESPIRATORY SYSTEM DIAGNOSIS W VENTILATOR SUPPORT <=96 HOURS,17452.241379,Standard
 CHRONIC OBSTRUCTIVE PULMONARY DISEASE W MCC,8492.090909100001,Standard
 MAJOR HIP AND KNEE JOINT REPLACEMENT OR REATTACHMENT OF LOWER EXTREM,15109.028169,Standard
 SEIZURES W MCC,12108.727273,Standard
" ""ESOPHAGITIS, GASTROENT & MISC DIGEST DISORDERS W/O MCC""",5582.069767399999,Standard
 G.I. HEMORRHAGE W CC,7160.880952399999,Standard
 MAJOR GASTROINTESTINAL DISORDERS & PERITONEAL INFECTIONS W CC,7823.0,Standard
 MAJOR SMALL & LARGE BOWEL PROCEDURES W CC,18168.285713999998,Standard
 CHEST PAIN,5178.9285714,Standard
 CARDIAC ARRHYTHMIA & CONDUCTION DISORDERS W/O CC/MCC,4168.3921568999995,Standard
 CARDIAC ARRHYTHMIA & CONDUCTION DISORDERS W CC,5699.851063800001,Standard
 CARDIAC ARRHYTHMIA & CONDUCTION DISORDERS W MCC,8732.5151515,Standard
 PERIPHERAL VASCULAR DISORDERS W CC,7513.8181818,Standard
 HEART FAILURE & SHOCK W/O CC/MCC,4976.25,Standard
 HEART FAILURE & SHOCK W CC,7400.0833333,Standard
 HEART FAILURE & SHOCK W MCC,10832.767123,Standard
" CIRCULATORY DISORDERS EXCEPT AMI, W CARD CATH W/O MCC",8647.3636364,Standard
" ""ACUTE MYOCARDIAL INFARCTION, DISCHARGED ALIVE W/O CC/MCC""",5594.0,Standard
" ACUTE MYOCARDIAL INFARCTION, DISCHARGED ALIVE W CC",7269.421052600001,Standard
" ""ACUTE MYOCARDIAL INFARCTION, DISCHARGED ALIVE W MCC""",12152.166667,Standard
 PERC CARDIOVASC PROC W DRUG,15507.730769,Standard
 PERCUTANEOUS CARDIOVASCULAR PROCEDURES W DRUG,23577.793103,Standard
 BRONCHITIS & ASTHMA W CC/MCC,6824.142857100001,Standard
 SIMPLE PNEUMONIA & PLEURISY W/O CC/MCC,5254.5714286,Standard
 SIMPLE PNEUMONIA & PLEURISY W CC,6881.488888899999,Standard
 SIMPLE PNEUMONIA & PLEURISY W MCC,10105.628866,Standard
 CHRONIC OBSTRUCTIVE PULMONARY DISEASE W CC,6759.9583333,Standard
 PULMONARY EDEMA & RESPIRATORY FAILURE,8992.0,Standard
 TRANSIENT ISCHEMIA W/O THROMBOLYTIC,5547.1538462,Standard
Level 5 Airway Endoscopy,3716.43,DRG
 INTRACRANIAL HEMORRHAGE OR CEREBRAL INFARCTION W CC OR TPA IN 24 HRS,7616.475,Standard
Comprehensive Observation Services,1786.33203579417,DRG
Level 2 Intraocular Procedures,2758.5815999999895,DRG
Level 1 Intraocular Procedures,1461.13914110428,DRG
Level 1 Nerve Procedures,1230.5,DRG
Level 5 Urology and Related Services,2831.57,DRG
Level 4 Urology and Related Services,2060.44,DRG
Level 3 Urology and Related Services,1270.16666666666,DRG
Level 2 Laparoscopy and Related Services,5400.76363636363,DRG
Level 1 Laparoscopy and Related Services,3382.5698630136894,DRG
Abdominal/Peritoneal/Biliary and Related Procedures,2224.25,DRG
Level 2 Upper GI Procedures,1089.3,DRG
Level 3 Pacemaker and Similar Procedures,7996.66,DRG
Level 1 Endovascular Procedures,1852.10567272726,DRG
Level 2 Pacemaker and Similar Procedures,5567.9621875,DRG
Level 3 Endovascular Procedures,8722.067465753431,DRG
Level 2 Endovascular Procedures,3759.4862499999895,DRG
Level 2 Excision/ Biopsy/ Incision and Drainage,1029.96,DRG
Level 3 Excision/ Biopsy/ Incision and Drainage,1776.3,DRG
Level 1 Breast/Lymphatic Surgery and Related Procedures,2084.2,DRG
Level 2 Breast/Lymphatic Surgery and Related Procedures,3676.48,DRG
Level 2 Musculoskeletal Procedures,1031.41,DRG
Level 3 Musculoskeletal Procedures,2020.5870833333302,DRG
Level 4 Musculoskeletal Procedures,4232.0730232558,DRG
Level 5 Musculoskeletal Procedures,8354.73999999999,DRG
Level 3 Airway Endoscopy,1011.36,DRG
Level 4 Airway Endoscopy,1999.1699999999898,DRG
Level 4 Endovascular Procedures,13987.15,DRG
 INTRACRANIAL HEMORRHAGE OR CEREBRAL INFARCTION W/O CC/MCC,5520.0,Standard
" MISC DISORDERS OF NUTRITION,METABOLISM,FLUIDS/ELECTROLYTES W MCC",8648.75,Standard
 EXTRACRANIAL PROCEDURES W/O CC/MCC,8178.0,Standard
