Description,Charge,Category
Level 2 Excision/ Biopsy/ Incision and Drainage,945.966538461537,DRG
Level 2 Musculoskeletal Procedures,957.934545454545,DRG
" ""MISC DISORDERS OF NUTRITION,METABOLISM,FLUIDS/ELECTROLYTES W/O MCC""",4109.3636364,Standard
 CHRONIC OBSTRUCTIVE PULMONARY DISEASE W MCC,6344.4615385,Standard
 SIMPLE PNEUMONIA & PLEURISY W MCC,8402.763157899999,Standard
 SIMPLE PNEUMONIA & PLEURISY W CC,5443.3076923,Standard
 RESPIRATORY SYSTEM DIAGNOSIS W VENTILATOR SUPPORT <=96 HOURS,12990.571429000001,Standard
 PERC CARDIOVASC PROC W DRUG,12445.666667,Standard
 HEART FAILURE & SHOCK W MCC,8349.7333333,Standard
 HYPERTENSION W/O MCC,3808.7333333000006,Standard
 CARDIAC ARRHYTHMIA & CONDUCTION DISORDERS W CC,4615.0434783,Standard
 CARDIAC ARRHYTHMIA & CONDUCTION DISORDERS W/O CC/MCC,3313.7272727,Standard
 SYNCOPE & COLLAPSE,4854.1578947,Standard
 PULMONARY EDEMA & RESPIRATORY FAILURE,6706.3157895,Standard
 CHEST PAIN,3864.2941176,Standard
 G.I. HEMORRHAGE W CC,5645.7058824,Standard
 G.I. OBSTRUCTION W CC,4655.6666667,Standard
" ""ESOPHAGITIS, GASTROENT & MISC DIGEST DISORDERS W/O MCC""",4949.45,Standard
 OTHER DIGESTIVE SYSTEM DIAGNOSES W CC,5194.363636399999,Standard
 RENAL FAILURE W MCC,7667.5294118,Standard
 MAJOR HIP AND KNEE JOINT REPLACEMENT OR REATTACHMENT OF LOWER EXTREM,12908.829114,Standard
 DIABETES W CC,4681.8235294,Standard
 CELLULITIS W/O MCC,4610.0,Standard
 HIP & FEMUR PROCEDURES EXCEPT MAJOR JOINT W CC,11732.714286,Standard
 MEDICAL BACK PROBLEMS W/O MCC,4715.125,Standard
 MAJOR SMALL & LARGE BOWEL PROCEDURES W CC,17079.181818,Standard
 INTRACRANIAL HEMORRHAGE OR CEREBRAL INFARCTION W CC OR TPA IN 24 HRS,5633.4545455,Standard
 SEIZURES W/O MCC,4466.2727273,Standard
Level 5 Gynecologic Procedures,2710.88181818181,DRG
Level 3 Pacemaker and Similar Procedures,7745.17999999999,DRG
Level 2 Upper GI Procedures,840.737142857142,DRG
Level 1 Laparoscopy and Related Services,3336.91,DRG
Level 2 Laparoscopy and Related Services,5393.490625,DRG
Level 3 Urology and Related Services,1260.57,DRG
Level 5 Urology and Related Services,2755.07,DRG
Level 4 Musculoskeletal Procedures,4167.83,DRG
Level 1 Nerve Procedures,1197.25999999999,DRG
Comprehensive Observation Services,1701.5331862745002,DRG
 SEPTICEMIA OR SEVERE SEPSIS W/O MV >96 HOURS W/O MCC,5801.7272727,Standard
 SEPTICEMIA OR SEVERE SEPSIS W/O MV >96 HOURS W MCC,11667.652173999999,Standard
Level 3 Endovascular Procedures,8067.85909090908,DRG
 INFECTIOUS & PARASITIC DISEASES W O.R. PROCEDURE W MCC,26853.230768999998,Standard
 OTHER KIDNEY & URINARY TRACT DIAGNOSES W CC,5546.9166667,Standard
 KIDNEY & URINARY TRACT INFECTIONS W/O MCC,4280.4871795,Standard
 KIDNEY & URINARY TRACT INFECTIONS W MCC,5582.25,Standard
 RENAL FAILURE W CC,5668.3428571,Standard
Level 3 Musculoskeletal Procedures,1627.43172413793,DRG
 RED BLOOD CELL DISORDERS W/O MCC,4854.5,Standard
Level 1 Endovascular Procedures,1717.3407692307599,DRG
