Description,Charge,Category
Level 1 Intraocular Procedures,1369.38378590077,DRG
Level 1 Nerve Procedures,1152.27760869565,DRG
Comprehensive Observation Services,1696.85987577639,DRG
 RESPIRATORY INFECTIONS & INFLAMMATIONS W CC,9612.0588235,Standard
 RESPIRATORY INFECTIONS & INFLAMMATIONS W MCC,13688.489362,Standard
Level 2 Upper GI Procedures,1037.22,DRG
 CHRONIC OBSTRUCTIVE PULMONARY DISEASE W MCC,8556.9285714,Standard
 SEPTICEMIA OR SEVERE SEPSIS W/O MV >96 HOURS W/O MCC,7817.307692300001,Standard
 SEPTICEMIA OR SEVERE SEPSIS W/O MV >96 HOURS W MCC,13658.260869999998,Standard
 KIDNEY & URINARY TRACT INFECTIONS W/O MCC,5911.75,Standard
 KIDNEY & URINARY TRACT INFECTIONS W MCC,8006.1818182,Standard
 RENAL FAILURE W CC,7412.5909091,Standard
 RENAL FAILURE W MCC,10972.636364,Standard
 PULMONARY EDEMA & RESPIRATORY FAILURE,9054.547618999999,Standard
 MAJOR HIP AND KNEE JOINT REPLACEMENT OR REATTACHMENT OF LOWER EXTREM,15275.830508000001,Standard
Level 1 Laparoscopy and Related Services,3128.61734693877,DRG
 CELLULITIS W/O MCC,6326.2941176,Standard
Level 4 Musculoskeletal Procedures,4073.97,DRG
Level 3 Musculoskeletal Procedures,1922.19,DRG
Level 2 Musculoskeletal Procedures,980.9599999999989,DRG
Level 2 Excision/ Biopsy/ Incision and Drainage,965.763380281689,DRG
" ""ESOPHAGITIS, GASTROENT & MISC DIGEST DISORDERS W/O MCC""",5658.7692308,Standard
 G.I. HEMORRHAGE W CC,7209.0,Standard
 HEART FAILURE & SHOCK W MCC,10939.109091,Standard
 CHRONIC OBSTRUCTIVE PULMONARY DISEASE W CC,6816.1538462,Standard
Abdominal/Peritoneal/Biliary and Related Procedures,2115.41999999999,DRG
