Description,Charge,Category
Level 3 Airway Endoscopy,976.2,DRG
Level 4 Pacemaker and Similar Procedures,14897.97,DRG
Level 5 Airway Endoscopy,3587.21,DRG
Level 1 Endovascular Procedures,1722.31122448979,DRG
Level 2 Endovascular Procedures,3698.6063333333295,DRG
Level 3 Endovascular Procedures,8011.576696428559,DRG
Level 4 Endovascular Procedures,12440.5788461538,DRG
Level 2 Electrophysiologic Procedures,3919.19,DRG
Level 3 Electrophysiologic Procedures,15752.0142553191,DRG
 INTRACRANIAL HEMORRHAGE OR CEREBRAL INFARCTION W MCC,10890.310345,Standard
Level 4 Airway Endoscopy,1863.12,DRG
 INTRACRANIAL HEMORRHAGE OR CEREBRAL INFARCTION W CC OR TPA IN 24 HRS,6737.785714300001,Standard
 ALCOHOL/DRUG ABUSE OR DEPENDENCE W/O REHABILITATION THERAPY W/O MCC,5444.0769231,Standard
" ""TRAUMATIC STUPOR & COMA, COMA <1 HR W CC""",7448.5,Standard
 G.I. HEMORRHAGE W CC,6508.260869600001,Standard
 G.I. OBSTRUCTION W CC,5954.7142857,Standard
" ""ESOPHAGITIS, GASTROENT & MISC DIGEST DISORDERS W/O MCC""",5272.981132100001,Standard
 OTHER DIGESTIVE SYSTEM DIAGNOSES W MCC,10314.666667,Standard
 SPINAL FUSION EXCEPT CERVICAL W/O MCC,23808.181818,Standard
 MAJOR HIP AND KNEE JOINT REPLACEMENT OR REATTACHMENT OF LOWER EXTREM,13519.695652,Standard
 HIP & FEMUR PROCEDURES EXCEPT MAJOR JOINT W MCC,17928.090909,Standard
 HIP & FEMUR PROCEDURES EXCEPT MAJOR JOINT W CC,12563.481481,Standard
 MEDICAL BACK PROBLEMS W/O MCC,6125.5833333,Standard
" FX, SPRN, STRN & DISL EXCEPT FEMUR, HIP, PELVIS & THIGH W/O MCC",5484.0625,Standard
 CELLULITIS W MCC,8973.866666700002,Standard
 CELLULITIS W/O MCC,5874.5142857,Standard
" MISC DISORDERS OF NUTRITION,METABOLISM,FLUIDS/ELECTROLYTES W MCC",7459.0625,Standard
Level 4 Musculoskeletal Procedures,4131.541249999989,DRG
" ""MISC DISORDERS OF NUTRITION,METABOLISM,FLUIDS/ELECTROLYTES W/O MCC""",5237.777777800001,Standard
 RENAL FAILURE W MCC,9204.5,Standard
 RENAL FAILURE W CC,6173.9423077,Standard
 KIDNEY & URINARY TRACT INFECTIONS W MCC,7009.3793103,Standard
 OTHER KIDNEY & URINARY TRACT DIAGNOSES W MCC,10050.136364,Standard
 OTHER KIDNEY & URINARY TRACT DIAGNOSES W CC,6723.5,Standard
 INFECTIOUS & PARASITIC DISEASES W O.R. PROCEDURE W MCC,29258.642857,Standard
 SEPTICEMIA OR SEVERE SEPSIS W/O MV >96 HOURS W MCC,11438.728448,Standard
 SEPTICEMIA OR SEVERE SEPSIS W/O MV >96 HOURS W/O MCC,7064.8333333,Standard
 PSYCHOSES,7562.1526104,Standard
 POISONING & TOXIC EFFECTS OF DRUGS W MCC,9442.36,Standard
 EXTENSIVE O.R. PROCEDURE UNRELATED TO PRINCIPAL DIAGNOSIS W MCC,29068.214286000002,Standard
Level 1 ICD and Similar Procedures,19067.7171428571,DRG
Level 2 Pacemaker and Similar Procedures,5295.67161290322,DRG
Level 3 Pacemaker and Similar Procedures,7672.95,DRG
 G.I. HEMORRHAGE W MCC,11656.6,Standard
 MAJOR GASTROINTESTINAL DISORDERS & PERITONEAL INFECTIONS W CC,7362.8333333,Standard
 OTHER CIRCULATORY SYSTEM DIAGNOSES W MCC,12046.916667,Standard
 SYNCOPE & COLLAPSE,5519.652173899999,Standard
" TRAUMATIC STUPOR & COMA, COMA <1 HR W/O CC/MCC",5435.6666667,Standard
 SEIZURES W/O MCC,5709.739130399999,Standard
 MAJOR CHEST PROCEDURES W MCC,34263.692308,Standard
 OTHER RESP SYSTEM O.R. PROCEDURES W MCC,19525.545455,Standard
 PULMONARY EMBOLISM W/O MCC,6280.1818182,Standard
 RESPIRATORY INFECTIONS & INFLAMMATIONS W MCC,11307.78125,Standard
 RESPIRATORY INFECTIONS & INFLAMMATIONS W CC,8283.076923100001,Standard
 PULMONARY EDEMA & RESPIRATORY FAILURE,8029.7746479,Standard
 CHRONIC OBSTRUCTIVE PULMONARY DISEASE W MCC,7537.405405399999,Standard
 CHRONIC OBSTRUCTIVE PULMONARY DISEASE W CC,6141.84,Standard
 SIMPLE PNEUMONIA & PLEURISY W MCC,8705.9027778,Standard
 SIMPLE PNEUMONIA & PLEURISY W CC,6304.175,Standard
 BRONCHITIS & ASTHMA W CC/MCC,6242.1818182,Standard
 RESPIRATORY SYSTEM DIAGNOSIS W VENTILATOR SUPPORT <=96 HOURS,14782.692308000002,Standard
 INTRACRANIAL HEMORRHAGE OR CEREBRAL INFARCTION W/O CC/MCC,5610.8181818,Standard
 CORONARY BYPASS W/O CARDIAC CATH W/O MCC,23058.5,Standard
 PERMANENT CARDIAC PACEMAKER IMPLANT W CC,15803.923077000001,Standard
 PERCUTANEOUS CARDIOVASCULAR PROCEDURES W DRUG,19229.0,Standard
 PERC CARDIOVASC PROC W DRUG,13442.48,Standard
 OTHER VASCULAR PROCEDURES W CC,15402.8125,Standard
 PERCUTANEOUS INTRACARDIAC PROCEDURES W MCC,20957.615385,Standard
 PERCUTANEOUS INTRACARDIAC PROCEDURES W/O MCC,16726.8,Standard
" ""ACUTE MYOCARDIAL INFARCTION, DISCHARGED ALIVE W MCC""",11174.285714,Standard
" ""CIRCULATORY DISORDERS EXCEPT AMI, W CARD CATH W MCC""",15898.583333,Standard
" CIRCULATORY DISORDERS EXCEPT AMI, W CARD CATH W/O MCC",7606.0,Standard
 HEART FAILURE & SHOCK W MCC,9268.1445783,Standard
 HEART FAILURE & SHOCK W CC,6613.0769231,Standard
 CARDIAC ARRHYTHMIA & CONDUCTION DISORDERS W MCC,8033.4285714,Standard
 CARDIAC ARRHYTHMIA & CONDUCTION DISORDERS W CC,5309.8,Standard
 CARDIAC ARRHYTHMIA & CONDUCTION DISORDERS W/O CC/MCC,4093.6666666999995,Standard
 PERMANENT CARDIAC PACEMAKER IMPLANT W MCC,19711.0,Standard
 EXTRACRANIAL PROCEDURES W/O CC/MCC,7321.4545455,Standard
 KIDNEY & URINARY TRACT INFECTIONS W/O MCC,5600.739130399999,Standard
Abdominal/Peritoneal/Biliary and Related Procedures,2146.91,DRG
Level 2 Musculoskeletal Procedures,954.057083333333,DRG
Level 3 Excision/ Biopsy/ Incision and Drainage,1714.53,DRG
Level 2 Excision/ Biopsy/ Incision and Drainage,983.982767857142,DRG
Level 3 Musculoskeletal Procedures,1950.8,DRG
Level 4 Urology and Related Services,1988.79,DRG
Level 3 Urology and Related Services,1250.52999999999,DRG
Level 2 Laparoscopy and Related Services,5688.62,DRG
Level 1 Laparoscopy and Related Services,3106.56,DRG
Level 2 Breast/Lymphatic Surgery and Related Procedures,3422.28181818181,DRG
Level 2 Upper GI Procedures,1026.35324999999,DRG
Level 1 Breast/Lymphatic Surgery and Related Procedures,2011.72,DRG
 CRANIOTOMY & ENDOVASCULAR INTRACRANIAL PROCEDURES W MCC,25809.272727,Standard
Level 5 Urology and Related Services,2733.11,DRG
Level 4 Gynecologic Procedures,1676.09999999999,DRG
Level 1 Nerve Procedures,1187.69999999999,DRG
Level 1 Intraocular Procedures,1410.9936134453699,DRG
Comprehensive Observation Services,1703.4915860214999,DRG
Level 2 ICD and Similar Procedures,27229.14,DRG
