Description,Charge,Category
 RED BLOOD CELL DISORDERS W MCC,11715.090909,Standard
 OTHER ANTEPARTUM DIAGNOSES W MEDICAL COMPLICATIONS,8605.3846154,Standard
Level 3 Urology and Related Services,1185.1886363636302,DRG
 VAGINAL DELIVERY W/O COMPLICATING DIAGNOSES,7115.3333333,Standard
 OTHER KIDNEY & URINARY TRACT DIAGNOSES W CC,10945.769231,Standard
" ""MISC DISORDERS OF NUTRITION,METABOLISM,FLUIDS/ELECTROLYTES W/O MCC""",7797.086956499999,Standard
Level 4 Urology and Related Services,1988.79,DRG
Level 5 Urology and Related Services,2727.9154347826,DRG
Level 4 Gynecologic Procedures,1638.85333333333,DRG
Level 5 Gynecologic Procedures,2874.9747368421004,DRG
Level 2 Musculoskeletal Procedures,880.67,DRG
Level 2 Breast/Lymphatic Surgery and Related Procedures,3548.6499999999896,DRG
Level 1 Breast/Lymphatic Surgery and Related Procedures,2011.72,DRG
Level 3 Excision/ Biopsy/ Incision and Drainage,1705.9053333333302,DRG
Level 2 Excision/ Biopsy/ Incision and Drainage,978.865347222222,DRG
Level 3 Endovascular Procedures,8289.58835443038,DRG
Level 1 Nerve Procedures,1150.6577941176402,DRG
 RENAL FAILURE W MCC,12691.59375,Standard
 RENAL FAILURE W CC,9148.6557377,Standard
 KIDNEY & URINARY TRACT INFECTIONS W MCC,10056.84,Standard
Level 3 Musculoskeletal Procedures,1791.8666,DRG
 RED BLOOD CELL DISORDERS W/O MCC,8743.1,Standard
 CELLULITIS W/O MCC,8522.2272727,Standard
 INFECTIOUS & PARASITIC DISEASES W O.R. PROCEDURE W MCC,37991.786885,Standard
 CELLULITIS W MCC,12591.058824,Standard
" FX, SPRN, STRN & DISL EXCEPT FEMUR, HIP, PELVIS & THIGH W/O MCC",8169.636363600001,Standard
 MAJOR JOINT/LIMB REATTACHMENT PROCEDURE OF UPPER EXTREMITIES,19473.444444,Standard
 HIP & FEMUR PROCEDURES EXCEPT MAJOR JOINT W CC,17342.73913,Standard
 ALCOHOL/DRUG ABUSE OR DEPENDENCE W/O REHABILITATION THERAPY W/O MCC,7899.0909091,Standard
 POISONING & TOXIC EFFECTS OF DRUGS W MCC,12376.714286,Standard
 HIV W MAJOR RELATED CONDITION W MCC,21918.090909,Standard
 EXTENSIVE O.R. PROCEDURE UNRELATED TO PRINCIPAL DIAGNOSIS W MCC,33648.285714,Standard
 DIABETES W MCC,11725.84,Standard
 DIABETES W CC,8495.259259299999,Standard
" ""AMPUTAT OF LOWER LIMB FOR ENDOCRINE,NUTRIT,& METABOL DIS W CC""",17233.875,Standard
" MISC DISORDERS OF NUTRITION,METABOLISM,FLUIDS/ELECTROLYTES W MCC",10554.604167,Standard
 SEPTICEMIA OR SEVERE SEPSIS W/O MV >96 HOURS W MCC,15250.826872999998,Standard
 SEPTICEMIA OR SEVERE SEPSIS W MV >96 HOURS OR PERIPHERAL EXTRACORPOR,45073.961537999996,Standard
 INFECTIOUS & PARASITIC DISEASES W O.R. PROCEDURE W CC,18485.785713999998,Standard
Level 2 Upper GI Procedures,999.177899159662,DRG
Level 2 ICD and Similar Procedures,27229.14,DRG
Level 3 Pacemaker and Similar Procedures,7672.94999999999,DRG
Level 3 Electrophysiologic Procedures,14396.41,DRG
Level 4 Endovascular Procedures,13332.5876635513,DRG
Level 1 Laparoscopy and Related Services,3308.4122368421004,DRG
Level 2 Laparoscopy and Related Services,5685.94799999999,DRG
 SEPTICEMIA OR SEVERE SEPSIS W/O MV >96 HOURS W/O MCC,9901.4,Standard
 COAGULATION DISORDERS,14714.111111000002,Standard
 CARDIAC ARRHYTHMIA & CONDUCTION DISORDERS W CC,7931.6590909,Standard
 KIDNEY & URINARY TRACT INFECTIONS W/O MCC,8037.1578947,Standard
 HEART FAILURE & SHOCK W MCC,12661.337120999999,Standard
" CIRCULATORY DISORDERS EXCEPT AMI, W CARD CATH W/O MCC",11082.5,Standard
" ""CIRCULATORY DISORDERS EXCEPT AMI, W CARD CATH W MCC""",18389.526316,Standard
 OTHER KIDNEY & URINARY TRACT DIAGNOSES W MCC,13121.933332999999,Standard
 G.I. OBSTRUCTION W MCC,12729.769231,Standard
Level 4 Musculoskeletal Procedures,3731.8343333333296,DRG
" ""ACUTE MYOCARDIAL INFARCTION, DISCHARGED ALIVE W MCC""",13720.75,Standard
 G.I. HEMORRHAGE W CC,9309.8653846,Standard
 OTHER VASCULAR PROCEDURES W CC,21182.727273,Standard
Abdominal/Peritoneal/Biliary and Related Procedures,2146.91,DRG
 G.I. HEMORRHAGE W MCC,14532.884615,Standard
 HEART FAILURE & SHOCK W CC,9240.366666700002,Standard
 DIGESTIVE MALIGNANCY W CC,10983.923077,Standard
 MAJOR SMALL & LARGE BOWEL PROCEDURES W CC,19569.1875,Standard
 MAJOR SMALL & LARGE BOWEL PROCEDURES W MCC,35997.076923,Standard
 OTHER CIRCULATORY SYSTEM DIAGNOSES W MCC,15750.051281999999,Standard
Level 4 Airway Endoscopy,1929.66,DRG
 PULMONARY EDEMA & RESPIRATORY FAILURE,11016.0,Standard
 CHRONIC OBSTRUCTIVE PULMONARY DISEASE W MCC,10563.666667,Standard
 CHRONIC OBSTRUCTIVE PULMONARY DISEASE W CC,8979.368421100002,Standard
 SIMPLE PNEUMONIA & PLEURISY W MCC,12057.393617,Standard
 SIMPLE PNEUMONIA & PLEURISY W CC,9107.244898,Standard
 RESPIRATORY SYSTEM DIAGNOSIS W VENTILATOR SUPPORT <=96 HOURS,19170.617647,Standard
 PERCUTANEOUS CARDIOVASCULAR PROCEDURES W DRUG,25937.416666999998,Standard
 MAJOR GASTROINTESTINAL DISORDERS & PERITONEAL INFECTIONS W MCC,14601.666667,Standard
 PERIPHERAL VASCULAR DISORDERS W MCC,12496.4375,Standard
 PERIPHERAL VASCULAR DISORDERS W CC,9695.4,Standard
 HYPERTENSION W MCC,10006.857143000001,Standard
 CARDIAC ARRHYTHMIA & CONDUCTION DISORDERS W/O CC/MCC,6526.6153846,Standard
" TRACH W MV >96 HRS OR PDX EXC FACE, MOUTH & NECK W/O MAJ O.R.",66440.181818,Standard
 DEGENERATIVE NERVOUS SYSTEM DISORDERS W/O MCC,10804.529412,Standard
 INTRACRANIAL HEMORRHAGE OR CEREBRAL INFARCTION W MCC,14769.371428999999,Standard
 INTRACRANIAL HEMORRHAGE OR CEREBRAL INFARCTION W CC OR TPA IN 24 HRS,9335.1290323,Standard
 TRANSIENT ISCHEMIA W/O THROMBOLYTIC,7851.0833333,Standard
 CRANIAL & PERIPHERAL NERVE DISORDERS W/O MCC,9287.125,Standard
 OTHER DISORDERS OF NERVOUS SYSTEM W MCC,13304.6875,Standard
 SEIZURES W MCC,15834.181818000001,Standard
 SEIZURES W/O MCC,8307.75,Standard
 RESPIRATORY INFECTIONS & INFLAMMATIONS W MCC,14964.612903,Standard
 PERC CARDIOVASC PROC W DRUG,17410.466666999997,Standard
 RESPIRATORY NEOPLASMS W MCC,14387.692308000002,Standard
 HIP & FEMUR PROCEDURES EXCEPT MAJOR JOINT W MCC,21282.133333,Standard
 MAJOR HIP AND KNEE JOINT REPLACEMENT OR REATTACHMENT OF LOWER EXTREM,16880.103093,Standard
 DISORDERS OF PANCREAS EXCEPT MALIGNANCY W CC,8686.6875,Standard
 CARDIAC ARRHYTHMIA & CONDUCTION DISORDERS W MCC,10920.774194,Standard
 HYPERTENSION W/O MCC,7539.714285699999,Standard
" ""ESOPHAGITIS, GASTROENT & MISC DIGEST DISORDERS W/O MCC""",7768.660714300001,Standard
Level 1 Endovascular Procedures,1737.8129032257998,DRG
" ESOPHAGITIS, GASTROENT & MISC DIGEST DISORDERS W MCC",11828.833333,Standard
 G.I. OBSTRUCTION W CC,8599.7894737,Standard
Level 1 Intraocular Procedures,1405.2735915492901,DRG
Comprehensive Observation Services,1711.46057416267,DRG
Level 2 Endovascular Procedures,3707.13581881531,DRG
 OTHER VASCULAR PROCEDURES W MCC,25972.0,Standard
