Description,Charge,Category
" ""MISC DISORDERS OF NUTRITION,METABOLISM,FLUIDS/ELECTROLYTES W/O MCC""",7057.7222222,Standard
 SEPTICEMIA OR SEVERE SEPSIS W/O MV >96 HOURS W/O MCC,9949.4615385,Standard
 CHRONIC OBSTRUCTIVE PULMONARY DISEASE W MCC,10882.642856999999,Standard
 DIABETES W CC,8023.1666667,Standard
 CELLULITIS W/O MCC,7904.4333333,Standard
 SIMPLE PNEUMONIA & PLEURISY W MCC,12938.652173999999,Standard
 SIMPLE PNEUMONIA & PLEURISY W CC,8604.4545455,Standard
 SIMPLE PNEUMONIA & PLEURISY W/O CC/MCC,6723.1538462,Standard
" ""ACUTE MYOCARDIAL INFARCTION, DISCHARGED ALIVE W MCC""",15635.384615,Standard
 KIDNEY & URINARY TRACT INFECTIONS W/O MCC,7521.25,Standard
 CARDIAC ARRHYTHMIA & CONDUCTION DISORDERS W CC,7139.25,Standard
" ""ESOPHAGITIS, GASTROENT & MISC DIGEST DISORDERS W/O MCC""",7041.85,Standard
 MAJOR HIP AND KNEE JOINT REPLACEMENT OR REATTACHMENT OF LOWER EXTREM,19377.347825999997,Standard
 RENAL FAILURE W CC,8782.0666667,Standard
Level 1 Laparoscopy and Related Services,3572.95514285714,DRG
 SEPTICEMIA OR SEVERE SEPSIS W/O MV >96 HOURS W MCC,17013.1125,Standard
 HIP & FEMUR PROCEDURES EXCEPT MAJOR JOINT W CC,19358.454545,Standard
 INFECTIOUS & PARASITIC DISEASES W O.R. PROCEDURE W MCC,48592.846154,Standard
 HEART FAILURE & SHOCK W CC,9080.1666667,Standard
 HEART FAILURE & SHOCK W MCC,13932.414634,Standard
Level 1 Nerve Procedures,1272.56661710037,DRG
Level 5 Musculoskeletal Procedures,8761.45999999999,DRG
Level 4 Musculoskeletal Procedures,4463.75,DRG
Level 2 Excision/ Biopsy/ Incision and Drainage,1064.18440677966,DRG
 RESPIRATORY INFECTIONS & INFLAMMATIONS W MCC,17587.653846,Standard
 RESPIRATORY INFECTIONS & INFLAMMATIONS W CC,12189.785714,Standard
 PULMONARY EDEMA & RESPIRATORY FAILURE,11302.607143000001,Standard
Comprehensive Observation Services,1849.40101694916,DRG
Level 3 Airway Endoscopy,1053.91,DRG
Level 3 Musculoskeletal Procedures,2106.1,DRG
Level 2 Upper GI Procedures,1135.00999999999,DRG
Level 2 Musculoskeletal Procedures,1074.81,DRG
