Description,Charge,Category
Level 1 Intraocular Procedures,1364.37061728394,DRG
Level 2 Intraocular Procedures,2577.97698113207,DRG
Level 2 Musculoskeletal Procedures,884.224545454545,DRG
Level 4 Musculoskeletal Procedures,3942.8201010101,DRG
Level 5 Musculoskeletal Procedures,7726.92,DRG
Level 1 Nerve Procedures,1102.5907386363601,DRG
"Level 4 Extraocular, Repair, and Plastic Eye Procedures",1953.9969230769198,DRG
Level 3 Musculoskeletal Procedures,1887.57828125,DRG
 COMBINED ANTERIOR/POSTERIOR SPINAL FUSION W CC,49864.222222000004,Standard
 COMBINED ANTERIOR/POSTERIOR SPINAL FUSION W/O CC/MCC,43725.533333,Standard
 SPINAL FUSION EXCEPT CERVICAL W/O MCC,39228.0,Standard
 MAJOR HIP AND KNEE JOINT REPLACEMENT OR REATTACHMENT OF LOWER EXTREM,13369.813187,Standard
"Level 3 Extraocular, Repair, and Plastic Eye Procedures",1294.0799999999902,DRG
 MAJOR JOINT/LIMB REATTACHMENT PROCEDURE OF UPPER EXTREMITIES,14928.6875,Standard
