Description,Charge,Category
Level 3 Pacemaker and Similar Procedures,7446.70052173913,DRG
Level 2 Pacemaker and Similar Procedures,5311.82999999999,DRG
 HIP & FEMUR PROCEDURES EXCEPT MAJOR JOINT W/O CC/MCC,9585.857142899999,Standard
Level 3 Excision/ Biopsy/ Incision and Drainage,1665.13863636363,DRG
Level 1 Breast/Lymphatic Surgery and Related Procedures,1907.7806249999899,DRG
Level 2 Breast/Lymphatic Surgery and Related Procedures,3459.92999999999,DRG
 CHRONIC OBSTRUCTIVE PULMONARY DISEASE W MCC,6923.354838699999,Standard
Level 2 Musculoskeletal Procedures,935.780555555555,DRG
Level 2 Excision/ Biopsy/ Incision and Drainage,956.8164912280699,DRG
Level 5 Musculoskeletal Procedures,7668.178571428571,DRG
Level 4 Musculoskeletal Procedures,3935.2385714285706,DRG
Level 3 Airway Endoscopy,918.9003333333329,DRG
Level 4 Airway Endoscopy,1803.00833333333,DRG
Level 5 Airway Endoscopy,3497.5099999999898,DRG
Level 5 ENT Procedures,3007.2251724137896,DRG
Level 1 Endovascular Procedures,1718.53303951367,DRG
Level 3 Electrophysiologic Procedures,14968.3567058823,DRG
 OTHER VASCULAR PROCEDURES W MCC,17823.692308,Standard
Level 4 Endovascular Procedures,13085.88,DRG
Level 3 Endovascular Procedures,7938.717510040179,DRG
Level 2 Endovascular Procedures,3571.5817045454496,DRG
Level 3 Musculoskeletal Procedures,1902.02,DRG
 PERC CARDIOVASC PROC W DRUG,13517.782609,Standard
 MAJOR JOINT/LIMB REATTACHMENT PROCEDURE OF UPPER EXTREMITIES,15420.348837000001,Standard
 PERMANENT CARDIAC PACEMAKER IMPLANT W/O CC/MCC,14473.083333,Standard
 MAJOR SMALL & LARGE BOWEL PROCEDURES W CC,14672.351351,Standard
 MAJOR SMALL & LARGE BOWEL PROCEDURES W MCC,29004.9375,Standard
 OTHER CIRCULATORY SYSTEM DIAGNOSES W CC,6364.2,Standard
 OTHER CIRCULATORY SYSTEM DIAGNOSES W MCC,11938.238095,Standard
 CHEST PAIN,4690.2413793000005,Standard
 SYNCOPE & COLLAPSE,5067.4545455,Standard
 CARDIAC ARRHYTHMIA & CONDUCTION DISORDERS W/O CC/MCC,3999.4651163000003,Standard
 SIMPLE PNEUMONIA & PLEURISY W MCC,8567.390625,Standard
 CARDIAC ARRHYTHMIA & CONDUCTION DISORDERS W CC,5070.44,Standard
 HYPERTENSION W/O MCC,4504.952381,Standard
 HYPERTENSION W MCC,7413.0,Standard
 PERIPHERAL VASCULAR DISORDERS W CC,8379.6923077,Standard
 HEART FAILURE & SHOCK W/O CC/MCC,4612.65,Standard
 HEART FAILURE & SHOCK W CC,6049.836734699999,Standard
 HEART FAILURE & SHOCK W MCC,8722.944444399998,Standard
 CHRONIC OBSTRUCTIVE PULMONARY DISEASE W CC,5809.733333300001,Standard
 CARDIAC ARRHYTHMIA & CONDUCTION DISORDERS W MCC,7323.289473700001,Standard
 PERCUTANEOUS CARDIOVASCULAR PROCEDURES W DRUG,18175.318182,Standard
 SIMPLE PNEUMONIA & PLEURISY W CC,5597.74,Standard
 RESPIRATORY INFECTIONS & INFLAMMATIONS W MCC,10339.809524,Standard
 G.I. OBSTRUCTION W CC,5378.84,Standard
 G.I. HEMORRHAGE W/O CC/MCC,4395.4285714,Standard
Level 2 ICD and Similar Procedures,25891.5863529411,DRG
 G.I. HEMORRHAGE W CC,6016.9032258,Standard
 G.I. HEMORRHAGE W MCC,9627.625,Standard
 MAJOR GASTROINTESTINAL DISORDERS & PERITONEAL INFECTIONS W CC,6268.0,Standard
 MAJOR SMALL & LARGE BOWEL PROCEDURES W/O CC/MCC,10127.909091,Standard
 SIMPLE PNEUMONIA & PLEURISY W/O CC/MCC,4607.75,Standard
 AMPUTATION FOR CIRC SYS DISORDERS EXC UPPER LIMB & TOE W CC,11791.25,Standard
 CORONARY BYPASS W CARDIAC CATH W/O MCC,27944.076923,Standard
 RESPIRATORY SYSTEM DIAGNOSIS W VENTILATOR SUPPORT <=96 HOURS,13760.866666999998,Standard
 RESPIRATORY SYSTEM DIAGNOSIS W VENTILATOR SUPPORT >96 HOURS,35509.75,Standard
 BRONCHITIS & ASTHMA W CC/MCC,5764.4117647,Standard
 INTRACRANIAL HEMORRHAGE OR CEREBRAL INFARCTION W/O CC/MCC,4803.777777800001,Standard
 OTHER RESP SYSTEM O.R. PROCEDURES W MCC,19889.6,Standard
 PULMONARY EMBOLISM W MCC,8775.0,Standard
 CORONARY BYPASS W/O CARDIAC CATH W/O MCC,22556.4375,Standard
Level 2 Upper GI Procedures,1001.9787499999901,DRG
Level 1 ICD and Similar Procedures,17132.003076923,DRG
Abdominal/Peritoneal/Biliary and Related Procedures,2093.22,DRG
 OTHER KIDNEY & URINARY TRACT DIAGNOSES W CC,6302.0,Standard
 OTHER KIDNEY & URINARY TRACT DIAGNOSES W MCC,9373.393939399999,Standard
 KIDNEY & URINARY TRACT INFECTIONS W/O MCC,4995.645161300001,Standard
 KIDNEY & URINARY TRACT INFECTIONS W MCC,6471.8648649,Standard
 RENAL FAILURE W/O CC/MCC,4357.3888889,Standard
 RENAL FAILURE W CC,5727.114942499999,Standard
 INTRACRANIAL HEMORRHAGE OR CEREBRAL INFARCTION W CC OR TPA IN 24 HRS,6770.875,Standard
 INTRACRANIAL HEMORRHAGE OR CEREBRAL INFARCTION W MCC,10579.055556,Standard
 DEGENERATIVE NERVOUS SYSTEM DISORDERS W/O MCC,6562.9166667,Standard
Level 3 Lower GI Procedures,1560.965625,DRG
" ""ESOPHAGITIS, GASTROENT & MISC DIGEST DISORDERS W/O MCC""",5142.1346154,Standard
 OTHER DIGESTIVE SYSTEM DIAGNOSES W CC,5873.3846154,Standard
 LAPAROSCOPIC CHOLECYSTECTOMY W/O C.D.E. W CC,9766.5454545,Standard
" CIRCULATORY DISORDERS EXCEPT AMI, W CARD CATH W/O MCC",8295.666666699999,Standard
 DISORDERS OF PANCREAS EXCEPT MALIGNANCY W/O CC/MCC,4212.5833333,Standard
 DISORDERS OF THE BILIARY TRACT W CC,6510.1818182,Standard
 COMBINED ANTERIOR/POSTERIOR SPINAL FUSION W/O CC/MCC,36080.153846,Standard
 MAJOR HIP AND KNEE JOINT REPLACEMENT OR REATTACHMENT OF LOWER EXTREM,13078.006757,Standard
 CERVICAL SPINAL FUSION W CC,16248.230769,Standard
 HIP & FEMUR PROCEDURES EXCEPT MAJOR JOINT W MCC,16636.272727,Standard
 HIP & FEMUR PROCEDURES EXCEPT MAJOR JOINT W CC,11819.058824,Standard
 RENAL FAILURE W MCC,8567.421875,Standard
 OTHER KIDNEY & URINARY TRACT PROCEDURES W MCC,21065.705882,Standard
" ""MISC DISORDERS OF NUTRITION,METABOLISM,FLUIDS/ELECTROLYTES W/O MCC""",4875.7906977,Standard
" MISC DISORDERS OF NUTRITION,METABOLISM,FLUIDS/ELECTROLYTES W MCC",7629.051282100001,Standard
 DIABETES W CC,5434.548387100001,Standard
 O.R. PROCEDURES FOR OBESITY W/O CC/MCC,10319.21875,Standard
 CELLULITIS W/O MCC,5223.6666667,Standard
 MEDICAL BACK PROBLEMS W/O MCC,5692.6470588,Standard
 RED BLOOD CELL DISORDERS W MCC,8022.0909091,Standard
 RED BLOOD CELL DISORDERS W/O MCC,5679.44,Standard
 EXTRACRANIAL PROCEDURES W/O CC/MCC,7463.636363600001,Standard
 PULMONARY EDEMA & RESPIRATORY FAILURE,7458.589473700001,Standard
 ENDOVASCULAR CARDIAC VALVE REPLACEMENT W/O MCC,34095.136364,Standard
 PERCUTANEOUS INTRACARDIAC PROCEDURES W/O MCC,16543.333333000002,Standard
 ENDOVASCULAR CARDIAC VALVE REPLACEMENT W MCC,45567.9,Standard
 INFECTIOUS & PARASITIC DISEASES W O.R. PROCEDURE W MCC,29029.44,Standard
Comprehensive Observation Services,1670.09331226296,DRG
Level 2 Intraocular Procedures,2479.40595238095,DRG
Level 1 Intraocular Procedures,1318.2806716417801,DRG
 AORTIC AND HEART ASSIST PROCEDURES EXCEPT PULSATION BALLOON W/O MCC,23498.190476,Standard
" ACUTE MYOCARDIAL INFARCTION, DISCHARGED ALIVE W CC",5950.645161300001,Standard
Level 6 Urology and Related Services,5514.28999999999,DRG
" ""ACUTE MYOCARDIAL INFARCTION, DISCHARGED ALIVE W/O CC/MCC""",4865.3076923,Standard
" ""ACUTE MYOCARDIAL INFARCTION, DISCHARGED ALIVE W MCC""",9786.611111100001,Standard
" ESOPHAGITIS, GASTROENT & MISC DIGEST DISORDERS W MCC",7993.4166667,Standard
Level 1 Laparoscopy and Related Services,3077.4123255813897,DRG
Level 2 Laparoscopy and Related Services,4962.18599999999,DRG
Level 3 Urology and Related Services,1216.76349999999,DRG
 SEPTICEMIA OR SEVERE SEPSIS W/O MV >96 HOURS W MCC,10743.292398,Standard
 SEPTICEMIA OR SEVERE SEPSIS W/O MV >96 HOURS W/O MCC,6441.3103448,Standard
 G.I. OBSTRUCTION W/O CC/MCC,3982.6842104999996,Standard
Level 4 Urology and Related Services,1867.2525925925897,DRG
 COMPLICATIONS OF TREATMENT W CC,6713.7272727,Standard
 SIGNS & SYMPTOMS W/O MCC,4841.0909091,Standard
Level 5 Urology and Related Services,2659.65571428571,DRG
