Description,Charge,Category
 SIMPLE PNEUMONIA & PLEURISY W CC,5958.148148100001,Standard
" ""ESOPHAGITIS, GASTROENT & MISC DIGEST DISORDERS W/O MCC""",4965.9444444,Standard
 CELLULITIS W/O MCC,5339.9375,Standard
Comprehensive Observation Services,1507.0341549295802,DRG
" ""MISC DISORDERS OF NUTRITION,METABOLISM,FLUIDS/ELECTROLYTES W/O MCC""",4848.857142899999,Standard
 KIDNEY & URINARY TRACT INFECTIONS W/O MCC,5136.4871795,Standard
 SEPTICEMIA OR SEVERE SEPSIS W/O MV >96 HOURS W MCC,10733.791667,Standard
 SEPTICEMIA OR SEVERE SEPSIS W/O MV >96 HOURS W/O MCC,6653.8666667,Standard
 SIMPLE PNEUMONIA & PLEURISY W MCC,8171.8181818,Standard
 SIMPLE PNEUMONIA & PLEURISY W/O CC/MCC,4658.68,Standard
 CHRONIC OBSTRUCTIVE PULMONARY DISEASE W MCC,7311.951219499999,Standard
