Description,Charge,Category
Level 2 Excision/ Biopsy/ Incision and Drainage,872.33,DRG
Level 3 Excision/ Biopsy/ Incision and Drainage,1504.45,DRG
Level 2 Musculoskeletal Procedures,873.56,DRG
Level 3 Musculoskeletal Procedures,1692.64288888888,DRG
Level 4 Musculoskeletal Procedures,3517.6778125,DRG
Level 1 Nerve Procedures,1039.84638888888,DRG
Level 1 Intraocular Procedures,1208.11689655172,DRG
Comprehensive Observation Services,1520.6,DRG
 SIMPLE PNEUMONIA & PLEURISY W MCC,6105.0,Standard
 KIDNEY & URINARY TRACT INFECTIONS W/O MCC,3768.75,Standard
 BRONCHITIS & ASTHMA W CC/MCC,4486.107142899999,Standard
 MAJOR HIP AND KNEE JOINT REPLACEMENT OR REATTACHMENT OF LOWER EXTREM,10948.794872,Standard
 CELLULITIS W/O MCC,3932.15,Standard
 RED BLOOD CELL DISORDERS W/O MCC,4184.090909099999,Standard
 SIMPLE PNEUMONIA & PLEURISY W CC,4429.3333333,Standard
