Description,Charge,Category
 CARDIAC ARRHYTHMIA & CONDUCTION DISORDERS W/O CC/MCC,3397.0,Standard
 SEPTICEMIA OR SEVERE SEPSIS W/O MV >96 HOURS W MCC,9897.161616200001,Standard
 RESPIRATORY INFECTIONS & INFLAMMATIONS W CC,7150.444444399999,Standard
 RESPIRATORY INFECTIONS & INFLAMMATIONS W MCC,10067.5,Standard
 INTRACRANIAL HEMORRHAGE OR CEREBRAL INFARCTION W CC OR TPA IN 24 HRS,5501.4615385,Standard
Level 2 Excision/ Biopsy/ Incision and Drainage,848.4763636363631,DRG
Level 3 Excision/ Biopsy/ Incision and Drainage,1532.99,DRG
Level 2 Musculoskeletal Procedures,890.129999999999,DRG
 SEPTICEMIA OR SEVERE SEPSIS W/O MV >96 HOURS W/O MCC,5893.1612903000005,Standard
Level 3 Musculoskeletal Procedures,1743.4072222222198,DRG
Level 4 Musculoskeletal Procedures,3516.4873170731703,DRG
Level 5 Musculoskeletal Procedures,7030.5,DRG
Level 1 Endovascular Procedures,1575.1188495575198,DRG
Level 3 Lower GI Procedures,1399.6583333333301,DRG
Abdominal/Peritoneal/Biliary and Related Procedures,1919.58,DRG
Level 1 Laparoscopy and Related Services,2867.30625,DRG
Level 4 Gynecologic Procedures,1498.65,DRG
 CHRONIC OBSTRUCTIVE PULMONARY DISEASE W MCC,6416.21875,Standard
Level 1 Nerve Procedures,1061.95,DRG
 CHRONIC OBSTRUCTIVE PULMONARY DISEASE W CC,5244.25,Standard
 SIMPLE PNEUMONIA & PLEURISY W MCC,7351.9375,Standard
 RED BLOOD CELL DISORDERS W/O MCC,5059.6666667,Standard
 KIDNEY & URINARY TRACT INFECTIONS W/O MCC,4504.1944444,Standard
 KIDNEY & URINARY TRACT INFECTIONS W MCC,6798.7916667,Standard
 RENAL FAILURE W CC,4823.0,Standard
" ""MISC DISORDERS OF NUTRITION,METABOLISM,FLUIDS/ELECTROLYTES W/O MCC""",4271.0454545,Standard
 DIABETES W CC,4897.9166667,Standard
 CELLULITIS W/O MCC,4858.7142857,Standard
 MAJOR HIP AND KNEE JOINT REPLACEMENT OR REATTACHMENT OF LOWER EXTREM,10314.59375,Standard
 CHRONIC OBSTRUCTIVE PULMONARY DISEASE W/O CC/MCC,4256.5384615,Standard
" ""ESOPHAGITIS, GASTROENT & MISC DIGEST DISORDERS W/O MCC""",4507.125,Standard
 HEART FAILURE & SHOCK W/O CC/MCC,3944.5,Standard
 HEART FAILURE & SHOCK W CC,5173.5151515,Standard
 HEART FAILURE & SHOCK W MCC,8006.2307692,Standard
 SIMPLE PNEUMONIA & PLEURISY W/O CC/MCC,4126.8695652,Standard
 SIMPLE PNEUMONIA & PLEURISY W CC,5220.25,Standard
 G.I. HEMORRHAGE W CC,5383.0714286,Standard
Comprehensive Observation Services,1548.35567226891,DRG
