Description,Charge,Category
 EXTENSIVE O.R. PROCEDURE UNRELATED TO PRINCIPAL DIAGNOSIS W CC,28266.25,Standard
 PULMONARY EDEMA & RESPIRATORY FAILURE,13815.851852000002,Standard
 CHRONIC OBSTRUCTIVE PULMONARY DISEASE W MCC,13139.214286,Standard
 CHRONIC OBSTRUCTIVE PULMONARY DISEASE W CC,11540.066667000001,Standard
 CELLULITIS W/O MCC,11322.592593000001,Standard
" ""MISC DISORDERS OF NUTRITION,METABOLISM,FLUIDS/ELECTROLYTES W/O MCC""",10294.352941,Standard
" MISC DISORDERS OF NUTRITION,METABOLISM,FLUIDS/ELECTROLYTES W MCC",13647.641026,Standard
 DIABETES W CC,11085.0625,Standard
 DIABETES W MCC,17246.545455,Standard
 MEDICAL BACK PROBLEMS W/O MCC,11323.710526,Standard
 INTRACRANIAL HEMORRHAGE OR CEREBRAL INFARCTION W/O CC/MCC,10065.307692,Standard
 INTRACRANIAL HEMORRHAGE OR CEREBRAL INFARCTION W CC OR TPA IN 24 HRS,12810.411765,Standard
 INTRACRANIAL HEMORRHAGE OR CEREBRAL INFARCTION W MCC,19102.678571,Standard
" ISCHEMIC STROKE, PRECEREBRAL OCCLUSION OR TRANSIENT ISCHEMIA W THROM",27439.5,Standard
 MULTIPLE SCLEROSIS & CEREBELLAR ATAXIA W/O CC/MCC,11096.642856999999,Standard
 DEGENERATIVE NERVOUS SYSTEM DISORDERS W/O MCC,12528.307692,Standard
 CRANIOTOMY & ENDOVASCULAR INTRACRANIAL PROCEDURES W/O CC/MCC,22339.708333000002,Standard
 CRANIOTOMY & ENDOVASCULAR INTRACRANIAL PROCEDURES W CC,28189.210526,Standard
 CRANIOTOMY & ENDOVASCULAR INTRACRANIAL PROCEDURES W MCC,37042.744681000004,Standard
 CRANIO W MAJOR DEV IMPL/ACUTE COMPLEX CNS PDX W/O MCC,31521.75,Standard
  CRANIOTOMY W MAJOR DEVICE IMPLANT OR ACUTE COMPLEX CNS PDX W MCC OR,46356.404762,Standard
" ""TRACHEOSTOMY FOR FACE, MOUTH & NECK DIAGNOSES OR LARYNGECTOMY W CC""",32311.444444,Standard
" TRACH W MV >96 HRS OR PDX EXC FACE, MOUTH & NECK W/O MAJ O.R.",66548.0,Standard
" ""ECMO OR TRACH W MV >96 HRS OR PDX EXC FACE, MOUTH & NECK W MAJ O.R.",118013.59090999998,Standard
 RESPIRATORY INFECTIONS & INFLAMMATIONS W MCC,20422.727273,Standard
 NONSPECIFIC CEREBROVASCULAR DISORDERS W MCC,17504.764706,Standard
 MAJOR HEAD & NECK PROCEDURES W CC/MCC OR MAJOR DEVICE,22917.833333000002,Standard
Level 3 Excision/ Biopsy/ Incision and Drainage,1671.66,DRG
 EXTENSIVE O.R. PROCEDURE UNRELATED TO PRINCIPAL DIAGNOSIS W MCC,43503.411765,Standard
 OTHER MULTIPLE SIGNIFICANT TRAUMA W CC,15687.909091,Standard
 SIGNS & SYMPTOMS W/O MCC,10390.529412,Standard
 SEPTICEMIA OR SEVERE SEPSIS W/O MV >96 HOURS W/O MCC,13317.5,Standard
" ""TRAUMATIC STUPOR & COMA, COMA >1 HR W MCC""",20380.266667,Standard
" TRAUMATIC STUPOR & COMA, COMA >1 HR W CC",15075.944444,Standard
" ""TRAUMATIC STUPOR & COMA, COMA >1 HR W/O CC/MCC""",11509.0,Standard
" ""TRAUMATIC STUPOR & COMA, COMA <1 HR W CC""",13554.928571,Standard
 TRANSIENT ISCHEMIA W/O THROMBOLYTIC,10106.892856999999,Standard
 SEPTICEMIA OR SEVERE SEPSIS W/O MV >96 HOURS W MCC,19795.389474,Standard
 POSTOPERATIVE & POST,12859.0,Standard
 INFECTIOUS & PARASITIC DISEASES W O.R. PROCEDURE W MCC,47101.181818,Standard
 RED BLOOD CELL DISORDERS W/O MCC,11235.583333,Standard
 RED BLOOD CELL DISORDERS W MCC,15119.4375,Standard
 MAJOR HEMATOL/IMMUN DIAG EXC SICKLE CELL CRISIS & COAGUL W CC,14039.545455000001,Standard
 VAGINAL DELIVERY W/O COMPLICATING DIAGNOSES,9557.4,Standard
 OTHER KIDNEY & URINARY TRACT DIAGNOSES W MCC,16652.363636000002,Standard
 KIDNEY & URINARY TRACT INFECTIONS W/O MCC,10342.761905,Standard
Level 2 Excision/ Biopsy/ Incision and Drainage,968.2810967741921,DRG
 RENAL FAILURE W CC,11540.77551,Standard
 RENAL FAILURE W MCC,16090.377778,Standard
 SEIZURES W MCC,17259.541666999998,Standard
 SEIZURES W/O MCC,10623.541667,Standard
Level 1 Breast/Lymphatic Surgery and Related Procedures,1869.4726315789399,DRG
" TRAUMATIC STUPOR & COMA, COMA <1 HR W/O CC/MCC",11332.1875,Standard
 DISORDERS OF THE BILIARY TRACT W CC,13290.272727,Standard
 HIP & FEMUR PROCEDURES EXCEPT MAJOR JOINT W CC,20290.8125,Standard
 HYPERTENSION W MCC,12417.526316,Standard
 PERIPHERAL VASCULAR DISORDERS W CC,12477.833333,Standard
 HEART FAILURE & SHOCK W/O CC/MCC,9517.611111100001,Standard
Abdominal/Peritoneal/Biliary and Related Procedures,2086.11133333333,DRG
Level 1 Laparoscopy and Related Services,3176.1764516128997,DRG
Level 3 Urology and Related Services,1202.22301886792,DRG
Level 4 Urology and Related Services,1934.00673913043,DRG
Level 5 Urology and Related Services,2664.7799999999897,DRG
Level 4 Gynecologic Procedures,1571.07423076923,DRG
Level 1 Nerve Procedures,1151.08391304347,DRG
Level 1 Intraocular Procedures,1371.71245192307,DRG
Level 2 Intraocular Procedures,2565.83757225433,DRG
"Level 3 Extraocular, Repair, and Plastic Eye Procedures",1300.80552631578,DRG
 SIMPLE PNEUMONIA & PLEURISY W MCC,14136.315788999998,Standard
 HEART FAILURE & SHOCK W CC,11967.885714,Standard
 SIMPLE PNEUMONIA & PLEURISY W CC,11319.142856999999,Standard
 BRONCHITIS & ASTHMA W CC/MCC,11453.583333,Standard
 RESPIRATORY SYSTEM DIAGNOSIS W VENTILATOR SUPPORT <=96 HOURS,23280.1,Standard
 PERC CARDIOVASC PROC W DRUG,20408.576923,Standard
 OTHER VASCULAR PROCEDURES W MCC,30923.808511000003,Standard
 OTHER VASCULAR PROCEDURES W CC,25951.0,Standard
" ""ACUTE MYOCARDIAL INFARCTION, DISCHARGED ALIVE W MCC""",17315.183333,Standard
" ACUTE MYOCARDIAL INFARCTION, DISCHARGED ALIVE W CC",11678.864865000001,Standard
 HEART FAILURE & SHOCK W MCC,16144.393258000002,Standard
"Level 4 Extraocular, Repair, and Plastic Eye Procedures",2122.24294117647,DRG
Level 7 Radiation Therapy,5299.839444444439,DRG
Comprehensive Observation Services,1679.44625373133,DRG
 CARDIAC ARRHYTHMIA & CONDUCTION DISORDERS W MCC,13824.333333,Standard
Level 2 Upper GI Procedures,1023.7690624999901,DRG
 CARDIAC ARRHYTHMIA & CONDUCTION DISORDERS W CC,10594.75,Standard
 SYNCOPE & COLLAPSE,10568.807692,Standard
 MAJOR HIP AND KNEE JOINT REPLACEMENT OR REATTACHMENT OF LOWER EXTREM,20350.866667,Standard
 SPINAL FUSION EXCEPT CERVICAL W/O MCC,34048.5,Standard
" ""ESOPHAGITIS, GASTROENT & MISC DIGEST DISORDERS W/O MCC""",10630.707317,Standard
 G.I. OBSTRUCTION W CC,11422.615385,Standard
 G.I. HEMORRHAGE W CC,12143.235294,Standard
 G.I. HEMORRHAGE W MCC,17014.289474,Standard
 MAJOR SMALL & LARGE BOWEL PROCEDURES W CC,23594.076923,Standard
 MAJOR SMALL & LARGE BOWEL PROCEDURES W MCC,42091.888889,Standard
 OTHER CIRCULATORY SYSTEM DIAGNOSES W CC,12143.357143000001,Standard
 OTHER CIRCULATORY SYSTEM DIAGNOSES W MCC,19057.0625,Standard
Level 2 Breast/Lymphatic Surgery and Related Procedures,3459.93,DRG
Level 2 Musculoskeletal Procedures,926.246818181818,DRG
Level 3 Musculoskeletal Procedures,1890.0641666666602,DRG
" ""LOWER EXTREM & HUMER PROC EXCEPT HIP,FOOT,FEMUR W/O CC/MCC""",17558.833333000002,Standard
Level 4 Musculoskeletal Procedures,3988.1043589743604,DRG
Level 3 Airway Endoscopy,951.7999999999989,DRG
Level 4 Airway Endoscopy,1826.3328571428501,DRG
Level 5 Airway Endoscopy,3497.51,DRG
Level 4 ENT Procedures,1581.19999999999,DRG
Level 5 ENT Procedures,3119.75,DRG
Cochlear Implant Procedure,27987.57,DRG
Level 1 Endovascular Procedures,1746.89142857142,DRG
Level 2 Endovascular Procedures,3655.55884816755,DRG
Level 3 Endovascular Procedures,8130.51417322832,DRG
Level 3 Electrophysiologic Procedures,15329.04,DRG
Level 1 ICD and Similar Procedures,18558.213636363602,DRG
Level 2 ICD and Similar Procedures,26515.48,DRG
 CHEST PAIN,9805.5238095,Standard
Level 5 Musculoskeletal Procedures,7785.25,DRG
 PERCUTANEOUS CARDIOVASCULAR PROCEDURES W DRUG,31686.214286000002,Standard
