Description,Charge,Category
Level 2 Laparoscopy and Related Services,4806.277647058821,DRG
Level 3 Urology and Related Services,1101.5878021977999,DRG
Level 4 Urology and Related Services,1760.2424242424202,DRG
Level 5 Urology and Related Services,2417.14607142857,DRG
Level 2 Excision/ Biopsy/ Incision and Drainage,886.9050649350689,DRG
Level 1 Intraocular Procedures,1291.49909090909,DRG
Level 2 Intraocular Procedures,2316.72453333333,DRG
Comprehensive Observation Services,1557.44479026415,DRG
Level 1 Laparoscopy and Related Services,2962.58335443038,DRG
Level 7 Urology and Related Services,11895.07,DRG
Abdominal/Peritoneal/Biliary and Related Procedures,1959.57,DRG
Level 3 Upper GI Procedures,1846.68,DRG
Level 2 Upper GI Procedures,938.9734848484841,DRG
Level 3 Excision/ Biopsy/ Incision and Drainage,1438.04378378378,DRG
Level 2 Musculoskeletal Procedures,895.865,DRG
Level 1 Endovascular Procedures,1575.68027118643,DRG
Level 3 Musculoskeletal Procedures,1780.57,DRG
Level 4 Musculoskeletal Procedures,3707.6935593220296,DRG
Level 5 Musculoskeletal Procedures,6603.951,DRG
Level 3 Airway Endoscopy,890.898804347826,DRG
Level 4 Airway Endoscopy,1705.9706666666598,DRG
Level 4 ENT Procedures,1476.8017857142802,DRG
Level 2 Endovascular Procedures,3421.59974025972,DRG
Level 3 Endovascular Procedures,7494.5003880596805,DRG
Level 4 Endovascular Procedures,12166.4899999999,DRG
Level 5 ENT Procedures,2882.13157894736,DRG
Level 3 Electrophysiologic Procedures,13962.3938709677,DRG
Level 2 Pacemaker and Similar Procedures,4956.3708,DRG
Level 3 Pacemaker and Similar Procedures,6803.762413793111,DRG
Level 4 Pacemaker and Similar Procedures,13483.42,DRG
Level 1 ICD and Similar Procedures,17276.8652380952,DRG
Level 2 ICD and Similar Procedures,23239.290909090898,DRG
Cochlear Implant Procedure,22245.405384615296,DRG
Level 7 Radiation Therapy,5092.67,DRG
" ""TRAUMATIC STUPOR & COMA, COMA <1 HR W CC""",9003.0606061,Standard
 SEIZURES W/O MCC,6205.0588235,Standard
" ""AMPUTAT OF LOWER LIMB FOR ENDOCRINE,NUTRIT,& METABOL DIS W CC""",18580.25,Standard
 CELLULITIS W/O MCC,6926.2040816,Standard
 CELLULITIS W MCC,10000.0,Standard
" OTHER SKIN, SUBCUT TISS & BREAST PROC W CC",16247.363636000002,Standard
 MEDICAL BACK PROBLEMS W/O MCC,7331.3513514,Standard
 PATHOLOGICAL FRACTURES & MUSCULOSKELET & CONN TISS MALIG W CC,8490.416666699999,Standard
 FRACTURES OF HIP & PELVIS W/O MCC,6139.8333333,Standard
" LOWER EXTREM & HUMER PROC EXCEPT HIP,FOOT,FEMUR W CC",14723.766666999998,Standard
" ""LOWER EXTREM & HUMER PROC EXCEPT HIP,FOOT,FEMUR W MCC""",19501.857143,Standard
 HIP & FEMUR PROCEDURES EXCEPT MAJOR JOINT W CC,13317.361445999999,Standard
 HIP & FEMUR PROCEDURES EXCEPT MAJOR JOINT W MCC,21489.8,Standard
" ""ACUTE MYOCARDIAL INFARCTION, DISCHARGED ALIVE W MCC""",11040.518519,Standard
" ACUTE MYOCARDIAL INFARCTION, DISCHARGED ALIVE W CC",7107.9166667,Standard
" ""ACUTE MYOCARDIAL INFARCTION, DISCHARGED ALIVE W/O CC/MCC""",7015.4,Standard
" ACUTE MYOCARDIAL INFARCTION, EXPIRED W MCC",11583.0,Standard
" ""CIRCULATORY DISORDERS EXCEPT AMI, W CARD CATH W MCC""",17875.235294,Standard
" CIRCULATORY DISORDERS EXCEPT AMI, W CARD CATH W/O MCC",9134.0714286,Standard
 HEART FAILURE & SHOCK W MCC,10059.502488,Standard
 HEART FAILURE & SHOCK W CC,7250.6981132,Standard
 HEART FAILURE & SHOCK W/O CC/MCC,5640.8846154,Standard
 MAJOR CHEST PROCEDURES W MCC,29532.333333,Standard
 SEIZURES W MCC,11481.27027,Standard
 BIOPSIES OF MUSCULOSKELETAL SYSTEM & CONNECTIVE TISSUE W CC,20059.428571,Standard
 CERVICAL SPINAL FUSION W/O CC/MCC,21410.909091,Standard
 CERVICAL SPINAL FUSION W CC,22412.96875,Standard
 MAJOR HIP AND KNEE JOINT REPLACEMENT OR REATTACHMENT OF LOWER EXTREM,14681.973684,Standard
 MAJOR HIP AND KNEE JOINT REPLACEMENT OR REATTACHMENT OF LOWER EXTREM,22155.0,Standard
 DIABETES W MCC,9995.9428571,Standard
 REVISION OF HIP OR KNEE REPLACEMENT W CC,21719.534884,Standard
 SYNCOPE & COLLAPSE,6039.260869600001,Standard
" ""MISC DISORDERS OF NUTRITION,METABOLISM,FLUIDS/ELECTROLYTES W/O MCC""",6408.311475399999,Standard
 AORTIC AND HEART ASSIST PROCEDURES EXCEPT PULSATION BALLOON W/O MCC,28766.470588,Standard
 OTHER O.R. PROCEDURES FOR INJURIES W CC,14326.352941,Standard
 ALCOHOL/DRUG ABUSE OR DEPENDENCE W/O REHABILITATION THERAPY W/O MCC,6506.3157895,Standard
 ORGANIC DISTURBANCES & INTELLECTUAL DISABILITY,8673.2941176,Standard
 SEPTICEMIA OR SEVERE SEPSIS W/O MV >96 HOURS W/O MCC,7748.753731300001,Standard
 OTHER MAJOR CARDIOVASCULAR PROCEDURES W MCC,38542.548387,Standard
 OTHER MAJOR CARDIOVASCULAR PROCEDURES W CC,24737.9375,Standard
 SEPTICEMIA OR SEVERE SEPSIS W/O MV >96 HOURS W MCC,12451.173333,Standard
 SEPTICEMIA OR SEVERE SEPSIS W MV >96 HOURS OR PERIPHERAL EXTRACORPOR,37442.295455,Standard
 POSTOPERATIVE & POST,12823.666667,Standard
 POSTOPERATIVE OR POST,13447.466666999999,Standard
 POSTOPERATIVE OR POST,33699.611111,Standard
 INFECTIOUS & PARASITIC DISEASES W O.R. PROCEDURE W CC,15091.3125,Standard
 INFECTIOUS & PARASITIC DISEASES W O.R. PROCEDURE W MCC,33999.021978,Standard
 RED BLOOD CELL DISORDERS W/O MCC,6729.67,Standard
 RED BLOOD CELL DISORDERS W MCC,9429.4074074,Standard
 MAJOR HEMATOL/IMMUN DIAG EXC SICKLE CELL CRISIS & COAGUL W CC,8419.25,Standard
 MAJOR MALE PELVIC PROCEDURES W/O CC/MCC,12796.0,Standard
 OTHER KIDNEY & URINARY TRACT DIAGNOSES W CC,7602.4,Standard
 OTHER KIDNEY & URINARY TRACT DIAGNOSES W MCC,10771.75,Standard
 KIDNEY & URINARY TRACT INFECTIONS W/O MCC,6223.75,Standard
 KIDNEY & URINARY TRACT INFECTIONS W MCC,7802.848837199999,Standard
 RENAL FAILURE W/O CC/MCC,5348.4,Standard
 RENAL FAILURE W CC,7138.1964286,Standard
 RENAL FAILURE W MCC,10950.714286,Standard
 OTHER KIDNEY & URINARY TRACT PROCEDURES W CC,16308.0,Standard
 OTHER KIDNEY & URINARY TRACT PROCEDURES W MCC,24449.944444,Standard
" MISC DISORDERS OF NUTRITION,METABOLISM,FLUIDS/ELECTROLYTES W MCC",8420.0294118,Standard
 ENDOVASCULAR CARDIAC VALVE REPLACEMENT W/O MCC,37494.666667000005,Standard
" WND DEBRID & SKN GRFT EXC HAND, FOR MUSCULO",19582.5625,Standard
 SPINAL FUSION EXCEPT CERVICAL W/O MCC,29896.125,Standard
 CRANIOTOMY & ENDOVASCULAR INTRACRANIAL PROCEDURES W/O CC/MCC,17427.272727,Standard
 EXTRACRANIAL PROCEDURES W CC,10807.136364,Standard
 EXTRACRANIAL PROCEDURES W/O CC/MCC,8659.7291667,Standard
 NERVOUS SYSTEM NEOPLASMS W MCC,8891.842105299998,Standard
 DEGENERATIVE NERVOUS SYSTEM DISORDERS W MCC,13142.684211,Standard
 DEGENERATIVE NERVOUS SYSTEM DISORDERS W/O MCC,8499.314285699998,Standard
" ""ISCHEMIC STROKE, PRECEREBRAL OCCLUSION OR TRANSIENT ISCHEMIA W THRO",12725.923077,Standard
 INTRACRANIAL HEMORRHAGE OR CEREBRAL INFARCTION W MCC,12685.94958,Standard
 LAPAROSCOPIC CHOLECYSTECTOMY W/O C.D.E. W CC,12612.071429000001,Standard
 OTHER DIGESTIVE SYSTEM DIAGNOSES W CC,8016.2,Standard
 OTHER DIGESTIVE SYSTEM DIAGNOSES W MCC,11326.555556,Standard
" ""ESOPHAGITIS, GASTROENT & MISC DIGEST DISORDERS W/O MCC""",6224.787234,Standard
" ESOPHAGITIS, GASTROENT & MISC DIGEST DISORDERS W MCC",9369.4,Standard
 G.I. OBSTRUCTION W/O CC/MCC,5541.2307692,Standard
 G.I. OBSTRUCTION W CC,6501.745097999999,Standard
 G.I. OBSTRUCTION W MCC,9985.785714299998,Standard
 G.I. HEMORRHAGE W CC,7186.4957265,Standard
 G.I. HEMORRHAGE W MCC,11340.313433,Standard
 MAJOR GASTROINTESTINAL DISORDERS & PERITONEAL INFECTIONS W CC,8036.0769231,Standard
 MAJOR GASTROINTESTINAL DISORDERS & PERITONEAL INFECTIONS W MCC,11172.454545,Standard
 PERITONEAL ADHESIOLYSIS W CC,17357.307692,Standard
 MAJOR SMALL & LARGE BOWEL PROCEDURES W/O CC/MCC,12153.818181999999,Standard
 MAJOR SMALL & LARGE BOWEL PROCEDURES W CC,17417.737705,Standard
 MAJOR SMALL & LARGE BOWEL PROCEDURES W MCC,36334.129032,Standard
" ""STOMACH, ESOPHAGEAL & DUODENAL PROC W CC""",14088.909091,Standard
 OTHER CIRCULATORY SYSTEM DIAGNOSES W CC,7023.5,Standard
 OTHER CIRCULATORY SYSTEM DIAGNOSES W MCC,13096.632653,Standard
 CRANIOTOMY & ENDOVASCULAR INTRACRANIAL PROCEDURES W CC,20126.772727,Standard
 BILATERAL OR MULTIPLE MAJOR JOINT PROCS OF LOWER EXTREMITY W/O MCC,23595.772727,Standard
 CRANIOTOMY & ENDOVASCULAR INTRACRANIAL PROCEDURES W MCC,26803.652174000003,Standard
" TRACH W MV >96 HRS OR PDX EXC FACE, MOUTH & NECK W/O MAJ O.R.",57205.888889,Standard
 COMBINED ANTERIOR/POSTERIOR SPINAL FUSION W/O CC/MCC,31678.05,Standard
 COMBINED ANTERIOR/POSTERIOR SPINAL FUSION W CC,40121.73913,Standard
" DISORDERS OF LIVER EXCEPT MALIG,CIRR,ALC HEPA W CC",6647.6666667,Standard
 DISORDERS OF PANCREAS EXCEPT MALIGNANCY W CC,6710.0769231,Standard
 MALIGNANCY OF HEPATOBILIARY SYSTEM OR PANCREAS W CC,8135.9166667,Standard
 CIRRHOSIS & ALCOHOLIC HEPATITIS W MCC,12292.785714,Standard
 LAPAROSCOPIC CHOLECYSTECTOMY W/O C.D.E. W/O CC/MCC,9429.727272700002,Standard
 OTHER DISORDERS OF NERVOUS SYSTEM W/O CC/MCC,6580.6666667,Standard
 OTHER DISORDERS OF NERVOUS SYSTEM W CC,6844.7647059,Standard
 OTHER DISORDERS OF NERVOUS SYSTEM W MCC,10177.952381000001,Standard
" TRAUMATIC STUPOR & COMA, COMA <1 HR W/O CC/MCC",6058.1304348,Standard
" TRAUMATIC STUPOR & COMA, COMA <1 HR W MCC",13463.0,Standard
" TRAUMATIC STUPOR & COMA, COMA >1 HR W CC",8816.952381000001,Standard
" ""TRAUMATIC STUPOR & COMA, COMA >1 HR W MCC""",15153.4,Standard
 CRANIAL & PERIPHERAL NERVE DISORDERS W/O MCC,8353.7647059,Standard
 NONSPECIFIC CEREBROVASCULAR DISORDERS W CC,7382.4545455,Standard
 NONSPECIFIC CEREBROVASCULAR DISORDERS W MCC,12240.611111,Standard
 TRANSIENT ISCHEMIA W/O THROMBOLYTIC,5794.0,Standard
 INTRACRANIAL HEMORRHAGE OR CEREBRAL INFARCTION W/O CC/MCC,5640.452381,Standard
 INTRACRANIAL HEMORRHAGE OR CEREBRAL INFARCTION W CC OR TPA IN 24 HRS,7798.1847134,Standard
" ""CARDIAC ARREST, UNEXPLAINED W MCC OR PERIPHERAL EXTRACORPOREAL MEMB",10512.307692,Standard
 PERIPHERAL VASCULAR DISORDERS W MCC,9350.0833333,Standard
 PERIPHERAL VASCULAR DISORDERS W CC,7227.1176471,Standard
 HYPERTENSION W MCC,7703.375,Standard
 CARDIAC ARRHYTHMIA & CONDUCTION DISORDERS W MCC,8609.037735799999,Standard
 CARDIAC ARRHYTHMIA & CONDUCTION DISORDERS W CC,7419.767857100001,Standard
" ""ECMO OR TRACH W MV >96 HRS OR PDX EXC FACE, MOUTH & NECK W MAJ O.R.",98186.23529400001,Standard
  CRANIOTOMY W MAJOR DEVICE IMPLANT OR ACUTE COMPLEX CNS PDX W MCC OR,33444.111111,Standard
 OTHER CIRCULATORY SYSTEM O.R. PROCEDURES,21265.705882,Standard
 DIABETES W CC,6728.785714300001,Standard
 OTHER VASCULAR PROCEDURES W CC,17388.966666999997,Standard
 CORONARY BYPASS W CARDIAC CATH W/O MCC,36487.5,Standard
 CORONARY BYPASS W/O CARDIAC CATH W MCC,44932.833332999995,Standard
 CORONARY BYPASS W/O CARDIAC CATH W/O MCC,27370.4375,Standard
 AMPUTATION FOR CIRC SYS DISORDERS EXC UPPER LIMB & TOE W MCC,27733.9,Standard
 AMPUTATION FOR CIRC SYS DISORDERS EXC UPPER LIMB & TOE W CC,19745.952381,Standard
 PERMANENT CARDIAC PACEMAKER IMPLANT W MCC,28709.727273,Standard
 PERMANENT CARDIAC PACEMAKER IMPLANT W CC,20303.8125,Standard
 PERCUTANEOUS CARDIOVASCULAR PROCEDURES W DRUG,24104.137931,Standard
 PERC CARDIOVASC PROC W DRUG,19437.463415000002,Standard
 OTHER VASCULAR PROCEDURES W MCC,21228.306121999998,Standard
 OTHER VASCULAR PROCEDURES W/O CC/MCC,16751.4,Standard
 EXTENSIVE O.R. PROCEDURE UNRELATED TO PRINCIPAL DIAGNOSIS W CC,16169.307691999998,Standard
 EXTENSIVE O.R. PROCEDURE UNRELATED TO PRINCIPAL DIAGNOSIS W MCC,29818.243902,Standard
 HIV W MAJOR RELATED CONDITION W MCC,19757.611111000002,Standard
 SIGNS & SYMPTOMS W/O MCC,8138.0769231,Standard
 SIGNS & SYMPTOMS W MCC,8085.857142899999,Standard
 COMPLICATIONS OF TREATMENT W CC,7369.3157894999995,Standard
 CORONARY BYPASS W CARDIAC CATH W MCC,40278.285714,Standard
 OTHER CARDIOTHORACIC PROCEDURES W/O MCC,45290.0,Standard
 CARDIAC VALVE & OTH MAJ CARDIOTHORACIC PROC W/O CARD CATH W CC,44423.73913,Standard
 CARDIAC VALVE & OTH MAJ CARDIOTHORACIC PROC W/O CARD CATH W MCC,48391.333332999995,Standard
 MAJOR CHEST PROCEDURES W CC,16734.823528999998,Standard
 OTHER RESP SYSTEM O.R. PROCEDURES W MCC,35087.153846,Standard
 OTHER RESP SYSTEM O.R. PROCEDURES W CC,14584.272727000001,Standard
 PULMONARY EMBOLISM W MCC,10097.619048,Standard
 PULMONARY EMBOLISM W/O MCC,6618.3333333,Standard
 RESPIRATORY INFECTIONS & INFLAMMATIONS W MCC,12122.431818000001,Standard
 RESPIRATORY INFECTIONS & INFLAMMATIONS W CC,9045.6666667,Standard
 RESPIRATORY NEOPLASMS W MCC,11904.785714,Standard
 POISONING & TOXIC EFFECTS OF DRUGS W/O MCC,5502.3846154,Standard
 PULMONARY EDEMA & RESPIRATORY FAILURE,8736.3255814,Standard
 CHRONIC OBSTRUCTIVE PULMONARY DISEASE W CC,6809.64,Standard
 SIMPLE PNEUMONIA & PLEURISY W MCC,9694.724137899999,Standard
 SIMPLE PNEUMONIA & PLEURISY W CC,6821.8666667,Standard
 SIMPLE PNEUMONIA & PLEURISY W/O CC/MCC,5846.1818182,Standard
 PNEUMOTHORAX W CC,10017.181818000001,Standard
 BRONCHITIS & ASTHMA W CC/MCC,6842.04,Standard
 RESPIRATORY SYSTEM DIAGNOSIS W VENTILATOR SUPPORT >96 HOURS,33502.0,Standard
 RESPIRATORY SYSTEM DIAGNOSIS W VENTILATOR SUPPORT <=96 HOURS,16167.084746,Standard
 CHRONIC OBSTRUCTIVE PULMONARY DISEASE W MCC,8178.025,Standard
 POISONING & TOXIC EFFECTS OF DRUGS W MCC,10141.185185,Standard
 CARDIAC ARRHYTHMIA & CONDUCTION DISORDERS W/O CC/MCC,4743.4313725,Standard
