Description,Charge,Category
" MISC DISORDERS OF NUTRITION,METABOLISM,FLUIDS/ELECTROLYTES W MCC",6513.741935499999,Standard
 KIDNEY & URINARY TRACT INFECTIONS W/O MCC,4829.1636364,Standard
 KIDNEY & URINARY TRACT INFECTIONS W MCC,6069.875,Standard
 RENAL FAILURE W/O CC/MCC,3633.8,Standard
 RENAL FAILURE W CC,5860.8666667,Standard
 RENAL FAILURE W MCC,8439.642857100001,Standard
" ""MISC DISORDERS OF NUTRITION,METABOLISM,FLUIDS/ELECTROLYTES W/O MCC""",4263.0303030000005,Standard
 SEPTICEMIA OR SEVERE SEPSIS W/O MV >96 HOURS W/O MCC,5813.0289855,Standard
 MAJOR HIP AND KNEE JOINT REPLACEMENT OR REATTACHMENT OF LOWER EXTREM,11427.763359,Standard
 DIABETES W CC,4632.5882353,Standard
 CELLULITIS W/O MCC,4836.2,Standard
 MAJOR JOINT/LIMB REATTACHMENT PROCEDURE OF UPPER EXTREMITIES,13641.129031999999,Standard
 HIP & FEMUR PROCEDURES EXCEPT MAJOR JOINT W/O CC/MCC,9241.0,Standard
 HIP & FEMUR PROCEDURES EXCEPT MAJOR JOINT W CC,11048.481481,Standard
 CERVICAL SPINAL FUSION W/O CC/MCC,12544.636364,Standard
 MAJOR HIP AND KNEE JOINT REPLACEMENT OR REATTACHMENT OF LOWER EXTREM,17006.230768999998,Standard
 REVISION OF HIP OR KNEE REPLACEMENT W/O CC/MCC,13927.384615,Standard
 SEPTICEMIA OR SEVERE SEPSIS W/O MV >96 HOURS W MCC,10239.905659999999,Standard
 SIMPLE PNEUMONIA & PLEURISY W MCC,7307.28125,Standard
Level 1 Nerve Procedures,1111.25569620253,DRG
 SPINAL FUSION EXCEPT CERVICAL W/O MCC,21037.295455,Standard
 CARDIAC ARRHYTHMIA & CONDUCTION DISORDERS W/O CC/MCC,3344.3030303000005,Standard
 CARDIAC ARRHYTHMIA & CONDUCTION DISORDERS W CC,4458.0810811,Standard
 CARDIAC ARRHYTHMIA & CONDUCTION DISORDERS W MCC,6822.0588235,Standard
 RED BLOOD CELL DISORDERS W/O MCC,5158.189189199999,Standard
 HYPERTENSION W/O MCC,4037.5454545000002,Standard
 HYPERTENSION W MCC,6260.5714286,Standard
 HEART FAILURE & SHOCK W/O CC/MCC,3684.8235294,Standard
 HEART FAILURE & SHOCK W CC,5206.6666667,Standard
 HEART FAILURE & SHOCK W MCC,7406.7375887,Standard
 INFECTIOUS & PARASITIC DISEASES W O.R. PROCEDURE W MCC,25705.6,Standard
" CIRCULATORY DISORDERS EXCEPT AMI, W CARD CATH W/O MCC",6547.136363600001,Standard
" ACUTE MYOCARDIAL INFARCTION, DISCHARGED ALIVE W CC",5589.0,Standard
 OTHER CIRCULATORY SYSTEM DIAGNOSES W MCC,10674.666667,Standard
" ""ACUTE MYOCARDIAL INFARCTION, DISCHARGED ALIVE W MCC""",8903.5833333,Standard
 PERCUTANEOUS CARDIOVASCULAR PROCEDURES W DRUG,21716.454545,Standard
 CORONARY BYPASS W/O CARDIAC CATH W/O MCC,20011.941176,Standard
 CORONARY BYPASS W CARDIAC CATH W/O MCC,27106.903226,Standard
 RESPIRATORY SYSTEM DIAGNOSIS W VENTILATOR SUPPORT <=96 HOURS,13757.857143000001,Standard
 EXTRACRANIAL PROCEDURES W CC,8690.0,Standard
 EXTRACRANIAL PROCEDURES W/O CC/MCC,7196.978260899999,Standard
 INTRACRANIAL HEMORRHAGE OR CEREBRAL INFARCTION W CC OR TPA IN 24 HRS,5488.9411765,Standard
 PULMONARY EMBOLISM W/O MCC,4873.4166667,Standard
 RESPIRATORY INFECTIONS & INFLAMMATIONS W MCC,9855.0,Standard
 PULMONARY EDEMA & RESPIRATORY FAILURE,6871.471264399999,Standard
 CHRONIC OBSTRUCTIVE PULMONARY DISEASE W MCC,6566.3783784,Standard
 CHRONIC OBSTRUCTIVE PULMONARY DISEASE W CC,5095.8214286,Standard
 PERC CARDIOVASC PROC W DRUG,12533.666667,Standard
 REVISION OF HIP OR KNEE REPLACEMENT W CC,18036.526316,Standard
 MAJOR SMALL & LARGE BOWEL PROCEDURES W CC,12919.722222,Standard
 G.I. HEMORRHAGE W MCC,9103.529411799998,Standard
Comprehensive Observation Services,1634.1540483871,DRG
Level 2 Intraocular Procedures,2461.78999999999,DRG
Level 2 Neurostimulator and Related Procedures,3811.2478947368395,DRG
 SIMPLE PNEUMONIA & PLEURISY W CC,5408.152173899999,Standard
Level 4 Gynecologic Procedures,1598.7,DRG
Level 5 Urology and Related Services,2501.2148648648604,DRG
Level 4 Urology and Related Services,1758.1487804878,DRG
Level 3 Urology and Related Services,1160.7221088435301,DRG
Level 2 Laparoscopy and Related Services,5365.26,DRG
Level 1 Laparoscopy and Related Services,3087.25511111111,DRG
Abdominal/Peritoneal/Biliary and Related Procedures,1954.68,DRG
Level 2 Upper GI Procedures,1003.3227272727199,DRG
Level 4 Endovascular Procedures,12773.13,DRG
 MAJOR SMALL & LARGE BOWEL PROCEDURES W/O CC/MCC,8638.727272700002,Standard
Level 3 Endovascular Procedures,7018.767579617839,DRG
Level 1 Endovascular Procedures,1638.33536231883,DRG
Level 5 ENT Procedures,2797.65749999999,DRG
Level 4 Airway Endoscopy,1709.10617021276,DRG
Level 3 Airway Endoscopy,931.12,DRG
Level 5 Musculoskeletal Procedures,7537.06559322035,DRG
Level 4 Musculoskeletal Procedures,3943.6699999999896,DRG
Level 3 Musculoskeletal Procedures,1744.4156249999899,DRG
Level 2 Excision/ Biopsy/ Incision and Drainage,907.6348412698401,DRG
" ""ESOPHAGITIS, GASTROENT & MISC DIGEST DISORDERS W/O MCC""",4397.04,Standard
 G.I. HEMORRHAGE W CC,5500.6774194,Standard
Level 2 Endovascular Procedures,3436.2707633587797,DRG
 OTHER KIDNEY & URINARY TRACT DIAGNOSES W MCC,8555.0714286,Standard
