Description,Charge,Category
Level 3 Urology and Related Services,1132.4372727272698,DRG
Comprehensive Observation Services,1579.21286259541,DRG
"Level 3 Extraocular, Repair, and Plastic Eye Procedures",1220.75583333333,DRG
 HEART FAILURE & SHOCK W MCC,22940.710526,Standard
 RENAL FAILURE W MCC,23685.235294,Standard
 RENAL FAILURE W CC,19492.692308,Standard
 SEPTICEMIA OR SEVERE SEPSIS W/O MV >96 HOURS W MCC,28320.875,Standard
" ""ALCOHOL/DRUG ABUSE OR DEPENDENCE, LEFT AMA""",16785.3125,Standard
Level 4 Gynecologic Procedures,1534.3511764705802,DRG
Level 2 Intraocular Procedures,2438.75166666666,DRG
 ALCOHOL/DRUG ABUSE OR DEPENDENCE W/O REHABILITATION THERAPY W/O MCC,20271.534884,Standard
Level 1 Intraocular Procedures,1294.35,DRG
Level 3 Airway Endoscopy,894.19,DRG
Level 4 Airway Endoscopy,1767.56,DRG
Level 1 Endovascular Procedures,1642.29567901234,DRG
Level 2 Upper GI Procedures,964.24,DRG
Abdominal/Peritoneal/Biliary and Related Procedures,1963.7326666666602,DRG
Level 1 Laparoscopy and Related Services,3024.2494444444396,DRG
Level 2 Excision/ Biopsy/ Incision and Drainage,880.0303703703698,DRG
Level 4 Musculoskeletal Procedures,3774.2372727272705,DRG
