Description,Charge,Category
 INTRACRANIAL HEMORRHAGE OR CEREBRAL INFARCTION W CC OR TPA IN 24 HRS,6280.533333300001,Standard
 RESPIRATORY INFECTIONS & INFLAMMATIONS W MCC,9759.5789474,Standard
 PULMONARY EDEMA & RESPIRATORY FAILURE,6807.0,Standard
 CHRONIC OBSTRUCTIVE PULMONARY DISEASE W MCC,6396.56,Standard
 CHRONIC OBSTRUCTIVE PULMONARY DISEASE W CC,5219.1666667,Standard
 HIP & FEMUR PROCEDURES EXCEPT MAJOR JOINT W CC,10855.526316,Standard
 RESPIRATORY SYSTEM DIAGNOSIS W VENTILATOR SUPPORT <=96 HOURS,12721.375,Standard
 PERC CARDIOVASC PROC W DRUG,11418.166667,Standard
 HEART FAILURE & SHOCK W MCC,7808.5952381,Standard
 HEART FAILURE & SHOCK W CC,5226.4444444,Standard
 G.I. HEMORRHAGE W CC,5424.3076923,Standard
 CHOLECYSTECTOMY EXCEPT BY LAPAROSCOPE W/O C.D.E. W/O CC/MCC,7737.4090909,Standard
 MAJOR HIP AND KNEE JOINT REPLACEMENT OR REATTACHMENT OF LOWER EXTREM,11162.811593999999,Standard
 SIMPLE PNEUMONIA & PLEURISY W CC,5361.5833333,Standard
 RESPIRATORY INFECTIONS & INFLAMMATIONS W CC,7156.9411765,Standard
 RENAL FAILURE W CC,5238.7142857,Standard
Level 2 Upper GI Procedures,946.7441666666671,DRG
Abdominal/Peritoneal/Biliary and Related Procedures,1942.6542105263102,DRG
Comprehensive Observation Services,1548.6758940397199,DRG
Level 2 Excision/ Biopsy/ Incision and Drainage,879.40857142857,DRG
 CELLULITIS W/O MCC,19193.5,Standard
Level 3 Endovascular Procedures,7458.25,DRG
Level 1 Endovascular Procedures,1628.04,DRG
 SEPTICEMIA OR SEVERE SEPSIS W/O MV >96 HOURS W/O MCC,5982.225,Standard
 SEPTICEMIA OR SEVERE SEPSIS W/O MV >96 HOURS W MCC,9839.584507,Standard
 INFECTIOUS & PARASITIC DISEASES W O.R. PROCEDURE W MCC,21155.421053000002,Standard
 KIDNEY & URINARY TRACT INFECTIONS W/O MCC,4589.8888889,Standard
 SIGNS & SYMPTOMS W/O MCC,4433.0,Standard
 MAJOR JOINT/LIMB REATTACHMENT PROCEDURE OF UPPER EXTREMITIES,12727.0,Standard
