Description,Charge,Category
"Inguinal, Femoral & Umbilical Hernia Procedures",16734.0,Surgical
"Inguinal, Femoral & Umbilical Hernia Procedures",35155.0,Surgical
"Inguinal, Femoral & Umbilical Hernia Procedures",32233.0,Surgical
"Major Pancreas, Liver & Shunt Procedures",24797.0,Surgical
Other Digestive System & Abdominal Procedures,13556.0,Surgical
Digestive Malignancy,19220.0,Medical
Digestive Malignancy,27205.0,Medical
Peptic Ulcer & Gastritis,13379.0,Medical
Peptic Ulcer & Gastritis,16965.0,Medical
Peptic Ulcer & Gastritis,19767.0,Medical
Major Esophageal Disorders,26520.0,Medical
Major Esophageal Disorders,121315.0,Medical
Other Esophageal Disorders,14190.0,Medical
Other Esophageal Disorders,19841.0,Medical
Other Esophageal Disorders,62358.0,Medical
Other Esophageal Disorders,31089.0,Medical
Diverticulitis & Diverticulosis,12482.0,Medical
Diverticulitis & Diverticulosis,13774.0,Medical
Digestive Malignancy,15932.0,Medical
"Major Pancreas, Liver & Shunt Procedures",57869.0,Surgical
Cholecystectomy Except Laparoscopic,28856.0,Surgical
Cholecystectomy Except Laparoscopic,42046.0,Surgical
Hip Joint Replacement,57687.0,Surgical
Knee Joint Replacement,39329.0,Surgical
Knee Joint Replacement,39377.0,Surgical
Amputation Of Lower Limb Except Toes,82929.0,Surgical
Amputation Of Lower Limb Except Toes,45227.0,Surgical
Amputation Of Lower Limb Except Toes,77521.0,Surgical
Hip & Femur Procedures For Trauma Except Joint Replacement,31949.0,Surgical
Hip & Femur Procedures For Trauma Except Joint Replacement,28538.0,Surgical
Hip & Femur Procedures For Trauma Except Joint Replacement,50267.0,Surgical
Hip & Femur Procedures For Trauma Except Joint Replacement,128139.0,Surgical
Hip & Femur Procedures For Non-Trauma Except Joint Replacement,47400.0,Surgical
Hip & Femur Procedures For Non-Trauma Except Joint Replacement,35176.0,Surgical
Knee & Lower Leg Procedures Except Foot,23258.0,Surgical
Hip Joint Replacement,52259.0,Surgical
Knee & Lower Leg Procedures Except Foot,27805.0,Surgical
Foot & Toe Procedures,9378.0,Surgical
Foot & Toe Procedures,43070.0,Surgical
Foot & Toe Procedures,31591.0,Surgical
"Shoulder, Upper Arm & Forearm Procedures",18259.0,Surgical
"Shoulder, Upper Arm & Forearm Procedures",38690.0,Surgical
"Shoulder, Upper Arm & Forearm Procedures",37775.0,Surgical
"Shoulder, Upper Arm & Forearm Procedures",38849.0,Surgical
Hand & Wrist Procedures,7762.0,Surgical
Hand & Wrist Procedures,19231.0,Surgical
"Tendon, Muscle & Other Soft Tissue Procedures",8074.0,Surgical
Other Musculoskeletal System & Connective Tissue Procedures,18924.0,Surgical
Other Musculoskeletal System & Connective Tissue Procedures,31628.0,Surgical
Other Musculoskeletal System & Connective Tissue Procedures,64933.0,Surgical
Knee & Lower Leg Procedures Except Foot,42933.0,Surgical
Peritoneal Adhesiolysis,92739.0,Surgical
Hip Joint Replacement,51117.0,Surgical
Hip Joint Replacement,50141.0,Surgical
Cholecystectomy Except Laparoscopic,67362.0,Surgical
Cholecystectomy Except Laparoscopic,40154.0,Surgical
Laparoscopic Cholecystectomy,20263.0,Surgical
Laparoscopic Cholecystectomy,27040.0,Surgical
Laparoscopic Cholecystectomy,47629.0,Surgical
Laparoscopic Cholecystectomy,84947.0,Surgical
Hepatic Coma & Other Major Acute Liver Disorders,9260.0,Medical
Hepatic Coma & Other Major Acute Liver Disorders,11515.0,Medical
Hepatic Coma & Other Major Acute Liver Disorders,34018.0,Medical
Hepatic Coma & Other Major Acute Liver Disorders,49287.0,Medical
Alcoholic Liver Disease,9920.0,Medical
Alcoholic Liver Disease,24794.0,Medical
Alcoholic Liver Disease,161980.0,Medical
Skin Ulcers,35424.0,Medical
Malignancy Of Hepatobiliary System & Pancreas,11137.0,Medical
Malignancy Of Hepatobiliary System & Pancreas,23774.0,Medical
Disorders Of Pancreas Except Malignancy,13350.0,Medical
Disorders Of Pancreas Except Malignancy,18270.0,Medical
Disorders Of Pancreas Except Malignancy,27675.0,Medical
Disorders Of Pancreas Except Malignancy,34139.0,Medical
Other Disorders Of The Liver,15022.0,Medical
Other Disorders Of The Liver,17069.0,Medical
Other Disorders Of The Liver,21621.0,Medical
Other Disorders Of The Liver,33060.0,Medical
Disorders Of Gallbladder & Biliary Tract,9887.0,Medical
Disorders Of Gallbladder & Biliary Tract,30269.0,Medical
Disorders Of Gallbladder & Biliary Tract,34435.0,Medical
Disorders Of Gallbladder & Biliary Tract,57599.0,Medical
Malignancy Of Hepatobiliary System & Pancreas,10317.0,Medical
Intracranial Hemorrhage,14092.0,Medical
Peritoneal Adhesiolysis,69023.0,Surgical
Other Small & Large Bowel Procedures,68705.0,Surgical
Male Reproductive System Diagnoses Except Malignancy,18865.0,Medical
Uterine & Adnexa Procedures For Non-Malignancy Except Leiomyoma,12296.0,Surgical
Uterine & Adnexa Procedures For Non-Malignancy Except Leiomyoma,19256.0,Surgical
Female Reproductive System Reconstructive Procedures,13090.0,Surgical
Female Reproductive System Reconstructive Procedures,21953.0,Surgical
Dilation & Curettage For Non-Obstetric Diagnoses,12586.0,Surgical
Dilation & Curettage For Non-Obstetric Diagnoses,19049.0,Surgical
Uterine & Adnexa Procedures For Leiomyoma,9881.0,Surgical
Uterine & Adnexa Procedures For Leiomyoma,13686.0,Surgical
Female Reproductive System Malignancy,12754.0,Medical
Female Reproductive System Malignancy,34916.0,Medical
Female Reproductive System Infections,11709.0,Medical
Female Reproductive System Infections,9148.0,Medical
Female Reproductive System Infections,10631.0,Medical
Menstrual & Other Female Reproductive System Disorders,7409.0,Medical
Menstrual & Other Female Reproductive System Disorders,15670.0,Medical
Menstrual & Other Female Reproductive System Disorders,22069.0,Medical
"D&C, Aspiration Curettage Or Hysterotomy For Obstetric Diagnoses",5345.0,Surgical
Ectopic Pregnancy Procedure,8181.0,Surgical
Postpartum & Post Abortion Diagnoses W/O Procedure,3991.0,Medical
Other Antepartum Diagnoses,4004.0,Medical
Other Procedures Of Blood & Blood-Forming Organs,23182.0,Surgical
Major Hematologic/Immunologic Diag Exc Sickle Cell Crisis & Coagul,7257.0,Medical
Major Hematologic/Immunologic Diag Exc Sickle Cell Crisis & Coagul,31680.0,Medical
Acute & Subacute Endocarditis,76114.0,Medical
Heart Failure,14719.0,Medical
Coagulation & Platelet Disorders,20805.0,Medical
Male Reproductive System Diagnoses Except Malignancy,10465.0,Medical
Male Reproductive System Diagnoses Except Malignancy,12168.0,Medical
"Malignancy, Male Reproductive System",2560.0,Medical
"Malignancy, Male Reproductive System",32879.0,Medical
Renal Failure,16910.0,Medical
Renal Failure,32069.0,Medical
Renal Failure,67130.0,Medical
Kidney & Urinary Tract Malignancy,26292.0,Medical
Kidney & Urinary Tract Malignancy,31566.0,Medical
Kidney & Urinary Tract Infections,11774.0,Medical
Acute Myocardial Infarction,22456.0,Medical
Acute Myocardial Infarction,22060.0,Medical
Kidney & Urinary Tract Infections,16745.0,Medical
Kidney & Urinary Tract Infections,23546.0,Medical
Kidney & Urinary Tract Infections,53255.0,Medical
Urinary Stones & Acquired Upper Urinary Tract Obstruction,5981.0,Medical
Urinary Stones & Acquired Upper Urinary Tract Obstruction,10924.0,Medical
Coagulation & Platelet Disorders,20108.0,Medical
Urinary Stones & Acquired Upper Urinary Tract Obstruction,15204.0,Medical
"Malfunction, Reaction, Complic Of Genitourinary Device Or Proc",7708.0,Medical
"Malfunction, Reaction, Complic Of Genitourinary Device Or Proc",32048.0,Medical
"Malfunction, Reaction, Complic Of Genitourinary Device Or Proc",76407.0,Medical
"Other Kidney & Urinary Tract Diagnoses, Signs & Symptoms",12744.0,Medical
"Other Kidney & Urinary Tract Diagnoses, Signs & Symptoms",13230.0,Medical
"Other Kidney & Urinary Tract Diagnoses, Signs & Symptoms",22543.0,Medical
Transurethral Prostatectomy,25167.0,Surgical
Transurethral Prostatectomy,42904.0,Surgical
Acute Myocardial Infarction,61299.0,Medical
Acute & Subacute Endocarditis,15516.0,Medical
Testes & Scrotal Procedures,4795.0,Surgical
"Malignancy, Male Reproductive System",3549.0,Medical
"Malignancy, Male Reproductive System",4632.0,Medical
Urinary Stones & Acquired Upper Urinary Tract Obstruction,35972.0,Medical
Sickle Cell Anemia Crisis,11396.0,Medical
Sickle Cell Anemia Crisis,17669.0,Medical
Sickle Cell Anemia Crisis,16784.0,Medical
Cardiac Arrhythmia & Conduction Disorders,17332.0,Medical
Cardiac Arrhythmia & Conduction Disorders,26858.0,Medical
Cardiac Arrhythmia & Conduction Disorders,50870.0,Medical
Chest Pain,9291.0,Medical
Chest Pain,12896.0,Medical
Chest Pain,14988.0,Medical
Syncope & Collapse,12197.0,Medical
Syncope & Collapse,18121.0,Medical
Syncope & Collapse,23548.0,Medical
Syncope & Collapse,16166.0,Medical
"Malfunction,Reaction,Complication Of Cardiac/Vasc Device Or Procedure",6970.0,Medical
"Malfunction,Reaction,Complication Of Cardiac/Vasc Device Or Procedure",9143.0,Medical
"Malfunction,Reaction,Complication Of Cardiac/Vasc Device Or Procedure",32432.0,Medical
Cardiac Arrhythmia & Conduction Disorders,12131.0,Medical
"Malfunction,Reaction,Complication Of Cardiac/Vasc Device Or Procedure",31841.0,Medical
Other Circulatory System Diagnoses,15249.0,Medical
Other Circulatory System Diagnoses,32765.0,Medical
Other Circulatory System Diagnoses,17714.0,Medical
"Major Stomach, Esophageal & Duodenal Procedures",30753.0,Surgical
"Major Stomach, Esophageal & Duodenal Procedures",123859.0,Surgical
"Major Stomach, Esophageal & Duodenal Procedures",186842.0,Surgical
Major Small & Large Bowel Procedures,25979.0,Surgical
Major Small & Large Bowel Procedures,39278.0,Surgical
Major Small & Large Bowel Procedures,47395.0,Surgical
