Description,Charge,Category
 RESPIRATORY INFECTIONS & INFLAMMATIONS W CC,16832.217391,Standard
 RESPIRATORY INFECTIONS & INFLAMMATIONS W MCC,21860.259259,Standard
 PULMONARY EMBOLISM W/O MCC,14241.523809999999,Standard
 ALCOHOL/DRUG ABUSE OR DEPENDENCE W/O REHABILITATION THERAPY W/O MCC,12645.478261,Standard
 SEIZURES W/O MCC,11951.014286,Standard
 SEIZURES W MCC,20759.833333000002,Standard
 OTHER DISORDERS OF NERVOUS SYSTEM W CC,12907.545455,Standard
" TRAUMATIC STUPOR & COMA, COMA <1 HR W/O CC/MCC",12994.230769,Standard
 NONSPECIFIC CEREBROVASCULAR DISORDERS W MCC,19170.454545,Standard
 TRANSIENT ISCHEMIA W/O THROMBOLYTIC,11231.695652,Standard
 INTRACRANIAL HEMORRHAGE OR CEREBRAL INFARCTION W/O CC/MCC,10978.294118000002,Standard
 SPINAL FUSION EXCEPT CERVICAL W/O MCC,44894.272726999996,Standard
 INTRACRANIAL HEMORRHAGE OR CEREBRAL INFARCTION W CC OR TPA IN 24 HRS,14925.982456,Standard
 INTRACRANIAL HEMORRHAGE OR CEREBRAL INFARCTION W MCC,24156.333333000002,Standard
 OTHER RESP SYSTEM O.R. PROCEDURES W MCC,42053.454545,Standard
 RESPIRATORY NEOPLASMS W CC,18015.666666999998,Standard
 CHRONIC OBSTRUCTIVE PULMONARY DISEASE W MCC,15518.219512,Standard
 PULMONARY EDEMA & RESPIRATORY FAILURE,16960.818182,Standard
 OTHER VASCULAR PROCEDURES W CC,29605.0,Standard
 OTHER VASCULAR PROCEDURES W MCC,38940.418605,Standard
 PERC CARDIOVASC PROC W DRUG,24783.595237999998,Standard
 PERCUTANEOUS CARDIOVASCULAR PROCEDURES W DRUG,36889.581395,Standard
 PERMANENT CARDIAC PACEMAKER IMPLANT W CC,30061.666667,Standard
 RESPIRATORY SYSTEM DIAGNOSIS W VENTILATOR SUPPORT <=96 HOURS,30454.934782999997,Standard
 MAJOR CHEST TRAUMA W CC,13981.583333,Standard
 RESPIRATORY SYSTEM DIAGNOSIS W VENTILATOR SUPPORT >96 HOURS,62821.5,Standard
 BRONCHITIS & ASTHMA W CC/MCC,13346.095238,Standard
 SIMPLE PNEUMONIA & PLEURISY W CC,13249.068181999999,Standard
 SIMPLE PNEUMONIA & PLEURISY W MCC,18544.0,Standard
 CHRONIC OBSTRUCTIVE PULMONARY DISEASE W/O CC/MCC,11065.592593000001,Standard
 CHRONIC OBSTRUCTIVE PULMONARY DISEASE W CC,12856.176470999999,Standard
 DEGENERATIVE NERVOUS SYSTEM DISORDERS W/O MCC,14962.392856999999,Standard
 BRONCHITIS & ASTHMA W/O CC/MCC,10472.0625,Standard
 CRANIOTOMY & ENDOVASCULAR INTRACRANIAL PROCEDURES W MCC,60865.0,Standard
Level 5 Urology and Related Services,2907.78830508474,DRG
 LIVER TRANSPLANT W MCC OR INTESTINAL TRANSPLANT,124437.83333,Standard
Level 1 Breast/Lymphatic Surgery and Related Procedures,2211.65133333333,DRG
Level 2 Breast/Lymphatic Surgery and Related Procedures,3887.28461538461,DRG
 POISONING & TOXIC EFFECTS OF DRUGS W/O MCC,11025.137931000001,Standard
Level 2 Musculoskeletal Procedures,1101.85,DRG
Level 3 Musculoskeletal Procedures,2135.70285714285,DRG
Level 4 Musculoskeletal Procedures,4461.5175,DRG
Level 4 Airway Endoscopy,1998.685,DRG
Level 5 ENT Procedures,3569.18,DRG
Level 1 Endovascular Procedures,1962.9987999999898,DRG
Level 2 Endovascular Procedures,4153.97124999999,DRG
Level 3 Endovascular Procedures,9249.325217391279,DRG
Level 4 Endovascular Procedures,15160.16,DRG
Level 3 Electrophysiologic Procedures,17726.47,DRG
Level 2 Pacemaker and Similar Procedures,6266.19999999999,DRG
Level 3 Pacemaker and Similar Procedures,8710.42,DRG
Level 2 ICD and Similar Procedures,28998.1515,DRG
Level 2 Upper GI Procedures,1166.4911392405,DRG
" TRACH W MV >96 HRS OR PDX EXC FACE, MOUTH & NECK W/O MAJ O.R.",127386.0,Standard
" ""ECMO OR TRACH W MV >96 HRS OR PDX EXC FACE, MOUTH & NECK W MAJ O.R.",184622.09091,Standard
Level 4 Urology and Related Services,2141.20684210526,DRG
 OTHER CIRCULATORY SYSTEM O.R. PROCEDURES,38410.538462000004,Standard
Level 4 Gynecologic Procedures,1868.36058823529,DRG
Level 1 Nerve Procedures,1307.6425,DRG
  CRANIOTOMY W MAJOR DEVICE IMPLANT OR ACUTE COMPLEX CNS PDX W MCC OR,56591.636364,Standard
Level 2 Neurostimulator and Related Procedures,4277.4923076923,DRG
Comprehensive Observation Services,1884.6370481927697,DRG
 EXTENSIVE O.R. PROCEDURE UNRELATED TO PRINCIPAL DIAGNOSIS W CC,31958.923077,Standard
Level 3 Urology and Related Services,1368.9784684684598,DRG
Level 1 Laparoscopy and Related Services,3651.84878787878,DRG
Abdominal/Peritoneal/Biliary and Related Procedures,2385.9424489795897,DRG
Level 3 Lower GI Procedures,1904.88,DRG
Level 1 Intraocular Procedures,1553.8773611110998,DRG
 OTHER MAJOR CARDIOVASCULAR PROCEDURES W CC,44839.2,Standard
 HEART FAILURE & SHOCK W CC,14976.41791,Standard
" ""ACUTE MYOCARDIAL INFARCTION, DISCHARGED ALIVE W MCC""",23360.408163,Standard
 MEDICAL BACK PROBLEMS W/O MCC,13505.931034000001,Standard
 BONE DISEASES & ARTHROPATHIES W/O MCC,11918.642856999999,Standard
" FX, SPRN, STRN & DISL EXCEPT FEMUR, HIP, PELVIS & THIGH W/O MCC",11384.0,Standard
 CELLULITIS W/O MCC,13072.785714,Standard
 O.R. PROCEDURES FOR OBESITY W/O CC/MCC,16642.0,Standard
 DIABETES W MCC,20003.75,Standard
 DIABETES W CC,12763.147541,Standard
 DIABETES W/O CC/MCC,9722.5789474,Standard
" MISC DISORDERS OF NUTRITION,METABOLISM,FLUIDS/ELECTROLYTES W MCC",16323.777778,Standard
" ""MISC DISORDERS OF NUTRITION,METABOLISM,FLUIDS/ELECTROLYTES W/O MCC""",11389.96,Standard
 ENDOCRINE DISORDERS W CC,13441.75,Standard
 KIDNEY TRANSPLANT,44837.019607999995,Standard
 RENAL FAILURE W MCC,19827.210526,Standard
 RENAL FAILURE W CC,13709.720721000002,Standard
 RENAL FAILURE W/O CC/MCC,10079.529412,Standard
 KIDNEY & URINARY TRACT INFECTIONS W MCC,15600.961538,Standard
 KIDNEY & URINARY TRACT INFECTIONS W/O MCC,12901.631579,Standard
 POISONING & TOXIC EFFECTS OF DRUGS W MCC,17061.714286000002,Standard
 EXTENSIVE O.R. PROCEDURE UNRELATED TO PRINCIPAL DIAGNOSIS W MCC,51189.576923,Standard
 PSYCHOSES,17834.944444,Standard
 ORGANIC DISTURBANCES & INTELLECTUAL DISABILITY,17888.375,Standard
 SEPTICEMIA OR SEVERE SEPSIS W/O MV >96 HOURS W/O MCC,16408.017544,Standard
 SEPTICEMIA OR SEVERE SEPSIS W/O MV >96 HOURS W MCC,24340.508475,Standard
 MEDICAL BACK PROBLEMS W MCC,19411.909091,Standard
 SEPTICEMIA OR SEVERE SEPSIS W MV >96 HOURS OR PERIPHERAL EXTRACORPOR,71001.863636,Standard
 INFECTIOUS & PARASITIC DISEASES W O.R. PROCEDURE W MCC,61936.840909000006,Standard
 RED BLOOD CELL DISORDERS W/O MCC,13531.06,Standard
 RED BLOOD CELL DISORDERS W MCC,18086.68,Standard
 MAJOR HEMATOL/IMMUN DIAG EXC SICKLE CELL CRISIS & COAGUL W CC,17188.333333000002,Standard
 OTHER KIDNEY & URINARY TRACT DIAGNOSES W CC,16550.425926,Standard
 OTHER KIDNEY & URINARY TRACT DIAGNOSES W MCC,20971.12963,Standard
 FEVER AND INFLAMMATORY CONDITIONS,12599.071429000001,Standard
 HIP & FEMUR PROCEDURES EXCEPT MAJOR JOINT W CC,24847.8,Standard
 HIP & FEMUR PROCEDURES EXCEPT MAJOR JOINT W MCC,34907.384614999995,Standard
 MAJOR HIP AND KNEE JOINT REPLACEMENT OR REATTACHMENT OF LOWER EXTREM,22881.434211,Standard
 CHEST PAIN,10547.483870999999,Standard
 SYNCOPE & COLLAPSE,12324.458333,Standard
 CARDIAC ARRHYTHMIA & CONDUCTION DISORDERS W/O CC/MCC,8980.1875,Standard
 CARDIAC ARRHYTHMIA & CONDUCTION DISORDERS W CC,11218.744681,Standard
 CARDIAC ARRHYTHMIA & CONDUCTION DISORDERS W MCC,15974.555556,Standard
 HYPERTENSION W/O MCC,10432.090909,Standard
 OTHER CIRCULATORY SYSTEM DIAGNOSES W MCC,23608.256409999998,Standard
 HYPERTENSION W MCC,14340.5,Standard
 HEART FAILURE & SHOCK W/O CC/MCC,10763.033333,Standard
Level 3 Excision/ Biopsy/ Incision and Drainage,1881.95,DRG
 HEART FAILURE & SHOCK W MCC,18659.183962,Standard
" CIRCULATORY DISORDERS EXCEPT AMI, W CARD CATH W/O MCC",16817.352941,Standard
" ""CIRCULATORY DISORDERS EXCEPT AMI, W CARD CATH W MCC""",30097.734694,Standard
" ACUTE MYOCARDIAL INFARCTION, DISCHARGED ALIVE W CC",14406.846153999999,Standard
 PERIPHERAL VASCULAR DISORDERS W CC,15790.586206999998,Standard
 PERCUTANEOUS INTRACARDIAC PROCEDURES W/O MCC,29401.409091,Standard
 OTHER CIRCULATORY SYSTEM DIAGNOSES W CC,14197.909091,Standard
 MAJOR SMALL & LARGE BOWEL PROCEDURES W/O CC/MCC,23604.428571,Standard
 DISORDERS OF THE BILIARY TRACT W CC,14380.538462,Standard
" ""DISORDERS OF LIVER EXCEPT MALIG,CIRR,ALC HEPA W/O CC/MCC""",13921.181818000001,Standard
" DISORDERS OF LIVER EXCEPT MALIG,CIRR,ALC HEPA W CC",14485.391303999999,Standard
" ""DISORDERS OF LIVER EXCEPT MALIG,CIRR,ALC HEPA W MCC""",32324.90625,Standard
 CIRRHOSIS & ALCOHOLIC HEPATITIS W CC,15948.923077000001,Standard
 CIRRHOSIS & ALCOHOLIC HEPATITIS W MCC,25725.5,Standard
 MAJOR SMALL & LARGE BOWEL PROCEDURES W MCC,69818.666667,Standard
 OTHER DIGESTIVE SYSTEM DIAGNOSES W CC,13529.65625,Standard
" ""ESOPHAGITIS, GASTROENT & MISC DIGEST DISORDERS W/O MCC""",12356.253333,Standard
" ESOPHAGITIS, GASTROENT & MISC DIGEST DISORDERS W MCC",16347.12,Standard
 G.I. OBSTRUCTION W CC,14149.85,Standard
 G.I. HEMORRHAGE W CC,14689.327869,Standard
 G.I. HEMORRHAGE W MCC,23042.44186,Standard
 MAJOR GASTROINTESTINAL DISORDERS & PERITONEAL INFECTIONS W CC,16797.909091,Standard
 OTHER DIGESTIVE SYSTEM DIAGNOSES W MCC,22482.230768999998,Standard
Level 2 Excision/ Biopsy/ Incision and Drainage,1099.18070063694,DRG
 SIGNS & SYMPTOMS W/O MCC,12492.970588,Standard
