Description,Charge,Category
 CORONARY BYPASS W/O CARDIAC CATH W MCC,49815.736842,Standard
" ""MISC DISORDERS OF NUTRITION,METABOLISM,FLUIDS/ELECTROLYTES W/O MCC""",8794.3103448,Standard
" MISC DISORDERS OF NUTRITION,METABOLISM,FLUIDS/ELECTROLYTES W MCC",11553.875,Standard
 DIABETES W CC,9913.6666667,Standard
 CELLULITIS W/O MCC,9330.21875,Standard
" FX, SPRN, STRN & DISL EXCEPT FEMUR, HIP, PELVIS & THIGH W/O MCC",9001.0833333,Standard
 BONE DISEASES & ARTHROPATHIES W/O MCC,8166.5454545,Standard
 MEDICAL BACK PROBLEMS W/O MCC,9617.8863636,Standard
 MEDICAL BACK PROBLEMS W MCC,13529.933333,Standard
" LOWER EXTREM & HUMER PROC EXCEPT HIP,FOOT,FEMUR W CC",20314.904762000002,Standard
 MAJOR JOINT/LIMB REATTACHMENT PROCEDURE OF UPPER EXTREMITIES,19433.590909,Standard
 CORONARY BYPASS W/O CARDIAC CATH W/O MCC,33618.5,Standard
 HIP & FEMUR PROCEDURES EXCEPT MAJOR JOINT W CC,19336.575,Standard
 HIP & FEMUR PROCEDURES EXCEPT MAJOR JOINT W MCC,26743.470588,Standard
 CERVICAL SPINAL FUSION W CC,23566.380952,Standard
 MAJOR HIP AND KNEE JOINT REPLACEMENT OR REATTACHMENT OF LOWER EXTREM,15782.930818,Standard
 RESPIRATORY SYSTEM DIAGNOSIS W VENTILATOR SUPPORT <=96 HOURS,23516.074074,Standard
 PNEUMOTHORAX W CC,11905.142856999999,Standard
 SIMPLE PNEUMONIA & PLEURISY W CC,9151.5517241,Standard
 SIMPLE PNEUMONIA & PLEURISY W MCC,13394.0,Standard
 KIDNEY TRANSPLANT,37939.611111,Standard
 CHRONIC OBSTRUCTIVE PULMONARY DISEASE W MCC,11720.275862,Standard
 TRANSURETHRAL PROCEDURES W CC,14538.454544999999,Standard
 RENAL FAILURE W CC,9691.375,Standard
 EXTENSIVE O.R. PROCEDURE UNRELATED TO PRINCIPAL DIAGNOSIS W MCC,45383.551724000004,Standard
 OTHER MULTIPLE SIGNIFICANT TRAUMA W CC,15275.666667,Standard
 PERIPHERAL VASCULAR DISORDERS W CC,10804.611111,Standard
 SIGNS & SYMPTOMS W/O MCC,7968.6153846,Standard
 OTHER O.R. PROCEDURES FOR INJURIES W CC,19781.916666999998,Standard
 SEPTICEMIA OR SEVERE SEPSIS W/O MV >96 HOURS W/O MCC,11795.761905,Standard
 SEPTICEMIA OR SEVERE SEPSIS W/O MV >96 HOURS W MCC,19744.985075,Standard
 SEPTICEMIA OR SEVERE SEPSIS W MV >96 HOURS OR PERIPHERAL EXTRACORPOR,63032.8,Standard
 POSTOPERATIVE & POST,17322.428571,Standard
 POSTOPERATIVE OR POST,16770.857143,Standard
 POSTOPERATIVE OR POST,39459.538462000004,Standard
 INFECTIOUS & PARASITIC DISEASES W O.R. PROCEDURE W MCC,48440.4,Standard
 CHEMOTHERAPY W/O ACUTE LEUKEMIA AS SECONDARY DIAGNOSIS W CC,12599.684211,Standard
 RED BLOOD CELL DISORDERS W/O MCC,9298.904761900001,Standard
 OTHER KIDNEY & URINARY TRACT DIAGNOSES W CC,11289.157895,Standard
 OTHER KIDNEY & URINARY TRACT DIAGNOSES W MCC,14244.714286000002,Standard
 URINARY STONES W/O ESW LITHOTRIPSY W/O MCC,8207.5454545,Standard
 KIDNEY & URINARY TRACT INFECTIONS W/O MCC,9057.368421100002,Standard
 KIDNEY & URINARY TRACT INFECTIONS W MCC,9843.3846154,Standard
 RENAL FAILURE W MCC,15111.709677,Standard
 PULMONARY EDEMA & RESPIRATORY FAILURE,12495.838235,Standard
 MAJOR CHEST TRAUMA W CC,11851.65,Standard
" ""DISORDERS OF LIVER EXCEPT MALIG,CIRR,ALC HEPA W MCC""",17695.909091,Standard
" WND DEBRID & SKN GRFT EXC HAND, FOR MUSCULO",31326.818182,Standard
 REVISION OF HIP OR KNEE REPLACEMENT W CC,27401.617647000003,Standard
  CRANIOTOMY W MAJOR DEVICE IMPLANT OR ACUTE COMPLEX CNS PDX W MCC OR,45593.075,Standard
 CRANIO W MAJOR DEV IMPL/ACUTE COMPLEX CNS PDX W/O MCC,29948.25,Standard
 CRANIOTOMY & ENDOVASCULAR INTRACRANIAL PROCEDURES W MCC,36033.585366,Standard
 CRANIOTOMY & ENDOVASCULAR INTRACRANIAL PROCEDURES W CC,25561.625,Standard
 CRANIOTOMY & ENDOVASCULAR INTRACRANIAL PROCEDURES W/O CC/MCC,19503.304347999998,Standard
 SPINAL PROCEDURES W CC OR SPINAL NEUROSTIMULATORS,27107.705882,Standard
 EXTRACRANIAL PROCEDURES W/O CC/MCC,9612.0833333,Standard
 NERVOUS SYSTEM NEOPLASMS W MCC,12986.074074,Standard
 DEGENERATIVE NERVOUS SYSTEM DISORDERS W MCC,20165.818182,Standard
 DEGENERATIVE NERVOUS SYSTEM DISORDERS W/O MCC,11554.666667,Standard
 MAJOR HIP AND KNEE JOINT REPLACEMENT OR REATTACHMENT OF LOWER EXTREM,27177.461538,Standard
 INTRACRANIAL HEMORRHAGE OR CEREBRAL INFARCTION W MCC,17133.505051,Standard
 INTRACRANIAL HEMORRHAGE OR CEREBRAL INFARCTION W CC OR TPA IN 24 HRS,11068.021504999999,Standard
 INTRACRANIAL HEMORRHAGE OR CEREBRAL INFARCTION W/O CC/MCC,8160.8695652,Standard
 TRANSIENT ISCHEMIA W/O THROMBOLYTIC,7683.0,Standard
 NONSPECIFIC CEREBROVASCULAR DISORDERS W MCC,18820.714286000002,Standard
" ""TRAUMATIC STUPOR & COMA, COMA >1 HR W MCC""",21053.318182,Standard
 SPINAL FUSION EXCEPT CERVICAL W/O MCC,31661.767857,Standard
" ""TRAUMATIC STUPOR & COMA, COMA <1 HR W CC""",11486.305556,Standard
 OTHER DISORDERS OF NERVOUS SYSTEM W CC,9846.4545455,Standard
 SEIZURES W MCC,18068.225806,Standard
" DISORDERS OF LIVER EXCEPT MALIG,CIRR,ALC HEPA W CC",10781.625,Standard
 DISORDERS OF THE BILIARY TRACT W MCC,15262.615385,Standard
 DISORDERS OF THE BILIARY TRACT W CC,11229.428570999999,Standard
 RESPIRATORY INFECTIONS & INFLAMMATIONS W MCC,18428.275862000002,Standard
 CARDIAC ARRHYTHMIA & CONDUCTION DISORDERS W MCC,13067.0,Standard
 CARDIAC ARRHYTHMIA & CONDUCTION DISORDERS W CC,8794.1034483,Standard
 CARDIAC ARRHYTHMIA & CONDUCTION DISORDERS W/O CC/MCC,6736.3846154,Standard
 SYNCOPE & COLLAPSE,8505.5,Standard
 OTHER CIRCULATORY SYSTEM DIAGNOSES W MCC,19251.923077,Standard
 EXTENSIVE O.R. PROCEDURE UNRELATED TO PRINCIPAL DIAGNOSIS W CC,24530.545455,Standard
 HEART TRANSPLANT OR IMPLANT OF HEART ASSIST SYSTEM W MCC,233820.38095,Standard
 PULMONARY EMBOLISM W/O MCC,8817.5833333,Standard
 PULMONARY EMBOLISM W MCC,14661.866666999998,Standard
 OTHER RESP SYSTEM O.R. PROCEDURES W CC,19101.75,Standard
 OTHER RESP SYSTEM O.R. PROCEDURES W MCC,36033.133333,Standard
 MAJOR CHEST PROCEDURES W/O CC/MCC,16375.363636000002,Standard
 MAJOR CHEST PROCEDURES W CC,21103.533333000003,Standard
 MAJOR CHEST PROCEDURES W MCC,36932.461537999996,Standard
 HEADACHES W/O MCC,8472.153846199999,Standard
 SEIZURES W/O MCC,8991.5862069,Standard
" ""ECMO OR TRACH W MV >96 HRS OR PDX EXC FACE, MOUTH & NECK W MAJ O.R.",141952.66,Standard
 NON,37340.6875,Standard
" ""TRAUMATIC STUPOR & COMA, COMA >1 HR W/O CC/MCC""",8896.727272700002,Standard
"Level 3 Extraocular, Repair, and Plastic Eye Procedures",1310.01,DRG
 G.I. HEMORRHAGE W CC,11052.018868000001,Standard
 G.I. OBSTRUCTION W CC,11342.529412,Standard
" ESOPHAGITIS, GASTROENT & MISC DIGEST DISORDERS W MCC",13651.529412,Standard
" ""ESOPHAGITIS, GASTROENT & MISC DIGEST DISORDERS W/O MCC""",9169.8461538,Standard
 OTHER DIGESTIVE SYSTEM DIAGNOSES W MCC,15872.266666999998,Standard
 OTHER DIGESTIVE SYSTEM DIAGNOSES W CC,11574.909091,Standard
" PANCREAS, LIVER & SHUNT PROCEDURES W CC",27823.066667000003,Standard
 G.I. HEMORRHAGE W MCC,18770.4375,Standard
 CIRRHOSIS & ALCOHOLIC HEPATITIS W MCC,19057.833333000002,Standard
 DISORDERS OF PANCREAS EXCEPT MALIGNANCY W CC,10676.090909,Standard
 DISORDERS OF PANCREAS EXCEPT MALIGNANCY W/O CC/MCC,7570.0,Standard
Comprehensive Observation Services,1636.5062523190802,DRG
" TRAUMATIC STUPOR & COMA, COMA >1 HR W CC",12784.233333,Standard
Level 2 Intraocular Procedures,2609.00913385827,DRG
Level 1 Intraocular Procedures,1374.59102564102,DRG
Level 4 Neurostimulator and Related Procedures,23901.83,DRG
 MALIGNANCY OF HEPATOBILIARY SYSTEM OR PANCREAS W MCC,15269.0,Standard
 MAJOR GASTROINTESTINAL DISORDERS & PERITONEAL INFECTIONS W CC,10868.272727,Standard
 MAJOR SMALL & LARGE BOWEL PROCEDURES W/O CC/MCC,15707.473684,Standard
 MAJOR SMALL & LARGE BOWEL PROCEDURES W CC,23085.6,Standard
 OTHER CIRCULATORY SYSTEM O.R. PROCEDURES,43522.0,Standard
 ENDOVASCULAR CARDIAC VALVE REPLACEMENT W MCC,58381.67346900001,Standard
 ENDOVASCULAR CARDIAC VALVE REPLACEMENT W/O MCC,45351.733333,Standard
 AORTIC AND HEART ASSIST PROCEDURES EXCEPT PULSATION BALLOON W/O MCC,32896.444444,Standard
 OTHER MAJOR CARDIOVASCULAR PROCEDURES W MCC,45889.727273000004,Standard
 OTHER MAJOR CARDIOVASCULAR PROCEDURES W CC,31412.8125,Standard
 PERCUTANEOUS INTRACARDIAC PROCEDURES W MCC,30259.083333,Standard
 PERCUTANEOUS INTRACARDIAC PROCEDURES W/O MCC,23796.666666999998,Standard
" ""ACUTE MYOCARDIAL INFARCTION, DISCHARGED ALIVE W MCC""",17103.701753999998,Standard
" ACUTE MYOCARDIAL INFARCTION, DISCHARGED ALIVE W CC",10908.933332999999,Standard
" ""CIRCULATORY DISORDERS EXCEPT AMI, W CARD CATH W MCC""",24032.044118,Standard
" CIRCULATORY DISORDERS EXCEPT AMI, W CARD CATH W/O MCC",12302.029412,Standard
 HEART FAILURE & SHOCK W MCC,15644.186441,Standard
 HEART FAILURE & SHOCK W CC,11444.592593000001,Standard
 PERIPHERAL VASCULAR DISORDERS W MCC,13393.266667,Standard
 OTHER CIRCULATORY SYSTEM DIAGNOSES W CC,10696.083333,Standard
 MAJOR SMALL & LARGE BOWEL PROCEDURES W MCC,44573.5,Standard
Level 3 Neurostimulator and Related Procedures,15291.2221212121,DRG
Level 1 Nerve Procedures,1091.953125,DRG
Level 5 Urology and Related Services,2623.26255319149,DRG
Level 4 Urology and Related Services,1911.3528,DRG
Level 3 Airway Endoscopy,957.33,DRG
Level 5 Musculoskeletal Procedures,7711.80693548386,DRG
Level 4 Musculoskeletal Procedures,3963.43048076921,DRG
Level 3 Musculoskeletal Procedures,1756.92857142857,DRG
Level 2 Musculoskeletal Procedures,857.872258064516,DRG
Level 2 Breast/Lymphatic Surgery and Related Procedures,3480.07,DRG
Level 3 Excision/ Biopsy/ Incision and Drainage,1608.29565217391,DRG
Level 2 Excision/ Biopsy/ Incision and Drainage,943.384496644295,DRG
 OTHER VASCULAR PROCEDURES W MCC,29980.354839,Standard
 PERC CARDIOVASC PROC W DRUG,18502.918919,Standard
 PERCUTANEOUS CARDIOVASCULAR PROCEDURES W DRUG,28680.848485000002,Standard
 PERMANENT CARDIAC PACEMAKER IMPLANT W CC,21919.357143,Standard
 OTHER HEART ASSIST SYSTEM IMPLANT,109760.84210999998,Standard
 CARDIAC VALVE & OTH MAJ CARDIOTHORACIC PROC W/O CARD CATH W MCC,61079.46666699999,Standard
 CARDIAC VALVE & OTH MAJ CARDIOTHORACIC PROC W/O CARD CATH W CC,45213.435897,Standard
 OTHER CARDIOTHORACIC PROCEDURES W MCC,51077.8,Standard
 OTHER CARDIOTHORACIC PROCEDURES W/O MCC,34570.722222000004,Standard
Level 4 Airway Endoscopy,1813.5116666666602,DRG
 OTHER VASCULAR PROCEDURES W/O CC/MCC,16232.0,Standard
Level 5 Airway Endoscopy,3517.89,DRG
Cochlear Implant Procedure,28158.169999999904,DRG
Level 3 Urology and Related Services,1218.96253012048,DRG
Level 2 Laparoscopy and Related Services,5553.29,DRG
Level 1 Laparoscopy and Related Services,3193.7365079365004,DRG
Abdominal/Peritoneal/Biliary and Related Procedures,2034.95233333333,DRG
Complex GI Procedures,3001.74166666666,DRG
Level 3 Lower GI Procedures,1563.0720000000001,DRG
Level 3 Upper GI Procedures,1983.8967741935398,DRG
Level 2 Upper GI Procedures,1015.26510526316,DRG
Level 2 ICD and Similar Procedures,26677.51,DRG
Level 1 ICD and Similar Procedures,17341.423571428502,DRG
Level 3 Pacemaker and Similar Procedures,7499.28,DRG
Level 2 Pacemaker and Similar Procedures,5350.4,DRG
Level 3 Electrophysiologic Procedures,15003.103287671202,DRG
Level 4 Endovascular Procedures,13169.72,DRG
Level 3 Endovascular Procedures,7649.13434343433,DRG
Level 2 Endovascular Procedures,3553.27989010988,DRG
Level 1 Endovascular Procedures,1708.00934027779,DRG
Level 5 ENT Procedures,2988.49523809523,DRG
 OTHER VASCULAR PROCEDURES W CC,23457.060606,Standard
