Description,Charge,Category
 ALCOHOL/DRUG ABUSE OR DEPENDENCE W REHABILITATION THERAPY,7912.1578947,Standard
 CHRONIC OBSTRUCTIVE PULMONARY DISEASE W MCC,6975.8235294,Standard
 CHRONIC OBSTRUCTIVE PULMONARY DISEASE W CC,5847.6923077,Standard
 SIMPLE PNEUMONIA & PLEURISY W MCC,7558.0,Standard
 SIMPLE PNEUMONIA & PLEURISY W CC,5813.8461538,Standard
 HEART FAILURE & SHOCK W MCC,8102.0833333,Standard
 MAJOR HIP AND KNEE JOINT REPLACEMENT OR REATTACHMENT OF LOWER EXTREM,11387.6,Standard
 SEPTICEMIA OR SEVERE SEPSIS W/O MV >96 HOURS W MCC,10355.652173999999,Standard
 SEPTICEMIA OR SEVERE SEPSIS W/O MV >96 HOURS W/O MCC,6368.7692308,Standard
 PSYCHOSES,7079.1538462,Standard
