Description,Charge,Category
 CARDIAC ARRHYTHMIA & CONDUCTION DISORDERS W MCC,7397.2,Standard
 INFECTIOUS & PARASITIC DISEASES W O.R. PROCEDURE W MCC,29780.206897000004,Standard
 OTHER KIDNEY & URINARY TRACT DIAGNOSES W MCC,9581.5217391,Standard
 RED BLOOD CELL DISORDERS W/O MCC,5508.1875,Standard
 RED BLOOD CELL DISORDERS W MCC,8452.958333300001,Standard
 FEVER AND INFLAMMATORY CONDITIONS,5394.5454545,Standard
 MAJOR HEMATOL/IMMUN DIAG EXC SICKLE CELL CRISIS & COAGUL W CC,7233.95,Standard
 OTHER KIDNEY & URINARY TRACT DIAGNOSES W CC,6371.3,Standard
 SEPTICEMIA OR SEVERE SEPSIS W MV >96 HOURS OR PERIPHERAL EXTRACORPOR,30949.625,Standard
 PERC CARDIOVASC PROC W DRUG,13759.034091,Standard
 SEPTICEMIA OR SEVERE SEPSIS W/O MV >96 HOURS W/O MCC,6335.6391753,Standard
 POISONING & TOXIC EFFECTS OF DRUGS W MCC,8443.142857100001,Standard
 SIGNS & SYMPTOMS W/O MCC,4560.2727273,Standard
 PERIPHERAL VASCULAR DISORDERS W CC,6261.1538462,Standard
 HEART FAILURE & SHOCK W/O CC/MCC,4151.8787879,Standard
 HEART FAILURE & SHOCK W CC,5867.7325581000005,Standard
 HEART FAILURE & SHOCK W MCC,8927.019607799999,Standard
 URINARY STONES W/O ESW LITHOTRIPSY W/O MCC,5314.4545455,Standard
" CIRCULATORY DISORDERS EXCEPT AMI, W CARD CATH W/O MCC",7278.4285714,Standard
" ""CIRCULATORY DISORDERS EXCEPT AMI, W CARD CATH W MCC""",13682.1,Standard
" ""ACUTE MYOCARDIAL INFARCTION, DISCHARGED ALIVE W/O CC/MCC""",4707.4,Standard
" ACUTE MYOCARDIAL INFARCTION, DISCHARGED ALIVE W CC",6089.6111111,Standard
" ""ACUTE MYOCARDIAL INFARCTION, DISCHARGED ALIVE W MCC""",10164.131579,Standard
 PERCUTANEOUS INTRACARDIAC PROCEDURES W/O MCC,17142.85,Standard
 SEPTICEMIA OR SEVERE SEPSIS W/O MV >96 HOURS W MCC,11009.513889,Standard
 KIDNEY & URINARY TRACT INFECTIONS W/O MCC,4958.7157895,Standard
" ""MISC DISORDERS OF NUTRITION,METABOLISM,FLUIDS/ELECTROLYTES W/O MCC""",4601.92,Standard
 RENAL FAILURE W CC,5797.0144928,Standard
 BILATERAL OR MULTIPLE MAJOR JOINT PROCS OF LOWER EXTREMITY W/O MCC,20924.866667,Standard
" DISORDERS OF LIVER EXCEPT MALIG,CIRR,ALC HEPA W CC",5558.6666667,Standard
 DISORDERS OF PANCREAS EXCEPT MALIGNANCY W CC,5459.533333300001,Standard
 LAPAROSCOPIC CHOLECYSTECTOMY W/O C.D.E. W CC,10313.466667,Standard
 OTHER DIGESTIVE SYSTEM DIAGNOSES W CC,5537.3,Standard
" ""ESOPHAGITIS, GASTROENT & MISC DIGEST DISORDERS W/O MCC""",4768.4545455,Standard
" ESOPHAGITIS, GASTROENT & MISC DIGEST DISORDERS W MCC",7470.952381,Standard
 G.I. OBSTRUCTION W/O CC/MCC,3706.65,Standard
 G.I. OBSTRUCTION W CC,5312.857142899999,Standard
 G.I. HEMORRHAGE W/O CC/MCC,4126.619047599999,Standard
 G.I. HEMORRHAGE W CC,6063.478260899999,Standard
 OTHER CIRCULATORY SYSTEM DIAGNOSES W MCC,11505.727273,Standard
 G.I. HEMORRHAGE W MCC,9884.322580600001,Standard
 MAJOR GASTROINTESTINAL DISORDERS & PERITONEAL INFECTIONS W CC,6009.1875,Standard
 MAJOR SMALL & LARGE BOWEL PROCEDURES W/O CC/MCC,10227.466667,Standard
 REVISION OF HIP OR KNEE REPLACEMENT W CC,20941.941176,Standard
 KIDNEY & URINARY TRACT INFECTIONS W MCC,6524.0338983,Standard
Level 5 ENT Procedures,3546.72,DRG
 HIP & FEMUR PROCEDURES EXCEPT MAJOR JOINT W CC,12304.820512999999,Standard
 CARDIAC ARRHYTHMIA & CONDUCTION DISORDERS W CC,4786.4827586,Standard
 CARDIAC ARRHYTHMIA & CONDUCTION DISORDERS W/O CC/MCC,3495.8913043000007,Standard
 SYNCOPE & COLLAPSE,4934.6470588,Standard
 RENAL FAILURE W MCC,9354.6,Standard
 ENDOVASCULAR CARDIAC VALVE REPLACEMENT W/O MCC,37725.878788,Standard
" MISC DISORDERS OF NUTRITION,METABOLISM,FLUIDS/ELECTROLYTES W MCC",7376.9714286,Standard
 DIABETES W CC,5192.0,Standard
 DIABETES W MCC,8265.6363636,Standard
" ""AMPUTAT OF LOWER LIMB FOR ENDOCRINE,NUTRIT,& METABOL DIS W CC""",12527.727273,Standard
 CELLULITIS W/O MCC,5331.2410714,Standard
 SIGNS & SYMPTOMS OF MUSCULOSKELETAL SYSTEM & CONN TISSUE W/O MCC,4832.8461538,Standard
 MEDICAL BACK PROBLEMS W/O MCC,5539.25,Standard
 FRACTURES OF HIP & PELVIS W/O MCC,4683.642857100001,Standard
 MAJOR JOINT/LIMB REATTACHMENT PROCEDURE OF UPPER EXTREMITIES,15011.393938999998,Standard
 HIP & FEMUR PROCEDURES EXCEPT MAJOR JOINT W/O CC/MCC,10504.473684,Standard
 MAJOR HIP AND KNEE JOINT REPLACEMENT OR REATTACHMENT OF LOWER EXTREM,13069.273038,Standard
 OTHER VASCULAR PROCEDURES W CC,16150.454544999999,Standard
 MAJOR SMALL & LARGE BOWEL PROCEDURES W CC,15817.810811000001,Standard
Level 1 Breast/Lymphatic Surgery and Related Procedures,2229.86,DRG
Level 4 Musculoskeletal Procedures,4580.49725146197,DRG
Level 3 Musculoskeletal Procedures,2162.26096590909,DRG
Level 2 Musculoskeletal Procedures,1103.5,DRG
Level 2 Breast/Lymphatic Surgery and Related Procedures,3929.0376923076897,DRG
 SIMPLE PNEUMONIA & PLEURISY W/O CC/MCC,4440.6739130000005,Standard
Level 3 Excision/ Biopsy/ Incision and Drainage,1900.1495652173899,DRG
Level 2 Excision/ Biopsy/ Incision and Drainage,1099.58792857143,DRG
 SIMPLE PNEUMONIA & PLEURISY W CC,5734.660550500001,Standard
 EXTRACRANIAL PROCEDURES W/O CC/MCC,7070.2941175999995,Standard
" ""ISCHEMIC STROKE, PRECEREBRAL OCCLUSION OR TRANSIENT ISCHEMIA W THRO",11952.363636,Standard
 INTRACRANIAL HEMORRHAGE OR CEREBRAL INFARCTION W MCC,10464.958333,Standard
 INTRACRANIAL HEMORRHAGE OR CEREBRAL INFARCTION W CC OR TPA IN 24 HRS,6119.847826100001,Standard
 INTRACRANIAL HEMORRHAGE OR CEREBRAL INFARCTION W/O CC/MCC,4573.9333333,Standard
 TRANSIENT ISCHEMIA W/O THROMBOLYTIC,4664.7692308,Standard
 OTHER DISORDERS OF NERVOUS SYSTEM W CC,5666.0,Standard
 OTHER DISORDERS OF NERVOUS SYSTEM W/O CC/MCC,4525.636363600001,Standard
 SEIZURES W MCC,9033.4,Standard
 SEIZURES W/O MCC,4902.64,Standard
 MAJOR CHEST PROCEDURES W CC,15943.272727000001,Standard
 OTHER RESP SYSTEM O.R. PROCEDURES W MCC,20522.384615,Standard
 PULMONARY EMBOLISM W MCC,9385.533333299998,Standard
 PULMONARY EMBOLISM W/O MCC,5761.095238100001,Standard
 RESPIRATORY INFECTIONS & INFLAMMATIONS W MCC,10906.351351000001,Standard
 RESPIRATORY INFECTIONS & INFLAMMATIONS W CC,7656.16,Standard
 RESPIRATORY INFECTIONS & INFLAMMATIONS W/O CC/MCC,5763.2307692,Standard
 PLEURAL EFFUSION W MCC,8541.4615385,Standard
 PULMONARY EDEMA & RESPIRATORY FAILURE,7502.2352941,Standard
 CHRONIC OBSTRUCTIVE PULMONARY DISEASE W MCC,7196.405940600001,Standard
 CHRONIC OBSTRUCTIVE PULMONARY DISEASE W CC,5783.0666667,Standard
Level 5 Musculoskeletal Procedures,9030.46,DRG
 CHRONIC OBSTRUCTIVE PULMONARY DISEASE W/O CC/MCC,4461.095238100001,Standard
Level 3 Airway Endoscopy,1071.02384615384,DRG
Level 5 Airway Endoscopy,3976.19,DRG
 PERCUTANEOUS CARDIOVASCULAR PROCEDURES W DRUG,20804.521739,Standard
 PERMANENT CARDIAC PACEMAKER IMPLANT W/O CC/MCC,13332.333333,Standard
 PERMANENT CARDIAC PACEMAKER IMPLANT W CC,15897.181818000001,Standard
 OTHER VASCULAR PROCEDURES W MCC,19980.45,Standard
 CORONARY BYPASS W/O CARDIAC CATH W/O MCC,24735.696969999997,Standard
 CARDIAC DEFIB IMPLANT W CARDIAC CATH W AMI/HF/SHOCK W/O MCC,40082.363636,Standard
 MAJOR SMALL & LARGE BOWEL PROCEDURES W MCC,28563.0625,Standard
 CARDIAC VALVE & OTH MAJ CARDIOTHORACIC PROC W/O CARD CATH W CC,33241.366667,Standard
 RESPIRATORY SYSTEM DIAGNOSIS W VENTILATOR SUPPORT <=96 HOURS,15406.038462,Standard
 BRONCHITIS & ASTHMA W CC/MCC,5738.5142857,Standard
Comprehensive Observation Services,1903.0920861677898,DRG
Level 2 Intraocular Procedures,2951.1625,DRG
Level 1 Intraocular Procedures,1547.8275247524698,DRG
Level 1 Nerve Procedures,1307.94136363636,DRG
Level 4 Gynecologic Procedures,1831.31885714285,DRG
Level 5 Urology and Related Services,3029.46999999999,DRG
Level 4 Urology and Related Services,2204.44,DRG
Level 3 Urology and Related Services,1366.4205479452,DRG
Level 1 Laparoscopy and Related Services,3664.8010309278397,DRG
Abdominal/Peritoneal/Biliary and Related Procedures,2379.7,DRG
Level 3 Lower GI Procedures,1825.29642857142,DRG
Level 2 Upper GI Procedures,1166.8099999999902,DRG
Level 2 ICD and Similar Procedures,30324.109999999902,DRG
Level 3 Pacemaker and Similar Procedures,8644.64555555554,DRG
Level 2 Pacemaker and Similar Procedures,6218.53,DRG
Level 3 Electrophysiologic Procedures,17606.7099999999,DRG
Level 3 Endovascular Procedures,9318.7290285714,DRG
Level 2 Endovascular Procedures,4156.71,DRG
Level 1 Endovascular Procedures,1974.6626984127,DRG
Level 4 Airway Endoscopy,2075.9911764705803,DRG
 SIMPLE PNEUMONIA & PLEURISY W MCC,8381.731481499999,Standard
