Description,Charge,Category
 ALCOHOL/DRUG ABUSE OR DEPENDENCE W/O REHABILITATION THERAPY W MCC,11145.875,Standard
" ""ALCOHOL/DRUG ABUSE OR DEPENDENCE, LEFT AMA""",4241.346666699999,Standard
 ALCOHOL/DRUG ABUSE OR DEPENDENCE W REHABILITATION THERAPY,9197.1699029,Standard
 ALCOHOL/DRUG ABUSE OR DEPENDENCE W/O REHABILITATION THERAPY W/O MCC,5855.608562699999,Standard
