Description,Charge,Category
 INTRACRANIAL HEMORRHAGE OR CEREBRAL INFARCTION W MCC,11376.538462,Standard
 INTRACRANIAL HEMORRHAGE OR CEREBRAL INFARCTION W CC OR TPA IN 24 HRS,7229.4814815,Standard
" ""CIRCULATORY DISORDERS EXCEPT AMI, W CARD CATH W MCC""",15782.666667,Standard
" ACUTE MYOCARDIAL INFARCTION, DISCHARGED ALIVE W CC",7100.9166667,Standard
" ""ACUTE MYOCARDIAL INFARCTION, DISCHARGED ALIVE W MCC""",11418.173912999999,Standard
 PERC CARDIOVASC PROC W DRUG,15597.592593000001,Standard
 PERCUTANEOUS CARDIOVASCULAR PROCEDURES W DRUG,22664.666666999998,Standard
 PERMANENT CARDIAC PACEMAKER IMPLANT W MCC,22991.916666999998,Standard
 SIMPLE PNEUMONIA & PLEURISY W CC,6487.1666667,Standard
 SIMPLE PNEUMONIA & PLEURISY W MCC,9350.029411799998,Standard
 CHRONIC OBSTRUCTIVE PULMONARY DISEASE W/O CC/MCC,5594.5882353,Standard
 CHRONIC OBSTRUCTIVE PULMONARY DISEASE W CC,6689.0,Standard
 TRANSIENT ISCHEMIA W/O THROMBOLYTIC,5494.4615385,Standard
 PULMONARY EDEMA & RESPIRATORY FAILURE,8745.642857100001,Standard
 RESPIRATORY INFECTIONS & INFLAMMATIONS W MCC,12347.666667,Standard
 PULMONARY EMBOLISM W/O MCC,6490.8461538,Standard
 NONSPECIFIC CEREBROVASCULAR DISORDERS W CC,7072.357142899999,Standard
 BRONCHITIS & ASTHMA W CC/MCC,6836.2272727,Standard
 CHRONIC OBSTRUCTIVE PULMONARY DISEASE W MCC,8314.8441558,Standard
Level 4 Urology and Related Services,2278.15,DRG
 HEART FAILURE & SHOCK W MCC,10147.461988,Standard
 CELLULITIS W/O MCC,6136.7297297,Standard
 DIABETES W MCC,9300.9333333,Standard
 DIABETES W CC,7678.5416667,Standard
" MISC DISORDERS OF NUTRITION,METABOLISM,FLUIDS/ELECTROLYTES W MCC",8176.15,Standard
" ""MISC DISORDERS OF NUTRITION,METABOLISM,FLUIDS/ELECTROLYTES W/O MCC""",5403.7083333,Standard
 RENAL FAILURE W CC,6762.0,Standard
 MEDICAL BACK PROBLEMS W/O MCC,6379.5789474,Standard
 KIDNEY & URINARY TRACT INFECTIONS W MCC,7536.2580645,Standard
 OTHER KIDNEY & URINARY TRACT DIAGNOSES W MCC,10554.619048,Standard
 RED BLOOD CELL DISORDERS W MCC,9191.8181818,Standard
 RED BLOOD CELL DISORDERS W/O MCC,6416.1333333,Standard
 INFECTIOUS & PARASITIC DISEASES W O.R. PROCEDURE W MCC,32362.468085000004,Standard
 SEPTICEMIA OR SEVERE SEPSIS W/O MV >96 HOURS W MCC,12792.354839,Standard
 SEPTICEMIA OR SEVERE SEPSIS W/O MV >96 HOURS W/O MCC,7492.9220779,Standard
 KIDNEY & URINARY TRACT INFECTIONS W/O MCC,5746.4222222,Standard
" CIRCULATORY DISORDERS EXCEPT AMI, W CARD CATH W/O MCC",9172.925925900001,Standard
 HIP & FEMUR PROCEDURES EXCEPT MAJOR JOINT W CC,14424.0,Standard
" ""ESOPHAGITIS, GASTROENT & MISC DIGEST DISORDERS W/O MCC""",5702.912280699999,Standard
 HEART FAILURE & SHOCK W CC,6853.0833333,Standard
 HEART FAILURE & SHOCK W/O CC/MCC,4893.4705882,Standard
 PERIPHERAL VASCULAR DISORDERS W CC,6846.1333333,Standard
 CARDIAC ARRHYTHMIA & CONDUCTION DISORDERS W MCC,8541.888888899999,Standard
 CARDIAC ARRHYTHMIA & CONDUCTION DISORDERS W CC,5435.0,Standard
 CARDIAC ARRHYTHMIA & CONDUCTION DISORDERS W/O CC/MCC,4553.8333333,Standard
 MAJOR HIP AND KNEE JOINT REPLACEMENT OR REATTACHMENT OF LOWER EXTREM,14594.048780000001,Standard
 SYNCOPE & COLLAPSE,5744.9375,Standard
 MAJOR SMALL & LARGE BOWEL PROCEDURES W MCC,35397.846154,Standard
 MAJOR SMALL & LARGE BOWEL PROCEDURES W CC,18322.235294,Standard
 G.I. HEMORRHAGE W MCC,11853.304348,Standard
 G.I. HEMORRHAGE W CC,6996.84,Standard
 G.I. OBSTRUCTION W CC,6385.2142857,Standard
" ESOPHAGITIS, GASTROENT & MISC DIGEST DISORDERS W MCC",8860.8333333,Standard
 CHEST PAIN,5249.2631579,Standard
 POISONING & TOXIC EFFECTS OF DRUGS W MCC,9437.727272700002,Standard
 OTHER DIGESTIVE SYSTEM DIAGNOSES W CC,6977.7272727,Standard
Level 3 Endovascular Procedures,9416.26471698114,DRG
Level 5 Urology and Related Services,3130.77,DRG
Level 4 Gynecologic Procedures,1917.7225,DRG
Level 1 Nerve Procedures,1295.7238095238001,DRG
Comprehensive Observation Services,1962.0736443148603,DRG
Abdominal/Peritoneal/Biliary and Related Procedures,2459.26,DRG
Level 3 Upper GI Procedures,2316.1692857142802,DRG
Level 2 Upper GI Procedures,1170.2780141844,DRG
Level 2 ICD and Similar Procedures,31381.859999999902,DRG
Level 1 ICD and Similar Procedures,22034.839230769197,DRG
Level 3 Pacemaker and Similar Procedures,8980.38,DRG
Level 2 Pacemaker and Similar Procedures,6464.90545454545,DRG
Level 3 Electrophysiologic Procedures,16581.1545454545,DRG
Level 2 Endovascular Procedures,4124.94346153845,DRG
Level 1 Endovascular Procedures,2015.93893203883,DRG
Level 4 Musculoskeletal Procedures,4730.64192307692,DRG
Level 3 Musculoskeletal Procedures,2048.9128,DRG
Level 2 Musculoskeletal Procedures,1096.5384615384598,DRG
Level 2 Breast/Lymphatic Surgery and Related Procedures,4064.96,DRG
Level 1 Breast/Lymphatic Surgery and Related Procedures,2304.41,DRG
Level 3 Excision/ Biopsy/ Incision and Drainage,1958.06,DRG
Level 2 Excision/ Biopsy/ Incision and Drainage,1133.63825174825,DRG
Level 3 Urology and Related Services,1432.47,DRG
Level 2 Laparoscopy and Related Services,6707.34,DRG
Level 1 Laparoscopy and Related Services,3788.24128205128,DRG
