Description,Charge,Category
 HIP & FEMUR PROCEDURES EXCEPT MAJOR JOINT W CC,13604.363636000002,Standard
 SEPTICEMIA OR SEVERE SEPSIS W/O MV >96 HOURS W/O MCC,7931.2727273,Standard
 SPINAL FUSION EXCEPT CERVICAL W/O MCC,26346.05,Standard
Level 5 Urology and Related Services,2630.6549999999897,DRG
 INTRACRANIAL HEMORRHAGE OR CEREBRAL INFARCTION W CC OR TPA IN 24 HRS,7443.6296296,Standard
 SEIZURES W MCC,10607.090909,Standard
 MAJOR HIP AND KNEE JOINT REPLACEMENT OR REATTACHMENT OF LOWER EXTREM,13289.044444,Standard
 CELLULITIS W/O MCC,6428.8666667,Standard
" ""MISC DISORDERS OF NUTRITION,METABOLISM,FLUIDS/ELECTROLYTES W/O MCC""",5384.75,Standard
 RENAL FAILURE W MCC,9370.9166667,Standard
 RENAL FAILURE W CC,6769.142857100001,Standard
 KIDNEY & URINARY TRACT INFECTIONS W MCC,7823.9166667,Standard
 KIDNEY & URINARY TRACT INFECTIONS W/O MCC,6108.7272727,Standard
 OTHER KIDNEY & URINARY TRACT DIAGNOSES W MCC,10230.782609,Standard
 RESPIRATORY INFECTIONS & INFLAMMATIONS W MCC,10289.333333,Standard
 RED BLOOD CELL DISORDERS W/O MCC,6601.0,Standard
 INFECTIOUS & PARASITIC DISEASES W O.R. PROCEDURE W MCC,28514.428570999997,Standard
 SEPTICEMIA OR SEVERE SEPSIS W/O MV >96 HOURS W MCC,12088.687075,Standard
 DIABETES W CC,6588.1538462,Standard
 PULMONARY EDEMA & RESPIRATORY FAILURE,8588.7647059,Standard
Level 1 Intraocular Procedures,1368.31973856209,DRG
 CHRONIC OBSTRUCTIVE PULMONARY DISEASE W CC,6602.8461538,Standard
" ""ESOPHAGITIS, GASTROENT & MISC DIGEST DISORDERS W/O MCC""",5790.24,Standard
 G.I. HEMORRHAGE W CC,6954.25,Standard
 CARDIAC ARRHYTHMIA & CONDUCTION DISORDERS W/O CC/MCC,4478.5,Standard
 CARDIAC ARRHYTHMIA & CONDUCTION DISORDERS W CC,5827.3076923,Standard
 CARDIAC ARRHYTHMIA & CONDUCTION DISORDERS W MCC,8663.923076899999,Standard
 CHRONIC OBSTRUCTIVE PULMONARY DISEASE W MCC,8190.5294118,Standard
Level 4 Musculoskeletal Procedures,3978.1864150943397,DRG
 HEART FAILURE & SHOCK W CC,7329.2,Standard
Level 4 Gynecologic Procedures,1643.70999999999,DRG
Abdominal/Peritoneal/Biliary and Related Procedures,2032.8096551724102,DRG
Comprehensive Observation Services,1693.94019417475,DRG
Level 2 Upper GI Procedures,1026.94666666666,DRG
Level 3 Urology and Related Services,1184.8121874999902,DRG
Level 4 Urology and Related Services,1950.36,DRG
Level 3 Musculoskeletal Procedures,1872.39574468085,DRG
Level 2 Musculoskeletal Procedures,976.31,DRG
 HEART FAILURE & SHOCK W MCC,9880.3703704,Standard
Level 3 Excision/ Biopsy/ Incision and Drainage,1526.19384615384,DRG
Level 2 Excision/ Biopsy/ Incision and Drainage,736.557962962962,DRG
Level 1 Nerve Procedures,1115.2906,DRG
 SIMPLE PNEUMONIA & PLEURISY W CC,6859.75,Standard
 SIMPLE PNEUMONIA & PLEURISY W MCC,9791.0,Standard
Level 1 Laparoscopy and Related Services,3246.33,DRG
