Description,Charge,Category
Level 3 Musculoskeletal Procedures,1929.41325,DRG
Level 2 Musculoskeletal Procedures,1040.0,DRG
Level 2 Breast/Lymphatic Surgery and Related Procedures,3707.0899999999897,DRG
Level 1 Breast/Lymphatic Surgery and Related Procedures,2101.54,DRG
 SEPTICEMIA OR SEVERE SEPSIS W/O MV >96 HOURS W/O MCC,7531.192307699999,Standard
Level 2 Excision/ Biopsy/ Incision and Drainage,1019.5762399999901,DRG
Level 4 Musculoskeletal Procedures,4201.079180327871,DRG
Level 4 Gynecologic Procedures,1653.675,DRG
Comprehensive Observation Services,1789.84954929577,DRG
Level 3 Excision/ Biopsy/ Incision and Drainage,1791.09,DRG
Level 5 Musculoskeletal Procedures,8420.295,DRG
Level 5 ENT Procedures,3126.9764516129,DRG
Level 4 Airway Endoscopy,1915.0195,DRG
Level 5 Airway Endoscopy,3080.2876470588203,DRG
Level 1 Endovascular Procedures,1835.29895104895,DRG
Level 2 Endovascular Procedures,3917.51,DRG
Level 3 Endovascular Procedures,8504.11758620689,DRG
Level 6 Urology and Related Services,5751.96458333333,DRG
Level 5 Urology and Related Services,2776.8603947368297,DRG
Level 3 Urology and Related Services,1152.67058823529,DRG
Level 1 Laparoscopy and Related Services,3348.32873015872,DRG
Abdominal/Peritoneal/Biliary and Related Procedures,2239.04608695652,DRG
Level 2 Upper GI Procedures,1026.98475409835,DRG
Level 4 Endovascular Procedures,12922.1441666666,DRG
Level 3 Pacemaker and Similar Procedures,8074.17999999999,DRG
Level 2 ICD and Similar Procedures,28503.54,DRG
Level 3 Airway Endoscopy,934.8075,DRG
Level 4 Urology and Related Services,2034.2489583333302,DRG
 SEPTICEMIA OR SEVERE SEPSIS W/O MV >96 HOURS W MCC,12994.56338,Standard
 MAJOR JOINT/LIMB REATTACHMENT PROCEDURE OF UPPER EXTREMITIES,17727.315789,Standard
 HEART FAILURE & SHOCK W CC,6675.9069767,Standard
 HEART FAILURE & SHOCK W/O CC/MCC,4704.7692308,Standard
 HYPERTENSION W/O MCC,5008.8181818,Standard
 CARDIAC ARRHYTHMIA & CONDUCTION DISORDERS W MCC,8282.517241399999,Standard
 CARDIAC ARRHYTHMIA & CONDUCTION DISORDERS W CC,5701.233333300001,Standard
 CARDIAC ARRHYTHMIA & CONDUCTION DISORDERS W/O CC/MCC,4107.8139535,Standard
 SYNCOPE & COLLAPSE,5563.1818182,Standard
 HEART FAILURE & SHOCK W MCC,10448.643478,Standard
 MAJOR SMALL & LARGE BOWEL PROCEDURES W CC,17734.882353,Standard
 G.I. HEMORRHAGE W CC,7190.1014493,Standard
 G.I. OBSTRUCTION W/O CC/MCC,4572.3157895,Standard
" ""ESOPHAGITIS, GASTROENT & MISC DIGEST DISORDERS W/O MCC""",5287.9230769,Standard
 OTHER DIGESTIVE SYSTEM DIAGNOSES W CC,6580.8461538,Standard
" DISORDERS OF LIVER EXCEPT MALIG,CIRR,ALC HEPA W CC",6515.9090909,Standard
 MAJOR HIP AND KNEE JOINT REPLACEMENT OR REATTACHMENT OF LOWER EXTREM,15479.131944,Standard
 HIP & FEMUR PROCEDURES EXCEPT MAJOR JOINT W CC,14198.846153999999,Standard
 G.I. HEMORRHAGE W MCC,11942.842105,Standard
" CIRCULATORY DISORDERS EXCEPT AMI, W CARD CATH W/O MCC",8525.833333300001,Standard
" ""ACUTE MYOCARDIAL INFARCTION, DISCHARGED ALIVE W/O CC/MCC""",5994.047619,Standard
" ACUTE MYOCARDIAL INFARCTION, DISCHARGED ALIVE W CC",7249.875,Standard
 EXTRACRANIAL PROCEDURES W/O CC/MCC,7767.0,Standard
 INTRACRANIAL HEMORRHAGE OR CEREBRAL INFARCTION W/O CC/MCC,5418.1851852,Standard
 TRANSIENT ISCHEMIA W/O THROMBOLYTIC,5251.9090909,Standard
 OTHER RESP SYSTEM O.R. PROCEDURES W MCC,32542.294118,Standard
 RESPIRATORY INFECTIONS & INFLAMMATIONS W MCC,12740.0,Standard
 RESPIRATORY INFECTIONS & INFLAMMATIONS W CC,8972.909090899999,Standard
 PULMONARY EDEMA & RESPIRATORY FAILURE,9567.2,Standard
 CHRONIC OBSTRUCTIVE PULMONARY DISEASE W MCC,8452.952381000001,Standard
 CHRONIC OBSTRUCTIVE PULMONARY DISEASE W CC,6398.962963,Standard
 CHRONIC OBSTRUCTIVE PULMONARY DISEASE W/O CC/MCC,5560.2105263,Standard
 SIMPLE PNEUMONIA & PLEURISY W MCC,9554.557377,Standard
 SIMPLE PNEUMONIA & PLEURISY W CC,6500.7721519,Standard
 SIMPLE PNEUMONIA & PLEURISY W/O CC/MCC,4961.7,Standard
 BRONCHITIS & ASTHMA W CC/MCC,6562.6,Standard
 PERC CARDIOVASC PROC W DRUG,14853.515152000002,Standard
 AORTIC AND HEART ASSIST PROCEDURES EXCEPT PULSATION BALLOON W/O MCC,28918.25,Standard
" ""ACUTE MYOCARDIAL INFARCTION, DISCHARGED ALIVE W MCC""",11329.925,Standard
 HIP & FEMUR PROCEDURES EXCEPT MAJOR JOINT W/O CC/MCC,12159.684211,Standard
 INTRACRANIAL HEMORRHAGE OR CEREBRAL INFARCTION W MCC,13549.846153999999,Standard
 INTRACRANIAL HEMORRHAGE OR CEREBRAL INFARCTION W CC OR TPA IN 24 HRS,8079.514285699999,Standard
 RENAL FAILURE W MCC,11327.083333,Standard
 KIDNEY & URINARY TRACT INFECTIONS W/O MCC,5490.142857100001,Standard
" ""MISC DISORDERS OF NUTRITION,METABOLISM,FLUIDS/ELECTROLYTES W/O MCC""",5615.060606100001,Standard
 DIABETES W CC,6399.8947368,Standard
 CELLULITIS W/O MCC,5950.0862068999995,Standard
 RED BLOOD CELL DISORDERS W MCC,10548.5,Standard
 RED BLOOD CELL DISORDERS W/O MCC,6130.4545455,Standard
 RENAL FAILURE W CC,6768.0169491999995,Standard
 KIDNEY & URINARY TRACT INFECTIONS W MCC,7459.0769231,Standard
