Description,Charge,Category
Comprehensive Observation Services,1674.02144927536,DRG
 PSYCHOSES,7207.0,Standard
Level 1 Intraocular Procedures,1373.31333333333,DRG
 CHRONIC OBSTRUCTIVE PULMONARY DISEASE W MCC,7027.6875,Standard
 CHRONIC OBSTRUCTIVE PULMONARY DISEASE W CC,5893.8181818,Standard
 DEPRESSIVE NEUROSES,4952.0714286,Standard
