Description,Charge,Category
 MAJOR JOINT/LIMB REATTACHMENT PROCEDURE OF UPPER EXTREMITIES,16764.979592,Standard
" ""MISC DISORDERS OF NUTRITION,METABOLISM,FLUIDS/ELECTROLYTES W/O MCC""",4691.7142857,Standard
" MISC DISORDERS OF NUTRITION,METABOLISM,FLUIDS/ELECTROLYTES W MCC",7182.3333333,Standard
 DIABETES W CC,5606.3809524,Standard
" ""TRAUMA TO THE SKIN, SUBCUT TISS & BREAST W/O MCC""",7283.6538462,Standard
 CELLULITIS W/O MCC,5309.7432432,Standard
" FX, SPRN, STRN & DISL EXCEPT FEMUR, HIP, PELVIS & THIGH W/O MCC",4973.1935484,Standard
" ""TENDONITIS, MYOSITIS & BURSITIS W/O MCC""",4970.0,Standard
 BONE DISEASES & ARTHROPATHIES W/O MCC,5188.2941176,Standard
 MEDICAL BACK PROBLEMS W/O MCC,5606.0273973,Standard
 PATHOLOGICAL FRACTURES & MUSCULOSKELET & CONN TISS MALIG W CC,6632.0833333,Standard
 FRACTURES OF HIP & PELVIS W/O MCC,5096.1538462,Standard
 OTHER MUSCULOSKELET SYS & CONN TISS O.R. PROC W CC,11608.636364,Standard
 ENDOCRINE DISORDERS W CC,7430.789473700001,Standard
" LOWER EXTREM & HUMER PROC EXCEPT HIP,FOOT,FEMUR W CC",13605.25,Standard
 HIP & FEMUR PROCEDURES EXCEPT MAJOR JOINT W MCC,18582.133333,Standard
 HIP & FEMUR PROCEDURES EXCEPT MAJOR JOINT W CC,12397.301587,Standard
 HIP & FEMUR PROCEDURES EXCEPT MAJOR JOINT W/O CC/MCC,10863.923077,Standard
 MEDICAL BACK PROBLEMS W MCC,9529.272727299998,Standard
 RENAL FAILURE W MCC,8828.714285700002,Standard
 OTHER KIDNEY & URINARY TRACT DIAGNOSES W CC,6110.0,Standard
 KIDNEY & URINARY TRACT INFECTIONS W MCC,6504.4,Standard
" TRAUMATIC STUPOR & COMA, COMA <1 HR W/O CC/MCC",5205.7619048,Standard
" ""TRAUMATIC STUPOR & COMA, COMA <1 HR W CC""",7313.6470588,Standard
" TRAUMATIC STUPOR & COMA, COMA <1 HR W MCC",11388.454545,Standard
" TRAUMATIC STUPOR & COMA, COMA >1 HR W CC",8462.166666699999,Standard
 CRANIAL & PERIPHERAL NERVE DISORDERS W/O MCC,5959.363636399999,Standard
 EXTENSIVE O.R. PROCEDURE UNRELATED TO PRINCIPAL DIAGNOSIS W MCC,25521.25,Standard
 SIGNS & SYMPTOMS W/O MCC,5426.6470588,Standard
 COMPLICATIONS OF TREATMENT W CC,7250.733333300001,Standard
 ALCOHOL/DRUG ABUSE OR DEPENDENCE W/O REHABILITATION THERAPY W/O MCC,4737.6153846,Standard
 RENAL FAILURE W CC,5761.078431399999,Standard
 MAJOR HIP AND KNEE JOINT REPLACEMENT OR REATTACHMENT OF LOWER EXTREM,13160.520202,Standard
 SEPTICEMIA OR SEVERE SEPSIS W/O MV >96 HOURS W/O MCC,6818.8550725,Standard
 SEPTICEMIA OR SEVERE SEPSIS W/O MV >96 HOURS W MCC,11424.757395999999,Standard
 VIRAL ILLNESS W/O MCC,5015.5833333,Standard
 FEVER AND INFLAMMATORY CONDITIONS,5434.764705899999,Standard
 INFECTIOUS & PARASITIC DISEASES W O.R. PROCEDURE W MCC,35030.3,Standard
 RED BLOOD CELL DISORDERS W/O MCC,5516.4285714,Standard
 MAJOR HEMATOL/IMMUN DIAG EXC SICKLE CELL CRISIS & COAGUL W CC,7467.25,Standard
 URINARY STONES W/O ESW LITHOTRIPSY W/O MCC,5091.764705899999,Standard
 KIDNEY & URINARY TRACT INFECTIONS W/O MCC,4919.53,Standard
 ORGANIC DISTURBANCES & INTELLECTUAL DISABILITY,10088.823529000001,Standard
 MAJOR HIP AND KNEE JOINT REPLACEMENT OR REATTACHMENT OF LOWER EXTREM,17690.272727,Standard
 DISORDERS OF THE BILIARY TRACT W CC,6984.0,Standard
 BILATERAL OR MULTIPLE MAJOR JOINT PROCS OF LOWER EXTREMITY W/O MCC,20323.1,Standard
" ACUTE MYOCARDIAL INFARCTION, DISCHARGED ALIVE W CC",6073.7,Standard
" ""ACUTE MYOCARDIAL INFARCTION, DISCHARGED ALIVE W MCC""",10325.466667,Standard
 PERC CARDIOVASC PROC W DRUG,13184.155556,Standard
 PERCUTANEOUS CARDIOVASCULAR PROCEDURES W DRUG,21226.631579,Standard
 PERMANENT CARDIAC PACEMAKER IMPLANT W CC,16165.826087000001,Standard
 PERMANENT CARDIAC PACEMAKER IMPLANT W MCC,21951.2,Standard
 RESPIRATORY SYSTEM DIAGNOSIS W VENTILATOR SUPPORT <=96 HOURS,17830.928571,Standard
 BRONCHITIS & ASTHMA W CC/MCC,6153.4848485,Standard
 PNEUMOTHORAX W CC,6630.1176471,Standard
 SIMPLE PNEUMONIA & PLEURISY W/O CC/MCC,4457.037037,Standard
 SIMPLE PNEUMONIA & PLEURISY W CC,6009.402061899999,Standard
 SIMPLE PNEUMONIA & PLEURISY W MCC,8681.287878799998,Standard
 CHRONIC OBSTRUCTIVE PULMONARY DISEASE W/O CC/MCC,4953.5454545,Standard
 CHRONIC OBSTRUCTIVE PULMONARY DISEASE W CC,5939.9767442,Standard
 CHRONIC OBSTRUCTIVE PULMONARY DISEASE W MCC,7384.78,Standard
 PULMONARY EDEMA & RESPIRATORY FAILURE,7945.4634146,Standard
 MAJOR CHEST TRAUMA W CC,6508.1176471,Standard
 RESPIRATORY NEOPLASMS W CC,7130.692307699999,Standard
 RESPIRATORY NEOPLASMS W MCC,11240.75,Standard
 RESPIRATORY INFECTIONS & INFLAMMATIONS W CC,7676.102564100001,Standard
 OTHER DISORDERS OF NERVOUS SYSTEM W CC,5760.7727273,Standard
 SEIZURES W/O MCC,5048.5357143,Standard
 DYSEQUILIBRIUM,4409.777777800001,Standard
 MAJOR CHEST PROCEDURES W CC,15870.692308000002,Standard
 OTHER RESP SYSTEM O.R. PROCEDURES W MCC,39381.2,Standard
 RESPIRATORY INFECTIONS & INFLAMMATIONS W MCC,11915.169811,Standard
 PULMONARY EMBOLISM W/O MCC,6118.52,Standard
 PULMONARY EMBOLISM W MCC,8686.75,Standard
 OTHER RESP SYSTEM O.R. PROCEDURES W CC,14221.388888999998,Standard
" ""CIRCULATORY DISORDERS EXCEPT AMI, W CARD CATH W MCC""",13991.103447999998,Standard
 REVISION OF HIP OR KNEE REPLACEMENT W CC,21319.272727,Standard
" CIRCULATORY DISORDERS EXCEPT AMI, W CARD CATH W/O MCC",7937.0769231,Standard
 HEART FAILURE & SHOCK W CC,5835.3387096999995,Standard
 SPINAL FUSION EXCEPT CERVICAL W/O MCC,25823.342857,Standard
 COMBINED ANTERIOR/POSTERIOR SPINAL FUSION W CC,41760.0625,Standard
 DISORDERS OF THE BILIARY TRACT W/O CC/MCC,4955.1818182,Standard
 LAPAROSCOPIC CHOLECYSTECTOMY W/O C.D.E. W/O CC/MCC,8147.5833333,Standard
 OTHER DIGESTIVE SYSTEM DIAGNOSES W CC,5955.9473683999995,Standard
" ""ESOPHAGITIS, GASTROENT & MISC DIGEST DISORDERS W/O MCC""",5035.0630631,Standard
" ESOPHAGITIS, GASTROENT & MISC DIGEST DISORDERS W MCC",8226.166666699999,Standard
 G.I. OBSTRUCTION W/O CC/MCC,3949.1153846,Standard
 G.I. OBSTRUCTION W CC,5338.2380952,Standard
 G.I. OBSTRUCTION W MCC,9737.6153846,Standard
 G.I. HEMORRHAGE W/O CC/MCC,4039.5,Standard
 G.I. HEMORRHAGE W CC,6337.654761899999,Standard
 G.I. HEMORRHAGE W MCC,10637.173912999999,Standard
 MAJOR GASTROINTESTINAL DISORDERS & PERITONEAL INFECTIONS W CC,6393.4117647,Standard
 MAJOR SMALL & LARGE BOWEL PROCEDURES W/O CC/MCC,14276.230769,Standard
 MAJOR SMALL & LARGE BOWEL PROCEDURES W CC,16815.066667,Standard
 MAJOR SMALL & LARGE BOWEL PROCEDURES W MCC,32397.842105,Standard
 OTHER CIRCULATORY SYSTEM DIAGNOSES W CC,6033.0625,Standard
 OTHER CIRCULATORY SYSTEM DIAGNOSES W MCC,11698.785714,Standard
 CHEST PAIN,4387.88,Standard
 SYNCOPE & COLLAPSE,5091.892857100001,Standard
 CARDIAC ARRHYTHMIA & CONDUCTION DISORDERS W/O CC/MCC,3901.4186047,Standard
 CARDIAC ARRHYTHMIA & CONDUCTION DISORDERS W CC,4826.0535714,Standard
 CARDIAC ARRHYTHMIA & CONDUCTION DISORDERS W MCC,7389.95,Standard
 HYPERTENSION W/O MCC,4326.8666667,Standard
 PERIPHERAL VASCULAR DISORDERS W CC,6745.5882353,Standard
 TRANSIENT ISCHEMIA W/O THROMBOLYTIC,4702.1666667,Standard
 PERIPHERAL VASCULAR DISORDERS W MCC,9452.3333333,Standard
 HEART FAILURE & SHOCK W/O CC/MCC,4605.4736842,Standard
 HEART FAILURE & SHOCK W MCC,8811.404761900001,Standard
 INTRACRANIAL HEMORRHAGE OR CEREBRAL INFARCTION W/O CC/MCC,4641.857142899999,Standard
Level 1 Breast/Lymphatic Surgery and Related Procedures,2229.86,DRG
 INTRACRANIAL HEMORRHAGE OR CEREBRAL INFARCTION W MCC,12070.894737,Standard
Level 2 Musculoskeletal Procedures,1103.5,DRG
Level 3 Musculoskeletal Procedures,2137.36477272727,DRG
Level 4 Musculoskeletal Procedures,4556.5167073170705,DRG
Level 5 Musculoskeletal Procedures,9030.45999999999,DRG
Level 5 Airway Endoscopy,3975.79769230769,DRG
Level 1 Endovascular Procedures,1930.27005917159,DRG
Level 2 Endovascular Procedures,4006.7642857142796,DRG
Level 3 Endovascular Procedures,9426.45999999999,DRG
Level 4 Endovascular Procedures,15056.54,DRG
Level 3 Electrophysiologic Procedures,16929.5288461538,DRG
Level 2 Pacemaker and Similar Procedures,6218.53,DRG
Level 2 Breast/Lymphatic Surgery and Related Procedures,3825.11969696969,DRG
Level 3 Pacemaker and Similar Procedures,8647.35999999999,DRG
Level 2 Upper GI Procedures,1133.2130769230698,DRG
Level 3 Lower GI Procedures,1892.39363636363,DRG
Level 1 Laparoscopy and Related Services,3665.2185915493,DRG
Level 2 Laparoscopy and Related Services,6447.85,DRG
Level 3 Urology and Related Services,1382.59523255814,DRG
Level 4 Urology and Related Services,2202.55470588235,DRG
Level 5 Urology and Related Services,3026.387125,DRG
Level 4 Gynecologic Procedures,1855.64423076923,DRG
Level 5 Gynecologic Procedures,3278.96,DRG
Comprehensive Observation Services,1877.91607538802,DRG
 INTRACRANIAL HEMORRHAGE OR CEREBRAL INFARCTION W CC OR TPA IN 24 HRS,6288.5681818,Standard
Level 2 ICD and Similar Procedures,30324.109999999902,DRG
Level 2 Excision/ Biopsy/ Incision and Drainage,1084.44888888889,DRG
Abdominal/Peritoneal/Biliary and Related Procedures,2379.7,DRG
" ""ECMO OR TRACH W MV >96 HRS OR PDX EXC FACE, MOUTH & NECK W MAJ O.R.",113562.33333,Standard
 DEGENERATIVE NERVOUS SYSTEM DISORDERS W/O MCC,6947.761904800001,Standard
 EXTRACRANIAL PROCEDURES W/O CC/MCC,6951.307692300001,Standard
 CRANIOTOMY & ENDOVASCULAR INTRACRANIAL PROCEDURES W MCC,30631.875,Standard
 SIGNS & SYMPTOMS W MCC,6652.9090909,Standard
