Description,Charge,Category
 HEART FAILURE & SHOCK W/O CC/MCC,4947.0833333,Standard
 CARDIAC ARRHYTHMIA & CONDUCTION DISORDERS W MCC,8474.75,Standard
 RENAL FAILURE W CC,6534.0,Standard
 HEART FAILURE & SHOCK W MCC,9845.597561,Standard
 SPINAL FUSION EXCEPT CERVICAL W/O MCC,26587.7,Standard
 REVISION OF HIP OR KNEE REPLACEMENT W CC,21364.5,Standard
 MAJOR HIP AND KNEE JOINT REPLACEMENT OR REATTACHMENT OF LOWER EXTREM,13522.720588,Standard
 HIP & FEMUR PROCEDURES EXCEPT MAJOR JOINT W CC,13101.047618999999,Standard
 MAJOR JOINT/LIMB REATTACHMENT PROCEDURE OF UPPER EXTREMITIES,15748.03125,Standard
 MEDICAL BACK PROBLEMS W/O MCC,6073.85,Standard
 CELLULITIS W/O MCC,6162.3703704,Standard
 RESPIRATORY SYSTEM DIAGNOSIS W VENTILATOR SUPPORT <=96 HOURS,14470.428571,Standard
" MISC DISORDERS OF NUTRITION,METABOLISM,FLUIDS/ELECTROLYTES W MCC",8769.3333333,Standard
Level 4 Neurostimulator and Related Procedures,23677.5395,DRG
Level 1 Intraocular Procedures,1399.55710059171,DRG
Level 2 Excision/ Biopsy/ Incision and Drainage,991.215084745762,DRG
Level 3 Excision/ Biopsy/ Incision and Drainage,1638.5966666666598,DRG
Level 1 Breast/Lymphatic Surgery and Related Procedures,1929.60952380952,DRG
Level 2 Breast/Lymphatic Surgery and Related Procedures,3335.73333333333,DRG
Level 2 Musculoskeletal Procedures,931.050714285714,DRG
Level 4 Musculoskeletal Procedures,4009.38765432099,DRG
" ""MISC DISORDERS OF NUTRITION,METABOLISM,FLUIDS/ELECTROLYTES W/O MCC""",5383.4444444,Standard
 BRONCHITIS & ASTHMA W CC/MCC,6499.6875,Standard
 SIMPLE PNEUMONIA & PLEURISY W CC,6664.2857143,Standard
 SIMPLE PNEUMONIA & PLEURISY W MCC,9445.233333299999,Standard
 INTRACRANIAL HEMORRHAGE OR CEREBRAL INFARCTION W CC OR TPA IN 24 HRS,6718.8095238000005,Standard
 INTRACRANIAL HEMORRHAGE OR CEREBRAL INFARCTION W MCC,11138.142856999999,Standard
 CARDIAC ARRHYTHMIA & CONDUCTION DISORDERS W/O CC/MCC,4237.7857143,Standard
 MAJOR SMALL & LARGE BOWEL PROCEDURES W MCC,28990.272727,Standard
 MAJOR SMALL & LARGE BOWEL PROCEDURES W CC,15742.583333,Standard
 G.I. HEMORRHAGE W MCC,10869.666667,Standard
 G.I. HEMORRHAGE W CC,6735.1470588,Standard
 G.I. OBSTRUCTION W CC,5838.8333333,Standard
 G.I. OBSTRUCTION W/O CC/MCC,4460.0714286,Standard
" ""ESOPHAGITIS, GASTROENT & MISC DIGEST DISORDERS W/O MCC""",5709.1764706,Standard
 OTHER DIGESTIVE SYSTEM DIAGNOSES W CC,6735.7368421,Standard
 TRANSIENT ISCHEMIA W/O THROMBOLYTIC,5375.0,Standard
 SEIZURES W MCC,10351.363636,Standard
 SEIZURES W/O MCC,5538.1176471,Standard
 RESPIRATORY INFECTIONS & INFLAMMATIONS W MCC,11636.59375,Standard
 RESPIRATORY INFECTIONS & INFLAMMATIONS W CC,8693.6363636,Standard
 PULMONARY EDEMA & RESPIRATORY FAILURE,8277.518518500001,Standard
 CHRONIC OBSTRUCTIVE PULMONARY DISEASE W MCC,7757.3703704,Standard
 CHRONIC OBSTRUCTIVE PULMONARY DISEASE W CC,6486.0,Standard
Level 5 Musculoskeletal Procedures,7579.9125,DRG
Level 4 Airway Endoscopy,1943.44999999999,DRG
Level 3 Musculoskeletal Procedures,1878.3831914893601,DRG
Abdominal/Peritoneal/Biliary and Related Procedures,1948.5258064516102,DRG
Level 4 Urology and Related Services,1998.7802941176399,DRG
Level 5 Urology and Related Services,2730.44129032258,DRG
Level 4 Gynecologic Procedures,1576.3363291139199,DRG
Level 1 Nerve Procedures,1195.9072222222198,DRG
 RENAL FAILURE W MCC,10196.3,Standard
 KIDNEY & URINARY TRACT INFECTIONS W MCC,7505.5862068999995,Standard
 KIDNEY & URINARY TRACT INFECTIONS W/O MCC,5582.6666667,Standard
Level 3 Urology and Related Services,1256.485,DRG
 UTERINE & ADNEXA PROC FOR NON,11160.909091,Standard
 UTERINE & ADNEXA PROC FOR NON,7693.4545455,Standard
 OTHER KIDNEY & URINARY TRACT DIAGNOSES W MCC,10564.657143,Standard
 INFECTIOUS & PARASITIC DISEASES W O.R. PROCEDURE W MCC,32186.166667,Standard
Complex GI Procedures,3189.07,DRG
Level 3 Upper GI Procedures,1852.4272727272698,DRG
Level 2 Upper GI Procedures,1037.15505050504,DRG
 SEPTICEMIA OR SEVERE SEPSIS W/O MV >96 HOURS W MCC,11950.705128,Standard
 SEPTICEMIA OR SEVERE SEPSIS W/O MV >96 HOURS W/O MCC,7104.238095199999,Standard
Comprehensive Observation Services,1716.1559259259197,DRG
 SIGNS & SYMPTOMS W/O MCC,5566.5454545,Standard
 HEART FAILURE & SHOCK W CC,6745.714285699999,Standard
 RED BLOOD CELL DISORDERS W/O MCC,6115.5714286,Standard
Level 1 Laparoscopy and Related Services,3333.94999999999,DRG
