Description,Charge,Category
 BILATERAL OR MULTIPLE MAJOR JOINT PROCS OF LOWER EXTREMITY W/O MCC,19566.772727,Standard
 SPINAL FUSION EXCEPT CERVICAL W/O MCC,24784.421053000002,Standard
Level 1 Nerve Procedures,1273.90078260869,DRG
Level 3 Musculoskeletal Procedures,2107.3798591549303,DRG
Level 4 Musculoskeletal Procedures,4476.11999999999,DRG
Level 5 Musculoskeletal Procedures,8787.978550724649,DRG
Level 1 Intraocular Procedures,1530.73067647059,DRG
Level 2 Intraocular Procedures,2882.472,DRG
"Level 3 Extraocular, Repair, and Plastic Eye Procedures",1446.18,DRG
Level 2 Musculoskeletal Procedures,1073.62144927536,DRG
 MAJOR JOINT/LIMB REATTACHMENT PROCEDURE OF UPPER EXTREMITIES,14553.517856999999,Standard
 MAJOR HIP AND KNEE JOINT REPLACEMENT OR REATTACHMENT OF LOWER EXTREM,12520.986339000001,Standard
