Description,Charge,Category
Level 3 Excision/ Biopsy/ Incision and Drainage,1620.699375,DRG
 ENDOVASCULAR CARDIAC VALVE REPLACEMENT W/O MCC,39291.078947,Standard
 PERCUTANEOUS INTRACARDIAC PROCEDURES W/O MCC,17796.425287000002,Standard
Level 2 Breast/Lymphatic Surgery and Related Procedures,3462.63,DRG
Level 1 Nerve Procedures,1131.9254861111099,DRG
Level 5 Gynecologic Procedures,2886.48999999999,DRG
Level 4 Gynecologic Procedures,1635.48,DRG
Level 5 Urology and Related Services,2635.4950588235197,DRG
Level 4 Urology and Related Services,1940.58999999999,DRG
Level 3 Urology and Related Services,1205.3130996309899,DRG
Level 2 Laparoscopy and Related Services,5361.21714285714,DRG
Level 1 Laparoscopy and Related Services,3118.6786206896504,DRG
Abdominal/Peritoneal/Biliary and Related Procedures,2092.21314814814,DRG
 EXTENSIVE O.R. PROCEDURE UNRELATED TO PRINCIPAL DIAGNOSIS W MCC,26874.785713999998,Standard
 SIGNS & SYMPTOMS W/O MCC,5730.6818182,Standard
Level 1 Intraocular Procedures,1373.28963655243,DRG
 COMPLICATIONS OF TREATMENT W CC,7061.363636399999,Standard
 NEUROSES EXCEPT DEPRESSIVE,5218.9166667,Standard
 DEPRESSIVE NEUROSES,5793.5,Standard
Level 2 Excision/ Biopsy/ Incision and Drainage,945.1671794871789,DRG
 SEPTICEMIA OR SEVERE SEPSIS W/O MV >96 HOURS W/O MCC,7626.9344261999995,Standard
 SEPTICEMIA OR SEVERE SEPSIS W/O MV >96 HOURS W MCC,12646.926941,Standard
 SEPTICEMIA OR SEVERE SEPSIS W MV >96 HOURS OR PERIPHERAL EXTRACORPOR,42798.0,Standard
 INFECTIOUS & PARASITIC DISEASES W O.R. PROCEDURE W MCC,31121.216216000004,Standard
 COAGULATION DISORDERS,11987.363636,Standard
 RED BLOOD CELL DISORDERS W/O MCC,6719.9230769,Standard
 MAJOR HIP AND KNEE JOINT REPLACEMENT OR REATTACHMENT OF LOWER EXTREM,13543.457338,Standard
Level 3 Lower GI Procedures,1666.33,DRG
 PSYCHOSES,8702.707692299999,Standard
Level 1 Breast/Lymphatic Surgery and Related Procedures,1962.95999999999,DRG
Level 2 Intraocular Procedures,2571.2929126213503,DRG
Comprehensive Observation Services,1647.2641079812197,DRG
Level 2 Musculoskeletal Procedures,971.419999999998,DRG
Level 3 Musculoskeletal Procedures,1847.75761904762,DRG
Level 4 Musculoskeletal Procedures,3907.81460937501,DRG
Level 5 Musculoskeletal Procedures,7563.20205882354,DRG
Level 3 Airway Endoscopy,952.54,DRG
Level 4 Airway Endoscopy,1882.88,DRG
Level 4 ENT Procedures,1582.45,DRG
Level 5 ENT Procedures,2971.3317073170697,DRG
Level 1 Endovascular Procedures,1733.9484375,DRG
Level 2 Endovascular Procedures,3657.03865671641,DRG
Level 3 Endovascular Procedures,8072.578319327719,DRG
"Level 3 Extraocular, Repair, and Plastic Eye Procedures",1303.46,DRG
Level 4 Endovascular Procedures,13097.19,DRG
Level 2 Pacemaker and Similar Procedures,5317.03,DRG
Level 3 Pacemaker and Similar Procedures,7430.87850746269,DRG
Level 1 ICD and Similar Procedures,17847.0409090909,DRG
Level 2 ICD and Similar Procedures,26536.627142857098,DRG
Level 2 Upper GI Procedures,1009.9554678362599,DRG
Level 3 Upper GI Procedures,1919.34166666666,DRG
 AORTIC AND HEART ASSIST PROCEDURES EXCEPT PULSATION BALLOON W/O MCC,26985.363636000002,Standard
 OTHER MAJOR CARDIOVASCULAR PROCEDURES W MCC,31950.428570999997,Standard
 PERCUTANEOUS INTRACARDIAC PROCEDURES W MCC,23473.941176,Standard
Complex GI Procedures,2935.2055,DRG
" ""ACUTE MYOCARDIAL INFARCTION, DISCHARGED ALIVE W MCC""",11629.523364,Standard
Level 3 Electrophysiologic Procedures,15113.1331343283,DRG
 ENDOVASCULAR CARDIAC VALVE REPLACEMENT W MCC,49561.75,Standard
 G.I. OBSTRUCTION W CC,6142.4375,Standard
 OTHER VASCULAR PROCEDURES W MCC,21478.28,Standard
 SEIZURES W MCC,11006.625,Standard
 SEIZURES W/O MCC,6866.48,Standard
 OTHER VASCULAR PROCEDURES W CC,17000.347825999997,Standard
 OTHER RESP SYSTEM O.R. PROCEDURES W CC,13556.454544999999,Standard
 PULMONARY EMBOLISM W MCC,11205.933332999999,Standard
 PULMONARY EMBOLISM W/O MCC,6618.7,Standard
 RESPIRATORY INFECTIONS & INFLAMMATIONS W MCC,13236.257143,Standard
 RESPIRATORY INFECTIONS & INFLAMMATIONS W CC,8932.9411765,Standard
 MAJOR CHEST TRAUMA W CC,7348.0,Standard
 CRANIAL & PERIPHERAL NERVE DISORDERS W/O MCC,7395.5,Standard
 PULMONARY EDEMA & RESPIRATORY FAILURE,8845.088235299998,Standard
 CHRONIC OBSTRUCTIVE PULMONARY DISEASE W CC,6703.0425532,Standard
 SIMPLE PNEUMONIA & PLEURISY W MCC,9721.237704899999,Standard
 SIMPLE PNEUMONIA & PLEURISY W CC,6957.5967742,Standard
 BRONCHITIS & ASTHMA W CC/MCC,6787.5833333,Standard
 RESPIRATORY SYSTEM DIAGNOSIS W VENTILATOR SUPPORT >96 HOURS,35876.0,Standard
 KIDNEY & URINARY TRACT INFECTIONS W/O MCC,5983.781818199999,Standard
 URINARY STONES W/O ESW LITHOTRIPSY W/O MCC,5877.8333333,Standard
 KIDNEY & URINARY TRACT SIGNS & SYMPTOMS W/O MCC,5237.1818182,Standard
 OTHER KIDNEY & URINARY TRACT DIAGNOSES W MCC,11180.542856999999,Standard
 CHRONIC OBSTRUCTIVE PULMONARY DISEASE W MCC,8228.5645161,Standard
 NONSPECIFIC CEREBROVASCULAR DISORDERS W CC,7366.0769231,Standard
 TRANSIENT ISCHEMIA W/O THROMBOLYTIC,5570.886363600001,Standard
 INTRACRANIAL HEMORRHAGE OR CEREBRAL INFARCTION W/O CC/MCC,5424.4285714,Standard
 HIP & FEMUR PROCEDURES EXCEPT MAJOR JOINT W MCC,19593.714286000002,Standard
 HIP & FEMUR PROCEDURES EXCEPT MAJOR JOINT W CC,13898.763158000002,Standard
 MAJOR JOINT/LIMB REATTACHMENT PROCEDURE OF UPPER EXTREMITIES,15763.5,Standard
 FRACTURES OF HIP & PELVIS W/O MCC,5651.9444444,Standard
 MEDICAL BACK PROBLEMS W/O MCC,7056.0882353,Standard
 CELLULITIS W MCC,10425.0,Standard
 CELLULITIS W/O MCC,6357.8260869999995,Standard
" ""TRAUMA TO THE SKIN, SUBCUT TISS & BREAST W/O MCC""",6230.4545455,Standard
 O.R. PROCEDURES FOR OBESITY W/O CC/MCC,10429.090909,Standard
 DIABETES W MCC,9401.0,Standard
 DIABETES W CC,7045.0625,Standard
" MISC DISORDERS OF NUTRITION,METABOLISM,FLUIDS/ELECTROLYTES W MCC",8394.2777778,Standard
" ""MISC DISORDERS OF NUTRITION,METABOLISM,FLUIDS/ELECTROLYTES W/O MCC""",5482.3846154,Standard
 RENAL FAILURE W MCC,10348.446154000001,Standard
 RENAL FAILURE W CC,7003.084507,Standard
 KIDNEY & URINARY TRACT INFECTIONS W MCC,8335.1923077,Standard
 CRANIOTOMY & ENDOVASCULAR INTRACRANIAL PROCEDURES W MCC,27349.666667,Standard
 EXTRACRANIAL PROCEDURES W CC,10560.909091,Standard
 NERVOUS SYSTEM NEOPLASMS W MCC,8555.583333300001,Standard
 INTRACRANIAL HEMORRHAGE OR CEREBRAL INFARCTION W MCC,12667.709676999999,Standard
 INTRACRANIAL HEMORRHAGE OR CEREBRAL INFARCTION W CC OR TPA IN 24 HRS,7255.7446809,Standard
 OTHER KIDNEY & URINARY TRACT DIAGNOSES W CC,7549.5882353,Standard
 MAJOR HEMATOL/IMMUN DIAG EXC SICKLE CELL CRISIS & COAGUL W CC,8313.9285714,Standard
 OTHER RESP SYSTEM O.R. PROCEDURES W MCC,23820.791666999998,Standard
 REVISION OF HIP OR KNEE REPLACEMENT W CC,23198.333333000002,Standard
 ATHEROSCLEROSIS W/O MCC,4719.6,Standard
 PERIPHERAL VASCULAR DISORDERS W CC,7306.1111111,Standard
 HEART FAILURE & SHOCK W/O CC/MCC,5598.8181818,Standard
 PERC CARDIOVASC PROC W DRUG,13736.9,Standard
 HEART FAILURE & SHOCK W CC,7100.8666667,Standard
 HEART FAILURE & SHOCK W MCC,10297.12973,Standard
" CIRCULATORY DISORDERS EXCEPT AMI, W CARD CATH W/O MCC",8390.0,Standard
" ""CIRCULATORY DISORDERS EXCEPT AMI, W CARD CATH W MCC""",16209.735294,Standard
" ""ACUTE MYOCARDIAL INFARCTION, DISCHARGED ALIVE W/O CC/MCC""",5625.777777800001,Standard
" ACUTE MYOCARDIAL INFARCTION, DISCHARGED ALIVE W CC",7053.210526299999,Standard
 RESPIRATORY SYSTEM DIAGNOSIS W VENTILATOR SUPPORT <=96 HOURS,16293.032258000001,Standard
 CARDIAC VALVE & OTH MAJ CARDIOTHORACIC PROC W/O CARD CATH W CC,34330.928571,Standard
 REVISION OF HIP OR KNEE REPLACEMENT W/O CC/MCC,18236.625,Standard
 CARDIAC DEFIBRILLATOR IMPLANT W/O CARDIAC CATH W/O MCC,35963.071429,Standard
 CORONARY BYPASS W CARDIAC CATH W/O MCC,32535.636363999998,Standard
 AMPUTATION FOR CIRC SYS DISORDERS EXC UPPER LIMB & TOE W MCC,32748.153845999997,Standard
 MAJOR HIP AND KNEE JOINT REPLACEMENT OR REATTACHMENT OF LOWER EXTREM,20453.043478,Standard
 PERMANENT CARDIAC PACEMAKER IMPLANT W MCC,24192.913043,Standard
 PERMANENT CARDIAC PACEMAKER IMPLANT W CC,17099.422222,Standard
 PERMANENT CARDIAC PACEMAKER IMPLANT W/O CC/MCC,14016.75,Standard
 PERCUTANEOUS CARDIOVASCULAR PROCEDURES W DRUG,20837.896552000002,Standard
 HYPERTENSION W/O MCC,5127.04,Standard
 CARDIAC ARRHYTHMIA & CONDUCTION DISORDERS W MCC,8386.909090899999,Standard
 PERC CARDIOVASC PROC W NON,12869.818181999999,Standard
 CARDIAC ARRHYTHMIA & CONDUCTION DISORDERS W/O CC/MCC,4256.7454545,Standard
" ""ESOPHAGITIS, GASTROENT & MISC DIGEST DISORDERS W/O MCC""",5616.2258065,Standard
 OTHER DIGESTIVE SYSTEM DIAGNOSES W MCC,11167.461538,Standard
 OTHER DIGESTIVE SYSTEM DIAGNOSES W CC,6949.9032258,Standard
 DISORDERS OF PANCREAS EXCEPT MALIGNANCY W MCC,11386.272727,Standard
 CARDIAC ARRHYTHMIA & CONDUCTION DISORDERS W CC,5599.985074600001,Standard
 G.I. OBSTRUCTION W/O CC/MCC,5087.357142899999,Standard
 G.I. HEMORRHAGE W/O CC/MCC,4788.266666699999,Standard
 G.I. HEMORRHAGE W CC,7232.0377358,Standard
 G.I. HEMORRHAGE W MCC,12279.904762,Standard
 MAJOR GASTROINTESTINAL DISORDERS & PERITONEAL INFECTIONS W CC,7615.0,Standard
" ESOPHAGITIS, GASTROENT & MISC DIGEST DISORDERS W MCC",9217.4210526,Standard
 MAJOR SMALL & LARGE BOWEL PROCEDURES W/O CC/MCC,11848.157895,Standard
 MAJOR SMALL & LARGE BOWEL PROCEDURES W MCC,34196.44,Standard
 OTHER CIRCULATORY SYSTEM DIAGNOSES W CC,6803.1333333,Standard
 DISORDERS OF PANCREAS EXCEPT MALIGNANCY W CC,6569.764705899999,Standard
 DISORDERS OF THE BILIARY TRACT W MCC,11684.153846,Standard
 DISORDERS OF THE BILIARY TRACT W CC,7652.35,Standard
 OTHER CIRCULATORY SYSTEM DIAGNOSES W MCC,14763.173912999999,Standard
 CHEST PAIN,5193.6086957,Standard
 SYNCOPE & COLLAPSE,5517.9032258,Standard
 MAJOR SMALL & LARGE BOWEL PROCEDURES W CC,16975.918919,Standard
