Description,Charge,Category
 CORONARY BYPASS W CARDIAC CATH W MCC,96890.263158,Standard
 RESPIRATORY NEOPLASMS W MCC,22081.333333000002,Standard
 RESPIRATORY INFECTIONS & INFLAMMATIONS W MCC,24807.388888999998,Standard
 PULMONARY EMBOLISM W/O MCC,15562.692308000002,Standard
 PULMONARY EMBOLISM W MCC,19972.933333,Standard
 OTHER RESP SYSTEM O.R. PROCEDURES W CC,23445.25,Standard
 OTHER RESP SYSTEM O.R. PROCEDURES W MCC,55413.58139500001,Standard
 MAJOR CHEST PROCEDURES W/O CC/MCC,24586.230768999998,Standard
 PULMONARY EDEMA & RESPIRATORY FAILURE,18267.07377,Standard
 MAJOR CHEST PROCEDURES W CC,37283.24,Standard
 DYSEQUILIBRIUM,10667.916667,Standard
 SEIZURES W/O MCC,13313.392856999999,Standard
 SEIZURES W MCC,25644.5625,Standard
 OTHER DISORDERS OF NERVOUS SYSTEM W CC,13224.058824,Standard
 CRANIAL & PERIPHERAL NERVE DISORDERS W/O MCC,14595.588235,Standard
 INTRACRANIAL HEMORRHAGE OR CEREBRAL INFARCTION W CC OR TPA IN 24 HRS,15810.972222,Standard
 INTRACRANIAL HEMORRHAGE OR CEREBRAL INFARCTION W MCC,23818.1875,Standard
 MAJOR CHEST PROCEDURES W MCC,65872.222222,Standard
 CHRONIC OBSTRUCTIVE PULMONARY DISEASE W MCC,17144.932203,Standard
 KIDNEY & URINARY TRACT INFECTIONS W/O MCC,13805.972972999998,Standard
 KIDNEY & URINARY TRACT INFECTIONS W MCC,16970.4,Standard
 OTHER DIGESTIVE SYSTEM DIAGNOSES W CC,14612.8,Standard
 CIRRHOSIS & ALCOHOLIC HEPATITIS W MCC,26255.16,Standard
 SPINAL FUSION EXCEPT CERVICAL W/O MCC,41372.727273000004,Standard
 MAJOR HIP AND KNEE JOINT REPLACEMENT OR REATTACHMENT OF LOWER EXTREM,24259.566038,Standard
 HIP & FEMUR PROCEDURES EXCEPT MAJOR JOINT W CC,24544.631579,Standard
" LOWER EXTREM & HUMER PROC EXCEPT HIP,FOOT,FEMUR W CC",27490.416667,Standard
 MEDICAL BACK PROBLEMS W/O MCC,14082.730769,Standard
 CELLULITIS W MCC,17279.142857,Standard
 CELLULITIS W/O MCC,12631.28125,Standard
" ""AMPUTAT OF LOWER LIMB FOR ENDOCRINE,NUTRIT,& METABOL DIS W CC""",26068.894737,Standard
 DIABETES W MCC,18394.153846,Standard
 DIABETES W CC,12875.205128,Standard
" MISC DISORDERS OF NUTRITION,METABOLISM,FLUIDS/ELECTROLYTES W MCC",16655.090909,Standard
" ""MISC DISORDERS OF NUTRITION,METABOLISM,FLUIDS/ELECTROLYTES W/O MCC""",12723.791667,Standard
 KIDNEY TRANSPLANT,36602.541667000005,Standard
 RENAL FAILURE W MCC,22842.780488,Standard
 RENAL FAILURE W CC,14357.507692,Standard
 DEGENERATIVE NERVOUS SYSTEM DISORDERS W/O MCC,14893.55,Standard
 OTHER DIGESTIVE SYSTEM DIAGNOSES W MCC,21637.727273,Standard
 DEGENERATIVE NERVOUS SYSTEM DISORDERS W MCC,25098.181818,Standard
 PERIPH/CRANIAL NERVE & OTHER NERV SYST PROC W CC OR PERIPH NEUROSTIM,28385.615385,Standard
 MAJOR MALE PELVIC PROCEDURES W/O CC/MCC,16197.571429,Standard
 VAGINAL DELIVERY W/O COMPLICATING DIAGNOSES,10150.214286,Standard
 MAJOR HEMATOL/IMMUN DIAG EXC SICKLE CELL CRISIS & COAGUL W CC,19312.785713999998,Standard
 RED BLOOD CELL DISORDERS W MCC,20716.076923,Standard
 RED BLOOD CELL DISORDERS W/O MCC,13195.230769,Standard
 ACUTE LEUKEMIA W/O MAJOR O.R. PROCEDURE W MCC,83098.727273,Standard
 INFECTIOUS & PARASITIC DISEASES W O.R. PROCEDURE W MCC,64417.666667,Standard
 OTHER KIDNEY & URINARY TRACT DIAGNOSES W CC,14595.0,Standard
 INFECTIOUS & PARASITIC DISEASES W O.R. PROCEDURE W CC,29293.454545,Standard
 SEPTICEMIA OR SEVERE SEPSIS W/O MV >96 HOURS W/O MCC,14859.6,Standard
 ORGANIC DISTURBANCES & INTELLECTUAL DISABILITY,19694.941176,Standard
 POISONING & TOXIC EFFECTS OF DRUGS W MCC,19437.242424,Standard
 POISONING & TOXIC EFFECTS OF DRUGS W/O MCC,11605.461538,Standard
 COMPLICATIONS OF TREATMENT W MCC,20782.533333000003,Standard
 HIV W MAJOR RELATED CONDITION W MCC,39547.454545,Standard
 EXTENSIVE O.R. PROCEDURE UNRELATED TO PRINCIPAL DIAGNOSIS W MCC,54098.08,Standard
 SEPTICEMIA OR SEVERE SEPSIS W/O MV >96 HOURS W MCC,25456.849315,Standard
 OTHER KIDNEY & URINARY TRACT DIAGNOSES W MCC,23997.771429,Standard
 CARDIAC VALVE & OTH MAJ CARDIOTHORACIC PROC W/O CARD CATH W MCC,106019.41667,Standard
Comprehensive Observation Services,1897.53737833595,DRG
 CRANIOTOMY & ENDOVASCULAR INTRACRANIAL PROCEDURES W MCC,47070.947368,Standard
  CRANIOTOMY W MAJOR DEVICE IMPLANT OR ACUTE COMPLEX CNS PDX W MCC OR,61503.0,Standard
Level 5 Urology and Related Services,3000.14929824561,DRG
Level 6 Urology and Related Services,6113.64874999999,DRG
Level 7 Urology and Related Services,14828.4699999999,DRG
Level 4 Gynecologic Procedures,1865.9412820512803,DRG
Level 5 Gynecologic Procedures,3286.99636363636,DRG
Level 1 Nerve Procedures,1285.1364864864802,DRG
Level 3 Neurostimulator and Related Procedures,16063.4327272727,DRG
Level 1 Intraocular Procedures,1563.5333057851199,DRG
Level 2 Intraocular Procedures,2970.00799999999,DRG
 AUTOLOGOUS BONE MARROW TRANSPLANT W CC/MCC,76040.12903200001,Standard
 LUNG TRANSPLANT,131609.2093,Standard
" TRACH W MV >96 HRS OR PDX EXC FACE, MOUTH & NECK W/O MAJ O.R.",125030.22222000001,Standard
" ""ECMO OR TRACH W MV >96 HRS OR PDX EXC FACE, MOUTH & NECK W MAJ O.R.",257521.9,Standard
"Level 3 Extraocular, Repair, and Plastic Eye Procedures",1478.09416666666,DRG
Level 7 Radiation Therapy,6466.41,DRG
 NERVOUS SYSTEM NEOPLASMS W MCC,17793.333333000002,Standard
" ""ESOPHAGITIS, GASTROENT & MISC DIGEST DISORDERS W/O MCC""",12001.423729,Standard
" TRAUMATIC STUPOR & COMA, COMA >1 HR W CC",18440.555556,Standard
 G.I. HEMORRHAGE W CC,14057.725,Standard
 HEART FAILURE & SHOCK W MCC,19593.037037000002,Standard
 CARDIAC VALVE & OTH MAJ CARDIOTHORACIC PROC W CARD CATH W MCC,116394.27273,Standard
 RESPIRATORY SYSTEM DIAGNOSIS W VENTILATOR SUPPORT >96 HOURS,72588.5,Standard
 OTHER RESPIRATORY SYSTEM DIAGNOSES W/O MCC,14182.2,Standard
 OTHER RESPIRATORY SYSTEM DIAGNOSES W MCC,25012.194444,Standard
 BRONCHITIS & ASTHMA W/O CC/MCC,9581.6363636,Standard
 BRONCHITIS & ASTHMA W CC/MCC,14048.833333,Standard
 HEART FAILURE & SHOCK W CC,14012.595744999999,Standard
 HEART FAILURE & SHOCK W/O CC/MCC,10933.277778,Standard
 PERIPHERAL VASCULAR DISORDERS W MCC,26027.4375,Standard
 PERIPHERAL VASCULAR DISORDERS W CC,16249.5,Standard
 HYPERTENSION W MCC,15615.277778,Standard
 INTERSTITIAL LUNG DISEASE W MCC,22505.875,Standard
 SIMPLE PNEUMONIA & PLEURISY W CC,13381.133333,Standard
 HYPERTENSION W/O MCC,11033.384615,Standard
 CARDIAC ARRHYTHMIA & CONDUCTION DISORDERS W MCC,16410.235294,Standard
 CARDIAC ARRHYTHMIA & CONDUCTION DISORDERS W CC,12198.107143000001,Standard
" CIRCULATORY DISORDERS EXCEPT AMI, W CARD CATH W/O MCC",17347.608696,Standard
 CARDIAC ARRHYTHMIA & CONDUCTION DISORDERS W/O CC/MCC,10225.416667,Standard
" ""CIRCULATORY DISORDERS EXCEPT AMI, W CARD CATH W MCC""",32555.507245999997,Standard
" ""ACUTE MYOCARDIAL INFARCTION, DISCHARGED ALIVE W MCC""",21945.238095,Standard
 CORONARY BYPASS W CARDIAC CATH W/O MCC,55063.153846,Standard
 CORONARY BYPASS W/O CARDIAC CATH W MCC,58805.625,Standard
 AMPUTATION FOR CIRC SYS DISORDERS EXC UPPER LIMB & TOE W MCC,60754.642857000006,Standard
 PERMANENT CARDIAC PACEMAKER IMPLANT W MCC,60446.090909000006,Standard
 PERCUTANEOUS CARDIOVASCULAR PROCEDURES W DRUG,35471.8,Standard
" ESOPHAGITIS, GASTROENT & MISC DIGEST DISORDERS W MCC",16669.259259,Standard
 PERC CARDIOVASC PROC W DRUG,24463.333333000002,Standard
 OTHER VASCULAR PROCEDURES W MCC,42918.555556,Standard
 OTHER VASCULAR PROCEDURES W CC,29663.142857,Standard
 CARDIAC PACEMAKER REVISION EXCEPT DEVICE REPLACEMENT W MCC,46243.0,Standard
 OTHER CIRCULATORY SYSTEM O.R. PROCEDURES,38883.25,Standard
 ENDOVASCULAR CARDIAC VALVE REPLACEMENT W MCC,73810.583333,Standard
 ENDOVASCULAR CARDIAC VALVE REPLACEMENT W/O MCC,56975.264705999994,Standard
 AORTIC AND HEART ASSIST PROCEDURES EXCEPT PULSATION BALLOON W/O MCC,44455.307692,Standard
 OTHER MAJOR CARDIOVASCULAR PROCEDURES W MCC,68055.545455,Standard
 PERCUTANEOUS INTRACARDIAC PROCEDURES W MCC,40396.529412,Standard
 PERCUTANEOUS INTRACARDIAC PROCEDURES W/O MCC,27982.161289999996,Standard
" ACUTE MYOCARDIAL INFARCTION, DISCHARGED ALIVE W CC",14606.535713999998,Standard
 SIMPLE PNEUMONIA & PLEURISY W MCC,17686.576923,Standard
 RESPIRATORY SYSTEM DIAGNOSIS W VENTILATOR SUPPORT <=96 HOURS,36434.346938999995,Standard
 CHEST PAIN,10610.6875,Standard
Level 2 Pacemaker and Similar Procedures,6266.2,DRG
Level 3 Pacemaker and Similar Procedures,8710.42,DRG
Level 2 ICD and Similar Procedures,30524.37,DRG
Level 2 Upper GI Procedures,1132.1609356725098,DRG
Level 3 Upper GI Procedures,2253.21325,DRG
Level 3 Lower GI Procedures,1904.88,DRG
Complex GI Procedures,3532.01,DRG
Abdominal/Peritoneal/Biliary and Related Procedures,2394.76999999999,DRG
Level 1 Laparoscopy and Related Services,3688.88325,DRG
Level 2 Laparoscopy and Related Services,6496.9799999999905,DRG
Level 3 Urology and Related Services,1358.20926605504,DRG
Level 4 Urology and Related Services,2215.41083333333,DRG
" ""STOMACH, ESOPHAGEAL & DUODENAL PROC W CC""",30707.5,Standard
 SYNCOPE & COLLAPSE,12130.571429000001,Standard
 MAJOR SMALL & LARGE BOWEL PROCEDURES W CC,28298.4,Standard
 MAJOR GASTROINTESTINAL DISORDERS & PERITONEAL INFECTIONS W CC,17160.625,Standard
 G.I. HEMORRHAGE W MCC,24742.081081,Standard
Level 3 Electrophysiologic Procedures,17726.4699999999,DRG
Level 4 Endovascular Procedures,14216.633846153798,DRG
 MAJOR SMALL & LARGE BOWEL PROCEDURES W MCC,60240.3,Standard
Level 2 Endovascular Procedures,3881.87925,DRG
Level 3 Endovascular Procedures,9491.60333333333,DRG
 OTHER CIRCULATORY SYSTEM DIAGNOSES W MCC,25656.78125,Standard
 OTHER CIRCULATORY SYSTEM DIAGNOSES W CC,16088.238094999999,Standard
 CHRONIC OBSTRUCTIVE PULMONARY DISEASE W CC,13346.878048999999,Standard
Level 2 Excision/ Biopsy/ Incision and Drainage,1100.8116262975698,DRG
Level 3 Excision/ Biopsy/ Incision and Drainage,1799.97176470588,DRG
Level 1 Breast/Lymphatic Surgery and Related Procedures,2243.97,DRG
Level 2 Musculoskeletal Procedures,1110.49,DRG
 CHRONIC OBSTRUCTIVE PULMONARY DISEASE W/O CC/MCC,10800.555556,Standard
Level 4 Musculoskeletal Procedures,4607.85085714285,DRG
Level 3 Airway Endoscopy,1052.6944262294999,DRG
Level 4 Airway Endoscopy,2113.8486982248396,DRG
Level 5 Airway Endoscopy,3966.75050505049,DRG
Level 5 ENT Procedures,3569.18,DRG
Level 1 Endovascular Procedures,1947.3914105793601,DRG
Level 3 Musculoskeletal Procedures,2037.11574468085,DRG
