Description,Charge,Category
 SEPTICEMIA OR SEVERE SEPSIS W/O MV >96 HOURS W/O MCC,7055.7692308,Standard
 SEPTICEMIA OR SEVERE SEPSIS W/O MV >96 HOURS W MCC,14563.655172,Standard
 KIDNEY & URINARY TRACT INFECTIONS W/O MCC,5197.3076923,Standard
 DIABETES W CC,5527.9090909,Standard
 CELLULITIS W/O MCC,5524.8181818,Standard
 MAJOR JOINT/LIMB REATTACHMENT PROCEDURE OF UPPER EXTREMITIES,15929.333333,Standard
 REVISION OF HIP OR KNEE REPLACEMENT W/O CC/MCC,16809.75,Standard
 PSYCHOSES,7416.1818182,Standard
 CHRONIC OBSTRUCTIVE PULMONARY DISEASE W MCC,8008.0,Standard
 PERC CARDIOVASC PROC W DRUG,12962.818181999999,Standard
 HEART FAILURE & SHOCK W MCC,9596.192307700001,Standard
" ""ESOPHAGITIS, GASTROENT & MISC DIGEST DISORDERS W/O MCC""",4993.25,Standard
 SPINAL FUSION EXCEPT CERVICAL W/O MCC,24852.375,Standard
 MAJOR HIP AND KNEE JOINT REPLACEMENT OR REATTACHMENT OF LOWER EXTREM,13365.0,Standard
 REVISION OF HIP OR KNEE REPLACEMENT W CC,23553.615385,Standard
