Description,Charge,Category
Level 3 Musculoskeletal Procedures,1836.5888372093,DRG
Level 2 Excision/ Biopsy/ Incision and Drainage,853.102028985508,DRG
 SIMPLE PNEUMONIA & PLEURISY W CC,7314.210526299999,Standard
 OTHER RESP SYSTEM O.R. PROCEDURES W MCC,21627.583333000002,Standard
Level 4 Musculoskeletal Procedures,3839.48076923076,DRG
 DIABETES W CC,6801.857142899999,Standard
" MISC DISORDERS OF NUTRITION,METABOLISM,FLUIDS/ELECTROLYTES W MCC",9210.466666700002,Standard
 SIMPLE PNEUMONIA & PLEURISY W/O CC/MCC,5494.636363600001,Standard
Level 2 Musculoskeletal Procedures,931.349032258065,DRG
Level 2 Breast/Lymphatic Surgery and Related Procedures,3422.12,DRG
 PERC CARDIOVASC PROC W DRUG,13278.714286,Standard
Comprehensive Observation Services,1671.1057983193302,DRG
 PULMONARY EDEMA & RESPIRATORY FAILURE,8658.95,Standard
 CHRONIC OBSTRUCTIVE PULMONARY DISEASE W MCC,8545.2972973,Standard
 SIGNS & SYMPTOMS W/O MCC,5950.0909091,Standard
 SEPTICEMIA OR SEVERE SEPSIS W/O MV >96 HOURS W/O MCC,7985.55,Standard
 SEPTICEMIA OR SEVERE SEPSIS W/O MV >96 HOURS W MCC,12052.662790999999,Standard
 OTHER KIDNEY & URINARY TRACT DIAGNOSES W MCC,10717.8125,Standard
 KIDNEY & URINARY TRACT INFECTIONS W/O MCC,6179.302325600001,Standard
 KIDNEY & URINARY TRACT INFECTIONS W MCC,8107.6666667,Standard
 RENAL FAILURE W CC,7194.3793103,Standard
 RENAL FAILURE W MCC,8956.772727299998,Standard
 RESPIRATORY INFECTIONS & INFLAMMATIONS W MCC,13131.384615,Standard
Level 2 Intraocular Procedures,2567.46058823529,DRG
Level 1 Endovascular Procedures,1726.71512195121,DRG
Level 1 Nerve Procedures,1142.18155555555,DRG
" ""ACUTE MYOCARDIAL INFARCTION, DISCHARGED ALIVE W MCC""",10788.5,Standard
" ACUTE MYOCARDIAL INFARCTION, DISCHARGED ALIVE W CC",7088.1111111,Standard
" CIRCULATORY DISORDERS EXCEPT AMI, W CARD CATH W/O MCC",7724.2777778,Standard
 HEART FAILURE & SHOCK W MCC,10052.234043,Standard
Abdominal/Peritoneal/Biliary and Related Procedures,2070.36,DRG
 HEART FAILURE & SHOCK W CC,6810.766666699999,Standard
 PERIPHERAL VASCULAR DISORDERS W CC,7369.6,Standard
 CHRONIC OBSTRUCTIVE PULMONARY DISEASE W CC,7130.461538500001,Standard
 SIMPLE PNEUMONIA & PLEURISY W MCC,9651.7777778,Standard
 CARDIAC ARRHYTHMIA & CONDUCTION DISORDERS W MCC,8770.3157895,Standard
 CARDIAC ARRHYTHMIA & CONDUCTION DISORDERS W/O CC/MCC,4335.0714286,Standard
 SYNCOPE & COLLAPSE,5986.5263158,Standard
Level 1 Intraocular Procedures,1365.0320289855001,DRG
Level 2 Endovascular Procedures,3616.37,DRG
 G.I. HEMORRHAGE W MCC,11613.083333,Standard
 CHEST PAIN,5280.5714286,Standard
 G.I. OBSTRUCTION W CC,6977.5,Standard
Level 5 Urology and Related Services,2635.66,DRG
Level 4 Urology and Related Services,1917.88,DRG
Level 3 Urology and Related Services,1205.93999999999,DRG
Level 1 Laparoscopy and Related Services,3192.27,DRG
 G.I. HEMORRHAGE W CC,7114.875,Standard
 CARDIAC ARRHYTHMIA & CONDUCTION DISORDERS W CC,5567.3,Standard
 CELLULITIS W/O MCC,6548.7307692,Standard
 HIP & FEMUR PROCEDURES EXCEPT MAJOR JOINT W CC,13072.071429000001,Standard
 MAJOR HIP AND KNEE JOINT REPLACEMENT OR REATTACHMENT OF LOWER EXTREM,12713.142856999999,Standard
" ""ESOPHAGITIS, GASTROENT & MISC DIGEST DISORDERS W/O MCC""",5846.9090909,Standard
