Description,Charge,Category
Level 4 Musculoskeletal Procedures,3775.67909090909,DRG
Level 3 Musculoskeletal Procedures,1856.70599999999,DRG
Level 2 Musculoskeletal Procedures,972.221818181818,DRG
Level 3 Excision/ Biopsy/ Incision and Drainage,1681.4,DRG
Level 2 Excision/ Biopsy/ Incision and Drainage,964.660975609754,DRG
 INFECTIOUS & PARASITIC DISEASES W O.R. PROCEDURE W MCC,31547.166667,Standard
 KIDNEY & URINARY TRACT INFECTIONS W/O MCC,5999.233333300001,Standard
 RENAL FAILURE W CC,6880.8709677,Standard
 RENAL FAILURE W MCC,10637.15,Standard
" ""MISC DISORDERS OF NUTRITION,METABOLISM,FLUIDS/ELECTROLYTES W/O MCC""",5854.4827586,Standard
" MISC DISORDERS OF NUTRITION,METABOLISM,FLUIDS/ELECTROLYTES W MCC",8882.6842105,Standard
 RED BLOOD CELL DISORDERS W/O MCC,6839.7272727,Standard
 KIDNEY & URINARY TRACT INFECTIONS W MCC,8126.15,Standard
 INTRACRANIAL HEMORRHAGE OR CEREBRAL INFARCTION W/O CC/MCC,6463.0909091,Standard
Level 5 ENT Procedures,3137.92,DRG
 SEPTICEMIA OR SEVERE SEPSIS W/O MV >96 HOURS W MCC,12534.601563,Standard
Comprehensive Observation Services,1674.26670329668,DRG
Level 1 Intraocular Procedures,1386.79999999999,DRG
Level 4 Neurostimulator and Related Procedures,22945.7568,DRG
Level 5 Urology and Related Services,2679.37112903225,DRG
Level 4 Urology and Related Services,1946.48216216216,DRG
Level 3 Urology and Related Services,1204.6068253968199,DRG
Level 4 Airway Endoscopy,1766.2026666666602,DRG
Level 1 Laparoscopy and Related Services,3246.33,DRG
Level 2 Upper GI Procedures,1032.32,DRG
Level 2 ICD and Similar Procedures,26669.4175,DRG
Level 3 Pacemaker and Similar Procedures,7499.28,DRG
Level 3 Electrophysiologic Procedures,14875.0135714285,DRG
Level 3 Endovascular Procedures,7932.686875,DRG
Level 2 Endovascular Procedures,3621.87878787879,DRG
Level 1 Endovascular Procedures,1684.56247311827,DRG
Abdominal/Peritoneal/Biliary and Related Procedures,2100.78193548387,DRG
 SEPTICEMIA OR SEVERE SEPSIS W/O MV >96 HOURS W/O MCC,8201.2413793,Standard
 HIP & FEMUR PROCEDURES EXCEPT MAJOR JOINT W CC,14085.4,Standard
 DIABETES W CC,6267.0,Standard
" CIRCULATORY DISORDERS EXCEPT AMI, W CARD CATH W/O MCC",8971.477272700002,Standard
" ""CIRCULATORY DISORDERS EXCEPT AMI, W CARD CATH W MCC""",15582.454544999999,Standard
" ""ACUTE MYOCARDIAL INFARCTION, DISCHARGED ALIVE W/O CC/MCC""",6094.5384615,Standard
" ACUTE MYOCARDIAL INFARCTION, DISCHARGED ALIVE W CC",7754.9090909,Standard
" ""ACUTE MYOCARDIAL INFARCTION, DISCHARGED ALIVE W MCC""",11685.4,Standard
 PERC CARDIOVASC PROC W DRUG,15896.608696000001,Standard
 PERCUTANEOUS CARDIOVASCULAR PROCEDURES W DRUG,29019.461538,Standard
 SIGNS & SYMPTOMS W/O MCC,5804.8125,Standard
 PERMANENT CARDIAC PACEMAKER IMPLANT W CC,16070.583333,Standard
 CORONARY BYPASS W CARDIAC CATH W/O MCC,28206.933332999997,Standard
 RESPIRATORY SYSTEM DIAGNOSIS W VENTILATOR SUPPORT <=96 HOURS,15811.9375,Standard
 SIMPLE PNEUMONIA & PLEURISY W/O CC/MCC,5820.7083333,Standard
 SIMPLE PNEUMONIA & PLEURISY W CC,6742.78125,Standard
 SIMPLE PNEUMONIA & PLEURISY W MCC,9950.952381000001,Standard
 CHRONIC OBSTRUCTIVE PULMONARY DISEASE W/O CC/MCC,5959.25,Standard
 CHRONIC OBSTRUCTIVE PULMONARY DISEASE W CC,6424.974359000001,Standard
 CHRONIC OBSTRUCTIVE PULMONARY DISEASE W MCC,8239.84,Standard
 PULMONARY EDEMA & RESPIRATORY FAILURE,9354.2083333,Standard
 RESPIRATORY INFECTIONS & INFLAMMATIONS W CC,9098.5,Standard
 RESPIRATORY INFECTIONS & INFLAMMATIONS W MCC,11852.826087000001,Standard
 PULMONARY EMBOLISM W/O MCC,6475.9166667,Standard
 SEIZURES W/O MCC,6420.2,Standard
 TRANSIENT ISCHEMIA W/O THROMBOLYTIC,5796.142857100001,Standard
 HEART FAILURE & SHOCK W MCC,9839.5645161,Standard
 HEART FAILURE & SHOCK W CC,7374.921875,Standard
 MAJOR SMALL & LARGE BOWEL PROCEDURES W MCC,29959.909091,Standard
 PERIPHERAL VASCULAR DISORDERS W CC,7459.6666667,Standard
 MAJOR HIP AND KNEE JOINT REPLACEMENT OR REATTACHMENT OF LOWER EXTREM,14155.488888999998,Standard
 CELLULITIS W/O MCC,6408.407407399999,Standard
 HEART FAILURE & SHOCK W/O CC/MCC,5515.5,Standard
 OTHER DIGESTIVE SYSTEM DIAGNOSES W CC,8011.636363600001,Standard
" ""ESOPHAGITIS, GASTROENT & MISC DIGEST DISORDERS W/O MCC""",6028.6730769,Standard
" ESOPHAGITIS, GASTROENT & MISC DIGEST DISORDERS W MCC",8997.0,Standard
 G.I. OBSTRUCTION W CC,6584.2307692,Standard
 G.I. HEMORRHAGE W CC,7364.714285699999,Standard
 INTRACRANIAL HEMORRHAGE OR CEREBRAL INFARCTION W CC OR TPA IN 24 HRS,7677.214285699999,Standard
 MEDICAL BACK PROBLEMS W/O MCC,7114.2307692,Standard
 SYNCOPE & COLLAPSE,6127.04,Standard
 CARDIAC ARRHYTHMIA & CONDUCTION DISORDERS W MCC,8684.4210526,Standard
 CARDIAC ARRHYTHMIA & CONDUCTION DISORDERS W CC,5984.9677419,Standard
 G.I. HEMORRHAGE W MCC,11622.238095,Standard
 MAJOR SMALL & LARGE BOWEL PROCEDURES W CC,17147.571429,Standard
 CHEST PAIN,5532.2727273,Standard
 CARDIAC ARRHYTHMIA & CONDUCTION DISORDERS W/O CC/MCC,4684.0238094999995,Standard
