Description,Charge,Category
 HEART FAILURE & SHOCK W MCC,11109.027397,Standard
 COAGULATION DISORDERS,14604.583333,Standard
 KIDNEY & URINARY TRACT INFECTIONS W/O MCC,6082.642857100001,Standard
 RENAL FAILURE W CC,7116.04,Standard
 RENAL FAILURE W MCC,11179.619048,Standard
" ""MISC DISORDERS OF NUTRITION,METABOLISM,FLUIDS/ELECTROLYTES W/O MCC""",5700.0,Standard
 DIABETES W CC,6514.636363600001,Standard
 CELLULITIS W/O MCC,6633.0,Standard
 SEPTICEMIA OR SEVERE SEPSIS W/O MV >96 HOURS W/O MCC,8405.441860500001,Standard
 SEPTICEMIA OR SEVERE SEPSIS W/O MV >96 HOURS W MCC,13994.624113,Standard
 INTRACRANIAL HEMORRHAGE OR CEREBRAL INFARCTION W CC OR TPA IN 24 HRS,8691.4,Standard
 PULMONARY EDEMA & RESPIRATORY FAILURE,9517.1176471,Standard
 CHRONIC OBSTRUCTIVE PULMONARY DISEASE W MCC,8769.192307700001,Standard
 CHRONIC OBSTRUCTIVE PULMONARY DISEASE W CC,7045.8125,Standard
 SIMPLE PNEUMONIA & PLEURISY W MCC,10969.296295999999,Standard
 G.I. OBSTRUCTION W CC,6560.6666667,Standard
 SYNCOPE & COLLAPSE,6134.0909091,Standard
 SIMPLE PNEUMONIA & PLEURISY W CC,7086.24,Standard
" ""ACUTE MYOCARDIAL INFARCTION, DISCHARGED ALIVE W MCC""",12316.217391,Standard
" ACUTE MYOCARDIAL INFARCTION, DISCHARGED ALIVE W CC",7441.214285699999,Standard
 CARDIAC ARRHYTHMIA & CONDUCTION DISORDERS W CC,5944.6666667,Standard
" ""ESOPHAGITIS, GASTROENT & MISC DIGEST DISORDERS W/O MCC""",6041.3225806,Standard
Level 2 Excision/ Biopsy/ Incision and Drainage,1018.4502857142801,DRG
Level 2 Upper GI Procedures,1176.56499999999,DRG
Comprehensive Observation Services,1919.2907060755201,DRG
Level 1 Intraocular Procedures,1576.8476683937802,DRG
Level 4 Gynecologic Procedures,1878.06,DRG
Level 3 Excision/ Biopsy/ Incision and Drainage,1921.11,DRG
Level 3 Musculoskeletal Procedures,1967.2649999999899,DRG
Level 1 Laparoscopy and Related Services,3709.16,DRG
