Description,Charge,Category
" ""ESOPHAGITIS, GASTROENT & MISC DIGEST DISORDERS W/O MCC""",5575.8888889,Standard
Level 3 Urology and Related Services,1130.3696,DRG
Level 5 Urology and Related Services,2480.18472972972,DRG
 COMBINED ANTERIOR/POSTERIOR SPINAL FUSION W/O CC/MCC,29109.184211,Standard
Level 4 Gynecologic Procedures,1558.68,DRG
Level 5 Gynecologic Procedures,2508.8181818181797,DRG
Level 1 Nerve Procedures,831.0075,DRG
Level 3 Neurostimulator and Related Procedures,14483.251428571399,DRG
Level 4 Neurostimulator and Related Procedures,21984.7722727272,DRG
Comprehensive Observation Services,1593.01767605633,DRG
Level 2 Excision/ Biopsy/ Incision and Drainage,927.43,DRG
Level 4 Urology and Related Services,1855.34,DRG
 SPINAL FUSION EXCEPT CERVICAL W/O MCC,25202.680850999997,Standard
 HEART FAILURE & SHOCK W MCC,9244.380952399999,Standard
 CHEST PAIN,5252.2307692,Standard
Level 2 Laparoscopy and Related Services,4902.04575757576,DRG
Level 1 Laparoscopy and Related Services,2825.35617021276,DRG
Level 5 ENT Procedures,2649.17,DRG
Level 4 ENT Procedures,1449.8816666666598,DRG
Level 5 Airway Endoscopy,3341.8676470588202,DRG
Level 5 Musculoskeletal Procedures,7181.09047619049,DRG
Level 4 Musculoskeletal Procedures,3731.00578778135,DRG
Level 3 Musculoskeletal Procedures,1765.5746268656699,DRG
Level 2 Musculoskeletal Procedures,893.028846153846,DRG
 SEPTICEMIA OR SEVERE SEPSIS W/O MV >96 HOURS W MCC,12069.581395000001,Standard
 G.I. HEMORRHAGE W CC,6709.5,Standard
 KIDNEY & URINARY TRACT INFECTIONS W MCC,7089.055555600001,Standard
 KIDNEY & URINARY TRACT INFECTIONS W/O MCC,5625.8,Standard
" ""MISC DISORDERS OF NUTRITION,METABOLISM,FLUIDS/ELECTROLYTES W/O MCC""",5374.9333333,Standard
 MAJOR JOINT/LIMB REATTACHMENT PROCEDURE OF UPPER EXTREMITIES,15141.964912000001,Standard
 HIP & FEMUR PROCEDURES EXCEPT MAJOR JOINT W CC,12422.166667,Standard
 MAJOR HIP AND KNEE JOINT REPLACEMENT OR REATTACHMENT OF LOWER EXTREM,12709.40991,Standard
 CHRONIC OBSTRUCTIVE PULMONARY DISEASE W MCC,7768.8857143000005,Standard
 SIMPLE PNEUMONIA & PLEURISY W MCC,9066.0588235,Standard
 SIMPLE PNEUMONIA & PLEURISY W CC,6626.0,Standard
" ACUTE MYOCARDIAL INFARCTION, DISCHARGED ALIVE W CC",6230.1666667,Standard
 HEART FAILURE & SHOCK W CC,6486.3846154,Standard
 RENAL FAILURE W CC,6506.1764706,Standard
