Description,Charge,Category
 RED BLOOD CELL DISORDERS W/O MCC,4947.5,Standard
 NON,20727.916666999998,Standard
 UTERINE & ADNEXA PROC FOR NON,5895.9565217,Standard
 MAJOR HEMATOL/IMMUN DIAG EXC SICKLE CELL CRISIS & COAGUL W CC,6539.9230769,Standard
 MAJOR MALE PELVIC PROCEDURES W/O CC/MCC,9514.307692299999,Standard
 OTHER KIDNEY & URINARY TRACT DIAGNOSES W CC,5748.7380952,Standard
 OTHER KIDNEY & URINARY TRACT DIAGNOSES W MCC,8533.5,Standard
 URINARY STONES W/O ESW LITHOTRIPSY W/O MCC,4725.5882353,Standard
 KIDNEY & URINARY TRACT INFECTIONS W/O MCC,4889.8410596,Standard
 PERITONEAL ADHESIOLYSIS W CC,12963.866667,Standard
 KIDNEY & URINARY TRACT INFECTIONS W MCC,5887.6754967,Standard
 RENAL FAILURE W/O CC/MCC,3544.7142857,Standard
 RENAL FAILURE W CC,5210.9710145,Standard
 SIMPLE PNEUMONIA & PLEURISY W MCC,7471.3352601000015,Standard
 HIP & FEMUR PROCEDURES EXCEPT MAJOR JOINT W CC,10811.80303,Standard
 RED BLOOD CELL DISORDERS W MCC,7272.6666667,Standard
 INFECTIOUS & PARASITIC DISEASES W O.R. PROCEDURE W MCC,28138.968992000002,Standard
 SEPTICEMIA OR SEVERE SEPSIS W/O MV >96 HOURS W/O MCC,5832.7625,Standard
 SEPTICEMIA OR SEVERE SEPSIS W MV >96 HOURS OR PERIPHERAL EXTRACORPOR,33766.538462000004,Standard
 HIP & FEMUR PROCEDURES EXCEPT MAJOR JOINT W MCC,15686.153846000001,Standard
 MAJOR HIP AND KNEE JOINT REPLACEMENT OR REATTACHMENT OF LOWER EXTREM,11114.29375,Standard
 MAJOR HIP AND KNEE JOINT REPLACEMENT OR REATTACHMENT OF LOWER EXTREM,17408.684211,Standard
 EXTENSIVE O.R. PROCEDURE UNRELATED TO PRINCIPAL DIAGNOSIS W MCC,22357.631579,Standard
 COMPLICATIONS OF TREATMENT W MCC,9450.0,Standard
 POISONING & TOXIC EFFECTS OF DRUGS W MCC,7260.0833333,Standard
 OTHER RESP SYSTEM O.R. PROCEDURES W MCC,19807.5,Standard
 MAJOR CHEST PROCEDURES W/O CC/MCC,10528.5,Standard
 MAJOR CHEST PROCEDURES W CC,14116.05,Standard
 SEIZURES W/O MCC,4615.425531899999,Standard
 SEIZURES W MCC,9622.964285700002,Standard
 OTHER DISORDERS OF NERVOUS SYSTEM W CC,5081.125,Standard
 REVISION OF HIP OR KNEE REPLACEMENT W/O CC/MCC,14935.5,Standard
 REVISION OF HIP OR KNEE REPLACEMENT W CC,17242.466666999997,Standard
 OTHER DISORDERS OF NERVOUS SYSTEM W MCC,8394.1875,Standard
 CRANIAL & PERIPHERAL NERVE DISORDERS W/O MCC,5264.6666667,Standard
 CRANIAL & PERIPHERAL NERVE DISORDERS W MCC,8212.4615385,Standard
 NONSPECIFIC CEREBROVASCULAR DISORDERS W MCC,9645.6666667,Standard
 TRANSIENT ISCHEMIA W/O THROMBOLYTIC,4218.15,Standard
 INTRACRANIAL HEMORRHAGE OR CEREBRAL INFARCTION W/O CC/MCC,4171.6388889,Standard
 INTRACRANIAL HEMORRHAGE OR CEREBRAL INFARCTION W CC OR TPA IN 24 HRS,5825.959596,Standard
 ORGANIC DISTURBANCES & INTELLECTUAL DISABILITY,6502.6875,Standard
 SIMPLE PNEUMONIA & PLEURISY W CC,5308.5301205,Standard
 EXTENSIVE O.R. PROCEDURE UNRELATED TO PRINCIPAL DIAGNOSIS W CC,12925.227273,Standard
 SEPTICEMIA OR SEVERE SEPSIS W/O MV >96 HOURS W MCC,10108.354237000001,Standard
 POSTOPERATIVE OR POST,9449.0714286,Standard
 HIP & FEMUR PROCEDURES EXCEPT MAJOR JOINT W/O CC/MCC,9000.7058824,Standard
 HERNIA PROCEDURES EXCEPT INGUINAL & FEMORAL W/O CC/MCC,7610.5,Standard
 FRACTURES OF HIP & PELVIS W/O MCC,4166.7894737,Standard
Level 1 Laparoscopy and Related Services,3032.01091176472,DRG
Level 2 Laparoscopy and Related Services,5103.077542662079,DRG
Level 3 Urology and Related Services,1110.55923076923,DRG
Level 4 Urology and Related Services,1842.4556944444396,DRG
Level 5 Urology and Related Services,2473.07977678572,DRG
Level 6 Urology and Related Services,5226.14999999999,DRG
Level 4 Musculoskeletal Procedures,3799.57522388058,DRG
Level 7 Urology and Related Services,12186.75,DRG
Level 3 Musculoskeletal Procedures,1819.9,DRG
Level 2 Musculoskeletal Procedures,928.75,DRG
Level 2 Breast/Lymphatic Surgery and Related Procedures,3257.14419354838,DRG
" ""TENDONITIS, MYOSITIS & BURSITIS W/O MCC""",4953.0,Standard
Level 1 Breast/Lymphatic Surgery and Related Procedures,1840.0575925925898,DRG
" FX, SPRN, STRN & DISL EXCEPT FEMUR, HIP, PELVIS & THIGH W/O MCC",4457.4545455,Standard
Level 4 Gynecologic Procedures,1534.0446551724099,DRG
Level 5 Gynecologic Procedures,2728.6921348314604,DRG
Abdominal/Peritoneal/Biliary and Related Procedures,1968.6507936507899,DRG
Level 3 Lower GI Procedures,1563.9781034482698,DRG
Level 5 ENT Procedures,2909.57382716049,DRG
Level 3 Airway Endoscopy,888.03894409938,DRG
Level 5 Musculoskeletal Procedures,7390.73944444445,DRG
Level 1 Endovascular Procedures,1661.80724458203,DRG
Level 2 Endovascular Procedures,3415.69222222221,DRG
Level 3 Endovascular Procedures,7530.09316455697,DRG
Complex GI Procedures,2819.6893939393894,DRG
Level 4 Endovascular Procedures,12464.16,DRG
Level 2 Pacemaker and Similar Procedures,4916.32914285714,DRG
Level 3 Pacemaker and Similar Procedures,7067.524,DRG
Level 1 ICD and Similar Procedures,16437.209285714198,DRG
Level 2 ICD and Similar Procedures,24725.2046511628,DRG
Level 2 Upper GI Procedures,981.5176510067099,DRG
Level 3 Upper GI Procedures,1887.45999999999,DRG
Level 3 Electrophysiologic Procedures,14442.533563218301,DRG
 MAJOR JOINT/LIMB REATTACHMENT PROCEDURE OF UPPER EXTREMITIES,13112.977778,Standard
 SKIN DEBRIDEMENT W MCC,15256.272727000001,Standard
" ""OTHER SKIN, SUBCUT TISS & BREAST PROC W/O CC/MCC""",6930.0,Standard
 BONE DISEASES & ARTHROPATHIES W/O MCC,4222.8181818,Standard
 MEDICAL BACK PROBLEMS W/O MCC,4968.2307692,Standard
 PATHOLOGICAL FRACTURES & MUSCULOSKELET & CONN TISS MALIG W CC,5868.375,Standard
 SIMPLE PNEUMONIA & PLEURISY W/O CC/MCC,4030.24,Standard
 OTHER RESP SYSTEM O.R. PROCEDURES W/O CC/MCC,7036.8181818,Standard
 PULMONARY EMBOLISM W MCC,7820.8823529,Standard
Comprehensive Observation Services,1599.83712230214,DRG
 PULMONARY EMBOLISM W/O MCC,5085.125,Standard
 RESPIRATORY INFECTIONS & INFLAMMATIONS W CC,6750.217391300001,Standard
 RESPIRATORY NEOPLASMS W MCC,9118.6842105,Standard
 PULMONARY EDEMA & RESPIRATORY FAILURE,6718.973451299999,Standard
 CHRONIC OBSTRUCTIVE PULMONARY DISEASE W MCC,6234.474359000001,Standard
 CHRONIC OBSTRUCTIVE PULMONARY DISEASE W CC,5001.0731706999995,Standard
 CHRONIC OBSTRUCTIVE PULMONARY DISEASE W/O CC/MCC,4084.0,Standard
 RESPIRATORY INFECTIONS & INFLAMMATIONS W MCC,9963.536764700002,Standard
" OTHER SKIN, SUBCUT TISS & BREAST PROC W CC",8964.642857100001,Standard
Level 2 Intraocular Procedures,2483.85785714285,DRG
Level 6 Gynecologic Procedures,4198.17,DRG
Level 3 Excision/ Biopsy/ Incision and Drainage,1535.9986274509802,DRG
Level 2 Excision/ Biopsy/ Incision and Drainage,910.0433211009109,DRG
 CELLULITIS W MCC,7858.3333333,Standard
 CELLULITIS W/O MCC,4783.1132075000005,Standard
" ""AMPUTAT OF LOWER LIMB FOR ENDOCRINE,NUTRIT,& METABOL DIS W CC""",10891.058824,Standard
 DIABETES W MCC,7400.1707317,Standard
Level 3 Neurostimulator and Related Procedures,14483.8499999999,DRG
 DIABETES W CC,4710.0816327,Standard
" ""MISC DISORDERS OF NUTRITION,METABOLISM,FLUIDS/ELECTROLYTES W/O MCC""",4237.21875,Standard
 KIDNEY & URETER PROCEDURES FOR NEOPLASM W CC,10671.666667,Standard
 KIDNEY & URETER PROCEDURES FOR NEOPLASM W/O CC/MCC,8449.3478261,Standard
 TRANSURETHRAL PROCEDURES W CC,7827.0833333,Standard
 RENAL FAILURE W MCC,8224.314285699998,Standard
 OTHER RESP SYSTEM O.R. PROCEDURES W CC,10454.029412,Standard
" MISC DISORDERS OF NUTRITION,METABOLISM,FLUIDS/ELECTROLYTES W MCC",6383.5894737,Standard
 INTERSTITIAL LUNG DISEASE W MCC,8496.166666699999,Standard
 OTHER CARDIOTHORACIC PROCEDURES W/O MCC,24210.090909,Standard
 BRONCHITIS & ASTHMA W CC/MCC,5127.5806452,Standard
 MALIGNANCY OF HEPATOBILIARY SYSTEM OR PANCREAS W MCC,9021.642857100001,Standard
 DISORDERS OF PANCREAS EXCEPT MALIGNANCY W MCC,17866.25,Standard
 DISORDERS OF PANCREAS EXCEPT MALIGNANCY W CC,4915.1304348,Standard
 DISORDERS OF PANCREAS EXCEPT MALIGNANCY W/O CC/MCC,3821.2666666999994,Standard
" ""DISORDERS OF LIVER EXCEPT MALIG,CIRR,ALC HEPA W MCC""",9792.2222222,Standard
 DISORDERS OF THE BILIARY TRACT W CC,5823.357142899999,Standard
 COMBINED ANTERIOR/POSTERIOR SPINAL FUSION W/O CC/MCC,26771.55,Standard
 SPINAL FUSION EXCEPT CERVICAL W/O MCC,20599.28125,Standard
" ""WND DEBRID & SKN GRFT EXC HAND, FOR MUSCULO",24927.0,Standard
" WND DEBRID & SKN GRFT EXC HAND, FOR MUSCULO",13442.666667,Standard
 PNEUMOTHORAX W CC,5833.5625,Standard
 CARDIAC ARRHYTHMIA & CONDUCTION DISORDERS W MCC,6790.5068493,Standard
 HYPERTENSION W/O MCC,3901.047619,Standard
 HYPERTENSION W MCC,5767.1666667,Standard
 ATHEROSCLEROSIS W/O MCC,3752.7857143,Standard
 PERIPHERAL VASCULAR DISORDERS W CC,5610.3888889,Standard
 HEART FAILURE & SHOCK W/O CC/MCC,3803.1470587999997,Standard
 HEART FAILURE & SHOCK W CC,5257.25,Standard
 HEART FAILURE & SHOCK W MCC,7911.2231947,Standard
" CIRCULATORY DISORDERS EXCEPT AMI, W CARD CATH W/O MCC",6573.2857143,Standard
" ""CIRCULATORY DISORDERS EXCEPT AMI, W CARD CATH W MCC""",13310.315789,Standard
" ""ACUTE MYOCARDIAL INFARCTION, DISCHARGED ALIVE W/O CC/MCC""",4248.8125,Standard
" ACUTE MYOCARDIAL INFARCTION, DISCHARGED ALIVE W CC",5814.2592593,Standard
" ""ACUTE MYOCARDIAL INFARCTION, DISCHARGED ALIVE W MCC""",8921.151515200001,Standard
 AORTIC AND HEART ASSIST PROCEDURES EXCEPT PULSATION BALLOON W/O MCC,21940.761905,Standard
 CIRRHOSIS & ALCOHOLIC HEPATITIS W CC,5919.0,Standard
 LAPAROSCOPIC CHOLECYSTECTOMY W/O C.D.E. W/O CC/MCC,7264.3823529,Standard
 LAPAROSCOPIC CHOLECYSTECTOMY W/O C.D.E. W CC,9398.880952399999,Standard
 LAPAROSCOPIC CHOLECYSTECTOMY W/O C.D.E. W MCC,13972.736841999998,Standard
 MAJOR GASTROINTESTINAL DISORDERS & PERITONEAL INFECTIONS W MCC,10378.7,Standard
 MAJOR GASTROINTESTINAL DISORDERS & PERITONEAL INFECTIONS W CC,5605.3461538,Standard
 DIGESTIVE MALIGNANCY W MCC,10528.571429000001,Standard
 MAJOR SMALL & LARGE BOWEL PROCEDURES W/O CC/MCC,9098.9859155,Standard
 MAJOR SMALL & LARGE BOWEL PROCEDURES W CC,14056.717391,Standard
 MAJOR SMALL & LARGE BOWEL PROCEDURES W MCC,29034.520548,Standard
" STOMACH, ESOPHAGEAL & DUODENAL PROC W/O CC/MCC",8140.2307692,Standard
" ""STOMACH, ESOPHAGEAL & DUODENAL PROC W CC""",11253.538462,Standard
" STOMACH, ESOPHAGEAL & DUODENAL PROC W MCC",25324.857143,Standard
 OTHER CIRCULATORY SYSTEM DIAGNOSES W CC,5331.0666667,Standard
 OTHER CIRCULATORY SYSTEM DIAGNOSES W MCC,12346.885714,Standard
 CHEST PAIN,3955.3846154,Standard
 OTHER CIRCULATORY SYSTEM O.R. PROCEDURES,19191.75,Standard
 SYNCOPE & COLLAPSE,4447.915493,Standard
 DIGESTIVE MALIGNANCY W CC,6759.75,Standard
 G.I. HEMORRHAGE W MCC,9665.4252874,Standard
 G.I. HEMORRHAGE W CC,5394.1745283,Standard
 G.I. HEMORRHAGE W/O CC/MCC,3653.2777778000004,Standard
 G.I. OBSTRUCTION W MCC,8544.166666699999,Standard
 G.I. OBSTRUCTION W CC,4738.592592600001,Standard
 G.I. OBSTRUCTION W/O CC/MCC,3429.4693878,Standard
" ESOPHAGITIS, GASTROENT & MISC DIGEST DISORDERS W MCC",6833.0303030000005,Standard
 SIGNS & SYMPTOMS W/O MCC,4322.8,Standard
" ""ESOPHAGITIS, GASTROENT & MISC DIGEST DISORDERS W/O MCC""",4269.6058394,Standard
 OTHER DIGESTIVE SYSTEM DIAGNOSES W MCC,9224.0384615,Standard
 OTHER DIGESTIVE SYSTEM DIAGNOSES W CC,5224.40625,Standard
 CARDIAC ARRHYTHMIA & CONDUCTION DISORDERS W/O CC/MCC,3295.8679245000003,Standard
 OTHER VASCULAR PROCEDURES W/O CC/MCC,10084.333333,Standard
 CARDIAC ARRHYTHMIA & CONDUCTION DISORDERS W CC,4349.649350600001,Standard
 OTHER VASCULAR PROCEDURES W MCC,17194.96,Standard
" TRACH W MV >96 HRS OR PDX EXC FACE, MOUTH & NECK W/O MAJ O.R.",55441.6875,Standard
 EXTRACRANIAL PROCEDURES W/O CC/MCC,6275.1538462,Standard
 NERVOUS SYSTEM NEOPLASMS W MCC,7164.0,Standard
 DEGENERATIVE NERVOUS SYSTEM DISORDERS W MCC,9692.8333333,Standard
 DEGENERATIVE NERVOUS SYSTEM DISORDERS W/O MCC,6321.892857100001,Standard
 INTRACRANIAL HEMORRHAGE OR CEREBRAL INFARCTION W MCC,9481.7719298,Standard
 PERC CARDIOVASC PROC W NON,10497.772727,Standard
 PERCUTANEOUS CARDIOVASCULAR PROCEDURES W NON,16191.3125,Standard
 PERC CARDIOVASC PROC W DRUG,12135.591837,Standard
 PERCUTANEOUS CARDIOVASCULAR PROCEDURES W DRUG,17051.625,Standard
 SKIN DEBRIDEMENT W CC,8813.727272700002,Standard
 PERMANENT CARDIAC PACEMAKER IMPLANT W/O CC/MCC,11444.5,Standard
 AMPUTATION FOR CIRC SYS DISORDERS EXC UPPER LIMB & TOE W CC,13919.076922999999,Standard
 AMPUTATION FOR CIRC SYS DISORDERS EXC UPPER LIMB & TOE W MCC,26316.473684,Standard
 CORONARY BYPASS W/O CARDIAC CATH W/O MCC,20058.571429,Standard
 CORONARY BYPASS W CARDIAC CATH W/O MCC,26533.736842,Standard
Level 5 Airway Endoscopy,3222.5555555555497,DRG
 CARDIAC DEFIBRILLATOR IMPLANT W/O CARDIAC CATH W MCC,36165.083332999995,Standard
 CARDIAC VALVE & OTH MAJ CARDIOTHORACIC PROC W/O CARD CATH W CC,27333.727273,Standard
 CARDIAC VALVE & OTH MAJ CARDIOTHORACIC PROC W/O CARD CATH W MCC,58300.166667,Standard
 RESPIRATORY SYSTEM DIAGNOSIS W VENTILATOR SUPPORT <=96 HOURS,12736.610526,Standard
 RESPIRATORY SYSTEM DIAGNOSIS W VENTILATOR SUPPORT >96 HOURS,28865.62963,Standard
 PERMANENT CARDIAC PACEMAKER IMPLANT W CC,15334.611111000002,Standard
 OTHER VASCULAR PROCEDURES W CC,13951.592593000001,Standard
Level 4 Airway Endoscopy,1767.43963636364,DRG
