Description,Charge,Category
 CARDIAC VALVE & OTH MAJ CARDIOTHORACIC PROC W/O CARD CATH W/O CC/MCC,24263.636363999998,Standard
 OTHER VASCULAR PROCEDURES W MCC,18709.704918,Standard
 PERC CARDIOVASC PROC W NON,10946.458333,Standard
 PERC CARDIOVASC PROC W DRUG,12089.401709,Standard
 PERCUTANEOUS CARDIOVASCULAR PROCEDURES W DRUG,19313.333333000002,Standard
 PERMANENT CARDIAC PACEMAKER IMPLANT W/O CC/MCC,12605.052631999999,Standard
 PERMANENT CARDIAC PACEMAKER IMPLANT W CC,14384.0,Standard
Level 2 ICD and Similar Procedures,24915.348906249903,DRG
Level 2 Upper GI Procedures,958.758481675391,DRG
Level 3 Upper GI Procedures,1824.54466666666,DRG
 PERMANENT CARDIAC PACEMAKER IMPLANT W MCC,19896.625,Standard
 AMPUTATION FOR CIRC SYS DISORDERS EXC UPPER LIMB & TOE W CC,14715.230769,Standard
 AMPUTATION FOR CIRC SYS DISORDERS EXC UPPER LIMB & TOE W MCC,23820.368421,Standard
 CORONARY BYPASS W/O CARDIAC CATH W/O MCC,21105.875,Standard
 CORONARY BYPASS W/O CARDIAC CATH W MCC,31803.933332999997,Standard
 CORONARY BYPASS W CARDIAC CATH W/O MCC,26885.171429,Standard
 CORONARY BYPASS W CARDIAC CATH W MCC,39523.5625,Standard
 INFECTIOUS & PARASITIC DISEASES W O.R. PROCEDURE W MCC,26900.0,Standard
 POISONING & TOXIC EFFECTS OF DRUGS W/O MCC,4561.527777800001,Standard
 PATHOLOGICAL FRACTURES & MUSCULOSKELET & CONN TISS MALIG W/O CC/MCC,4686.1538462,Standard
 OTHER DIGESTIVE SYSTEM DIAGNOSES W CC,5606.1333333,Standard
 OTHER DIGESTIVE SYSTEM DIAGNOSES W MCC,9270.645161299999,Standard
" ""ESOPHAGITIS, GASTROENT & MISC DIGEST DISORDERS W/O MCC""",4678.5968586,Standard
" ESOPHAGITIS, GASTROENT & MISC DIGEST DISORDERS W MCC",7215.6724138,Standard
 MEDICAL BACK PROBLEMS W MCC,8197.916666699999,Standard
 MEDICAL BACK PROBLEMS W/O MCC,5330.967213100001,Standard
 BONE DISEASES & ARTHROPATHIES W/O MCC,4459.0,Standard
 SIGNS & SYMPTOMS OF MUSCULOSKELETAL SYSTEM & CONN TISSUE W/O MCC,4703.904761899999,Standard
 CARDIAC VALVE & OTH MAJ CARDIOTHORACIC PROC W/O CARD CATH W CC,28212.740741,Standard
" FX, SPRN, STRN & DISL EXCEPT FEMUR, HIP, PELVIS & THIGH W/O MCC",4939.5294118,Standard
" ""OTHER SKIN, SUBCUT TISS & BREAST PROC W MCC""",13923.076922999999,Standard
" OTHER SKIN, SUBCUT TISS & BREAST PROC W CC",8467.818181800001,Standard
 CELLULITIS W MCC,7851.857142899999,Standard
 PATHOLOGICAL FRACTURES & MUSCULOSKELET & CONN TISS MALIG W CC,6114.05,Standard
 G.I. OBSTRUCTION W/O CC/MCC,3765.4444443999996,Standard
 G.I. OBSTRUCTION W CC,5020.4333333,Standard
 G.I. OBSTRUCTION W MCC,10945.818181999999,Standard
 G.I. HEMORRHAGE W/O CC/MCC,3975.2916666999995,Standard
 G.I. HEMORRHAGE W CC,5755.0595238000005,Standard
 G.I. HEMORRHAGE W MCC,9695.75,Standard
 DIGESTIVE MALIGNANCY W MCC,10807.538462,Standard
 MAJOR GASTROINTESTINAL DISORDERS & PERITONEAL INFECTIONS W/O CC/MCC,4730.3125,Standard
 MAJOR GASTROINTESTINAL DISORDERS & PERITONEAL INFECTIONS W CC,6250.1463415,Standard
 MAJOR GASTROINTESTINAL DISORDERS & PERITONEAL INFECTIONS W MCC,9587.0,Standard
 OTHER DIGESTIVE SYSTEM O.R. PROCEDURES W MCC,22566.307692,Standard
 MAJOR SMALL & LARGE BOWEL PROCEDURES W/O CC/MCC,9656.5,Standard
 MAJOR SMALL & LARGE BOWEL PROCEDURES W CC,14095.166667,Standard
 MAJOR SMALL & LARGE BOWEL PROCEDURES W MCC,25493.586207,Standard
" ""STOMACH, ESOPHAGEAL & DUODENAL PROC W CC""",12091.466667,Standard
 CELLULITIS W/O MCC,5164.7012987,Standard
" ""TRAUMA TO THE SKIN, SUBCUT TISS & BREAST W/O MCC""",5053.7692308,Standard
 PATHOLOGICAL FRACTURES & MUSCULOSKELET & CONN TISS MALIG W MCC,9588.909090899999,Standard
 BACK & NECK PROC EXC SPINAL FUSION W/O CC/MCC,7453.1666667,Standard
 OTHER MUSCULOSKELET SYS & CONN TISS O.R. PROC W MCC,16401.916666999998,Standard
" ""LOWER EXTREM & HUMER PROC EXCEPT HIP,FOOT,FEMUR W/O CC/MCC""",9884.0,Standard
" LOWER EXTREM & HUMER PROC EXCEPT HIP,FOOT,FEMUR W CC",12929.533333,Standard
 MAJOR JOINT/LIMB REATTACHMENT PROCEDURE OF UPPER EXTREMITIES,13670.289855,Standard
 HIP & FEMUR PROCEDURES EXCEPT MAJOR JOINT W CC,11333.52,Standard
 HIP & FEMUR PROCEDURES EXCEPT MAJOR JOINT W MCC,15940.5,Standard
 CERVICAL SPINAL FUSION W/O CC/MCC,12721.434783,Standard
 CERVICAL SPINAL FUSION W CC,16282.809524,Standard
 MAJOR HIP AND KNEE JOINT REPLACEMENT OR REATTACHMENT OF LOWER EXTREM,11022.264957,Standard
 MAJOR HIP AND KNEE JOINT REPLACEMENT OR REATTACHMENT OF LOWER EXTREM,16673.1875,Standard
 REVISION OF HIP OR KNEE REPLACEMENT W/O CC/MCC,15868.733333000002,Standard
 SPINAL FUSION EXCEPT CERVICAL W/O MCC,22364.520833000002,Standard
" DISORDERS OF LIVER EXCEPT MALIG,CIRR,ALC HEPA W CC",5522.0769231,Standard
 DISORDERS OF PANCREAS EXCEPT MALIGNANCY W/O CC/MCC,4078.8235294,Standard
 FRACTURES OF HIP & PELVIS W/O MCC,4407.75,Standard
 DISORDERS OF PANCREAS EXCEPT MALIGNANCY W CC,5202.264705899999,Standard
 MALIGNANCY OF HEPATOBILIARY SYSTEM OR PANCREAS W CC,6596.2307692,Standard
 MALIGNANCY OF HEPATOBILIARY SYSTEM OR PANCREAS W MCC,9432.888888899999,Standard
 CIRRHOSIS & ALCOHOLIC HEPATITIS W CC,5982.9166667,Standard
 CIRRHOSIS & ALCOHOLIC HEPATITIS W MCC,10708.533333,Standard
 LAPAROSCOPIC CHOLECYSTECTOMY W/O C.D.E. W/O CC/MCC,7758.421052600001,Standard
 LAPAROSCOPIC CHOLECYSTECTOMY W/O C.D.E. W CC,9412.52,Standard
 LAPAROSCOPIC CHOLECYSTECTOMY W/O C.D.E. W MCC,13409.25,Standard
 OTHER DIGESTIVE SYSTEM DIAGNOSES W/O CC/MCC,4148.6666667,Standard
 EXTENSIVE O.R. PROCEDURE UNRELATED TO PRINCIPAL DIAGNOSIS W MCC,23284.911765,Standard
 EXTENSIVE O.R. PROCEDURE UNRELATED TO PRINCIPAL DIAGNOSIS W CC,14749.823529,Standard
 NON,17382.333333000002,Standard
 NON,10053.181818000001,Standard
 OTHER MUSCULOSKELET SYS & CONN TISS O.R. PROC W CC,10494.055556,Standard
 OTHER MUSCULOSKELET SYS & CONN TISS O.R. PROC W/O CC/MCC,8429.21875,Standard
 DISORDERS OF PANCREAS EXCEPT MALIGNANCY W MCC,9375.285714299998,Standard
" STOMACH, ESOPHAGEAL & DUODENAL PROC W MCC",25601.461538,Standard
" ""AMPUTAT OF LOWER LIMB FOR ENDOCRINE,NUTRIT,& METABOL DIS W CC""",11370.666667,Standard
 O.R. PROCEDURES FOR OBESITY W/O CC/MCC,9275.2941176,Standard
 MAJOR MALE PELVIC PROCEDURES W/O CC/MCC,7911.952381,Standard
" ""UTERINE,ADNEXA PROC FOR NON",6903.25,Standard
 RED BLOOD CELL DISORDERS W MCC,7695.3235294,Standard
 RED BLOOD CELL DISORDERS W/O MCC,5251.85,Standard
 COAGULATION DISORDERS,9785.6666667,Standard
 LYMPHOMA & NON,9167.6363636,Standard
 INFECTIOUS & PARASITIC DISEASES W O.R. PROCEDURE W CC,13034.470588,Standard
 POSTOPERATIVE OR POST,23797.5,Standard
 POSTOPERATIVE & POST,10133.8,Standard
 POSTOPERATIVE & POST,5904.8947368,Standard
 SEPTICEMIA OR SEVERE SEPSIS W MV >96 HOURS OR PERIPHERAL EXTRACORPOR,31732.069767,Standard
 SEPTICEMIA OR SEVERE SEPSIS W/O MV >96 HOURS W MCC,10341.89009,Standard
 SEPTICEMIA OR SEVERE SEPSIS W/O MV >96 HOURS W/O MCC,6180.1760563,Standard
 ACUTE ADJUSTMENT REACTION & PSYCHOSOCIAL DYSFUNCTION,4858.5384615,Standard
 MAJOR MALE PELVIC PROCEDURES W CC/MCC,10401.076923,Standard
" ""ACUTE MYOCARDIAL INFARCTION, DISCHARGED ALIVE W MCC""",9778.7236842,Standard
 OTHER MAJOR CARDIOVASCULAR PROCEDURES W/O CC/MCC,13579.1875,Standard
 OTHER MAJOR CARDIOVASCULAR PROCEDURES W CC,18511.166666999998,Standard
 OTHER MAJOR CARDIOVASCULAR PROCEDURES W MCC,27881.238095,Standard
 DEPRESSIVE NEUROSES,4503.8030303000005,Standard
 AORTIC AND HEART ASSIST PROCEDURES EXCEPT PULSATION BALLOON W/O MCC,22920.097561000002,Standard
 ENDOVASCULAR CARDIAC VALVE REPLACEMENT W/O MCC,32936.030303,Standard
 ENDOVASCULAR CARDIAC VALVE REPLACEMENT W MCC,40644.909091,Standard
 OTHER VASCULAR PROCEDURES W/O CC/MCC,10180.142856999999,Standard
 OTHER VASCULAR PROCEDURES W CC,14014.763158000002,Standard
 NEUROSES EXCEPT DEPRESSIVE,4692.6153846,Standard
 ORGANIC DISTURBANCES & INTELLECTUAL DISABILITY,7003.892857100001,Standard
 PSYCHOSES,6804.646198800001,Standard
 ALCOHOL/DRUG ABUSE OR DEPENDENCE W/O REHABILITATION THERAPY W/O MCC,4757.311475399999,Standard
 POISONING & TOXIC EFFECTS OF DRUGS W MCC,7898.0666667,Standard
 PERCUTANEOUS INTRACARDIAC PROCEDURES W/O MCC,15681.647059,Standard
 OTHER KIDNEY & URINARY TRACT DIAGNOSES W CC,5983.25,Standard
 OTHER KIDNEY & URINARY TRACT DIAGNOSES W MCC,8940.7931034,Standard
 KIDNEY & URINARY TRACT INFECTIONS W/O MCC,4818.9825581000005,Standard
 DIABETES W MCC,8555.3666667,Standard
 DIABETES W CC,5197.760869600001,Standard
 DIABETES W/O CC/MCC,4024.2666666999994,Standard
" MISC DISORDERS OF NUTRITION,METABOLISM,FLUIDS/ELECTROLYTES W MCC",6928.4222222,Standard
" ""MISC DISORDERS OF NUTRITION,METABOLISM,FLUIDS/ELECTROLYTES W/O MCC""",4508.116504899999,Standard
 ENDOCRINE DISORDERS W CC,5692.0,Standard
 OTHER CIRCULATORY SYSTEM DIAGNOSES W CC,5612.2380952,Standard
 OTHER CIRCULATORY SYSTEM DIAGNOSES W MCC,11242.558140000001,Standard
 CHEST PAIN,4292.9047619,Standard
 SYNCOPE & COLLAPSE,4793.5714286,Standard
 CARDIAC ARRHYTHMIA & CONDUCTION DISORDERS W/O CC/MCC,3591.5813953,Standard
 CARDIAC ARRHYTHMIA & CONDUCTION DISORDERS W CC,4835.1707317,Standard
 CARDIAC ARRHYTHMIA & CONDUCTION DISORDERS W MCC,6875.966666699999,Standard
 HYPERTENSION W/O MCC,4304.2692308,Standard
 KIDNEY & URETER PROCEDURES FOR NEOPLASM W/O CC/MCC,9129.4285714,Standard
 HYPERTENSION W MCC,6153.3157895,Standard
 PERIPHERAL VASCULAR DISORDERS W/O CC/MCC,4368.0714286,Standard
 KIDNEY & URINARY TRACT INFECTIONS W MCC,6228.186440699999,Standard
 RENAL FAILURE W/O CC/MCC,3904.2352941,Standard
 RENAL FAILURE W CC,5504.8333333,Standard
 RENAL FAILURE W MCC,8290.1651376,Standard
 OTHER KIDNEY & URINARY TRACT PROCEDURES W MCC,19358.5625,Standard
" ACUTE MYOCARDIAL INFARCTION, DISCHARGED ALIVE W CC",5792.25,Standard
 SIGNS & SYMPTOMS W MCC,6657.8,Standard
" ""ACUTE MYOCARDIAL INFARCTION, DISCHARGED ALIVE W/O CC/MCC""",4594.5,Standard
" CIRCULATORY DISORDERS EXCEPT AMI, W CARD CATH W/O MCC",6799.8541667,Standard
 HEART FAILURE & SHOCK W MCC,8337.898591500001,Standard
 HEART FAILURE & SHOCK W CC,5561.1386139,Standard
 HEART FAILURE & SHOCK W/O CC/MCC,4127.1666667,Standard
 PERIPHERAL VASCULAR DISORDERS W MCC,8059.8333333,Standard
 PERIPHERAL VASCULAR DISORDERS W CC,5869.9,Standard
" ""CIRCULATORY DISORDERS EXCEPT AMI, W CARD CATH W MCC""",13690.115385,Standard
 CARDIAC VALVE & OTH MAJ CARDIOTHORACIC PROC W/O CARD CATH W MCC,47002.307692,Standard
 HIV W MAJOR RELATED CONDITION W MCC,15007.363636000002,Standard
 SEIZURES W MCC,10503.27027,Standard
 HEADACHES W/O MCC,5353.1578947,Standard
 OTITIS MEDIA & URI W/O MCC,4370.25,Standard
 OTHER RESP SYSTEM O.R. PROCEDURES W MCC,20139.380952,Standard
 OTHER RESP SYSTEM O.R. PROCEDURES W CC,10391.045455,Standard
 PULMONARY EMBOLISM W MCC,9268.555555600002,Standard
 PULMONARY EMBOLISM W/O MCC,5450.76,Standard
 RESPIRATORY INFECTIONS & INFLAMMATIONS W MCC,10094.625,Standard
 RESPIRATORY INFECTIONS & INFLAMMATIONS W CC,7126.4090909,Standard
 RESPIRATORY NEOPLASMS W MCC,9232.75,Standard
 RESPIRATORY NEOPLASMS W CC,6703.0555556,Standard
 SEIZURES W/O MCC,4941.5135135,Standard
 PLEURAL EFFUSION W MCC,8648.157894700002,Standard
 CHRONIC OBSTRUCTIVE PULMONARY DISEASE W MCC,6688.9705882,Standard
 CHRONIC OBSTRUCTIVE PULMONARY DISEASE W CC,5426.716666699999,Standard
 CHRONIC OBSTRUCTIVE PULMONARY DISEASE W/O CC/MCC,4427.1666667,Standard
 SIMPLE PNEUMONIA & PLEURISY W MCC,7775.0,Standard
  CRANIOTOMY W MAJOR DEVICE IMPLANT OR ACUTE COMPLEX CNS PDX W MCC OR,30553.411764999997,Standard
" TRACH W MV >96 HRS OR PDX EXC FACE, MOUTH & NECK W/O MAJ O.R.",54821.714286,Standard
" ""ECMO OR TRACH W MV >96 HRS OR PDX EXC FACE, MOUTH & NECK W MAJ O.R.",94534.1875,Standard
Level 1 Breast/Lymphatic Surgery and Related Procedures,1826.00756756756,DRG
Level 3 Excision/ Biopsy/ Incision and Drainage,1505.40235294117,DRG
Level 2 Excision/ Biopsy/ Incision and Drainage,916.469341772146,DRG
 PULMONARY EDEMA & RESPIRATORY FAILURE,6978.0769231,Standard
 SIGNS & SYMPTOMS W/O MCC,4946.5,Standard
 CRANIO W MAJOR DEV IMPL/ACUTE COMPLEX CNS PDX W/O MCC,21278.153846,Standard
 OTHER DISORDERS OF NERVOUS SYSTEM W CC,5534.8,Standard
 CAROTID ARTERY STENT PROCEDURE W/O CC/MCC,10725.181818000001,Standard
 EXTRACRANIAL PROCEDURES W CC,9134.9473684,Standard
 EXTRACRANIAL PROCEDURES W/O CC/MCC,6643.1351351,Standard
 PERIPH/CRANIAL NERVE & OTHER NERV SYST PROC W MCC,20773.333333000002,Standard
 PERIPH/CRANIAL NERVE & OTHER NERV SYST PROC W CC OR PERIPH NEUROSTIM,13371.428570999999,Standard
 NERVOUS SYSTEM NEOPLASMS W MCC,9511.8333333,Standard
 NERVOUS SYSTEM NEOPLASMS W/O MCC,5874.5384615,Standard
 DEGENERATIVE NERVOUS SYSTEM DISORDERS W MCC,9981.642857100001,Standard
 DEGENERATIVE NERVOUS SYSTEM DISORDERS W/O MCC,6424.575,Standard
" ISCHEMIC STROKE, PRECEREBRAL OCCLUSION OR TRANSIENT ISCHEMIA W THROM",15415.214286000002,Standard
 OTHER DISORDERS OF NERVOUS SYSTEM W/O CC/MCC,4436.7272727,Standard
" ""ISCHEMIC STROKE, PRECEREBRAL OCCLUSION OR TRANSIENT ISCHEMIA W THRO",10896.166667,Standard
 INTRACRANIAL HEMORRHAGE OR CEREBRAL INFARCTION W CC OR TPA IN 24 HRS,6131.9087302,Standard
 INTRACRANIAL HEMORRHAGE OR CEREBRAL INFARCTION W/O CC/MCC,4596.7972973000005,Standard
 NONSPECIFIC CVA & PRECEREBRAL OCCLUSION W/O INFARCT W/O MCC,5321.1764706,Standard
 TRANSIENT ISCHEMIA W/O THROMBOLYTIC,4562.1020408,Standard
 NONSPECIFIC CEREBROVASCULAR DISORDERS W MCC,9314.75,Standard
 NONSPECIFIC CEREBROVASCULAR DISORDERS W CC,5758.7368421,Standard
 CRANIAL & PERIPHERAL NERVE DISORDERS W MCC,8007.2727273,Standard
 CRANIAL & PERIPHERAL NERVE DISORDERS W/O MCC,5710.782608699999,Standard
" ""TRAUMATIC STUPOR & COMA, COMA <1 HR W CC""",6816.6153846,Standard
 OTHER DISORDERS OF NERVOUS SYSTEM W MCC,9143.0,Standard
 INTRACRANIAL HEMORRHAGE OR CEREBRAL INFARCTION W MCC,10859.458537,Standard
 CRANIOTOMY & ENDOVASCULAR INTRACRANIAL PROCEDURES W/O CC/MCC,13987.590909,Standard
Level 4 Urology and Related Services,1787.4458928571398,DRG
Level 2 Laparoscopy and Related Services,5219.43999999999,DRG
Level 5 ENT Procedures,2985.05,DRG
Level 1 Endovascular Procedures,1644.56824060149,DRG
Level 2 Endovascular Procedures,3498.4300000000103,DRG
Level 3 Endovascular Procedures,7238.93728346462,DRG
Level 3 Urology and Related Services,1150.15197183098,DRG
Level 3 Electrophysiologic Procedures,14001.6854166666,DRG
Level 2 Pacemaker and Similar Procedures,5069.090258620689,DRG
Level 3 Pacemaker and Similar Procedures,7044.66615384614,DRG
 SIMPLE PNEUMONIA & PLEURISY W CC,5584.271604899999,Standard
Level 4 Pacemaker and Similar Procedures,13810.17,DRG
Level 1 ICD and Similar Procedures,16521.502666666598,DRG
 SIMPLE PNEUMONIA & PLEURISY W/O CC/MCC,4327.222222199999,Standard
 BRONCHITIS & ASTHMA W CC/MCC,5569.1458333,Standard
 RESPIRATORY SYSTEM DIAGNOSIS W VENTILATOR SUPPORT >96 HOURS,29260.514286,Standard
 RESPIRATORY SYSTEM DIAGNOSIS W VENTILATOR SUPPORT <=96 HOURS,13137.134615,Standard
Comprehensive Observation Services,1588.91532161229,DRG
Implantation of Drug Infusion Device,11839.1169230769,DRG
Level 4 Endovascular Procedures,11969.784059405902,DRG
Level 2 Neurostimulator and Related Procedures,4166.21,DRG
Level 1 Laparoscopy and Related Services,3007.07709342562,DRG
Abdominal/Peritoneal/Biliary and Related Procedures,2002.67805970149,DRG
Complex GI Procedures,2897.15307692307,DRG
Level 3 Lower GI Procedures,1561.2768,DRG
Level 3 Neurostimulator and Related Procedures,14483.8499999999,DRG
Level 2 Breast/Lymphatic Surgery and Related Procedures,3310.5399999999895,DRG
Level 2 Musculoskeletal Procedures,928.75,DRG
Level 3 Musculoskeletal Procedures,1772.96837837837,DRG
 CRANIOTOMY & ENDOVASCULAR INTRACRANIAL PROCEDURES W MCC,26261.945946,Standard
Level 5 Musculoskeletal Procedures,7108.07692307692,DRG
Level 3 Airway Endoscopy,885.393055555555,DRG
Level 1 Nerve Procedures,1108.01,DRG
Level 5 Gynecologic Procedures,2759.7,DRG
Level 4 Airway Endoscopy,1687.659375,DRG
Level 4 Gynecologic Procedures,1563.64,DRG
Level 5 Urology and Related Services,2441.67144067796,DRG
Level 4 Musculoskeletal Procedures,3769.49727272726,DRG
