Description,Charge,Category
 O.R. PROCEDURES FOR OBESITY W/O CC/MCC,11613.666667,Standard
 CELLULITIS W/O MCC,6468.7,Standard
 HIP & FEMUR PROCEDURES EXCEPT MAJOR JOINT W CC,13585.130435,Standard
 MAJOR HIP AND KNEE JOINT REPLACEMENT OR REATTACHMENT OF LOWER EXTREM,13626.159091,Standard
" ""ESOPHAGITIS, GASTROENT & MISC DIGEST DISORDERS W/O MCC""",5697.875,Standard
 HEART FAILURE & SHOCK W MCC,9717.3103448,Standard
" ""ACUTE MYOCARDIAL INFARCTION, DISCHARGED ALIVE W MCC""",12333.071429000001,Standard
 PULMONARY EDEMA & RESPIRATORY FAILURE,8329.066666699999,Standard
 SIMPLE PNEUMONIA & PLEURISY W MCC,9438.904761900001,Standard
 CHRONIC OBSTRUCTIVE PULMONARY DISEASE W MCC,7918.8666667,Standard
 RESPIRATORY INFECTIONS & INFLAMMATIONS W MCC,13646.166667,Standard
 INTRACRANIAL HEMORRHAGE OR CEREBRAL INFARCTION W CC OR TPA IN 24 HRS,6861.0,Standard
 INTRACRANIAL HEMORRHAGE OR CEREBRAL INFARCTION W MCC,12500.785714,Standard
" MISC DISORDERS OF NUTRITION,METABOLISM,FLUIDS/ELECTROLYTES W MCC",8260.909090899999,Standard
 KIDNEY & URINARY TRACT INFECTIONS W/O MCC,5764.0,Standard
 SIMPLE PNEUMONIA & PLEURISY W CC,6575.0666667,Standard
" ""MISC DISORDERS OF NUTRITION,METABOLISM,FLUIDS/ELECTROLYTES W/O MCC""",5615.0769231,Standard
 INFECTIOUS & PARASITIC DISEASES W O.R. PROCEDURE W MCC,35742.16,Standard
Level 1 Endovascular Procedures,1935.93,DRG
Level 6 Urology and Related Services,6236.1,DRG
Level 7 Urology and Related Services,14286.5455555555,DRG
Comprehensive Observation Services,1850.4926666666502,DRG
Level 4 Urology and Related Services,2144.06,DRG
Level 3 Urology and Related Services,1306.7255555555498,DRG
Level 1 Laparoscopy and Related Services,3568.75,DRG
Level 3 Endovascular Procedures,9099.71846153846,DRG
Level 5 Urology and Related Services,2946.5,DRG
Level 3 Airway Endoscopy,977.237857142857,DRG
Level 4 Musculoskeletal Procedures,4456.3038095238,DRG
Level 3 Musculoskeletal Procedures,2069.88913793103,DRG
Level 2 Excision/ Biopsy/ Incision and Drainage,1021.91526315789,DRG
 POISONING & TOXIC EFFECTS OF DRUGS W MCC,9491.9166667,Standard
 SEPTICEMIA OR SEVERE SEPSIS W/O MV >96 HOURS W/O MCC,8077.636363600001,Standard
 SEPTICEMIA OR SEVERE SEPSIS W/O MV >96 HOURS W MCC,12708.505747,Standard
Level 5 ENT Procedures,3056.2478571428496,DRG
