Description,Charge,Category
 MAJOR SMALL & LARGE BOWEL PROCEDURES W MCC,36439.545455,Standard
 SEPTICEMIA OR SEVERE SEPSIS W/O MV >96 HOURS W/O MCC,8100.686567199999,Standard
 SEPTICEMIA OR SEVERE SEPSIS W/O MV >96 HOURS W MCC,14116.678233,Standard
 SEPTICEMIA OR SEVERE SEPSIS W MV >96 HOURS OR PERIPHERAL EXTRACORPOR,50503.4,Standard
 INFECTIOUS & PARASITIC DISEASES W O.R. PROCEDURE W MCC,38742.444444,Standard
 OTHER KIDNEY & URINARY TRACT DIAGNOSES W MCC,11853.857143000001,Standard
 KIDNEY & URINARY TRACT INFECTIONS W/O MCC,5692.8,Standard
 KIDNEY & URINARY TRACT INFECTIONS W MCC,8136.25,Standard
 RENAL FAILURE W CC,6978.9387755,Standard
 RENAL FAILURE W MCC,10799.090909,Standard
" ""MISC DISORDERS OF NUTRITION,METABOLISM,FLUIDS/ELECTROLYTES W/O MCC""",5640.32,Standard
" MISC DISORDERS OF NUTRITION,METABOLISM,FLUIDS/ELECTROLYTES W MCC",9497.6296296,Standard
 CELLULITIS W/O MCC,6515.2083333,Standard
 CARDIAC ARRHYTHMIA & CONDUCTION DISORDERS W/O CC/MCC,4251.6,Standard
 HIP & FEMUR PROCEDURES EXCEPT MAJOR JOINT W CC,15283.565217,Standard
Level 1 Laparoscopy and Related Services,3546.48112903226,DRG
Level 3 Endovascular Procedures,9026.97752631581,DRG
 POISONING & TOXIC EFFECTS OF DRUGS W MCC,10480.2,Standard
 EXTENSIVE O.R. PROCEDURE UNRELATED TO PRINCIPAL DIAGNOSIS W MCC,33746.454545,Standard
Level 2 Endovascular Procedures,4065.99434782608,DRG
Level 2 Upper GI Procedures,1120.0349090908999,DRG
 CHRONIC OBSTRUCTIVE PULMONARY DISEASE W MCC,8653.2916667,Standard
 CHRONIC OBSTRUCTIVE PULMONARY DISEASE W CC,7231.466666699999,Standard
 SIMPLE PNEUMONIA & PLEURISY W MCC,10263.9375,Standard
 SIMPLE PNEUMONIA & PLEURISY W CC,7071.2325581000005,Standard
 RESPIRATORY SYSTEM DIAGNOSIS W VENTILATOR SUPPORT <=96 HOURS,18590.764706,Standard
 CORONARY BYPASS W CARDIAC CATH W MCC,57774.916667,Standard
 PERMANENT CARDIAC PACEMAKER IMPLANT W MCC,29048.708333,Standard
 RESPIRATORY INFECTIONS & INFLAMMATIONS W CC,9714.8,Standard
 RESPIRATORY INFECTIONS & INFLAMMATIONS W MCC,14144.325581000001,Standard
 PULMONARY EMBOLISM W/O MCC,6733.5714286,Standard
 PULMONARY EMBOLISM W MCC,11011.526316,Standard
 MAJOR CHEST PROCEDURES W MCC,38908.416667000005,Standard
 INTRACRANIAL HEMORRHAGE OR CEREBRAL INFARCTION W CC OR TPA IN 24 HRS,7754.44,Standard
 INTRACRANIAL HEMORRHAGE OR CEREBRAL INFARCTION W MCC,13200.4375,Standard
Level 1 Endovascular Procedures,1944.7837762237698,DRG
Level 4 Endovascular Procedures,15055.6,DRG
Abdominal/Peritoneal/Biliary and Related Procedures,2379.57,DRG
 PULMONARY EDEMA & RESPIRATORY FAILURE,9429.451612899999,Standard
Level 2 Pacemaker and Similar Procedures,6195.92538461538,DRG
 RESPIRATORY NEOPLASMS W MCC,12671.333333,Standard
Level 2 ICD and Similar Procedures,30322.2999999999,DRG
 CARDIAC ARRHYTHMIA & CONDUCTION DISORDERS W MCC,9248.52,Standard
 HYPERTENSION W/O MCC,5211.142857100001,Standard
 HEART FAILURE & SHOCK W CC,7201.4375,Standard
 HEART FAILURE & SHOCK W MCC,11197.873626,Standard
" ""CIRCULATORY DISORDERS EXCEPT AMI, W CARD CATH W MCC""",16672.6,Standard
" ""ACUTE MYOCARDIAL INFARCTION, DISCHARGED ALIVE W MCC""",12352.444444,Standard
 OTHER MAJOR CARDIOVASCULAR PROCEDURES W MCC,48115.333332999995,Standard
 OTHER VASCULAR PROCEDURES W MCC,25485.714286000002,Standard
Level 3 Pacemaker and Similar Procedures,8643.16285714287,DRG
 PERC CARDIOVASC PROC W DRUG,16969.693878000002,Standard
 PERCUTANEOUS CARDIOVASCULAR PROCEDURES W DRUG,24409.132075,Standard
Level 2 Breast/Lymphatic Surgery and Related Procedures,3933.23,DRG
Level 2 Musculoskeletal Procedures,1069.49155555555,DRG
Level 3 Musculoskeletal Procedures,2161.84407407407,DRG
Level 4 Musculoskeletal Procedures,4391.717708333329,DRG
Comprehensive Observation Services,1887.6820433144799,DRG
Level 4 Airway Endoscopy,1901.1377777777698,DRG
Level 1 Nerve Procedures,1259.76061224489,DRG
Level 5 Urology and Related Services,3029.3099999999895,DRG
Level 2 Laparoscopy and Related Services,6268.29263157894,DRG
Level 3 Urology and Related Services,1385.56192857142,DRG
Level 4 Urology and Related Services,2204.30999999999,DRG
 HIP & FEMUR PROCEDURES EXCEPT MAJOR JOINT W MCC,23483.75,Standard
Level 2 Excision/ Biopsy/ Incision and Drainage,1096.94512820513,DRG
 MAJOR HIP AND KNEE JOINT REPLACEMENT OR REATTACHMENT OF LOWER EXTREM,15539.5,Standard
Level 3 Excision/ Biopsy/ Incision and Drainage,1900.34,DRG
 MAJOR HIP AND KNEE JOINT REPLACEMENT OR REATTACHMENT OF LOWER EXTREM,25402.818182,Standard
" ""ESOPHAGITIS, GASTROENT & MISC DIGEST DISORDERS W/O MCC""",5811.1538462,Standard
 G.I. OBSTRUCTION W CC,6460.6315789,Standard
 G.I. HEMORRHAGE W CC,7284.7037037,Standard
 G.I. HEMORRHAGE W MCC,12819.947368000001,Standard
 MAJOR GASTROINTESTINAL DISORDERS & PERITONEAL INFECTIONS W CC,7997.375,Standard
 MAJOR GASTROINTESTINAL DISORDERS & PERITONEAL INFECTIONS W MCC,12934.076923,Standard
 CARDIAC ARRHYTHMIA & CONDUCTION DISORDERS W CC,5814.8260869999995,Standard
Level 4 Gynecologic Procedures,1855.75125,DRG
 MAJOR SMALL & LARGE BOWEL PROCEDURES W CC,18466.727273,Standard
