Description,Charge,Category
 RENAL FAILURE W CC,7295.2,Standard
 KNEE PROCEDURES W/O PDX OF INFECTION W/O CC/MCC,9598.692307700001,Standard
 MAJOR JOINT/LIMB REATTACHMENT PROCEDURE OF UPPER EXTREMITIES,18062.35,Standard
 OTHER KIDNEY & URINARY TRACT DIAGNOSES W MCC,12084.75,Standard
 HIP & FEMUR PROCEDURES EXCEPT MAJOR JOINT W CC,14595.785713999998,Standard
 CHRONIC OBSTRUCTIVE PULMONARY DISEASE W MCC,8770.0,Standard
 RENAL FAILURE W MCC,10760.863636,Standard
 REVISION OF HIP OR KNEE REPLACEMENT W/O CC/MCC,20290.0,Standard
 REVISION OF HIP OR KNEE REPLACEMENT W CC,24410.363636000002,Standard
 SIMPLE PNEUMONIA & PLEURISY W CC,7296.7083333,Standard
Level 4 Musculoskeletal Procedures,4382.848301886789,DRG
Level 3 Musculoskeletal Procedures,2054.29027027027,DRG
" ACUTE MYOCARDIAL INFARCTION, DISCHARGED ALIVE W CC",7641.461538500001,Standard
" ""CIRCULATORY DISORDERS EXCEPT AMI, W CARD CATH W MCC""",16061.230769,Standard
" CIRCULATORY DISORDERS EXCEPT AMI, W CARD CATH W/O MCC",8952.0833333,Standard
 MAJOR HIP AND KNEE JOINT REPLACEMENT OR REATTACHMENT OF LOWER EXTREM,15114.592857,Standard
 HEART FAILURE & SHOCK W MCC,11536.483333,Standard
 CARDIAC ARRHYTHMIA & CONDUCTION DISORDERS W MCC,9049.9333333,Standard
 CARDIAC ARRHYTHMIA & CONDUCTION DISORDERS W CC,6018.4705882,Standard
 G.I. HEMORRHAGE W MCC,12159.0,Standard
 G.I. HEMORRHAGE W CC,7427.8,Standard
" ""ESOPHAGITIS, GASTROENT & MISC DIGEST DISORDERS W/O MCC""",6062.0526316000005,Standard
 LAPAROSCOPIC CHOLECYSTECTOMY W/O C.D.E. W CC,12435.636364,Standard
 HEART FAILURE & SHOCK W CC,7455.25,Standard
 COAGULATION DISORDERS,12863.416667,Standard
 SIMPLE PNEUMONIA & PLEURISY W MCC,10098.459015999999,Standard
 EXTENSIVE O.R. PROCEDURE UNRELATED TO PRINCIPAL DIAGNOSIS W MCC,31568.923077,Standard
 OTHER MAJOR CARDIOVASCULAR PROCEDURES W MCC,36514.454545,Standard
 PERC CARDIOVASC PROC W DRUG,15838.92,Standard
Level 1 Endovascular Procedures,1894.77602564102,DRG
Level 2 Endovascular Procedures,3975.62653846154,DRG
Level 3 Endovascular Procedures,9014.35376543212,DRG
Level 4 Endovascular Procedures,14396.310526315801,DRG
Level 3 Electrophysiologic Procedures,16893.8085185185,DRG
Level 2 Musculoskeletal Procedures,1032.97,DRG
Level 3 Pacemaker and Similar Procedures,8229.549152542379,DRG
Level 2 ICD and Similar Procedures,29457.53,DRG
Level 2 Upper GI Procedures,1123.8238461538401,DRG
 PERCUTANEOUS CARDIOVASCULAR PROCEDURES W DRUG,24404.938776,Standard
 PERMANENT CARDIAC PACEMAKER IMPLANT W MCC,26416.4,Standard
 RESPIRATORY SYSTEM DIAGNOSIS W VENTILATOR SUPPORT <=96 HOURS,17598.727273,Standard
 PULMONARY EDEMA & RESPIRATORY FAILURE,9091.0869565,Standard
" ""ACUTE MYOCARDIAL INFARCTION, DISCHARGED ALIVE W MCC""",12114.875,Standard
 RESPIRATORY INFECTIONS & INFLAMMATIONS W MCC,13664.333333,Standard
Level 2 Pacemaker and Similar Procedures,6012.22,DRG
 OTHER RESP SYSTEM O.R. PROCEDURES W MCC,24823.190476,Standard
 SEPTICEMIA OR SEVERE SEPSIS W/O MV >96 HOURS W/O MCC,8414.433333300001,Standard
Comprehensive Observation Services,1849.8993930635602,DRG
Level 5 Musculoskeletal Procedures,8747.14,DRG
Level 1 Nerve Procedures,1280.44,DRG
Level 5 Urology and Related Services,2946.5,DRG
Level 4 Urology and Related Services,2090.3382352941103,DRG
Level 3 Urology and Related Services,1298.1398039215699,DRG
 INFECTIOUS & PARASITIC DISEASES W O.R. PROCEDURE W MCC,35293.0,Standard
Level 4 Neurostimulator and Related Procedures,26406.16,DRG
Level 1 Laparoscopy and Related Services,3564.1877777777704,DRG
 INTRACRANIAL HEMORRHAGE OR CEREBRAL INFARCTION W CC OR TPA IN 24 HRS,7571.2692308,Standard
 SEPTICEMIA OR SEVERE SEPSIS W/O MV >96 HOURS W MCC,13553.893938999998,Standard
 INTRACRANIAL HEMORRHAGE OR CEREBRAL INFARCTION W MCC,11968.571429000001,Standard
" ISCHEMIC STROKE, PRECEREBRAL OCCLUSION OR TRANSIENT ISCHEMIA W THROM",19350.583333000002,Standard
Level 2 Breast/Lymphatic Surgery and Related Procedures,3825.7,DRG
Level 2 Excision/ Biopsy/ Incision and Drainage,1043.1199999999901,DRG
Level 3 Excision/ Biopsy/ Incision and Drainage,1848.39,DRG
Abdominal/Peritoneal/Biliary and Related Procedures,2314.51999999999,DRG
