Description,Charge,Category
" ""MISC DISORDERS OF NUTRITION,METABOLISM,FLUIDS/ELECTROLYTES W/O MCC""",8662.4615385,Standard
 SIMPLE PNEUMONIA & PLEURISY W MCC,15925.4375,Standard
Level 1 Laparoscopy and Related Services,3822.13,DRG
Level 2 Upper GI Procedures,1187.80636363636,DRG
 MAJOR HIP AND KNEE JOINT REPLACEMENT OR REATTACHMENT OF LOWER EXTREM,23441.428571,Standard
Level 4 Musculoskeletal Procedures,4556.88545454545,DRG
 SIMPLE PNEUMONIA & PLEURISY W CC,10830.615385,Standard
 PULMONARY EDEMA & RESPIRATORY FAILURE,14149.25,Standard
Level 2 Excision/ Biopsy/ Incision and Drainage,1147.8499999999901,DRG
Level 1 Nerve Procedures,1295.16388888888,DRG
Comprehensive Observation Services,1978.9748620689602,DRG
Level 2 Musculoskeletal Procedures,1149.48,DRG
Level 3 Musculoskeletal Procedures,2252.41999999999,DRG
