Description,Charge,Category
 EXTENSIVE O.R. PROCEDURE UNRELATED TO PRINCIPAL DIAGNOSIS W MCC,29468.75,Standard
 SEPTICEMIA OR SEVERE SEPSIS W/O MV >96 HOURS W MCC,11942.267081,Standard
 SEPTICEMIA OR SEVERE SEPSIS W/O MV >96 HOURS W/O MCC,7316.2941175999995,Standard
 POISONING & TOXIC EFFECTS OF DRUGS W MCC,9338.866666700002,Standard
" ""ACUTE MYOCARDIAL INFARCTION, DISCHARGED ALIVE W MCC""",15189.545455000001,Standard
 SIGNS & SYMPTOMS W/O MCC,5252.7692308,Standard
 INTRACRANIAL HEMORRHAGE OR CEREBRAL INFARCTION W MCC,11848.25,Standard
 SIMPLE PNEUMONIA & PLEURISY W CC,6236.375,Standard
 DIABETES W CC,5750.25,Standard
 CORONARY BYPASS W/O CARDIAC CATH W/O MCC,25984.956522,Standard
 CARDIAC VALVE & OTH MAJ CARDIOTHORACIC PROC W/O CARD CATH W CC,34110.0,Standard
 CARDIAC VALVE & OTH MAJ CARDIOTHORACIC PROC W/O CARD CATH W MCC,54137.090909000006,Standard
 RESPIRATORY SYSTEM DIAGNOSIS W VENTILATOR SUPPORT <=96 HOURS,16304.952381000001,Standard
 INFECTIOUS & PARASITIC DISEASES W O.R. PROCEDURE W MCC,33432.935483999994,Standard
 OTHER KIDNEY & URINARY TRACT DIAGNOSES W MCC,14897.384615,Standard
 KIDNEY & URINARY TRACT INFECTIONS W/O MCC,5367.25,Standard
 KIDNEY & URINARY TRACT INFECTIONS W MCC,7065.3333333,Standard
 RENAL FAILURE W CC,6354.047619,Standard
 RENAL FAILURE W MCC,9737.0625,Standard
 DIABETES W MCC,11849.133333,Standard
" MISC DISORDERS OF NUTRITION,METABOLISM,FLUIDS/ELECTROLYTES W MCC",7808.939393899999,Standard
 CHRONIC OBSTRUCTIVE PULMONARY DISEASE W MCC,7461.037037,Standard
 PULMONARY EDEMA & RESPIRATORY FAILURE,8100.475,Standard
 RESPIRATORY INFECTIONS & INFLAMMATIONS W MCC,11558.909091,Standard
 PULMONARY EMBOLISM W/O MCC,5982.7857143,Standard
 OTHER RESP SYSTEM O.R. PROCEDURES W MCC,21943.416666999998,Standard
 SEIZURES W/O MCC,5692.2941176,Standard
 SEIZURES W MCC,10771.833333,Standard
 TRANSIENT ISCHEMIA W/O THROMBOLYTIC,5224.65,Standard
 INTRACRANIAL HEMORRHAGE OR CEREBRAL INFARCTION W/O CC/MCC,5467.7916667,Standard
  CRANIOTOMY W MAJOR DEVICE IMPLANT OR ACUTE COMPLEX CNS PDX W MCC OR,34553.727273000004,Standard
" ""ISCHEMIC STROKE, PRECEREBRAL OCCLUSION OR TRANSIENT ISCHEMIA W THRO",12199.533333,Standard
" ""MISC DISORDERS OF NUTRITION,METABOLISM,FLUIDS/ELECTROLYTES W/O MCC""",5138.782608699999,Standard
 INTRACRANIAL HEMORRHAGE OR CEREBRAL INFARCTION W CC OR TPA IN 24 HRS,7168.0943396,Standard
" ""AMPUTAT OF LOWER LIMB FOR ENDOCRINE,NUTRIT,& METABOL DIS W CC""",14169.857143000001,Standard
 MEDICAL BACK PROBLEMS W/O MCC,5669.7692308,Standard
 OTHER VASCULAR PROCEDURES W MCC,22171.941176,Standard
 PERC CARDIOVASC PROC W DRUG,14161.305556,Standard
 PERCUTANEOUS CARDIOVASCULAR PROCEDURES W DRUG,23385.263158,Standard
" ACUTE MYOCARDIAL INFARCTION, DISCHARGED ALIVE W CC",6573.4736842,Standard
" ""ACUTE MYOCARDIAL INFARCTION, DISCHARGED ALIVE W/O CC/MCC""",5263.0769231,Standard
" ""CIRCULATORY DISORDERS EXCEPT AMI, W CARD CATH W MCC""",15063.6,Standard
" CIRCULATORY DISORDERS EXCEPT AMI, W CARD CATH W/O MCC",7835.0769231,Standard
 HEART FAILURE & SHOCK W MCC,9402.75,Standard
 HEART FAILURE & SHOCK W CC,6311.0714286,Standard
 HYPERTENSION W/O MCC,4853.4545455,Standard
 CARDIAC ARRHYTHMIA & CONDUCTION DISORDERS W MCC,7914.84,Standard
 CELLULITIS W/O MCC,6412.1333333,Standard
 CARDIAC ARRHYTHMIA & CONDUCTION DISORDERS W CC,5738.475,Standard
 SYNCOPE & COLLAPSE,5492.6190476,Standard
 OTHER CIRCULATORY SYSTEM DIAGNOSES W MCC,14119.476190000001,Standard
 MAJOR SMALL & LARGE BOWEL PROCEDURES W CC,15968.857143000001,Standard
 G.I. HEMORRHAGE W CC,6559.90625,Standard
 G.I. OBSTRUCTION W CC,5516.9230769,Standard
" ""ESOPHAGITIS, GASTROENT & MISC DIGEST DISORDERS W/O MCC""",5446.0,Standard
 OTHER DIGESTIVE SYSTEM DIAGNOSES W CC,6398.625,Standard
" DISORDERS OF LIVER EXCEPT MALIG,CIRR,ALC HEPA W CC",6293.2142857,Standard
 SPINAL FUSION EXCEPT CERVICAL W/O MCC,25358.095237999998,Standard
 MAJOR HIP AND KNEE JOINT REPLACEMENT OR REATTACHMENT OF LOWER EXTREM,13814.836363999999,Standard
 HIP & FEMUR PROCEDURES EXCEPT MAJOR JOINT W CC,12884.95,Standard
 CARDIAC ARRHYTHMIA & CONDUCTION DISORDERS W/O CC/MCC,4255.0666667,Standard
 OTHER DISORDERS OF NERVOUS SYSTEM W CC,6359.5454545,Standard
 CHRONIC OBSTRUCTIVE PULMONARY DISEASE W CC,5772.2857143,Standard
Level 1 Nerve Procedures,1277.3663636363601,DRG
Level 3 Urology and Related Services,1348.16,DRG
Level 1 Laparoscopy and Related Services,3568.75,DRG
Abdominal/Peritoneal/Biliary and Related Procedures,2218.94065789473,DRG
Level 2 Excision/ Biopsy/ Incision and Drainage,1055.9016774193499,DRG
Level 3 Excision/ Biopsy/ Incision and Drainage,1848.39,DRG
Level 1 Breast/Lymphatic Surgery and Related Procedures,2168.78,DRG
Level 2 Breast/Lymphatic Surgery and Related Procedures,3825.69999999999,DRG
Level 2 Musculoskeletal Procedures,1066.0705555555498,DRG
Level 3 Musculoskeletal Procedures,2099.22243243243,DRG
Level 4 Musculoskeletal Procedures,4457.4,DRG
Level 2 Upper GI Procedures,1133.906875,DRG
Level 5 Musculoskeletal Procedures,8747.14,DRG
Level 3 Airway Endoscopy,1011.61,DRG
Level 1 Endovascular Procedures,1913.5377173913,DRG
Level 2 Endovascular Procedures,4042.85,DRG
Level 3 Endovascular Procedures,9132.28999999999,DRG
Level 4 Endovascular Procedures,13634.2733333333,DRG
Level 3 Electrophysiologic Procedures,17088.47,DRG
Level 2 Pacemaker and Similar Procedures,5678.2077777777695,DRG
Level 4 Urology and Related Services,2144.06,DRG
Level 5 Urology and Related Services,2943.93803571428,DRG
Level 2 ICD and Similar Procedures,27640.3907142857,DRG
Level 4 Neurostimulator and Related Procedures,26406.1599999999,DRG
Comprehensive Observation Services,1855.44069506724,DRG
 SIMPLE PNEUMONIA & PLEURISY W MCC,8820.5,Standard
Level 3 Pacemaker and Similar Procedures,8374.53,DRG
