Description,Charge,Category
" ""ESOPHAGITIS, GASTROENT & MISC DIGEST DISORDERS W/O MCC""",5547.0588235,Standard
Level 2 Musculoskeletal Procedures,943.3176923076919,DRG
Level 3 Musculoskeletal Procedures,1864.2,DRG
Level 4 Musculoskeletal Procedures,3946.4221739130394,DRG
Level 2 Upper GI Procedures,975.447272727273,DRG
Level 3 Upper GI Procedures,1919.01357142857,DRG
Abdominal/Peritoneal/Biliary and Related Procedures,1993.7644736842,DRG
Level 1 Breast/Lymphatic Surgery and Related Procedures,1922.4199999999898,DRG
Level 3 Urology and Related Services,1132.1147368421,DRG
Level 5 Urology and Related Services,2611.78,DRG
Comprehensive Observation Services,1629.2052643171698,DRG
 HEART FAILURE & SHOCK W MCC,9785.7027027,Standard
 CARDIAC ARRHYTHMIA & CONDUCTION DISORDERS W MCC,8281.4545455,Standard
 G.I. HEMORRHAGE W CC,6620.5384615,Standard
 CELLULITIS W/O MCC,6008.0,Standard
Level 4 Urology and Related Services,1900.5,DRG
 RESPIRATORY SYSTEM DIAGNOSIS W VENTILATOR SUPPORT <=96 HOURS,16143.928571,Standard
Level 1 Laparoscopy and Related Services,3163.3399999999897,DRG
 KIDNEY & URINARY TRACT INFECTIONS W MCC,7237.2941175999995,Standard
 SIMPLE PNEUMONIA & PLEURISY W CC,6380.0625,Standard
" MISC DISORDERS OF NUTRITION,METABOLISM,FLUIDS/ELECTROLYTES W MCC",7865.75,Standard
" ""MISC DISORDERS OF NUTRITION,METABOLISM,FLUIDS/ELECTROLYTES W/O MCC""",5469.9375,Standard
 RENAL FAILURE W MCC,9502.5,Standard
 RENAL FAILURE W CC,6736.84,Standard
 INTRACRANIAL HEMORRHAGE OR CEREBRAL INFARCTION W CC OR TPA IN 24 HRS,6887.4,Standard
 PULMONARY EMBOLISM W MCC,9962.3333333,Standard
 DIABETES W CC,5753.5714286,Standard
Level 2 Excision/ Biopsy/ Incision and Drainage,913.4615384615379,DRG
 PULMONARY EDEMA & RESPIRATORY FAILURE,8087.5614035,Standard
 CHRONIC OBSTRUCTIVE PULMONARY DISEASE W MCC,7697.461538500001,Standard
 SIMPLE PNEUMONIA & PLEURISY W MCC,9268.081081100001,Standard
 SEPTICEMIA OR SEVERE SEPSIS W/O MV >96 HOURS W/O MCC,6761.6,Standard
 SEPTICEMIA OR SEVERE SEPSIS W/O MV >96 HOURS W MCC,11355.088435,Standard
 KIDNEY & URINARY TRACT INFECTIONS W/O MCC,5655.5625,Standard
