Description,Charge,Category
 SEPTICEMIA OR SEVERE SEPSIS W/O MV >96 HOURS W/O MCC,7284.4166667,Standard
Level 1 Laparoscopy and Related Services,3163.3399999999897,DRG
Level 1 Nerve Procedures,1132.83865671641,DRG
 KIDNEY & URINARY TRACT INFECTIONS W/O MCC,5662.12,Standard
Comprehensive Observation Services,1655.99,DRG
Level 1 Intraocular Procedures,1326.107960199,DRG
 RENAL FAILURE W CC,6329.8461538,Standard
 HEART FAILURE & SHOCK W MCC,9959.388888899999,Standard
 SIMPLE PNEUMONIA & PLEURISY W CC,6587.8235294,Standard
 CHRONIC OBSTRUCTIVE PULMONARY DISEASE W/O CC/MCC,5109.75,Standard
 CHRONIC OBSTRUCTIVE PULMONARY DISEASE W CC,6426.1818182,Standard
 CHRONIC OBSTRUCTIVE PULMONARY DISEASE W MCC,7910.4545455,Standard
