Description,Charge,Category
 COMBINED ANTERIOR/POSTERIOR SPINAL FUSION W/O CC/MCC,39189.894737,Standard
 AORTIC AND HEART ASSIST PROCEDURES EXCEPT PULSATION BALLOON W/O MCC,41080.4375,Standard
 OTHER MAJOR CARDIOVASCULAR PROCEDURES W MCC,41356.466667,Standard
 REVISION OF HIP OR KNEE REPLACEMENT W/O CC/MCC,20030.347825999997,Standard
" ""ACUTE MYOCARDIAL INFARCTION, DISCHARGED ALIVE W MCC""",12994.588235,Standard
" ACUTE MYOCARDIAL INFARCTION, DISCHARGED ALIVE W CC",5985.5,Standard
 REVISION OF HIP OR KNEE REPLACEMENT W CC,25035.980391999998,Standard
 MAJOR GASTROINTESTINAL DISORDERS & PERITONEAL INFECTIONS W CC,6351.902439,Standard
 MAJOR GASTROINTESTINAL DISORDERS & PERITONEAL INFECTIONS W MCC,10795.958333,Standard
 MAJOR SMALL & LARGE BOWEL PROCEDURES W CC,20864.952381,Standard
 MAJOR SMALL & LARGE BOWEL PROCEDURES W MCC,37535.357143,Standard
 CHEST PAIN,9356.1818182,Standard
 CARDIAC ARRHYTHMIA & CONDUCTION DISORDERS W MCC,7602.5833333,Standard
 HEART FAILURE & SHOCK W MCC,9453.467236499999,Standard
" CIRCULATORY DISORDERS EXCEPT AMI, W CARD CATH W/O MCC",12196.75,Standard
" ""CIRCULATORY DISORDERS EXCEPT AMI, W CARD CATH W MCC""",15487.117647,Standard
 SYNCOPE & COLLAPSE,7655.6896552,Standard
 OTHER VASCULAR PROCEDURES W CC,18817.6,Standard
 OTHER VASCULAR PROCEDURES W MCC,20249.111111000002,Standard
 PERC CARDIOVASC PROC W DRUG,16250.745762999999,Standard
 CARDIAC ARRHYTHMIA & CONDUCTION DISORDERS W/O CC/MCC,6315.6969696999995,Standard
 CARDIAC ARRHYTHMIA & CONDUCTION DISORDERS W CC,5257.46,Standard
" ""WND DEBRID & SKN GRFT EXC HAND, FOR MUSCULO",13201.583333,Standard
" WND DEBRID & SKN GRFT EXC HAND, FOR MUSCULO",32930.071429,Standard
 SPINAL FUSION EXCEPT CERVICAL W/O MCC,45217.261905,Standard
 OTHER CIRCULATORY SYSTEM DIAGNOSES W MCC,12794.647059,Standard
 COAGULATION DISORDERS,13141.066667000001,Standard
" LOWER EXTREM & HUMER PROC EXCEPT HIP,FOOT,FEMUR W CC",20161.538462,Standard
 DIGESTIVE MALIGNANCY W CC,12394.0,Standard
 MEDICAL BACK PROBLEMS W/O MCC,5565.9459459,Standard
" FX, SPRN, STRN & DISL EXCEPT FEMUR, HIP, PELVIS & THIGH W/O MCC",4820.7058824,Standard
 CELLULITIS W MCC,10820.857143000001,Standard
 CELLULITIS W/O MCC,7167.8425926,Standard
 DIABETES W CC,6643.0,Standard
" MISC DISORDERS OF NUTRITION,METABOLISM,FLUIDS/ELECTROLYTES W MCC",8664.9375,Standard
" ""MISC DISORDERS OF NUTRITION,METABOLISM,FLUIDS/ELECTROLYTES W/O MCC""",4984.8333333,Standard
 OTHER KIDNEY & URINARY TRACT PROCEDURES W MCC,24041.916666999998,Standard
 RENAL FAILURE W MCC,10375.027397,Standard
 RENAL FAILURE W CC,5677.358490600001,Standard
 RENAL FAILURE W/O CC/MCC,3833.3333333000005,Standard
 KIDNEY & URINARY TRACT INFECTIONS W MCC,6379.6,Standard
 KIDNEY & URINARY TRACT INFECTIONS W/O MCC,5817.503876,Standard
 URINARY STONES W/O ESW LITHOTRIPSY W/O MCC,4961.7857143,Standard
 OTHER KIDNEY & URINARY TRACT DIAGNOSES W MCC,9419.09375,Standard
 OTHER KIDNEY & URINARY TRACT DIAGNOSES W CC,10073.923077,Standard
 MAJOR HEMATOL/IMMUN DIAG EXC SICKLE CELL CRISIS & COAGUL W CC,7412.1666667,Standard
 RED BLOOD CELL DISORDERS W MCC,10256.5,Standard
 EXTENSIVE O.R. PROCEDURE UNRELATED TO PRINCIPAL DIAGNOSIS W MCC,38380.666667000005,Standard
 SEPTICEMIA OR SEVERE SEPSIS W/O MV >96 HOURS W/O MCC,6804.0588235,Standard
 SEPTICEMIA OR SEVERE SEPSIS W/O MV >96 HOURS W MCC,12489.669811,Standard
 SEPTICEMIA OR SEVERE SEPSIS W MV >96 HOURS OR PERIPHERAL EXTRACORPOR,40196.647058999995,Standard
 INFECTIOUS & PARASITIC DISEASES W O.R. PROCEDURE W MCC,42399.837209,Standard
 FRACTURES OF HIP & PELVIS W/O MCC,4469.625,Standard
 DIGESTIVE MALIGNANCY W MCC,18058.363636000002,Standard
 BACK & NECK PROC EXC SPINAL FUSION W/O CC/MCC,15159.636363999998,Standard
 OTHER MUSCULOSKELET SYS & CONN TISS O.R. PROC W/O CC/MCC,8728.75,Standard
 G.I. HEMORRHAGE W MCC,10878.54717,Standard
 G.I. HEMORRHAGE W CC,7326.0416667,Standard
 INFLAMMATORY BOWEL DISEASE W CC,5530.2727273,Standard
 G.I. OBSTRUCTION W MCC,8944.529411799998,Standard
 G.I. OBSTRUCTION W CC,5945.5,Standard
 G.I. OBSTRUCTION W/O CC/MCC,5091.1818182,Standard
" ESOPHAGITIS, GASTROENT & MISC DIGEST DISORDERS W MCC",11910.315789,Standard
" ""ESOPHAGITIS, GASTROENT & MISC DIGEST DISORDERS W/O MCC""",5004.8461538,Standard
 MAJOR HIP AND KNEE JOINT REPLACEMENT OR REATTACHMENT OF LOWER EXTREM,17648.349454,Standard
 CERVICAL SPINAL FUSION W CC,37388.35,Standard
 CERVICAL SPINAL FUSION W/O CC/MCC,25514.769231000002,Standard
 HIP & FEMUR PROCEDURES EXCEPT MAJOR JOINT W MCC,19842.772727,Standard
 HIP & FEMUR PROCEDURES EXCEPT MAJOR JOINT W CC,16933.0,Standard
 HIP & FEMUR PROCEDURES EXCEPT MAJOR JOINT W/O CC/MCC,10141.454545,Standard
 MAJOR JOINT/LIMB REATTACHMENT PROCEDURE OF UPPER EXTREMITIES,19974.54321,Standard
 RED BLOOD CELL DISORDERS W/O MCC,6180.2702703,Standard
 HEART FAILURE & SHOCK W CC,6158.186440699999,Standard
 HEART FAILURE & SHOCK W/O CC/MCC,4848.5714286,Standard
 PERIPHERAL VASCULAR DISORDERS W MCC,8833.590909100001,Standard
 PERIPHERAL VASCULAR DISORDERS W CC,7049.0,Standard
 HYPERTENSION W/O MCC,4214.25,Standard
 SOFT TISSUE PROCEDURES W CC,12759.0,Standard
 OTHER MUSCULOSKELET SYS & CONN TISS O.R. PROC W CC,13656.958333,Standard
 BACK & NECK PROC EXC SPINAL FUSION W CC,10953.769231,Standard
 OTHER MAJOR CARDIOVASCULAR PROCEDURES W CC,20946.875,Standard
 MAJOR HIP AND KNEE JOINT REPLACEMENT OR REATTACHMENT OF LOWER EXTREM,25814.111111000002,Standard
Level 7 Radiation Therapy,6306.26,DRG
 EXTRACRANIAL PROCEDURES W/O CC/MCC,6775.826087,Standard
Comprehensive Observation Services,1864.8565883554397,DRG
 BRONCHITIS & ASTHMA W CC/MCC,6999.9347826,Standard
 BRONCHITIS & ASTHMA W/O CC/MCC,4303.0,Standard
 RESPIRATORY SYSTEM DIAGNOSIS W VENTILATOR SUPPORT >96 HOURS,41543.941176,Standard
 RESPIRATORY SYSTEM DIAGNOSIS W VENTILATOR SUPPORT <=96 HOURS,16017.586206999998,Standard
 DEGENERATIVE NERVOUS SYSTEM DISORDERS W/O MCC,7130.25,Standard
 OTHER HEART ASSIST SYSTEM IMPLANT,86009.666667,Standard
 CORONARY BYPASS W/O CARDIAC CATH W/O MCC,51066.607143,Standard
 PERMANENT CARDIAC PACEMAKER IMPLANT W MCC,26198.5,Standard
 PERCUTANEOUS CARDIOVASCULAR PROCEDURES W DRUG,24125.886363999998,Standard
 OTHER DIGESTIVE SYSTEM DIAGNOSES W CC,5735.8076923,Standard
 LAPAROSCOPIC CHOLECYSTECTOMY W/O C.D.E. W CC,13506.391303999999,Standard
 SIMPLE PNEUMONIA & PLEURISY W MCC,8802.215827299999,Standard
 CARDIAC VALVE & OTH MAJ CARDIOTHORACIC PROC W/O CARD CATH W CC,93497.818182,Standard
 INTRACRANIAL HEMORRHAGE OR CEREBRAL INFARCTION W MCC,13149.703125,Standard
 INTRACRANIAL HEMORRHAGE OR CEREBRAL INFARCTION W CC OR TPA IN 24 HRS,7374.6052632,Standard
 INTRACRANIAL HEMORRHAGE OR CEREBRAL INFARCTION W/O CC/MCC,6233.1923077,Standard
 CHRONIC OBSTRUCTIVE PULMONARY DISEASE W/O CC/MCC,5120.4761905000005,Standard
 CHRONIC OBSTRUCTIVE PULMONARY DISEASE W CC,5476.0491803,Standard
 CHRONIC OBSTRUCTIVE PULMONARY DISEASE W MCC,8484.529914499999,Standard
 PULMONARY EDEMA & RESPIRATORY FAILURE,14948.508772,Standard
 RESPIRATORY NEOPLASMS W MCC,15288.111111000002,Standard
 RESPIRATORY INFECTIONS & INFLAMMATIONS W CC,9429.027027,Standard
 RESPIRATORY INFECTIONS & INFLAMMATIONS W MCC,13510.564706000001,Standard
 PULMONARY EMBOLISM W/O MCC,5601.6315789,Standard
 PULMONARY EMBOLISM W MCC,10344.714286,Standard
 OTHER RESP SYSTEM O.R. PROCEDURES W MCC,26021.235294,Standard
 SIMPLE PNEUMONIA & PLEURISY W/O CC/MCC,4841.8,Standard
 MAJOR CHEST PROCEDURES W MCC,26228.166666999998,Standard
 SEIZURES W/O MCC,6711.9117647,Standard
" ""TRAUMATIC STUPOR & COMA, COMA <1 HR W CC""",6998.526315800001,Standard
 TRANSIENT ISCHEMIA W/O THROMBOLYTIC,4576.2916667,Standard
 DISORDERS OF PANCREAS EXCEPT MALIGNANCY W CC,8445.4615385,Standard
" ""DISORDERS OF LIVER EXCEPT MALIG,CIRR,ALC HEPA W MCC""",10639.375,Standard
 DISORDERS OF PANCREAS EXCEPT MALIGNANCY W MCC,11650.461538,Standard
Level 2 Excision/ Biopsy/ Incision and Drainage,1053.65266666666,DRG
Level 3 Upper GI Procedures,2109.8795454545398,DRG
Complex GI Procedures,3387.25692307692,DRG
Level 1 Endovascular Procedures,1935.8081057268698,DRG
Level 2 Endovascular Procedures,4096.23413793103,DRG
Level 3 Endovascular Procedures,9098.11074999998,DRG
Level 4 Endovascular Procedures,14434.5318421052,DRG
Level 2 Electrophysiologic Procedures,4273.2663636363595,DRG
Abdominal/Peritoneal/Biliary and Related Procedures,2205.9889473684198,DRG
Level 1 Laparoscopy and Related Services,3377.9776623376597,DRG
Level 2 Laparoscopy and Related Services,6336.19999999999,DRG
Level 3 Urology and Related Services,1355.57847222221,DRG
Level 4 Urology and Related Services,2146.7448958333302,DRG
Level 5 Urology and Related Services,2942.61623188406,DRG
Level 4 Gynecologic Procedures,1830.68647058823,DRG
Level 5 Gynecologic Procedures,3223.67272727272,DRG
Level 1 Nerve Procedures,1202.5818965517199,DRG
Level 2 Intraocular Procedures,2908.76111111111,DRG
Level 2 Upper GI Procedures,1132.9055555555499,DRG
Level 2 ICD and Similar Procedures,29255.3137931034,DRG
Level 1 ICD and Similar Procedures,19483.7581818181,DRG
Level 2 Musculoskeletal Procedures,1016.06605263157,DRG
Level 3 Excision/ Biopsy/ Incision and Drainage,1873.11,DRG
Level 3 Electrophysiologic Procedures,17334.52,DRG
Level 2 Pacemaker and Similar Procedures,5788.582105263149,DRG
Level 1 Breast/Lymphatic Surgery and Related Procedures,2197.78,DRG
Level 2 Breast/Lymphatic Surgery and Related Procedures,3672.8147368421,DRG
 DISORDERS OF THE BILIARY TRACT W CC,9969.266666700001,Standard
Level 3 Musculoskeletal Procedures,2105.18670588235,DRG
 SIMPLE PNEUMONIA & PLEURISY W CC,7420.9270833,Standard
Level 5 Musculoskeletal Procedures,8881.660000000009,DRG
Level 3 Airway Endoscopy,1066.48,DRG
Level 4 Airway Endoscopy,2069.09055555555,DRG
Level 4 ENT Procedures,1610.67272727272,DRG
Level 3 Pacemaker and Similar Procedures,8504.07,DRG
Level 4 Pacemaker and Similar Procedures,16397.32,DRG
Level 4 Musculoskeletal Procedures,4427.40399014779,DRG
