Description,Charge,Category
" MISC DISORDERS OF NUTRITION,METABOLISM,FLUIDS/ELECTROLYTES W MCC",8079.444444399999,Standard
" ""MISC DISORDERS OF NUTRITION,METABOLISM,FLUIDS/ELECTROLYTES W/O MCC""",5440.0,Standard
 RENAL FAILURE W MCC,10442.615385,Standard
 RENAL FAILURE W CC,6700.7741935,Standard
 G.I. HEMORRHAGE W/O CC/MCC,4897.2727273,Standard
 DIABETES W/O CC/MCC,4769.9090909,Standard
 KIDNEY & URINARY TRACT INFECTIONS W/O MCC,6087.4871795,Standard
 OTHER CIRCULATORY SYSTEM DIAGNOSES W MCC,12860.428570999999,Standard
 OTHER KIDNEY & URINARY TRACT DIAGNOSES W MCC,10001.95,Standard
 KIDNEY & URINARY TRACT INFECTIONS W MCC,7421.8,Standard
 DIABETES W CC,6707.086956499999,Standard
 DIABETES W MCC,8836.0,Standard
 CELLULITIS W/O MCC,6057.225,Standard
 G.I. OBSTRUCTION W CC,6216.3333333,Standard
 G.I. OBSTRUCTION W/O CC/MCC,4626.5454545,Standard
" ""ESOPHAGITIS, GASTROENT & MISC DIGEST DISORDERS W/O MCC""",5595.05,Standard
 OTHER DIGESTIVE SYSTEM DIAGNOSES W CC,6767.0833333,Standard
 SPINAL FUSION EXCEPT CERVICAL W/O MCC,31409.342105,Standard
 G.I. HEMORRHAGE W MCC,11042.333333,Standard
 MAJOR GASTROINTESTINAL DISORDERS & PERITONEAL INFECTIONS W CC,7941.6666667,Standard
 RED BLOOD CELL DISORDERS W MCC,9385.733333299999,Standard
 MAJOR SMALL & LARGE BOWEL PROCEDURES W CC,16829.923077,Standard
 MAJOR SMALL & LARGE BOWEL PROCEDURES W MCC,44034.133333,Standard
 OTHER CIRCULATORY SYSTEM DIAGNOSES W CC,6737.0,Standard
 MAJOR HIP AND KNEE JOINT REPLACEMENT OR REATTACHMENT OF LOWER EXTREM,14731.009009000001,Standard
 HIP & FEMUR PROCEDURES EXCEPT MAJOR JOINT W MCC,23816.3125,Standard
 HIP & FEMUR PROCEDURES EXCEPT MAJOR JOINT W CC,14818.064516,Standard
" LOWER EXTREM & HUMER PROC EXCEPT HIP,FOOT,FEMUR W CC",14570.583333,Standard
 MEDICAL BACK PROBLEMS W/O MCC,6399.3846154,Standard
 CELLULITIS W MCC,9451.6666667,Standard
 G.I. HEMORRHAGE W CC,6907.6911765,Standard
 RED BLOOD CELL DISORDERS W/O MCC,6398.9333333,Standard
 OTHER DISORDERS OF NERVOUS SYSTEM W CC,6730.7272727,Standard
 SEPTICEMIA OR SEVERE SEPSIS W/O MV >96 HOURS W MCC,12479.012658,Standard
 CHEST PAIN,6713.3,Standard
Level 2 Excision/ Biopsy/ Incision and Drainage,1040.34885416666,DRG
Comprehensive Observation Services,1802.98161184207,DRG
Level 2 Intraocular Procedures,2732.16823529411,DRG
Level 1 Intraocular Procedures,1471.77042617961,DRG
Level 3 Excision/ Biopsy/ Incision and Drainage,1808.0039130434698,DRG
Level 1 Breast/Lymphatic Surgery and Related Procedures,2034.6618181818103,DRG
Level 2 Breast/Lymphatic Surgery and Related Procedures,3757.02193548386,DRG
Level 2 Musculoskeletal Procedures,1016.8203448275801,DRG
Level 3 Musculoskeletal Procedures,1983.2676,DRG
Level 4 Musculoskeletal Procedures,4382.7699999999895,DRG
Level 5 Musculoskeletal Procedures,8188.749545454541,DRG
Level 3 Airway Endoscopy,1034.79,DRG
Level 4 Airway Endoscopy,2045.48,DRG
 INFECTIOUS & PARASITIC DISEASES W O.R. PROCEDURE W MCC,35872.636364,Standard
Level 1 Endovascular Procedures,1840.0693333333302,DRG
Level 4 Endovascular Procedures,13919.75,DRG
Level 3 Pacemaker and Similar Procedures,8212.32,DRG
Level 1 ICD and Similar Procedures,20280.0941666666,DRG
Level 2 Upper GI Procedures,1113.20098360655,DRG
Abdominal/Peritoneal/Biliary and Related Procedures,2219.01299999999,DRG
Level 1 Laparoscopy and Related Services,3281.6226984126897,DRG
Level 2 Laparoscopy and Related Services,5701.62133333333,DRG
Level 3 Urology and Related Services,1325.59,DRG
 SEIZURES W MCC,11094.2,Standard
Level 5 Urology and Related Services,2758.94954545454,DRG
Level 4 Gynecologic Procedures,1725.43499999999,DRG
Level 1 Nerve Procedures,1259.0,DRG
 POISONING & TOXIC EFFECTS OF DRUGS W MCC,9870.925925900001,Standard
 SEPTICEMIA OR SEVERE SEPSIS W/O MV >96 HOURS W/O MCC,7414.594594600001,Standard
Level 3 Endovascular Procedures,8855.601363636371,DRG
 SYNCOPE & COLLAPSE,5866.9032258,Standard
Level 4 Urology and Related Services,2108.16,DRG
 CARDIAC ARRHYTHMIA & CONDUCTION DISORDERS W CC,5691.4318182,Standard
 CARDIAC ARRHYTHMIA & CONDUCTION DISORDERS W/O CC/MCC,4423.6666667,Standard
 PULMONARY EDEMA & RESPIRATORY FAILURE,9585.615942,Standard
 CHRONIC OBSTRUCTIVE PULMONARY DISEASE W MCC,8526.181818199999,Standard
 CHRONIC OBSTRUCTIVE PULMONARY DISEASE W CC,6558.027777800001,Standard
 CHRONIC OBSTRUCTIVE PULMONARY DISEASE W/O CC/MCC,5351.3125,Standard
 SIMPLE PNEUMONIA & PLEURISY W MCC,9475.266666700001,Standard
 SIMPLE PNEUMONIA & PLEURISY W CC,6696.163265300001,Standard
 SEIZURES W/O MCC,6011.636363600001,Standard
 DEGENERATIVE NERVOUS SYSTEM DISORDERS W/O MCC,7682.4166667,Standard
 NONSPECIFIC CEREBROVASCULAR DISORDERS W CC,6783.7647059,Standard
 NONSPECIFIC CEREBROVASCULAR DISORDERS W MCC,11065.157895,Standard
 TRANSIENT ISCHEMIA W/O THROMBOLYTIC,5671.0555556,Standard
 INTRACRANIAL HEMORRHAGE OR CEREBRAL INFARCTION W/O CC/MCC,12138.076923,Standard
 INTRACRANIAL HEMORRHAGE OR CEREBRAL INFARCTION W CC OR TPA IN 24 HRS,7190.475,Standard
 PERC CARDIOVASC PROC W DRUG,14321.583333,Standard
 PERCUTANEOUS CARDIOVASCULAR PROCEDURES W DRUG,27920.523810000002,Standard
 RESPIRATORY SYSTEM DIAGNOSIS W VENTILATOR SUPPORT <=96 HOURS,15877.35,Standard
 SIMPLE PNEUMONIA & PLEURISY W/O CC/MCC,5578.8421053,Standard
 INTRACRANIAL HEMORRHAGE OR CEREBRAL INFARCTION W MCC,11929.90625,Standard
 RESPIRATORY INFECTIONS & INFLAMMATIONS W CC,8726.0833333,Standard
 RESPIRATORY INFECTIONS & INFLAMMATIONS W MCC,11919.4,Standard
 OTHER RESP SYSTEM O.R. PROCEDURES W MCC,26362.045455,Standard
 HEART FAILURE & SHOCK W CC,6868.24,Standard
 CRANIAL & PERIPHERAL NERVE DISORDERS W/O MCC,6831.1666667,Standard
 HEART FAILURE & SHOCK W MCC,10274.056604000001,Standard
" CIRCULATORY DISORDERS EXCEPT AMI, W CARD CATH W/O MCC",10103.041667,Standard
" ACUTE MYOCARDIAL INFARCTION, DISCHARGED ALIVE W CC",8514.6363636,Standard
" ""ACUTE MYOCARDIAL INFARCTION, DISCHARGED ALIVE W MCC""",10935.416667,Standard
 OTHER VASCULAR PROCEDURES W/O CC/MCC,13839.0,Standard
 OTHER VASCULAR PROCEDURES W MCC,26415.461538,Standard
 OTHER VASCULAR PROCEDURES W CC,17524.846154,Standard
 PULMONARY EMBOLISM W/O MCC,6476.9166667,Standard
 PULMONARY EMBOLISM W MCC,11215.428570999999,Standard
 HYPERTENSION W/O MCC,9258.0,Standard
 CARDIAC ARRHYTHMIA & CONDUCTION DISORDERS W MCC,8643.6,Standard
