Description,Charge,Category
 RED BLOOD CELL DISORDERS W/O MCC,5450.3076923,Standard
 MAJOR HIP AND KNEE JOINT REPLACEMENT OR REATTACHMENT OF LOWER EXTREM,13430.882353,Standard
 SEPTICEMIA OR SEVERE SEPSIS W/O MV >96 HOURS W/O MCC,6264.604651199999,Standard
 KIDNEY & URINARY TRACT INFECTIONS W MCC,6258.7083333,Standard
 SIGNS & SYMPTOMS W/O MCC,5261.0,Standard
 OTHER KIDNEY & URINARY TRACT DIAGNOSES W MCC,10417.8,Standard
 SEPTICEMIA OR SEVERE SEPSIS W/O MV >96 HOURS W MCC,10514.628788,Standard
 OTHER DIGESTIVE SYSTEM DIAGNOSES W CC,5795.6666667,Standard
 HEART FAILURE & SHOCK W/O CC/MCC,4273.6666667,Standard
 INTRACRANIAL HEMORRHAGE OR CEREBRAL INFARCTION W MCC,9300.6363636,Standard
 INTRACRANIAL HEMORRHAGE OR CEREBRAL INFARCTION W CC OR TPA IN 24 HRS,6251.6666667,Standard
 INTRACRANIAL HEMORRHAGE OR CEREBRAL INFARCTION W/O CC/MCC,4688.3846154,Standard
 SEIZURES W/O MCC,5087.0,Standard
 PULMONARY EDEMA & RESPIRATORY FAILURE,7152.5833333,Standard
 CHRONIC OBSTRUCTIVE PULMONARY DISEASE W MCC,7188.9186991999995,Standard
 CARDIAC ARRHYTHMIA & CONDUCTION DISORDERS W MCC,6819.4705882,Standard
 CHRONIC OBSTRUCTIVE PULMONARY DISEASE W CC,5632.897435899999,Standard
 SIMPLE PNEUMONIA & PLEURISY W MCC,8170.0147059,Standard
 SIMPLE PNEUMONIA & PLEURISY W CC,6413.3055556,Standard
 BRONCHITIS & ASTHMA W CC/MCC,5694.25,Standard
" ""ACUTE MYOCARDIAL INFARCTION, DISCHARGED ALIVE W MCC""",8401.857142899999,Standard
 HEART FAILURE & SHOCK W MCC,8587.0606061,Standard
 HEART FAILURE & SHOCK W CC,5946.878787899999,Standard
 CHRONIC OBSTRUCTIVE PULMONARY DISEASE W/O CC/MCC,4531.217391300001,Standard
 SIMPLE PNEUMONIA & PLEURISY W/O CC/MCC,4485.2727273,Standard
 KIDNEY & URINARY TRACT INFECTIONS W/O MCC,4928.2280702,Standard
 CARDIAC ARRHYTHMIA & CONDUCTION DISORDERS W/O CC/MCC,5251.5238094999995,Standard
Level 1 Intraocular Procedures,1374.12668008047,DRG
Level 1 Nerve Procedures,1031.41741935483,DRG
 G.I. HEMORRHAGE W CC,5829.4242423999995,Standard
 CARDIAC ARRHYTHMIA & CONDUCTION DISORDERS W CC,7733.0967742,Standard
Level 2 Excision/ Biopsy/ Incision and Drainage,970.572545454546,DRG
Level 1 Laparoscopy and Related Services,3203.5047058823498,DRG
 RENAL FAILURE W CC,5538.266666699999,Standard
Comprehensive Observation Services,1686.22804780875,DRG
 RENAL FAILURE W MCC,10034.909091,Standard
" MISC DISORDERS OF NUTRITION,METABOLISM,FLUIDS/ELECTROLYTES W MCC",7028.8181818,Standard
 DIABETES W CC,5190.3333333,Standard
 CELLULITIS W/O MCC,5220.3428571,Standard
 MEDICAL BACK PROBLEMS W/O MCC,5365.1818182,Standard
 HIP & FEMUR PROCEDURES EXCEPT MAJOR JOINT W CC,12174.857143000001,Standard
" ESOPHAGITIS, GASTROENT & MISC DIGEST DISORDERS W MCC",7436.692307699999,Standard
" ""ESOPHAGITIS, GASTROENT & MISC DIGEST DISORDERS W/O MCC""",4759.3773585,Standard
" ""MISC DISORDERS OF NUTRITION,METABOLISM,FLUIDS/ELECTROLYTES W/O MCC""",4834.3947368,Standard
 CHEST PAIN,4609.5,Standard
 G.I. OBSTRUCTION W CC,5286.5,Standard
 SYNCOPE & COLLAPSE,4925.7894737,Standard
