Description,Charge,Category
" MISC DISORDERS OF NUTRITION,METABOLISM,FLUIDS/ELECTROLYTES W MCC",8524.95,Standard
" ""MISC DISORDERS OF NUTRITION,METABOLISM,FLUIDS/ELECTROLYTES W/O MCC""",5103.28,Standard
 RENAL FAILURE W MCC,9410.5,Standard
Level 2 Excision/ Biopsy/ Incision and Drainage,1058.601,DRG
Level 3 Excision/ Biopsy/ Incision and Drainage,1880.20999999999,DRG
Level 1 Breast/Lymphatic Surgery and Related Procedures,2206.11999999999,DRG
Level 2 Breast/Lymphatic Surgery and Related Procedures,3891.57,DRG
Level 2 Musculoskeletal Procedures,1068.04293103448,DRG
 SIGNS & SYMPTOMS W/O MCC,6141.6666667,Standard
 SEPTICEMIA OR SEVERE SEPSIS W/O MV >96 HOURS W/O MCC,6936.233333300001,Standard
 SEPTICEMIA OR SEVERE SEPSIS W/O MV >96 HOURS W MCC,11874.416667,Standard
 INFECTIOUS & PARASITIC DISEASES W O.R. PROCEDURE W MCC,27112.461538,Standard
Level 3 Musculoskeletal Procedures,2102.47634146341,DRG
Level 4 Musculoskeletal Procedures,4406.72422018349,DRG
Level 1 Endovascular Procedures,1966.04838709677,DRG
 DIABETES W CC,6497.5454545,Standard
Level 2 Endovascular Procedures,4110.2384931506895,DRG
 OTHER CIRCULATORY SYSTEM DIAGNOSES W MCC,12411.647059,Standard
Level 2 Upper GI Procedures,1154.38999999999,DRG
Abdominal/Peritoneal/Biliary and Related Procedures,2351.28318181818,DRG
Level 1 Laparoscopy and Related Services,3630.17999999999,DRG
Level 4 Gynecologic Procedures,1838.08,DRG
Level 1 Nerve Procedures,1293.2948031496,DRG
Level 2 Neurostimulator and Related Procedures,4897.429999999989,DRG
Level 4 Neurostimulator and Related Procedures,26882.6383333333,DRG
Level 1 Intraocular Procedures,1547.33229357798,DRG
Level 2 Intraocular Procedures,2918.5425,DRG
Comprehensive Observation Services,1877.0463157894799,DRG
 RED BLOOD CELL DISORDERS W/O MCC,5970.04,Standard
 OTHER KIDNEY & URINARY TRACT DIAGNOSES W MCC,10024.166667,Standard
 KIDNEY & URINARY TRACT INFECTIONS W/O MCC,5356.6764706,Standard
Level 3 Endovascular Procedures,8716.368297872341,DRG
 KIDNEY & URINARY TRACT INFECTIONS W MCC,7098.0,Standard
 CELLULITIS W/O MCC,6102.5,Standard
 MAJOR JOINT/LIMB REATTACHMENT PROCEDURE OF UPPER EXTREMITIES,17212.535211000002,Standard
 CHEST PAIN,4811.3333333,Standard
 SYNCOPE & COLLAPSE,5366.5882353,Standard
 CARDIAC ARRHYTHMIA & CONDUCTION DISORDERS W/O CC/MCC,4448.7857143,Standard
 CARDIAC ARRHYTHMIA & CONDUCTION DISORDERS W CC,5487.9090909,Standard
 CARDIAC ARRHYTHMIA & CONDUCTION DISORDERS W MCC,7889.6875,Standard
 PERIPHERAL VASCULAR DISORDERS W CC,6546.5,Standard
 G.I. HEMORRHAGE W CC,6806.8888889,Standard
 HEART FAILURE & SHOCK W CC,6276.55,Standard
 HEART FAILURE & SHOCK W MCC,9244.139072799999,Standard
" ""CIRCULATORY DISORDERS EXCEPT AMI, W CARD CATH W MCC""",14734.583333,Standard
" ""ACUTE MYOCARDIAL INFARCTION, DISCHARGED ALIVE W MCC""",10519.2,Standard
 RESPIRATORY SYSTEM DIAGNOSIS W VENTILATOR SUPPORT <=96 HOURS,14716.888888999998,Standard
 BRONCHITIS & ASTHMA W CC/MCC,7333.6153846,Standard
 SIMPLE PNEUMONIA & PLEURISY W CC,6183.5,Standard
 MEDICAL BACK PROBLEMS W/O MCC,6060.857142899999,Standard
 SIMPLE PNEUMONIA & PLEURISY W MCC,10292.777778,Standard
 CHRONIC OBSTRUCTIVE PULMONARY DISEASE W MCC,7684.05,Standard
 PULMONARY EDEMA & RESPIRATORY FAILURE,8094.5151515,Standard
 RESPIRATORY INFECTIONS & INFLAMMATIONS W MCC,21688.307692,Standard
 PULMONARY EMBOLISM W/O MCC,5798.2857143,Standard
 PULMONARY EMBOLISM W MCC,13352.0,Standard
 TRANSIENT ISCHEMIA W/O THROMBOLYTIC,5133.7058824,Standard
 INTRACRANIAL HEMORRHAGE OR CEREBRAL INFARCTION W CC OR TPA IN 24 HRS,6778.6818182,Standard
 INTRACRANIAL HEMORRHAGE OR CEREBRAL INFARCTION W MCC,10547.65,Standard
 G.I. OBSTRUCTION W CC,5797.357142899999,Standard
" ESOPHAGITIS, GASTROENT & MISC DIGEST DISORDERS W MCC",8196.3846154,Standard
" ""ESOPHAGITIS, GASTROENT & MISC DIGEST DISORDERS W/O MCC""",5792.975609800001,Standard
 OTHER DIGESTIVE SYSTEM DIAGNOSES W MCC,10748.166667,Standard
 OTHER DIGESTIVE SYSTEM DIAGNOSES W CC,6353.6111111,Standard
 HIP & FEMUR PROCEDURES EXCEPT MAJOR JOINT W CC,15246.058824000002,Standard
 CHRONIC OBSTRUCTIVE PULMONARY DISEASE W CC,6478.148148100001,Standard
 RENAL FAILURE W CC,6100.8113208,Standard
 G.I. HEMORRHAGE W MCC,10823.666667,Standard
