Description,Charge,Category
 KIDNEY & URINARY TRACT INFECTIONS W/O MCC,8424.75,Standard
" ""ACUTE MYOCARDIAL INFARCTION, DISCHARGED ALIVE W MCC""",12578.0,Standard
 HEART FAILURE & SHOCK W MCC,13505.904762,Standard
 HEART FAILURE & SHOCK W CC,9553.1538462,Standard
 CELLULITIS W/O MCC,8554.090909100001,Standard
 RENAL FAILURE W MCC,12849.210526,Standard
 RENAL FAILURE W CC,9321.2692308,Standard
 PULMONARY EDEMA & RESPIRATORY FAILURE,11340.538462,Standard
Level 3 Musculoskeletal Procedures,2136.23333333333,DRG
Comprehensive Observation Services,1899.42255999999,DRG
 ALCOHOL/DRUG ABUSE OR DEPENDENCE W/O REHABILITATION THERAPY W/O MCC,8291.2777778,Standard
 SEPTICEMIA OR SEVERE SEPSIS W/O MV >96 HOURS W MCC,15259.677419,Standard
 RED BLOOD CELL DISORDERS W/O MCC,9053.6470588,Standard
 CHRONIC OBSTRUCTIVE PULMONARY DISEASE W MCC,10858.117647,Standard
