Description,Charge,Category
Level 1 Nerve Procedures,1135.15370689655,DRG
 HEART FAILURE & SHOCK W CC,6005.0909091,Standard
 HYPERTENSION W/O MCC,4534.6666667,Standard
 CARDIAC ARRHYTHMIA & CONDUCTION DISORDERS W MCC,7347.4347826,Standard
 CARDIAC ARRHYTHMIA & CONDUCTION DISORDERS W CC,5138.142857100001,Standard
 CARDIAC ARRHYTHMIA & CONDUCTION DISORDERS W/O CC/MCC,4491.1304348,Standard
 SYNCOPE & COLLAPSE,5138.266666699999,Standard
 CHEST PAIN,4601.3076923,Standard
 MAJOR GASTROINTESTINAL DISORDERS & PERITONEAL INFECTIONS W CC,6506.9090909,Standard
 MAJOR SMALL & LARGE BOWEL PROCEDURES W CC,14536.714286000002,Standard
 HEART FAILURE & SHOCK W MCC,9032.2628866,Standard
 RESPIRATORY INFECTIONS & INFLAMMATIONS W MCC,10855.268293000001,Standard
 G.I. HEMORRHAGE W CC,6868.5,Standard
" ESOPHAGITIS, GASTROENT & MISC DIGEST DISORDERS W MCC",7669.5833333,Standard
" ""ESOPHAGITIS, GASTROENT & MISC DIGEST DISORDERS W/O MCC""",5308.40625,Standard
 SPINAL FUSION EXCEPT CERVICAL W/O MCC,27450.882352999997,Standard
 OTHER CIRCULATORY SYSTEM DIAGNOSES W CC,5959.363636399999,Standard
" CIRCULATORY DISORDERS EXCEPT AMI, W CARD CATH W/O MCC",7277.8,Standard
 PERC CARDIOVASC PROC W DRUG,12743.628571,Standard
" ""ACUTE MYOCARDIAL INFARCTION, DISCHARGED ALIVE W MCC""",9809.305555600002,Standard
 PULMONARY EMBOLISM W MCC,9014.9285714,Standard
 TRANSIENT ISCHEMIA W/O THROMBOLYTIC,4882.0,Standard
 INTRACRANIAL HEMORRHAGE OR CEREBRAL INFARCTION W CC OR TPA IN 24 HRS,6390.4444444,Standard
 INTRACRANIAL HEMORRHAGE OR CEREBRAL INFARCTION W MCC,10410.5,Standard
Level 2 Excision/ Biopsy/ Incision and Drainage,936.6595934959331,DRG
Level 3 Excision/ Biopsy/ Incision and Drainage,1415.6583333333301,DRG
Level 1 Breast/Lymphatic Surgery and Related Procedures,1993.24,DRG
" ACUTE MYOCARDIAL INFARCTION, DISCHARGED ALIVE W CC",6094.4545455,Standard
 PULMONARY EDEMA & RESPIRATORY FAILURE,7589.2419355,Standard
 CHRONIC OBSTRUCTIVE PULMONARY DISEASE W CC,5844.4814815,Standard
 SIMPLE PNEUMONIA & PLEURISY W MCC,9021.0545455,Standard
 SIMPLE PNEUMONIA & PLEURISY W CC,5886.1219512,Standard
 BRONCHITIS & ASTHMA W CC/MCC,5895.0714286,Standard
 RESPIRATORY SYSTEM DIAGNOSIS W VENTILATOR SUPPORT <=96 HOURS,15668.428571,Standard
 PERCUTANEOUS CARDIOVASCULAR PROCEDURES W DRUG,19098.642857,Standard
 REVISION OF HIP OR KNEE REPLACEMENT W CC,17501.083333000002,Standard
 CHRONIC OBSTRUCTIVE PULMONARY DISEASE W MCC,8156.9534884,Standard
 MAJOR HIP AND KNEE JOINT REPLACEMENT OR REATTACHMENT OF LOWER EXTREM,12884.449664,Standard
 G.I. HEMORRHAGE W MCC,10228.45,Standard
 HIP & FEMUR PROCEDURES EXCEPT MAJOR JOINT W CC,12128.375,Standard
Level 5 Musculoskeletal Procedures,7932.859999999991,DRG
Level 1 Endovascular Procedures,1727.70195348836,DRG
Level 2 Endovascular Procedures,3591.1429032258,DRG
Level 3 Endovascular Procedures,8197.61867346938,DRG
Level 3 Pacemaker and Similar Procedures,7590.41,DRG
Level 2 ICD and Similar Procedures,26955.6317857142,DRG
Level 4 Musculoskeletal Procedures,4096.63,DRG
 HIP & FEMUR PROCEDURES EXCEPT MAJOR JOINT W MCC,20998.583333000002,Standard
Level 1 Laparoscopy and Related Services,3279.89,DRG
Level 3 Urology and Related Services,1213.18857142857,DRG
Level 4 Urology and Related Services,1876.69523809523,DRG
Level 5 Urology and Related Services,2623.375,DRG
Level 4 Gynecologic Procedures,1656.5720000000001,DRG
Comprehensive Observation Services,1683.80878143134,DRG
Abdominal/Peritoneal/Biliary and Related Procedures,2127.19,DRG
Level 3 Musculoskeletal Procedures,1931.96161290322,DRG
Level 2 Upper GI Procedures,1018.74418604651,DRG
 PSYCHOSES,7450.2916667,Standard
 MAJOR JOINT/LIMB REATTACHMENT PROCEDURE OF UPPER EXTREMITIES,14863.043478,Standard
 MEDICAL BACK PROBLEMS W/O MCC,5542.5454545,Standard
Level 2 Musculoskeletal Procedures,986.41,DRG
 CELLULITIS W MCC,8786.8333333,Standard
 CELLULITIS W/O MCC,5337.9444444,Standard
" MISC DISORDERS OF NUTRITION,METABOLISM,FLUIDS/ELECTROLYTES W MCC",7280.0714286,Standard
" ""MISC DISORDERS OF NUTRITION,METABOLISM,FLUIDS/ELECTROLYTES W/O MCC""",4840.65,Standard
 RENAL FAILURE W MCC,9122.138888899999,Standard
 PULMONARY EMBOLISM W/O MCC,5593.0769231,Standard
 KIDNEY & URINARY TRACT INFECTIONS W MCC,6482.36,Standard
 KIDNEY & URINARY TRACT INFECTIONS W/O MCC,5097.0930233,Standard
 OTHER KIDNEY & URINARY TRACT DIAGNOSES W MCC,9240.1538462,Standard
 RED BLOOD CELL DISORDERS W/O MCC,5645.0,Standard
 SEPTICEMIA OR SEVERE SEPSIS W/O MV >96 HOURS W/O MCC,7404.983870999999,Standard
 INFECTIOUS & PARASITIC DISEASES W O.R. PROCEDURE W MCC,32053.6,Standard
 SEPTICEMIA OR SEVERE SEPSIS W/O MV >96 HOURS W MCC,10999.326271,Standard
 RENAL FAILURE W CC,5782.277777800001,Standard
