Description,Charge,Category
Level 5 Urology and Related Services,2633.5132,DRG
Level 3 Airway Endoscopy,940.77,DRG
Comprehensive Observation Services,1658.13763698629,DRG
Level 1 Nerve Procedures,1144.6,DRG
Level 4 Urology and Related Services,1913.9991228070103,DRG
Level 5 Airway Endoscopy,3264.96333333333,DRG
Level 1 Laparoscopy and Related Services,3190.15,DRG
Abdominal/Peritoneal/Biliary and Related Procedures,1931.05733333333,DRG
Level 3 Upper GI Procedures,1949.79,DRG
Level 2 Upper GI Procedures,1005.19138888888,DRG
Level 2 Excision/ Biopsy/ Incision and Drainage,938.9086,DRG
Level 3 Excision/ Biopsy/ Incision and Drainage,1398.10846153846,DRG
Level 2 Musculoskeletal Procedures,917.706086956521,DRG
Level 3 Musculoskeletal Procedures,1806.26490196078,DRG
Level 3 Urology and Related Services,1194.98866666666,DRG
Level 4 Musculoskeletal Procedures,3984.353,DRG
 RED BLOOD CELL DISORDERS W/O MCC,5381.75,Standard
 RESPIRATORY INFECTIONS & INFLAMMATIONS W MCC,11012.05,Standard
 PULMONARY EDEMA & RESPIRATORY FAILURE,7387.9,Standard
 CHRONIC OBSTRUCTIVE PULMONARY DISEASE W MCC,6990.478260899999,Standard
 SIMPLE PNEUMONIA & PLEURISY W MCC,8247.9354839,Standard
 SIMPLE PNEUMONIA & PLEURISY W CC,5638.9090909,Standard
 HEART FAILURE & SHOCK W MCC,8825.5,Standard
" ""ESOPHAGITIS, GASTROENT & MISC DIGEST DISORDERS W/O MCC""",5456.4545455,Standard
 MAJOR HIP AND KNEE JOINT REPLACEMENT OR REATTACHMENT OF LOWER EXTREM,19058.363636000002,Standard
 MAJOR HIP AND KNEE JOINT REPLACEMENT OR REATTACHMENT OF LOWER EXTREM,13522.938596,Standard
 MAJOR JOINT/LIMB REATTACHMENT PROCEDURE OF UPPER EXTREMITIES,14643.411765,Standard
 HEART FAILURE & SHOCK W CC,5827.952381,Standard
" ""MISC DISORDERS OF NUTRITION,METABOLISM,FLUIDS/ELECTROLYTES W/O MCC""",4541.260869600001,Standard
 RENAL FAILURE W MCC,8945.1538462,Standard
 KIDNEY & URINARY TRACT INFECTIONS W MCC,6535.9705882,Standard
 KIDNEY & URINARY TRACT INFECTIONS W/O MCC,4843.4117647,Standard
 RED BLOOD CELL DISORDERS W MCC,8071.6666667,Standard
 SEPTICEMIA OR SEVERE SEPSIS W/O MV >96 HOURS W MCC,11174.198347,Standard
 SEPTICEMIA OR SEVERE SEPSIS W/O MV >96 HOURS W/O MCC,6316.548387100001,Standard
 CELLULITIS W/O MCC,5127.2142857,Standard
