Description,Charge,Category
 RESPIRATORY INFECTIONS & INFLAMMATIONS W MCC,11620.769231,Standard
 OTHER DIGESTIVE SYSTEM DIAGNOSES W CC,6501.8387096999995,Standard
 LAPAROSCOPIC CHOLECYSTECTOMY W/O C.D.E. W CC,10902.761905,Standard
 DIGESTIVE MALIGNANCY W CC,9213.4761905,Standard
 MALIGNANCY OF HEPATOBILIARY SYSTEM OR PANCREAS W MCC,14243.36,Standard
 DISORDERS OF PANCREAS EXCEPT MALIGNANCY W CC,6454.151515199999,Standard
 CIRRHOSIS & ALCOHOLIC HEPATITIS W MCC,11704.642856999999,Standard
 RESPIRATORY INFECTIONS & INFLAMMATIONS W CC,9393.375,Standard
" ESOPHAGITIS, GASTROENT & MISC DIGEST DISORDERS W MCC",8278.7,Standard
 PULMONARY EDEMA & RESPIRATORY FAILURE,8328.0,Standard
 OTHER DIGESTIVE SYSTEM DIAGNOSES W MCC,12010.882353,Standard
" ""ESOPHAGITIS, GASTROENT & MISC DIGEST DISORDERS W/O MCC""",5390.6835443,Standard
 G.I. OBSTRUCTION W/O CC/MCC,4408.3333333,Standard
 G.I. OBSTRUCTION W CC,5953.857142899999,Standard
 G.I. OBSTRUCTION W MCC,9502.3846154,Standard
 G.I. HEMORRHAGE W CC,6643.4357143,Standard
 G.I. HEMORRHAGE W MCC,12008.323077,Standard
 RESPIRATORY NEOPLASMS W MCC,10997.16129,Standard
 DISORDERS OF PANCREAS EXCEPT MALIGNANCY W/O CC/MCC,5312.4545455,Standard
" ""LOWER EXTREM & HUMER PROC EXCEPT HIP,FOOT,FEMUR W/O CC/MCC""",13561.0,Standard
 DISORDERS OF THE BILIARY TRACT W CC,7156.1304348,Standard
Level 3 Musculoskeletal Procedures,1838.5931707317002,DRG
 DIGESTIVE MALIGNANCY W MCC,13743.071429,Standard
Level 2 Musculoskeletal Procedures,952.395862068965,DRG
Level 2 Breast/Lymphatic Surgery and Related Procedures,3516.0599999999895,DRG
Level 1 Breast/Lymphatic Surgery and Related Procedures,1993.24,DRG
Level 3 Excision/ Biopsy/ Incision and Drainage,1651.60138888888,DRG
Level 2 Excision/ Biopsy/ Incision and Drainage,972.57020151134,DRG
 MEDICAL BACK PROBLEMS W/O MCC,6242.056603800001,Standard
" ""DISORDERS OF LIVER EXCEPT MALIG,CIRR,ALC HEPA W MCC""",11523.321429000001,Standard
 MEDICAL BACK PROBLEMS W MCC,10898.333333,Standard
" LOWER EXTREM & HUMER PROC EXCEPT HIP,FOOT,FEMUR W CC",18005.956522,Standard
" ""LOWER EXTREM & HUMER PROC EXCEPT HIP,FOOT,FEMUR W MCC""",23448.090909,Standard
 MAJOR JOINT/LIMB REATTACHMENT PROCEDURE OF UPPER EXTREMITIES,15979.864865000001,Standard
 HIP & FEMUR PROCEDURES EXCEPT MAJOR JOINT W/O CC/MCC,12125.5625,Standard
 HIP & FEMUR PROCEDURES EXCEPT MAJOR JOINT W CC,13148.979592,Standard
 HIP & FEMUR PROCEDURES EXCEPT MAJOR JOINT W MCC,18441.238095,Standard
 MAJOR HIP AND KNEE JOINT REPLACEMENT OR REATTACHMENT OF LOWER EXTREM,13797.866438,Standard
 MAJOR HIP AND KNEE JOINT REPLACEMENT OR REATTACHMENT OF LOWER EXTREM,19050.75,Standard
 PATHOLOGICAL FRACTURES & MUSCULOSKELET & CONN TISS MALIG W CC,7155.0625,Standard
 MAJOR GASTROINTESTINAL DISORDERS & PERITONEAL INFECTIONS W CC,7203.307692300001,Standard
 OTHER VASCULAR PROCEDURES W CC,16072.285713999998,Standard
 MAJOR SMALL & LARGE BOWEL PROCEDURES W/O CC/MCC,18099.214286000002,Standard
 OTHER VASCULAR PROCEDURES W MCC,22304.863636000002,Standard
 PERC CARDIOVASC PROC W/O CORONARY ARTERY STENT W MCC,17415.666666999998,Standard
 PERC CARDIOVASC PROC W DRUG,15710.492958,Standard
 PERCUTANEOUS CARDIOVASCULAR PROCEDURES W DRUG,20427.933333,Standard
 PERMANENT CARDIAC PACEMAKER IMPLANT W/O CC/MCC,13642.0,Standard
 PERMANENT CARDIAC PACEMAKER IMPLANT W CC,18427.111111000002,Standard
 PERMANENT CARDIAC PACEMAKER IMPLANT W MCC,22251.375,Standard
 CORONARY BYPASS W/O CARDIAC CATH W MCC,28108.0,Standard
 OTHER VASCULAR PROCEDURES W/O CC/MCC,11656.909091,Standard
 CORONARY BYPASS W CARDIAC CATH W/O MCC,31187.090909,Standard
 RESPIRATORY SYSTEM DIAGNOSIS W VENTILATOR SUPPORT <=96 HOURS,15116.90625,Standard
 BRONCHITIS & ASTHMA W CC/MCC,7361.3793103,Standard
 SIMPLE PNEUMONIA & PLEURISY W CC,7297.6896552,Standard
 CHEST PAIN,5010.136363600001,Standard
 SIMPLE PNEUMONIA & PLEURISY W MCC,9265.5,Standard
 CHRONIC OBSTRUCTIVE PULMONARY DISEASE W CC,6842.46875,Standard
 CHRONIC OBSTRUCTIVE PULMONARY DISEASE W MCC,8167.537037,Standard
Level 4 Musculoskeletal Procedures,4031.60412698413,DRG
 CORONARY BYPASS W CARDIAC CATH W MCC,45090.166667000005,Standard
 ENDOVASCULAR CARDIAC VALVE REPLACEMENT W/O MCC,37381.666667000005,Standard
 OTHER MAJOR CARDIOVASCULAR PROCEDURES W MCC,31223.846154000003,Standard
" ""ACUTE MYOCARDIAL INFARCTION, DISCHARGED ALIVE W MCC""",12230.065217,Standard
 MAJOR SMALL & LARGE BOWEL PROCEDURES W CC,15583.934783,Standard
 MAJOR SMALL & LARGE BOWEL PROCEDURES W MCC,28612.851852,Standard
 OTHER CIRCULATORY SYSTEM DIAGNOSES W CC,9811.411764700002,Standard
 OTHER CIRCULATORY SYSTEM DIAGNOSES W MCC,12016.837838,Standard
 SYNCOPE & COLLAPSE,5657.9375,Standard
 CARDIAC ARRHYTHMIA & CONDUCTION DISORDERS W/O CC/MCC,4284.68,Standard
 CARDIAC ARRHYTHMIA & CONDUCTION DISORDERS W CC,6123.0,Standard
 CARDIAC ARRHYTHMIA & CONDUCTION DISORDERS W MCC,9054.787234000001,Standard
 HYPERTENSION W/O MCC,5129.5263158,Standard
 HYPERTENSION W MCC,7109.3125,Standard
 PERIPHERAL VASCULAR DISORDERS W CC,7956.3125,Standard
 PERIPHERAL VASCULAR DISORDERS W MCC,9135.8333333,Standard
 HEART FAILURE & SHOCK W/O CC/MCC,5028.2941176,Standard
 HEART FAILURE & SHOCK W CC,7166.783333300001,Standard
 HEART FAILURE & SHOCK W MCC,9592.4035088,Standard
" CIRCULATORY DISORDERS EXCEPT AMI, W CARD CATH W/O MCC",8722.720588200002,Standard
" ""CIRCULATORY DISORDERS EXCEPT AMI, W CARD CATH W MCC""",14519.114753999998,Standard
" ACUTE MYOCARDIAL INFARCTION, EXPIRED W MCC",11364.583333,Standard
" ACUTE MYOCARDIAL INFARCTION, DISCHARGED ALIVE W CC",6869.2962963,Standard
 MAJOR GASTROINTESTINAL DISORDERS & PERITONEAL INFECTIONS W MCC,11319.388889,Standard
Level 5 Musculoskeletal Procedures,7676.961290322571,DRG
 DISORDERS OF THE BILIARY TRACT W MCC,10444.058824,Standard
Level 4 Airway Endoscopy,1874.4509803921499,DRG
Level 1 Intraocular Procedures,1387.21818309858,DRG
Level 2 Intraocular Procedures,2548.77885135136,DRG
"Level 3 Extraocular, Repair, and Plastic Eye Procedures",1289.8483185840598,DRG
Comprehensive Observation Services,1682.8061546841102,DRG
 CRANIOTOMY & ENDOVASCULAR INTRACRANIAL PROCEDURES W MCC,26982.8,Standard
 EXTRACRANIAL PROCEDURES W/O CC/MCC,7714.6470588,Standard
 SIGNS & SYMPTOMS W/O MCC,5337.9090909,Standard
 COMPLICATIONS OF TREATMENT W MCC,11612.333333,Standard
 POISONING & TOXIC EFFECTS OF DRUGS W MCC,9354.125,Standard
 ALCOHOL/DRUG ABUSE OR DEPENDENCE W/O REHABILITATION THERAPY W/O MCC,5546.7058824,Standard
 SEPTICEMIA OR SEVERE SEPSIS W/O MV >96 HOURS W/O MCC,7291.9576271,Standard
 SEPTICEMIA OR SEVERE SEPSIS W/O MV >96 HOURS W MCC,12408.580042,Standard
 SEPTICEMIA OR SEVERE SEPSIS W MV >96 HOURS OR PERIPHERAL EXTRACORPOR,37870.0625,Standard
 POSTOPERATIVE & POST,11695.416667,Standard
 INFECTIOUS & PARASITIC DISEASES W O.R. PROCEDURE W CC,18028.291666999998,Standard
 INFECTIOUS & PARASITIC DISEASES W O.R. PROCEDURE W MCC,36035.666667000005,Standard
 RED BLOOD CELL DISORDERS W/O MCC,6181.2962963,Standard
 MAJOR HEMATOL/IMMUN DIAG EXC SICKLE CELL CRISIS & COAGUL W CC,8008.0,Standard
 OTHER KIDNEY & URINARY TRACT DIAGNOSES W CC,7075.1578947,Standard
 OTHER KIDNEY & URINARY TRACT DIAGNOSES W MCC,10910.860465,Standard
 URINARY STONES W/O ESW LITHOTRIPSY W/O MCC,5724.9032258,Standard
 KIDNEY & URINARY TRACT INFECTIONS W/O MCC,5634.3,Standard
 KIDNEY & URINARY TRACT INFECTIONS W MCC,7312.930232600001,Standard
Level 1 Nerve Procedures,1176.8,DRG
 RENAL FAILURE W CC,6379.3214286,Standard
Level 5 Gynecologic Procedures,2929.4959999999896,DRG
Level 6 Urology and Related Services,5625.07,DRG
 EXTENSIVE O.R. PROCEDURE UNRELATED TO PRINCIPAL DIAGNOSIS W MCC,42413.705882,Standard
Level 4 ENT Procedures,1606.86,DRG
Level 5 ENT Procedures,3086.9392105263105,DRG
Cochlear Implant Procedure,28462.95,DRG
Level 1 Endovascular Procedures,1764.1616949152399,DRG
Level 2 Endovascular Procedures,3714.78234693877,DRG
Level 3 Endovascular Procedures,8096.76340909091,DRG
Level 4 Endovascular Procedures,13319.49,DRG
Level 3 Electrophysiologic Procedures,15599.05,DRG
Level 2 Pacemaker and Similar Procedures,5172.977727272721,DRG
Level 3 Airway Endoscopy,943.80606060606,DRG
Level 1 ICD and Similar Procedures,18882.1,DRG
Level 2 ICD and Similar Procedures,26966.9697916666,DRG
Level 2 Upper GI Procedures,1035.27874698795,DRG
Level 3 Upper GI Procedures,1959.08,DRG
Level 3 Lower GI Procedures,1637.9347826086903,DRG
Complex GI Procedures,3006.63666666666,DRG
Abdominal/Peritoneal/Biliary and Related Procedures,2064.08397058823,DRG
Level 1 Laparoscopy and Related Services,3200.8565060241,DRG
Level 2 Laparoscopy and Related Services,5623.198,DRG
Level 3 Urology and Related Services,1211.96431372548,DRG
Level 4 Urology and Related Services,1950.9217045454502,DRG
Level 5 Urology and Related Services,2687.3116153846104,DRG
Level 4 Gynecologic Procedures,1660.72,DRG
 RENAL FAILURE W MCC,9706.4069767,Standard
Level 3 Pacemaker and Similar Procedures,7590.41,DRG
 PULMONARY EMBOLISM W/O MCC,6550.3076923,Standard
 PULMONARY EMBOLISM W MCC,9370.0,Standard
 DIABETES W MCC,8857.5238095,Standard
 OTHER RESP SYSTEM O.R. PROCEDURES W MCC,22574.529412,Standard
 HEADACHES W/O MCC,5338.3888889,Standard
 TRANSURETHRAL PROCEDURES W CC,9101.565217399999,Standard
 SEIZURES W/O MCC,6392.777777800001,Standard
 SEIZURES W MCC,10736.291667,Standard
 OTHER DISORDERS OF NERVOUS SYSTEM W CC,6501.0,Standard
 CELLULITIS W MCC,9134.866666700002,Standard
 CELLULITIS W/O MCC,5897.6901408,Standard
" ""TRAUMA TO THE SKIN, SUBCUT TISS & BREAST W/O MCC""",5903.904761899999,Standard
" ""TRAUMATIC STUPOR & COMA, COMA <1 HR W CC""",8040.482758600001,Standard
" TRAUMATIC STUPOR & COMA, COMA <1 HR W MCC",12958.941176,Standard
" TRAUMATIC STUPOR & COMA, COMA <1 HR W/O CC/MCC",5799.0,Standard
 CRANIAL & PERIPHERAL NERVE DISORDERS W MCC,9265.909090899999,Standard
 NONSPECIFIC CEREBROVASCULAR DISORDERS W MCC,11274.923077,Standard
" ""AMPUTAT OF LOWER LIMB FOR ENDOCRINE,NUTRIT,& METABOL DIS W CC""",14239.461538,Standard
 TRANSIENT ISCHEMIA W/O THROMBOLYTIC,6216.0645161,Standard
" ""MISC DISORDERS OF NUTRITION,METABOLISM,FLUIDS/ELECTROLYTES W/O MCC""",5311.7857143,Standard
 INTRACRANIAL HEMORRHAGE OR CEREBRAL INFARCTION W/O CC/MCC,5284.3666667,Standard
 INTRACRANIAL HEMORRHAGE OR CEREBRAL INFARCTION W CC OR TPA IN 24 HRS,7196.3023256,Standard
 INTRACRANIAL HEMORRHAGE OR CEREBRAL INFARCTION W MCC,11890.375,Standard
 DEGENERATIVE NERVOUS SYSTEM DISORDERS W/O MCC,7431.0526316,Standard
" MISC DISORDERS OF NUTRITION,METABOLISM,FLUIDS/ELECTROLYTES W MCC",9084.9714286,Standard
 CRANIAL & PERIPHERAL NERVE DISORDERS W/O MCC,6537.5384615,Standard
 NERVOUS SYSTEM NEOPLASMS W MCC,8830.2068966,Standard
 DIABETES W CC,5953.8857143,Standard
