Description,Charge,Category
Level 1 Intraocular Procedures,1398.41235294117,DRG
 CHRONIC OBSTRUCTIVE PULMONARY DISEASE W MCC,9741.8333333,Standard
 RED BLOOD CELL DISORDERS W/O MCC,8016.636363600001,Standard
 PSYCHOSES,10063.768817,Standard
 ALCOHOL/DRUG ABUSE OR DEPENDENCE W/O REHABILITATION THERAPY W/O MCC,7447.5,Standard
Comprehensive Observation Services,1732.1678947368398,DRG
