Description,Charge,Category
 HEART FAILURE & SHOCK W CC,5885.8055556,Standard
" ""ACUTE MYOCARDIAL INFARCTION, DISCHARGED ALIVE W/O CC/MCC""",5910.6666667,Standard
" ACUTE MYOCARDIAL INFARCTION, DISCHARGED ALIVE W CC",6182.4193548,Standard
 EXTENSIVE O.R. PROCEDURE UNRELATED TO PRINCIPAL DIAGNOSIS W MCC,26762.384615,Standard
" ""ACUTE MYOCARDIAL INFARCTION, DISCHARGED ALIVE W MCC""",10117.490566,Standard
" CIRCULATORY DISORDERS EXCEPT AMI, W CARD CATH W/O MCC",7277.260869600001,Standard
 HEART FAILURE & SHOCK W MCC,9059.714876,Standard
 HEART FAILURE & SHOCK W/O CC/MCC,4370.0555556,Standard
 PERIPHERAL VASCULAR DISORDERS W CC,5614.4615385,Standard
Comprehensive Observation Services,1732.71388686129,DRG
Level 3 Musculoskeletal Procedures,1949.0726984126898,DRG
Level 4 Musculoskeletal Procedures,4165.6884259259205,DRG
Level 5 Musculoskeletal Procedures,7566.41857142857,DRG
Level 4 Airway Endoscopy,1965.063125,DRG
Level 1 Endovascular Procedures,1781.77314578006,DRG
Level 2 Endovascular Procedures,3741.2328333333294,DRG
Level 3 Endovascular Procedures,8465.68541176468,DRG
Level 4 Endovascular Procedures,13712.5937931034,DRG
Level 3 Electrophysiologic Procedures,15695.2193181818,DRG
Level 2 Pacemaker and Similar Procedures,5613.28904761904,DRG
Level 3 Pacemaker and Similar Procedures,7854.11649999999,DRG
 POISONING & TOXIC EFFECTS OF DRUGS W MCC,8769.7777778,Standard
Level 4 Pacemaker and Similar Procedures,15166.5206666666,DRG
Level 2 Upper GI Procedures,1050.2776271186399,DRG
Abdominal/Peritoneal/Biliary and Related Procedures,2177.84052631578,DRG
Level 1 Laparoscopy and Related Services,3286.16010638297,DRG
Level 2 Laparoscopy and Related Services,5813.5,DRG
Level 3 Urology and Related Services,1267.12,DRG
Level 4 Urology and Related Services,1897.9875,DRG
Level 5 Urology and Related Services,2777.1147826086894,DRG
Level 4 Gynecologic Procedures,1652.20093749999,DRG
Level 1 Nerve Procedures,1179.26573770491,DRG
Level 1 Intraocular Procedures,1424.82847250509,DRG
Level 2 Intraocular Procedures,2716.7493877551,DRG
Level 2 ICD and Similar Procedures,27157.9688,DRG
 PSYCHOSES,7179.9124088,Standard
 COAGULATION DISORDERS,10513.5,Standard
 SEPTICEMIA OR SEVERE SEPSIS W/O MV >96 HOURS W MCC,11138.645062,Standard
 INTRACRANIAL HEMORRHAGE OR CEREBRAL INFARCTION W MCC,10658.03125,Standard
 INTRACRANIAL HEMORRHAGE OR CEREBRAL INFARCTION W CC OR TPA IN 24 HRS,6557.5762712,Standard
 INTRACRANIAL HEMORRHAGE OR CEREBRAL INFARCTION W/O CC/MCC,6130.3,Standard
 TRANSIENT ISCHEMIA W/O THROMBOLYTIC,5166.8275862,Standard
 SEIZURES W/O MCC,5676.8235294,Standard
 PULMONARY EMBOLISM W MCC,8808.9375,Standard
 PULMONARY EMBOLISM W/O MCC,5652.0625,Standard
 RESPIRATORY INFECTIONS & INFLAMMATIONS W MCC,11007.684211,Standard
 PULMONARY EDEMA & RESPIRATORY FAILURE,7865.213592199999,Standard
 CHRONIC OBSTRUCTIVE PULMONARY DISEASE W MCC,7591.8181818,Standard
 CHRONIC OBSTRUCTIVE PULMONARY DISEASE W CC,5711.0357143,Standard
 SIMPLE PNEUMONIA & PLEURISY W MCC,8813.710280399999,Standard
 SIMPLE PNEUMONIA & PLEURISY W CC,7012.7285714,Standard
 SIMPLE PNEUMONIA & PLEURISY W/O CC/MCC,4496.0,Standard
 PERMANENT CARDIAC PACEMAKER IMPLANT W CC,15247.181818000001,Standard
 PERMANENT CARDIAC PACEMAKER IMPLANT W MCC,23770.6,Standard
 CORONARY BYPASS W/O CARDIAC CATH W/O MCC,22396.26087,Standard
 CORONARY BYPASS W/O CARDIAC CATH W MCC,44842.8,Standard
 CORONARY BYPASS W CARDIAC CATH W/O MCC,30305.692307999998,Standard
 RESPIRATORY SYSTEM DIAGNOSIS W VENTILATOR SUPPORT <=96 HOURS,13988.878049,Standard
 BRONCHITIS & ASTHMA W CC/MCC,9861.1818182,Standard
 EXTRACRANIAL PROCEDURES W/O CC/MCC,8116.6666667,Standard
 SEPTICEMIA OR SEVERE SEPSIS W/O MV >96 HOURS W/O MCC,6512.5164835000005,Standard
 PERCUTANEOUS CARDIOVASCULAR PROCEDURES W DRUG,19389.961538,Standard
 ENDOVASCULAR CARDIAC VALVE REPLACEMENT W MCC,44210.466667,Standard
 INFECTIOUS & PARASITIC DISEASES W O.R. PROCEDURE W MCC,29975.146341000003,Standard
 CHEMOTHERAPY W/O ACUTE LEUKEMIA AS SECONDARY DIAGNOSIS W CC,8464.5714286,Standard
Level 2 Musculoskeletal Procedures,1012.5977272727199,DRG
 RED BLOOD CELL DISORDERS W/O MCC,5556.7142857,Standard
 RED BLOOD CELL DISORDERS W MCC,8210.666666699999,Standard
 MAJOR HEMATOL/IMMUN DIAG EXC SICKLE CELL CRISIS & COAGUL W CC,7971.0,Standard
 OTHER KIDNEY & URINARY TRACT DIAGNOSES W CC,6136.5882353,Standard
 OTHER KIDNEY & URINARY TRACT DIAGNOSES W MCC,9071.5897436,Standard
 KIDNEY & URINARY TRACT INFECTIONS W/O MCC,5074.36,Standard
 KIDNEY & URINARY TRACT INFECTIONS W MCC,6477.5862068999995,Standard
 RENAL FAILURE W CC,5750.125,Standard
 RENAL FAILURE W MCC,9048.1363636,Standard
" ""MISC DISORDERS OF NUTRITION,METABOLISM,FLUIDS/ELECTROLYTES W/O MCC""",4903.2857143,Standard
" MISC DISORDERS OF NUTRITION,METABOLISM,FLUIDS/ELECTROLYTES W MCC",7923.1818182,Standard
 DIABETES W CC,5625.357142899999,Standard
 DIABETES W MCC,8123.533333300001,Standard
 CELLULITIS W/O MCC,6494.8723404,Standard
 CELLULITIS W MCC,10240.307692,Standard
 PERCUTANEOUS INTRACARDIAC PROCEDURES W MCC,20675.333333000002,Standard
 OTHER MAJOR CARDIOVASCULAR PROCEDURES W MCC,38213.761905,Standard
 ENDOVASCULAR CARDIAC VALVE REPLACEMENT W/O MCC,36215.0,Standard
 PERC CARDIOVASC PROC W DRUG,15987.333333,Standard
Level 2 Breast/Lymphatic Surgery and Related Procedures,3589.0941379310298,DRG
Level 3 Upper GI Procedures,1955.5828571428501,DRG
Level 3 Excision/ Biopsy/ Incision and Drainage,1664.73266666666,DRG
 MAJOR SMALL & LARGE BOWEL PROCEDURES W CC,14050.6,Standard
 MAJOR GASTROINTESTINAL DISORDERS & PERITONEAL INFECTIONS W CC,6288.5454545,Standard
 G.I. HEMORRHAGE W MCC,9971.736842100001,Standard
 G.I. HEMORRHAGE W CC,6093.4050633,Standard
 G.I. OBSTRUCTION W MCC,9221.857142899999,Standard
 G.I. OBSTRUCTION W CC,5698.84,Standard
 G.I. OBSTRUCTION W/O CC/MCC,3982.3333333000005,Standard
Level 1 Breast/Lymphatic Surgery and Related Procedures,2043.5788461538398,DRG
" ""ESOPHAGITIS, GASTROENT & MISC DIGEST DISORDERS W/O MCC""",4870.975609800001,Standard
 OTHER DIGESTIVE SYSTEM DIAGNOSES W CC,7021.4,Standard
 LAPAROSCOPIC CHOLECYSTECTOMY W/O C.D.E. W MCC,14336.052631999999,Standard
 DISORDERS OF PANCREAS EXCEPT MALIGNANCY W CC,5472.6875,Standard
 DISORDERS OF PANCREAS EXCEPT MALIGNANCY W/O CC/MCC,4984.5,Standard
 DISORDERS OF THE BILIARY TRACT W CC,6669.8333333,Standard
 COMBINED ANTERIOR/POSTERIOR SPINAL FUSION W/O CC/MCC,36302.0,Standard
 SPINAL FUSION EXCEPT CERVICAL W/O MCC,23864.071429,Standard
 MAJOR HIP AND KNEE JOINT REPLACEMENT OR REATTACHMENT OF LOWER EXTREM,18781.666666999998,Standard
 MAJOR HIP AND KNEE JOINT REPLACEMENT OR REATTACHMENT OF LOWER EXTREM,13774.115044,Standard
 HIP & FEMUR PROCEDURES EXCEPT MAJOR JOINT W MCC,17996.384615,Standard
 HIP & FEMUR PROCEDURES EXCEPT MAJOR JOINT W CC,12073.131579,Standard
 MAJOR JOINT/LIMB REATTACHMENT PROCEDURE OF UPPER EXTREMITIES,16020.916667,Standard
 MAJOR SMALL & LARGE BOWEL PROCEDURES W MCC,27471.45,Standard
 OTHER CIRCULATORY SYSTEM DIAGNOSES W MCC,12859.346154,Standard
" ESOPHAGITIS, GASTROENT & MISC DIGEST DISORDERS W MCC",7646.1666667,Standard
Level 2 Excision/ Biopsy/ Incision and Drainage,991.0578749999969,DRG
 HYPERTENSION W/O MCC,4461.1818182,Standard
 CARDIAC ARRHYTHMIA & CONDUCTION DISORDERS W MCC,7786.1764706,Standard
 CARDIAC ARRHYTHMIA & CONDUCTION DISORDERS W CC,4960.1492537,Standard
 CARDIAC ARRHYTHMIA & CONDUCTION DISORDERS W/O CC/MCC,3876.1052632,Standard
 SYNCOPE & COLLAPSE,5370.3666667,Standard
 CHEST PAIN,4691.7368421,Standard
