Description,Charge,Category
 RESPIRATORY INFECTIONS & INFLAMMATIONS W MCC,10364.5625,Standard
 PULMONARY EDEMA & RESPIRATORY FAILURE,7450.2368421,Standard
 RESPIRATORY SYSTEM DIAGNOSIS W VENTILATOR SUPPORT <=96 HOURS,13215.6,Standard
 CHRONIC OBSTRUCTIVE PULMONARY DISEASE W CC,5816.25,Standard
 CHRONIC OBSTRUCTIVE PULMONARY DISEASE W/O CC/MCC,4686.363636399999,Standard
 SIMPLE PNEUMONIA & PLEURISY W MCC,8221.666666699999,Standard
 SIMPLE PNEUMONIA & PLEURISY W CC,5911.222222199999,Standard
 CHRONIC OBSTRUCTIVE PULMONARY DISEASE W MCC,7246.4086022,Standard
" ACUTE MYOCARDIAL INFARCTION, DISCHARGED ALIVE W CC",6044.875,Standard
 PERC CARDIOVASC PROC W DRUG,13852.755102000001,Standard
" ""ACUTE MYOCARDIAL INFARCTION, DISCHARGED ALIVE W MCC""",9982.4166667,Standard
" CIRCULATORY DISORDERS EXCEPT AMI, W CARD CATH W/O MCC",7196.8,Standard
 HEART FAILURE & SHOCK W MCC,8809.8111111,Standard
 HEART FAILURE & SHOCK W CC,6057.6333333,Standard
 CARDIAC ARRHYTHMIA & CONDUCTION DISORDERS W MCC,7758.6153846,Standard
 CARDIAC ARRHYTHMIA & CONDUCTION DISORDERS W CC,5012.6304348,Standard
 CHEST PAIN,5187.1860465,Standard
 SYNCOPE & COLLAPSE,5108.0740741,Standard
 PULMONARY EMBOLISM W/O MCC,5851.8333333,Standard
 CARDIAC ARRHYTHMIA & CONDUCTION DISORDERS W/O CC/MCC,4142.8888889,Standard
 PERCUTANEOUS CARDIOVASCULAR PROCEDURES W DRUG,23838.0,Standard
 OTHER RESP SYSTEM O.R. PROCEDURES W MCC,19778.5,Standard
 RENAL FAILURE W MCC,9133.766666700001,Standard
" ""ESOPHAGITIS, GASTROENT & MISC DIGEST DISORDERS W/O MCC""",4923.5135135,Standard
 SEPTICEMIA OR SEVERE SEPSIS W/O MV >96 HOURS W/O MCC,6607.1470588,Standard
 DEPRESSIVE NEUROSES,5129.9090909,Standard
 PSYCHOSES,7275.919028300001,Standard
 SEPTICEMIA OR SEVERE SEPSIS W/O MV >96 HOURS W MCC,10710.735134999999,Standard
 SEPTICEMIA OR SEVERE SEPSIS W MV >96 HOURS OR PERIPHERAL EXTRACORPOR,29693.0,Standard
 INFECTIOUS & PARASITIC DISEASES W O.R. PROCEDURE W CC,14620.842105000002,Standard
 INFECTIOUS & PARASITIC DISEASES W O.R. PROCEDURE W MCC,25863.985915,Standard
 RED BLOOD CELL DISORDERS W/O MCC,5528.1538462,Standard
 OTHER KIDNEY & URINARY TRACT DIAGNOSES W MCC,9332.4333333,Standard
 G.I. HEMORRHAGE W CC,6184.222222199999,Standard
 KIDNEY & URINARY TRACT INFECTIONS W/O MCC,5192.0714286,Standard
 RENAL FAILURE W CC,5812.32,Standard
" ""MISC DISORDERS OF NUTRITION,METABOLISM,FLUIDS/ELECTROLYTES W/O MCC""",4872.0555556,Standard
" MISC DISORDERS OF NUTRITION,METABOLISM,FLUIDS/ELECTROLYTES W MCC",7214.636363600001,Standard
 DIABETES W CC,5385.3125,Standard
 CELLULITIS W/O MCC,5429.9375,Standard
 HIP & FEMUR PROCEDURES EXCEPT MAJOR JOINT W CC,12723.578947,Standard
 HIP & FEMUR PROCEDURES EXCEPT MAJOR JOINT W MCC,18267.5625,Standard
 MAJOR HIP AND KNEE JOINT REPLACEMENT OR REATTACHMENT OF LOWER EXTREM,12426.255814,Standard
 MAJOR HIP AND KNEE JOINT REPLACEMENT OR REATTACHMENT OF LOWER EXTREM,18405.071429,Standard
 KIDNEY & URINARY TRACT INFECTIONS W MCC,6316.857142899999,Standard
 ALCOHOL/DRUG ABUSE OR DEPENDENCE W/O REHABILITATION THERAPY W/O MCC,5162.2837838,Standard
 MAJOR SMALL & LARGE BOWEL PROCEDURES W MCC,27161.818182,Standard
Level 3 Pacemaker and Similar Procedures,6986.85,DRG
Level 1 Breast/Lymphatic Surgery and Related Procedures,1777.34173913043,DRG
Level 2 Breast/Lymphatic Surgery and Related Procedures,3277.71,DRG
Level 2 Musculoskeletal Procedures,919.53,DRG
Level 3 Musculoskeletal Procedures,1673.14642857142,DRG
Level 4 Musculoskeletal Procedures,3818.92,DRG
Level 3 Airway Endoscopy,901.66,DRG
Level 4 Airway Endoscopy,1779.06909090909,DRG
Level 1 Endovascular Procedures,1583.2377272727201,DRG
Level 3 Endovascular Procedures,7342.375,DRG
Level 2 Upper GI Procedures,972.2999999999989,DRG
Level 3 Lower GI Procedures,1577.34,DRG
Abdominal/Peritoneal/Biliary and Related Procedures,1850.7906666666602,DRG
Level 1 Laparoscopy and Related Services,3018.98349397589,DRG
Level 2 Laparoscopy and Related Services,3975.15384615384,DRG
Level 3 Excision/ Biopsy/ Incision and Drainage,1583.63,DRG
Level 3 Urology and Related Services,1117.45903225806,DRG
Level 5 Urology and Related Services,2500.25794392523,DRG
Level 4 Urology and Related Services,1836.5762295081897,DRG
Comprehensive Observation Services,1588.54361403508,DRG
Level 1 Intraocular Procedures,1305.84875,DRG
Level 2 Excision/ Biopsy/ Incision and Drainage,908.796666666668,DRG
Level 5 Gynecologic Procedures,2732.34,DRG
Level 4 Gynecologic Procedures,1548.14,DRG
Level 1 Nerve Procedures,1012.0207692307599,DRG
