Description,Charge,Category
 HEART FAILURE & SHOCK W MCC,8201.0714286,Standard
 HEART FAILURE & SHOCK W CC,5581.375,Standard
 MAJOR GASTROINTESTINAL DISORDERS & PERITONEAL INFECTIONS W CC,6588.1666667,Standard
 G.I. HEMORRHAGE W CC,5887.4545455,Standard
 CARDIAC ARRHYTHMIA & CONDUCTION DISORDERS W/O CC/MCC,3912.5789474,Standard
 CHEST PAIN,4695.9166667,Standard
" MISC DISORDERS OF NUTRITION,METABOLISM,FLUIDS/ELECTROLYTES W MCC",6761.0833333,Standard
 CELLULITIS W/O MCC,5644.625,Standard
 HIP & FEMUR PROCEDURES EXCEPT MAJOR JOINT W CC,11885.545455,Standard
 MAJOR HIP AND KNEE JOINT REPLACEMENT OR REATTACHMENT OF LOWER EXTREM,12609.979167,Standard
" ""ESOPHAGITIS, GASTROENT & MISC DIGEST DISORDERS W/O MCC""",5148.25,Standard
 HYPERTENSION W/O MCC,4669.2142857,Standard
 CARDIAC ARRHYTHMIA & CONDUCTION DISORDERS W CC,5109.1764706,Standard
 RESPIRATORY INFECTIONS & INFLAMMATIONS W MCC,10456.769231,Standard
" ACUTE MYOCARDIAL INFARCTION, DISCHARGED ALIVE W CC",5925.8,Standard
Comprehensive Observation Services,1692.65713216959,DRG
Level 1 Intraocular Procedures,1365.79828,DRG
Level 1 Nerve Procedures,1149.055,DRG
Level 5 Urology and Related Services,2698.7664516129003,DRG
Level 4 Urology and Related Services,1959.27312499999,DRG
Level 3 Urology and Related Services,1224.56020408163,DRG
Level 1 Laparoscopy and Related Services,3276.0899999999897,DRG
Level 2 Upper GI Procedures,1022.4066412213699,DRG
Level 3 Airway Endoscopy,927.4656,DRG
Level 4 Musculoskeletal Procedures,3980.4234210526292,DRG
Level 3 Musculoskeletal Procedures,1771.0930769230702,DRG
Level 2 Musculoskeletal Procedures,981.645714285714,DRG
Level 3 Excision/ Biopsy/ Incision and Drainage,1696.81,DRG
Level 2 Excision/ Biopsy/ Incision and Drainage,962.3076576576559,DRG
 RENAL FAILURE W CC,5958.7,Standard
 PULMONARY EDEMA & RESPIRATORY FAILURE,7971.5617978,Standard
 CHRONIC OBSTRUCTIVE PULMONARY DISEASE W MCC,7195.622222200001,Standard
 SIMPLE PNEUMONIA & PLEURISY W MCC,8094.864864899999,Standard
 SIMPLE PNEUMONIA & PLEURISY W CC,6072.5,Standard
 RESPIRATORY SYSTEM DIAGNOSIS W VENTILATOR SUPPORT <=96 HOURS,15010.0,Standard
" ""ACUTE MYOCARDIAL INFARCTION, DISCHARGED ALIVE W MCC""",8793.625,Standard
" ""ACUTE MYOCARDIAL INFARCTION, DISCHARGED ALIVE W/O CC/MCC""",4978.5,Standard
 KIDNEY & URINARY TRACT INFECTIONS W MCC,6949.6666667,Standard
" ""MISC DISORDERS OF NUTRITION,METABOLISM,FLUIDS/ELECTROLYTES W/O MCC""",4988.357142899999,Standard
 SEPTICEMIA OR SEVERE SEPSIS W/O MV >96 HOURS W MCC,10821.283019,Standard
 KIDNEY & URINARY TRACT INFECTIONS W/O MCC,5201.9705882,Standard
 SEPTICEMIA OR SEVERE SEPSIS W/O MV >96 HOURS W/O MCC,7830.2777778,Standard
