Description,Charge,Category
 PULMONARY EDEMA & RESPIRATORY FAILURE,8009.8292683,Standard
 SIMPLE PNEUMONIA & PLEURISY W CC,6215.0384615,Standard
 SIMPLE PNEUMONIA & PLEURISY W MCC,9047.25,Standard
 HEART FAILURE & SHOCK W CC,6338.5,Standard
Level 2 Excision/ Biopsy/ Incision and Drainage,907.6936,DRG
Level 2 Upper GI Procedures,970.13923076923,DRG
Comprehensive Observation Services,1568.92455445544,DRG
 SEPTICEMIA OR SEVERE SEPSIS W/O MV >96 HOURS W MCC,11471.272727,Standard
 CHRONIC OBSTRUCTIVE PULMONARY DISEASE W MCC,7817.8823529,Standard
