Description,Charge,Category
 RESPIRATORY INFECTIONS & INFLAMMATIONS W MCC,11470.976744,Standard
 PERC CARDIOVASC PROC W DRUG,14070.716418,Standard
" ACUTE MYOCARDIAL INFARCTION, DISCHARGED ALIVE W CC",6384.9,Standard
" ""ACUTE MYOCARDIAL INFARCTION, DISCHARGED ALIVE W/O CC/MCC""",5016.189189199999,Standard
 HEART FAILURE & SHOCK W CC,6275.8709677,Standard
 HEART FAILURE & SHOCK W MCC,9134.287037,Standard
 PERCUTANEOUS CARDIOVASCULAR PROCEDURES W DRUG,19303.378378,Standard
 HEART FAILURE & SHOCK W/O CC/MCC,4545.8461538,Standard
 HYPERTENSION W/O MCC,4682.0909091,Standard
" CIRCULATORY DISORDERS EXCEPT AMI, W CARD CATH W/O MCC",7189.8421053,Standard
Level 1 Endovascular Procedures,1827.25127999999,DRG
 RESPIRATORY SYSTEM DIAGNOSIS W VENTILATOR SUPPORT <=96 HOURS,14427.257143,Standard
 RESPIRATORY SYSTEM DIAGNOSIS W VENTILATOR SUPPORT >96 HOURS,45712.470588,Standard
 PULMONARY EMBOLISM W/O MCC,5875.0833333,Standard
 PULMONARY EMBOLISM W MCC,9020.7058824,Standard
 OTHER RESP SYSTEM O.R. PROCEDURES W MCC,21050.294118,Standard
 PULMONARY EDEMA & RESPIRATORY FAILURE,7883.0769231,Standard
 CHRONIC OBSTRUCTIVE PULMONARY DISEASE W MCC,7370.1625,Standard
 CHRONIC OBSTRUCTIVE PULMONARY DISEASE W CC,5984.09375,Standard
 CHRONIC OBSTRUCTIVE PULMONARY DISEASE W/O CC/MCC,4937.1666667,Standard
 SIMPLE PNEUMONIA & PLEURISY W MCC,8397.4657534,Standard
 NONSPECIFIC CEREBROVASCULAR DISORDERS W CC,6486.4545455,Standard
 SIMPLE PNEUMONIA & PLEURISY W CC,6249.7,Standard
 NONSPECIFIC CEREBROVASCULAR DISORDERS W MCC,10022.066667000001,Standard
 TRANSIENT ISCHEMIA W/O THROMBOLYTIC,5045.913043500001,Standard
 INTRACRANIAL HEMORRHAGE OR CEREBRAL INFARCTION W/O CC/MCC,4881.5833333,Standard
 INTRACRANIAL HEMORRHAGE OR CEREBRAL INFARCTION W CC OR TPA IN 24 HRS,6481.04,Standard
 INTRACRANIAL HEMORRHAGE OR CEREBRAL INFARCTION W MCC,10835.288462,Standard
 RESPIRATORY INFECTIONS & INFLAMMATIONS W CC,8167.307692300001,Standard
" ""ACUTE MYOCARDIAL INFARCTION, DISCHARGED ALIVE W MCC""",10188.420561,Standard
" ESOPHAGITIS, GASTROENT & MISC DIGEST DISORDERS W MCC",7824.785714300001,Standard
 CARDIAC ARRHYTHMIA & CONDUCTION DISORDERS W CC,5088.613636399999,Standard
 CELLULITIS W/O MCC,5690.85,Standard
" ""AMPUTAT OF LOWER LIMB FOR ENDOCRINE,NUTRIT,& METABOL DIS W CC""",12611.75,Standard
 DIABETES W MCC,8317.0,Standard
 DIABETES W CC,5585.047619,Standard
" MISC DISORDERS OF NUTRITION,METABOLISM,FLUIDS/ELECTROLYTES W MCC",7519.761904800001,Standard
" ""MISC DISORDERS OF NUTRITION,METABOLISM,FLUIDS/ELECTROLYTES W/O MCC""",4947.966666699999,Standard
 RENAL FAILURE W MCC,9306.5942029,Standard
 RENAL FAILURE W CC,6171.7966102,Standard
 KIDNEY & URINARY TRACT INFECTIONS W/O MCC,5442.8333333,Standard
 OTHER KIDNEY & URINARY TRACT DIAGNOSES W MCC,9330.2916667,Standard
 RED BLOOD CELL DISORDERS W MCC,8445.1153846,Standard
 RED BLOOD CELL DISORDERS W/O MCC,5751.3611111,Standard
 INFECTIOUS & PARASITIC DISEASES W O.R. PROCEDURE W MCC,30610.84,Standard
 SEPTICEMIA OR SEVERE SEPSIS W MV >96 HOURS OR PERIPHERAL EXTRACORPOR,34843.407407,Standard
 SEPTICEMIA OR SEVERE SEPSIS W/O MV >96 HOURS W MCC,11353.387255,Standard
 SEPTICEMIA OR SEVERE SEPSIS W/O MV >96 HOURS W/O MCC,6738.3404255,Standard
 PSYCHOSES,7747.314285699999,Standard
 POISONING & TOXIC EFFECTS OF DRUGS W MCC,8689.2941176,Standard
 EXTENSIVE O.R. PROCEDURE UNRELATED TO PRINCIPAL DIAGNOSIS W CC,14893.666667,Standard
 CELLULITIS W MCC,9009.25,Standard
 CARDIAC ARRHYTHMIA & CONDUCTION DISORDERS W MCC,7751.2258065,Standard
 HIP & FEMUR PROCEDURES EXCEPT MAJOR JOINT W CC,12412.870968000001,Standard
 CERVICAL SPINAL FUSION W/O CC/MCC,13917.2,Standard
 CARDIAC ARRHYTHMIA & CONDUCTION DISORDERS W/O CC/MCC,3868.6666666999995,Standard
 SYNCOPE & COLLAPSE,5266.4736842,Standard
 MAJOR SMALL & LARGE BOWEL PROCEDURES W MCC,29230.090909,Standard
 MAJOR SMALL & LARGE BOWEL PROCEDURES W CC,15359.6,Standard
 G.I. HEMORRHAGE W MCC,10436.225,Standard
 G.I. HEMORRHAGE W CC,6313.1265823,Standard
 G.I. OBSTRUCTION W CC,5750.35,Standard
 G.I. OBSTRUCTION W/O CC/MCC,4160.2,Standard
" ""ESOPHAGITIS, GASTROENT & MISC DIGEST DISORDERS W/O MCC""",5125.0465116000005,Standard
 OTHER DIGESTIVE SYSTEM DIAGNOSES W CC,6219.8235294,Standard
 LAPAROSCOPIC CHOLECYSTECTOMY W/O C.D.E. W CC,10676.727273,Standard
 LAPAROSCOPIC CHOLECYSTECTOMY W/O C.D.E. W/O CC/MCC,8263.916666699999,Standard
 CIRRHOSIS & ALCOHOLIC HEPATITIS W MCC,18178.833333000002,Standard
 DISORDERS OF PANCREAS EXCEPT MALIGNANCY W CC,5794.636363600001,Standard
" ""DISORDERS OF LIVER EXCEPT MALIG,CIRR,ALC HEPA W MCC""",10928.95,Standard
" DISORDERS OF LIVER EXCEPT MALIG,CIRR,ALC HEPA W CC",6001.0769231,Standard
 SPINAL FUSION EXCEPT CERVICAL W/O MCC,23770.92,Standard
 MAJOR HIP AND KNEE JOINT REPLACEMENT OR REATTACHMENT OF LOWER EXTREM,19279.933333,Standard
 MAJOR HIP AND KNEE JOINT REPLACEMENT OR REATTACHMENT OF LOWER EXTREM,12655.708861,Standard
 HIP & FEMUR PROCEDURES EXCEPT MAJOR JOINT W MCC,17940.928571,Standard
 KIDNEY & URINARY TRACT INFECTIONS W MCC,6900.88,Standard
Level 4 Airway Endoscopy,2021.1799999999898,DRG
Level 4 Gynecologic Procedures,1755.61,DRG
Level 3 Neurostimulator and Related Procedures,16423.28,DRG
Level 1 Nerve Procedures,1177.7960759493599,DRG
Level 5 Gynecologic Procedures,2936.3025,DRG
Level 6 Urology and Related Services,6021.53,DRG
Level 5 Urology and Related Services,2789.1026618705,DRG
Level 4 Urology and Related Services,2083.13,DRG
Level 3 Urology and Related Services,1251.62488888888,DRG
Level 2 Laparoscopy and Related Services,5599.31379310344,DRG
Comprehensive Observation Services,1803.7122000000102,DRG
Level 1 Laparoscopy and Related Services,3276.0197297297304,DRG
Abdominal/Peritoneal/Biliary and Related Procedures,2192.035,DRG
Level 3 Upper GI Procedures,2119.18,DRG
Level 2 Upper GI Procedures,1065.41516129032,DRG
Level 4 Neurostimulator and Related Procedures,21571.2197368421,DRG
Level 3 Pacemaker and Similar Procedures,8099.17999999999,DRG
Level 3 Airway Endoscopy,972.7620454545449,DRG
Level 5 Musculoskeletal Procedures,8249.67,DRG
Level 4 Musculoskeletal Procedures,4209.42590277776,DRG
Level 3 Musculoskeletal Procedures,1996.3025531914898,DRG
Level 2 ICD and Similar Procedures,28582.95,DRG
Level 2 Breast/Lymphatic Surgery and Related Procedures,3510.4622222222197,DRG
Level 3 Excision/ Biopsy/ Incision and Drainage,1790.7360714285699,DRG
Level 2 Excision/ Biopsy/ Incision and Drainage,1015.0638333333301,DRG
Level 2 Musculoskeletal Procedures,1028.29666666666,DRG
Level 2 Pacemaker and Similar Procedures,5441.26875,DRG
Level 2 Endovascular Procedures,3879.45679012346,DRG
Level 3 Endovascular Procedures,8657.01313432833,DRG
Level 4 Endovascular Procedures,14155.64,DRG
