Description,Charge,Category
Level 5 Urology and Related Services,2706.35806451613,DRG
 RESPIRATORY INFECTIONS & INFLAMMATIONS W MCC,10667.583333,Standard
 INTRACRANIAL HEMORRHAGE OR CEREBRAL INFARCTION W MCC,11575.466667,Standard
 INTRACRANIAL HEMORRHAGE OR CEREBRAL INFARCTION W/O CC/MCC,4732.857142899999,Standard
Level 4 Urology and Related Services,2034.97,DRG
Level 3 Urology and Related Services,1245.88736842105,DRG
Level 2 Laparoscopy and Related Services,5851.18,DRG
Level 1 Laparoscopy and Related Services,3276.81812499999,DRG
Abdominal/Peritoneal/Biliary and Related Procedures,2050.83875,DRG
Level 3 Endovascular Procedures,7939.1907692307705,DRG
Level 1 Endovascular Procedures,1774.07034482758,DRG
Level 4 Musculoskeletal Procedures,3736.9357692307703,DRG
Level 3 Musculoskeletal Procedures,1784.7789583333301,DRG
Level 4 Gynecologic Procedures,1572.11,DRG
Level 2 Breast/Lymphatic Surgery and Related Procedures,3631.04,DRG
Level 1 Breast/Lymphatic Surgery and Related Procedures,1958.3436363636301,DRG
Level 3 Excision/ Biopsy/ Incision and Drainage,1754.35,DRG
Level 2 Excision/ Biopsy/ Incision and Drainage,995.4799009901,DRG
Level 5 Gynecologic Procedures,2949.2676923076897,DRG
Level 2 Neurostimulator and Related Procedures,4569.4935,DRG
Level 3 Neurostimulator and Related Procedures,14909.241785714199,DRG
Level 1 Intraocular Procedures,1418.95676691729,DRG
Comprehensive Observation Services,1717.6225206611498,DRG
 CELLULITIS W MCC,8765.9375,Standard
 CELLULITIS W/O MCC,5441.8,Standard
Level 6 Urology and Related Services,3511.1820000000002,DRG
 INTRACRANIAL HEMORRHAGE OR CEREBRAL INFARCTION W CC OR TPA IN 24 HRS,6966.739130399999,Standard
 SEIZURES W/O MCC,5149.2857143,Standard
Level 2 Musculoskeletal Procedures,1018.67,DRG
 G.I. OBSTRUCTION W CC,5288.4210526,Standard
" ""MISC DISORDERS OF NUTRITION,METABOLISM,FLUIDS/ELECTROLYTES W/O MCC""",5028.7,Standard
 SYNCOPE & COLLAPSE,5236.7428571,Standard
 CARDIAC ARRHYTHMIA & CONDUCTION DISORDERS W CC,4908.8461538,Standard
" ESOPHAGITIS, GASTROENT & MISC DIGEST DISORDERS W MCC",7738.714285699999,Standard
 CARDIAC ARRHYTHMIA & CONDUCTION DISORDERS W MCC,8648.6,Standard
 HEART FAILURE & SHOCK W CC,5997.551724100001,Standard
 DIABETES W CC,9111.2,Standard
" FX, SPRN, STRN & DISL EXCEPT FEMUR, HIP, PELVIS & THIGH W/O MCC",5122.0,Standard
 MEDICAL BACK PROBLEMS W/O MCC,5854.142857100001,Standard
 OTHER MUSCULOSKELET SYS & CONN TISS O.R. PROC W CC,11397.625,Standard
 HIP & FEMUR PROCEDURES EXCEPT MAJOR JOINT W CC,11990.25,Standard
 OTHER DIGESTIVE SYSTEM DIAGNOSES W CC,5945.25,Standard
" ""ACUTE MYOCARDIAL INFARCTION, DISCHARGED ALIVE W MCC""",9203.1666667,Standard
" ""CIRCULATORY DISORDERS EXCEPT AMI, W CARD CATH W MCC""",14150.363636000002,Standard
 KIDNEY & URINARY TRACT INFECTIONS W MCC,6721.6206897,Standard
 KIDNEY & URINARY TRACT INFECTIONS W/O MCC,5010.9016393,Standard
 HEART FAILURE & SHOCK W MCC,9018.4878049,Standard
" ""ESOPHAGITIS, GASTROENT & MISC DIGEST DISORDERS W/O MCC""",4996.5405405,Standard
 PULMONARY EDEMA & RESPIRATORY FAILURE,8457.6095238,Standard
 RENAL FAILURE W MCC,9308.192307700001,Standard
 RENAL FAILURE W CC,6096.0181818,Standard
" MISC DISORDERS OF NUTRITION,METABOLISM,FLUIDS/ELECTROLYTES W MCC",7310.8846154,Standard
 CHEST PAIN,5279.8421053,Standard
 SIGNS & SYMPTOMS W/O MCC,4941.1794872,Standard
 CARDIAC ARRHYTHMIA & CONDUCTION DISORDERS W/O CC/MCC,4530.0625,Standard
 ALCOHOL/DRUG ABUSE OR DEPENDENCE W/O REHABILITATION THERAPY W/O MCC,5059.1578947,Standard
 G.I. HEMORRHAGE W CC,6084.46875,Standard
 G.I. HEMORRHAGE W MCC,10180.736842,Standard
 MAJOR SMALL & LARGE BOWEL PROCEDURES W CC,20816.75,Standard
 SIGNS & SYMPTOMS W MCC,6952.2727273,Standard
 CHRONIC OBSTRUCTIVE PULMONARY DISEASE W CC,6009.9090909,Standard
 CHRONIC OBSTRUCTIVE PULMONARY DISEASE W/O CC/MCC,4893.4444444,Standard
 SIMPLE PNEUMONIA & PLEURISY W MCC,9249.659090899999,Standard
 SIMPLE PNEUMONIA & PLEURISY W CC,6374.260869600001,Standard
 CHRONIC OBSTRUCTIVE PULMONARY DISEASE W MCC,7883.4545455,Standard
 RESPIRATORY SYSTEM DIAGNOSIS W VENTILATOR SUPPORT <=96 HOURS,15056.333333,Standard
 OTHER KIDNEY & URINARY TRACT DIAGNOSES W MCC,10212.777778,Standard
 OTHER KIDNEY & URINARY TRACT DIAGNOSES W CC,6441.6923077,Standard
 RED BLOOD CELL DISORDERS W/O MCC,5573.1578947,Standard
 INFECTIOUS & PARASITIC DISEASES W O.R. PROCEDURE W MCC,35672.391304000004,Standard
 SEPTICEMIA OR SEVERE SEPSIS W/O MV >96 HOURS W MCC,12732.876712000001,Standard
 BRONCHITIS & ASTHMA W CC/MCC,6929.2727273,Standard
 SEPTICEMIA OR SEVERE SEPSIS W/O MV >96 HOURS W/O MCC,6959.948717899999,Standard
