Description,Charge,Category
 G.I. HEMORRHAGE W CC,6532.5652174,Standard
 G.I. HEMORRHAGE W MCC,9926.7222222,Standard
 G.I. OBSTRUCTION W/O CC/MCC,4277.5,Standard
" ""ESOPHAGITIS, GASTROENT & MISC DIGEST DISORDERS W/O MCC""",5225.2727273,Standard
 G.I. OBSTRUCTION W CC,5830.0769231,Standard
 LAPAROSCOPIC CHOLECYSTECTOMY W/O C.D.E. W CC,10565.5,Standard
Level 3 Endovascular Procedures,7999.773999999979,DRG
 DISORDERS OF PANCREAS EXCEPT MALIGNANCY W CC,6006.6111111,Standard
 CHEST PAIN,4837.25,Standard
 CARDIAC ARRHYTHMIA & CONDUCTION DISORDERS W/O CC/MCC,4031.1875,Standard
 CARDIAC ARRHYTHMIA & CONDUCTION DISORDERS W CC,5502.75,Standard
 CARDIAC ARRHYTHMIA & CONDUCTION DISORDERS W MCC,8460.2857143,Standard
 HEART FAILURE & SHOCK W/O CC/MCC,4806.2307692,Standard
 MAJOR SMALL & LARGE BOWEL PROCEDURES W CC,20089.454545,Standard
 MAJOR HIP AND KNEE JOINT REPLACEMENT OR REATTACHMENT OF LOWER EXTREM,19596.818182,Standard
 SEIZURES W MCC,10052.454545,Standard
 HIP & FEMUR PROCEDURES EXCEPT MAJOR JOINT W MCC,19571.307692,Standard
 HIP & FEMUR PROCEDURES EXCEPT MAJOR JOINT W CC,12971.615385,Standard
 HIP & FEMUR PROCEDURES EXCEPT MAJOR JOINT W/O CC/MCC,10472.692308,Standard
 RESPIRATORY INFECTIONS & INFLAMMATIONS W MCC,10536.135134999999,Standard
 OTHER RESP SYSTEM O.R. PROCEDURES W MCC,21239.363636000002,Standard
 HEART FAILURE & SHOCK W CC,6384.8823529,Standard
 INTRACRANIAL HEMORRHAGE OR CEREBRAL INFARCTION W/O CC/MCC,5031.363636399999,Standard
 INTRACRANIAL HEMORRHAGE OR CEREBRAL INFARCTION W CC OR TPA IN 24 HRS,6344.0357143,Standard
 INTRACRANIAL HEMORRHAGE OR CEREBRAL INFARCTION W MCC,10746.733333,Standard
 CELLULITIS W/O MCC,5805.0833333,Standard
" MISC DISORDERS OF NUTRITION,METABOLISM,FLUIDS/ELECTROLYTES W MCC",7706.16,Standard
" ""MISC DISORDERS OF NUTRITION,METABOLISM,FLUIDS/ELECTROLYTES W/O MCC""",4954.3333333,Standard
 RENAL FAILURE W MCC,11212.75,Standard
 RENAL FAILURE W CC,6198.771428600001,Standard
 MAJOR HIP AND KNEE JOINT REPLACEMENT OR REATTACHMENT OF LOWER EXTREM,12882.583333,Standard
Level 3 Pacemaker and Similar Procedures,7513.2782142857095,DRG
 HEART FAILURE & SHOCK W MCC,9144.6470588,Standard
" ""ACUTE MYOCARDIAL INFARCTION, DISCHARGED ALIVE W/O CC/MCC""",5578.4,Standard
Level 5 Urology and Related Services,2687.2755737704897,DRG
Level 4 Urology and Related Services,1967.84142857142,DRG
Level 3 Urology and Related Services,1233.7491379310302,DRG
Level 2 Laparoscopy and Related Services,5599.25615384615,DRG
Level 1 Laparoscopy and Related Services,3185.4478947368398,DRG
Abdominal/Peritoneal/Biliary and Related Procedures,2084.63621621621,DRG
Level 2 Upper GI Procedures,1014.44652173913,DRG
Level 2 ICD and Similar Procedures,24581.730769230697,DRG
" CIRCULATORY DISORDERS EXCEPT AMI, W CARD CATH W/O MCC",7714.6666667,Standard
Level 2 Excision/ Biopsy/ Incision and Drainage,976.267651515154,DRG
Level 2 Breast/Lymphatic Surgery and Related Procedures,3534.08666666666,DRG
Level 2 Musculoskeletal Procedures,953.460882352941,DRG
Level 3 Musculoskeletal Procedures,1883.62047619047,DRG
Level 4 Musculoskeletal Procedures,3918.3423333333294,DRG
Level 4 Airway Endoscopy,1810.34814814814,DRG
Level 5 Airway Endoscopy,3562.3925,DRG
Level 1 Endovascular Procedures,1754.10929648241,DRG
Level 2 Endovascular Procedures,3667.1620000000003,DRG
Level 3 Excision/ Biopsy/ Incision and Drainage,1615.8936,DRG
Level 5 Gynecologic Procedures,2892.792,DRG
Level 4 Gynecologic Procedures,1696.66181818181,DRG
Comprehensive Observation Services,1678.49,DRG
" ACUTE MYOCARDIAL INFARCTION, DISCHARGED ALIVE W CC",6577.6923077,Standard
" ""ACUTE MYOCARDIAL INFARCTION, DISCHARGED ALIVE W MCC""",10129.313433,Standard
 PERC CARDIOVASC PROC W DRUG,13124.075757999999,Standard
 PERCUTANEOUS CARDIOVASCULAR PROCEDURES W DRUG,19730.6,Standard
 RESPIRATORY SYSTEM DIAGNOSIS W VENTILATOR SUPPORT <=96 HOURS,15024.8,Standard
 SIMPLE PNEUMONIA & PLEURISY W CC,5992.6904761999995,Standard
 SIMPLE PNEUMONIA & PLEURISY W MCC,8640.9272727,Standard
Level 1 Nerve Procedures,1132.88928571428,DRG
 CHRONIC OBSTRUCTIVE PULMONARY DISEASE W MCC,7482.788461499999,Standard
 CHRONIC OBSTRUCTIVE PULMONARY DISEASE W CC,6109.8260869999995,Standard
 RENAL FAILURE W/O CC/MCC,4364.9444444,Standard
 KIDNEY & URINARY TRACT INFECTIONS W MCC,6919.086956499999,Standard
 RESPIRATORY INFECTIONS & INFLAMMATIONS W CC,9871.642857100001,Standard
 OTHER KIDNEY & URINARY TRACT DIAGNOSES W MCC,8952.192307700001,Standard
 RED BLOOD CELL DISORDERS W/O MCC,5876.2727273,Standard
 INFECTIOUS & PARASITIC DISEASES W O.R. PROCEDURE W MCC,26353.852941,Standard
 SEPTICEMIA OR SEVERE SEPSIS W/O MV >96 HOURS W MCC,11177.178218000001,Standard
 SEPTICEMIA OR SEVERE SEPSIS W/O MV >96 HOURS W/O MCC,6795.9777778,Standard
 SIGNS & SYMPTOMS W/O MCC,4744.7272727,Standard
 PULMONARY EDEMA & RESPIRATORY FAILURE,8104.7801418,Standard
 KIDNEY & URINARY TRACT INFECTIONS W/O MCC,5427.4,Standard
