Description,Charge,Category
 PULMONARY EDEMA & RESPIRATORY FAILURE,8582.1153846,Standard
Comprehensive Observation Services,1578.2509589041101,DRG
 CHRONIC OBSTRUCTIVE PULMONARY DISEASE W MCC,8025.142857100001,Standard
 CHRONIC OBSTRUCTIVE PULMONARY DISEASE W CC,6627.277777800001,Standard
 SEPTICEMIA OR SEVERE SEPSIS W/O MV >96 HOURS W MCC,12781.6,Standard
 SIMPLE PNEUMONIA & PLEURISY W MCC,9591.090909100001,Standard
 HEART FAILURE & SHOCK W MCC,9992.8,Standard
