Description,Charge,Category
 CHRONIC OBSTRUCTIVE PULMONARY DISEASE W CC,5818.9,Standard
 CHRONIC OBSTRUCTIVE PULMONARY DISEASE W MCC,7219.1470588,Standard
 PULMONARY EDEMA & RESPIRATORY FAILURE,7957.631578899999,Standard
 SIMPLE PNEUMONIA & PLEURISY W MCC,8696.75,Standard
 PLEURAL EFFUSION W MCC,10882.428570999999,Standard
 SIMPLE PNEUMONIA & PLEURISY W CC,5930.4150943,Standard
 SIMPLE PNEUMONIA & PLEURISY W/O CC/MCC,4573.4285714,Standard
 INTERSTITIAL LUNG DISEASE W MCC,11118.727273,Standard
 BRONCHITIS & ASTHMA W CC/MCC,6727.3703704,Standard
 BRONCHITIS & ASTHMA W/O CC/MCC,4608.5,Standard
 RESPIRATORY SYSTEM DIAGNOSIS W VENTILATOR SUPPORT <=96 HOURS,17033.780488,Standard
 CARDIAC VALVE & OTH MAJ CARDIOTHORACIC PROC W/O CARD CATH W CC,39205.777777999996,Standard
 MAJOR SMALL & LARGE BOWEL PROCEDURES W CC,15813.642856999999,Standard
 MAJOR SMALL & LARGE BOWEL PROCEDURES W MCC,45330.153846,Standard
 MAJOR SMALL & LARGE BOWEL PROCEDURES W/O CC/MCC,11586.730769,Standard
 RESPIRATORY NEOPLASMS W MCC,11807.85,Standard
 SEIZURES W/O MCC,5921.260869600001,Standard
 RESPIRATORY INFECTIONS & INFLAMMATIONS W MCC,11503.059524,Standard
 DIGESTIVE MALIGNANCY W MCC,13929.384615,Standard
 MAJOR GASTROINTESTINAL DISORDERS & PERITONEAL INFECTIONS W CC,7138.05,Standard
 OTHER DIGESTIVE SYSTEM O.R. PROCEDURES W MCC,22504.454545,Standard
Level 2 Upper GI Procedures,1025.58857142856,DRG
Level 2 ICD and Similar Procedures,27209.109999999902,DRG
Level 1 ICD and Similar Procedures,17467.0925,DRG
Level 3 Pacemaker and Similar Procedures,7666.65,DRG
Level 3 Electrophysiologic Procedures,14817.7505882352,DRG
Level 4 Endovascular Procedures,13444.79,DRG
Level 3 Endovascular Procedures,8110.726604938291,DRG
Level 2 Endovascular Procedures,3747.44,DRG
Level 1 Endovascular Procedures,1758.41005025125,DRG
Level 5 ENT Procedures,3197.51,DRG
Level 5 Airway Endoscopy,3584.69,DRG
 PERITONEAL ADHESIOLYSIS W CC,14216.375,Standard
" STOMACH, ESOPHAGEAL & DUODENAL PROC W/O CC/MCC",9634.3529412,Standard
 DYSEQUILIBRIUM,4496.1052632,Standard
 MAJOR CHEST PROCEDURES W CC,16788.416666999998,Standard
 OTHER RESP SYSTEM O.R. PROCEDURES W MCC,26877.588235000003,Standard
 PULMONARY EMBOLISM W MCC,9156.35,Standard
 PULMONARY EMBOLISM W/O MCC,6665.3333333,Standard
 RESPIRATORY INFECTIONS & INFLAMMATIONS W CC,8070.8333333,Standard
Level 4 Airway Endoscopy,1899.09318181818,DRG
 CARDIAC ARRHYTHMIA & CONDUCTION DISORDERS W CC,5600.6617647,Standard
" STOMACH, ESOPHAGEAL & DUODENAL PROC W MCC",30226.866667000002,Standard
Level 2 Breast/Lymphatic Surgery and Related Procedures,3444.85085714286,DRG
 CORONARY BYPASS W/O CARDIAC CATH W/O MCC,28357.526316000003,Standard
 PERMANENT CARDIAC PACEMAKER IMPLANT W MCC,24446.153846,Standard
 PERMANENT CARDIAC PACEMAKER IMPLANT W CC,15104.833333,Standard
 PERMANENT CARDIAC PACEMAKER IMPLANT W/O CC/MCC,12612.727273,Standard
 DIGESTIVE MALIGNANCY W CC,9224.8235294,Standard
Level 1 Breast/Lymphatic Surgery and Related Procedures,2010.30999999999,DRG
Level 3 Excision/ Biopsy/ Incision and Drainage,1713.33,DRG
Level 2 Excision/ Biopsy/ Incision and Drainage,986.1445357142909,DRG
Level 2 Musculoskeletal Procedures,979.958455882355,DRG
 OTHER MAJOR CARDIOVASCULAR PROCEDURES W/O CC/MCC,14733.692308000002,Standard
 OTHER MAJOR CARDIOVASCULAR PROCEDURES W MCC,30804.764706,Standard
 AORTIC AND HEART ASSIST PROCEDURES EXCEPT PULSATION BALLOON W/O MCC,32857.388889,Standard
 ENDOVASCULAR CARDIAC VALVE REPLACEMENT W MCC,48887.620689999996,Standard
 OTHER CIRCULATORY SYSTEM O.R. PROCEDURES,18817.083333000002,Standard
 OTHER VASCULAR PROCEDURES W/O CC/MCC,11543.0,Standard
 OTHER VASCULAR PROCEDURES W CC,16457.153846,Standard
 PERCUTANEOUS CARDIOVASCULAR PROCEDURES W DRUG,20683.553846000003,Standard
 PERC CARDIOVASC PROC W DRUG,14166.8,Standard
 OTHER VASCULAR PROCEDURES W MCC,25517.448276,Standard
 OTHER MAJOR CARDIOVASCULAR PROCEDURES W CC,19887.176471000002,Standard
Level 3 Musculoskeletal Procedures,1910.0356783919601,DRG
Level 4 Musculoskeletal Procedures,4047.4888965517,DRG
 CORONARY BYPASS W CARDIAC CATH W/O MCC,42190.692308,Standard
 OTHER CIRCULATORY SYSTEM DIAGNOSES W CC,6077.363636399999,Standard
 OTHER CIRCULATORY SYSTEM DIAGNOSES W MCC,16256.361111000002,Standard
 CHEST PAIN,4495.9642857,Standard
 SYNCOPE & COLLAPSE,5440.95,Standard
 CARDIAC ARRHYTHMIA & CONDUCTION DISORDERS W/O CC/MCC,4188.6966292,Standard
 CARDIAC ARRHYTHMIA & CONDUCTION DISORDERS W MCC,8192.4807692,Standard
 HYPERTENSION W/O MCC,5107.8235294,Standard
 PERIPHERAL VASCULAR DISORDERS W/O CC/MCC,7318.2307692,Standard
 PERIPHERAL VASCULAR DISORDERS W CC,6310.2857143,Standard
 PERIPHERAL VASCULAR DISORDERS W MCC,8578.8125,Standard
 HEART FAILURE & SHOCK W/O CC/MCC,4486.5,Standard
 HEART FAILURE & SHOCK W CC,6153.7741935,Standard
 HEART FAILURE & SHOCK W MCC,9184.8214286,Standard
" CIRCULATORY DISORDERS EXCEPT AMI, W CARD CATH W/O MCC",7716.6666667,Standard
" ""CIRCULATORY DISORDERS EXCEPT AMI, W CARD CATH W MCC""",16780.842105,Standard
" ""ACUTE MYOCARDIAL INFARCTION, DISCHARGED ALIVE W/O CC/MCC""",5340.913043500001,Standard
" ACUTE MYOCARDIAL INFARCTION, DISCHARGED ALIVE W CC",6708.277777800001,Standard
" ""ACUTE MYOCARDIAL INFARCTION, DISCHARGED ALIVE W MCC""",10387.962264,Standard
 PERCUTANEOUS INTRACARDIAC PROCEDURES W/O MCC,16209.166667,Standard
Level 3 Airway Endoscopy,975.509999999999,DRG
Level 5 Musculoskeletal Procedures,7601.1566666666695,DRG
" ""STOMACH, ESOPHAGEAL & DUODENAL PROC W CC""",14848.133333000002,Standard
 G.I. HEMORRHAGE W MCC,10553.133333,Standard
 SEIZURES W MCC,12358.129031999999,Standard
 G.I. HEMORRHAGE W/O CC/MCC,4584.1818182,Standard
 KIDNEY & URETER PROCEDURES FOR NON,12801.75,Standard
 KIDNEY & URETER PROCEDURES FOR NEOPLASM W/O CC/MCC,13931.272727000001,Standard
 KIDNEY & URETER PROCEDURES FOR NEOPLASM W CC,11871.090909,Standard
 KIDNEY TRANSPLANT,40614.736842,Standard
 ENDOCRINE DISORDERS W CC,6219.2142857,Standard
 ENDOCRINE DISORDERS W MCC,9619.4545455,Standard
" ""MISC DISORDERS OF NUTRITION,METABOLISM,FLUIDS/ELECTROLYTES W/O MCC""",5035.1666667,Standard
" MISC DISORDERS OF NUTRITION,METABOLISM,FLUIDS/ELECTROLYTES W MCC",7161.6111111,Standard
 DIABETES W CC,6761.1470588,Standard
 DIABETES W MCC,8673.0689655,Standard
 O.R. PROCEDURES FOR OBESITY W/O CC/MCC,12459.5,Standard
" ""TRAUMA TO THE SKIN, SUBCUT TISS & BREAST W/O MCC""",5364.0,Standard
 CELLULITIS W/O MCC,6385.4328358,Standard
 CELLULITIS W MCC,8775.8333333,Standard
" OTHER SKIN, SUBCUT TISS & BREAST PROC W CC",11646.9375,Standard
 OTHER MUSCULOSKELETAL SYS & CONNECTIVE TISSUE DIAGNOSES W CC,6083.733333300001,Standard
" FX, SPRN, STRN & DISL EXCEPT FEMUR, HIP, PELVIS & THIGH W/O MCC",5249.40625,Standard
 SIGNS & SYMPTOMS OF MUSCULOSKELETAL SYSTEM & CONN TISSUE W/O MCC,5057.0,Standard
 BONE DISEASES & ARTHROPATHIES W/O MCC,6115.7142857,Standard
 KIDNEY & URETER PROCEDURES FOR NON,8685.190476200001,Standard
 MEDICAL BACK PROBLEMS W/O MCC,5988.9107143,Standard
 RENAL FAILURE W MCC,9706.3137255,Standard
 KIDNEY & URINARY TRACT INFECTIONS W MCC,6941.087719300001,Standard
 POISONING & TOXIC EFFECTS OF DRUGS W/O MCC,4586.9090909,Standard
 POISONING & TOXIC EFFECTS OF DRUGS W MCC,8565.2352941,Standard
 PSYCHOSES,7565.3529412,Standard
 ORGANIC DISTURBANCES & INTELLECTUAL DISABILITY,7560.5,Standard
 SEPTICEMIA OR SEVERE SEPSIS W/O MV >96 HOURS W/O MCC,7565.6494845,Standard
 SEPTICEMIA OR SEVERE SEPSIS W/O MV >96 HOURS W MCC,12005.221945000001,Standard
 SEPTICEMIA OR SEVERE SEPSIS W MV >96 HOURS OR PERIPHERAL EXTRACORPOR,57425.909090999994,Standard
 INFECTIOUS & PARASITIC DISEASES W O.R. PROCEDURE W CC,16465.866667,Standard
 INFECTIOUS & PARASITIC DISEASES W O.R. PROCEDURE W MCC,33996.457626999996,Standard
 LYMPHOMA & NON,20746.090909,Standard
 RED BLOOD CELL DISORDERS W/O MCC,5629.125,Standard
 RED BLOOD CELL DISORDERS W MCC,8244.846153800001,Standard
 UTERINE & ADNEXA PROC FOR NON,6646.8125,Standard
 UTERINE & ADNEXA PROC FOR NON,11277.142856999999,Standard
 MAJOR MALE PELVIC PROCEDURES W/O CC/MCC,10387.475,Standard
 MAJOR MALE PELVIC PROCEDURES W CC/MCC,14029.866666999998,Standard
 OTHER KIDNEY & URINARY TRACT DIAGNOSES W CC,7595.0833333,Standard
 OTHER KIDNEY & URINARY TRACT DIAGNOSES W MCC,13609.09,Standard
 KIDNEY & URINARY TRACT INFECTIONS W/O MCC,5253.4057971,Standard
 RENAL FAILURE W CC,5986.9369369,Standard
 G.I. HEMORRHAGE W CC,6272.21,Standard
 MEDICAL BACK PROBLEMS W MCC,10603.25,Standard
 OTHER MUSCULOSKELET SYS & CONN TISS O.R. PROC W/O CC/MCC,9443.5,Standard
" ""ESOPHAGITIS, GASTROENT & MISC DIGEST DISORDERS W/O MCC""",5388.74,Standard
" ESOPHAGITIS, GASTROENT & MISC DIGEST DISORDERS W MCC",7688.8235294,Standard
 G.I. OBSTRUCTION W/O CC/MCC,4933.5625,Standard
 OTHER DISORDERS OF NERVOUS SYSTEM W MCC,9330.0,Standard
Comprehensive Observation Services,1675.9391463414402,DRG
Level 1 Nerve Procedures,1186.88,DRG
Level 6 Gynecologic Procedures,4496.97999999999,DRG
Level 5 Gynecologic Procedures,2693.3537777777697,DRG
Level 4 Gynecologic Procedures,1645.2309708737803,DRG
Level 6 Urology and Related Services,5684.46999999999,DRG
Level 5 Urology and Related Services,2691.42524271845,DRG
Level 4 Urology and Related Services,1946.47663461538,DRG
Level 3 Urology and Related Services,1227.33482142856,DRG
Level 2 Laparoscopy and Related Services,5623.871578947371,DRG
Level 1 Laparoscopy and Related Services,3240.80593908628,DRG
Abdominal/Peritoneal/Biliary and Related Procedures,2088.0305128205105,DRG
Level 3 Lower GI Procedures,1670.96791666666,DRG
Level 3 Upper GI Procedures,1838.0,DRG
 G.I. OBSTRUCTION W CC,5702.9411765,Standard
 OTHER DIGESTIVE SYSTEM DIAGNOSES W MCC,11137.095238,Standard
 FRACTURES OF HIP & PELVIS W/O MCC,4431.8333333,Standard
 OTHER DIGESTIVE SYSTEM DIAGNOSES W CC,6298.2075472,Standard
 LAPAROSCOPIC CHOLECYSTECTOMY W/O C.D.E. W MCC,15122.727272999999,Standard
 OTHER MUSCULOSKELET SYS & CONN TISS O.R. PROC W CC,12968.130435,Standard
" ""LOWER EXTREM & HUMER PROC EXCEPT HIP,FOOT,FEMUR W/O CC/MCC""",10528.857143000001,Standard
 MAJOR JOINT/LIMB REATTACHMENT PROCEDURE OF UPPER EXTREMITIES,15465.260869999998,Standard
 HIP & FEMUR PROCEDURES EXCEPT MAJOR JOINT W/O CC/MCC,11686.307692,Standard
 HIP & FEMUR PROCEDURES EXCEPT MAJOR JOINT W CC,12204.5,Standard
 HIP & FEMUR PROCEDURES EXCEPT MAJOR JOINT W MCC,17408.45,Standard
 BIOPSIES OF MUSCULOSKELETAL SYSTEM & CONNECTIVE TISSUE W CC,13099.5625,Standard
 MAJOR HIP AND KNEE JOINT REPLACEMENT OR REATTACHMENT OF LOWER EXTREM,13800.148681,Standard
 MAJOR HIP AND KNEE JOINT REPLACEMENT OR REATTACHMENT OF LOWER EXTREM,18293.0,Standard
 REVISION OF HIP OR KNEE REPLACEMENT W/O CC/MCC,20232.259259,Standard
 SPINAL FUSION EXCEPT CERVICAL W/O MCC,29901.725,Standard
 DISORDERS OF THE BILIARY TRACT W CC,6637.75,Standard
" DISORDERS OF LIVER EXCEPT MALIG,CIRR,ALC HEPA W CC",6869.1666667,Standard
" ""DISORDERS OF LIVER EXCEPT MALIG,CIRR,ALC HEPA W MCC""",11505.176470999999,Standard
 DISORDERS OF PANCREAS EXCEPT MALIGNANCY W CC,5634.75,Standard
 MALIGNANCY OF HEPATOBILIARY SYSTEM OR PANCREAS W MCC,11729.181818000001,Standard
 CIRRHOSIS & ALCOHOLIC HEPATITIS W MCC,12527.625,Standard
 LAPAROSCOPIC CHOLECYSTECTOMY W/O C.D.E. W/O CC/MCC,8403.7666667,Standard
 LAPAROSCOPIC CHOLECYSTECTOMY W/O C.D.E. W CC,10626.884615,Standard
 OTHER DIGESTIVE SYSTEM DIAGNOSES W/O CC/MCC,4385.1818182,Standard
" TRAUMATIC STUPOR & COMA, COMA <1 HR W/O CC/MCC",5127.4705882,Standard
 SIGNS & SYMPTOMS W/O MCC,5030.6,Standard
 EXTRACRANIAL PROCEDURES W CC,9586.909090899999,Standard
" TRACH W MV >96 HRS OR PDX EXC FACE, MOUTH & NECK W/O MAJ O.R.",79233.461538,Standard
 CRANIOTOMY & ENDOVASCULAR INTRACRANIAL PROCEDURES W MCC,27189.263157999998,Standard
 EXTRACRANIAL PROCEDURES W/O CC/MCC,7541.655172399999,Standard
 NERVOUS SYSTEM NEOPLASMS W MCC,7813.4,Standard
 DEGENERATIVE NERVOUS SYSTEM DISORDERS W/O MCC,6660.7058824,Standard
" ""ISCHEMIC STROKE, PRECEREBRAL OCCLUSION OR TRANSIENT ISCHEMIA W THRO",11499.666667,Standard
 INTRACRANIAL HEMORRHAGE OR CEREBRAL INFARCTION W MCC,10397.675325,Standard
 INTRACRANIAL HEMORRHAGE OR CEREBRAL INFARCTION W/O CC/MCC,4793.0,Standard
 INTRACRANIAL HEMORRHAGE OR CEREBRAL INFARCTION W CC OR TPA IN 24 HRS,6789.3125,Standard
 NONSPECIFIC CEREBROVASCULAR DISORDERS W CC,6156.266666699999,Standard
" ""TRAUMATIC STUPOR & COMA, COMA <1 HR W CC""",9662.9310345,Standard
 EXTENSIVE O.R. PROCEDURE UNRELATED TO PRINCIPAL DIAGNOSIS W MCC,28393.25,Standard
 TRANSIENT ISCHEMIA W/O THROMBOLYTIC,4791.22,Standard
