Description,Charge,Category
 KIDNEY & URINARY TRACT INFECTIONS W/O MCC,7130.179487199999,Standard
 OTHER CIRCULATORY SYSTEM DIAGNOSES W MCC,16831.875,Standard
 CHEST PAIN,6123.451612899999,Standard
 SYNCOPE & COLLAPSE,7474.9491525,Standard
 CARDIAC ARRHYTHMIA & CONDUCTION DISORDERS W/O CC/MCC,5954.125,Standard
 RENAL FAILURE W MCC,12503.955224,Standard
 CARDIAC ARRHYTHMIA & CONDUCTION DISORDERS W CC,7220.849206300001,Standard
 UTERINE & ADNEXA PROC FOR NON,9577.214285700002,Standard
 UTERINE & ADNEXA PROC FOR NON,16392.636363999998,Standard
" ""UTERINE,ADNEXA PROC FOR NON",9814.28125,Standard
" UTERINE,ADNEXA PROC FOR NON",13491.733333000002,Standard
" VAGINA, CERVIX & VULVA PROCEDURES W CC/MCC",17811.454545,Standard
 KIDNEY & URINARY TRACT INFECTIONS W MCC,9173.380952399999,Standard
 UTERINE & ADNEXA PROC FOR OVARIAN OR ADNEXAL MALIGNANCY W CC,16721.73913,Standard
 MAJOR MALE PELVIC PROCEDURES W/O CC/MCC,11091.444444,Standard
 OTHER KIDNEY & URINARY TRACT DIAGNOSES W/O CC/MCC,7463.857142899999,Standard
 OTHER KIDNEY & URINARY TRACT DIAGNOSES W CC,9158.8214286,Standard
 OTHER KIDNEY & URINARY TRACT DIAGNOSES W MCC,13608.536363999998,Standard
 RENAL FAILURE W CC,8542.7941176,Standard
" ""VAGINA, CERVIX & VULVA PROCEDURES W/O CC/MCC""",7558.444444399999,Standard
 RED BLOOD CELL DISORDERS W/O MCC,8013.6666667,Standard
 RED BLOOD CELL DISORDERS W MCC,11285.8,Standard
 POSTOPERATIVE & POST,14242.615385,Standard
 POSTOPERATIVE & POST,8684.35,Standard
 SEPTICEMIA OR SEVERE SEPSIS W MV >96 HOURS OR PERIPHERAL EXTRACORPOR,51982.774194,Standard
 SEPTICEMIA OR SEVERE SEPSIS W/O MV >96 HOURS W MCC,15829.474619,Standard
 SEPTICEMIA OR SEVERE SEPSIS W/O MV >96 HOURS W/O MCC,9309.2,Standard
 ORGANIC DISTURBANCES & INTELLECTUAL DISABILITY,8993.35,Standard
 POSTOPERATIVE OR POST,38483.481481,Standard
 INFECTIOUS & PARASITIC DISEASES W O.R. PROCEDURE W CC,21058.6,Standard
 MAJOR HEMATOL/IMMUN DIAG EXC SICKLE CELL CRISIS & COAGUL W CC,11128.409091,Standard
 INFECTIOUS & PARASITIC DISEASES W O.R. PROCEDURE W MCC,45690.061947,Standard
 OTHER KIDNEY & URINARY TRACT PROCEDURES W CC,18466.454545,Standard
 LYMPHOMA & NON,28300.416667,Standard
 CHEMO W ACUTE LEUKEMIA AS SDX OR W HIGH DOSE CHEMO AGENT W MCC,48949.727273000004,Standard
 ACUTE LEUKEMIA W/O MAJOR O.R. PROCEDURE W MCC,51773.4375,Standard
 COAGULATION DISORDERS,16360.304348,Standard
 POSTOPERATIVE OR POST,17520.46875,Standard
 INTRACRANIAL HEMORRHAGE OR CEREBRAL INFARCTION W MCC,15395.467857,Standard
 INTRACRANIAL HEMORRHAGE OR CEREBRAL INFARCTION W CC OR TPA IN 24 HRS,9046.278350499999,Standard
 LYMPHOMA & NON,14447.636363999998,Standard
Level 1 Nerve Procedures,1249.9239130434698,DRG
 DIABETES W MCC,11423.821429000001,Standard
 KIDNEY & URETER PROCEDURES FOR NON,15133.0,Standard
 BACK & NECK PROC EXC SPINAL FUSION W CC,14461.636363999998,Standard
Level 3 Neurostimulator and Related Procedures,16903.25,DRG
Level 4 Neurostimulator and Related Procedures,26347.12,DRG
Level 1 Intraocular Procedures,1482.8391327433499,DRG
Level 2 Intraocular Procedures,2765.3972413793103,DRG
"Level 3 Extraocular, Repair, and Plastic Eye Procedures",1436.6584,DRG
Level 7 Radiation Therapy,6189.7,DRG
 TRANSIENT ISCHEMIA W/O THROMBOLYTIC,6937.3421053,Standard
 FRACTURES OF HIP & PELVIS W MCC,10049.5,Standard
 NONSPECIFIC CEREBROVASCULAR DISORDERS W MCC,13681.257143,Standard
 NONSPECIFIC CEREBROVASCULAR DISORDERS W CC,8692.2083333,Standard
 CRANIAL & PERIPHERAL NERVE DISORDERS W/O MCC,9138.9333333,Standard
" ""TRAUMATIC STUPOR & COMA, COMA >1 HR W MCC""",17037.794118,Standard
 CORONARY BYPASS W/O CARDIAC CATH W MCC,43120.645161,Standard
 CORONARY BYPASS W/O CARDIAC CATH W/O MCC,31256.010989,Standard
 AMPUTATION FOR CIRC SYS DISORDERS EXC UPPER LIMB & TOE W CC,21764.538462,Standard
 PERMANENT CARDIAC PACEMAKER IMPLANT W MCC,29305.115385,Standard
" TRAUMATIC STUPOR & COMA, COMA >1 HR W CC",10603.95,Standard
Comprehensive Observation Services,1808.6349173194,DRG
 FRACTURES OF HIP & PELVIS W/O MCC,6824.5,Standard
 PATHOLOGICAL FRACTURES & MUSCULOSKELET & CONN TISS MALIG W MCC,15455.5,Standard
 PATHOLOGICAL FRACTURES & MUSCULOSKELET & CONN TISS MALIG W CC,9576.0,Standard
 KIDNEY & URETER PROCEDURES FOR NON,26879.0,Standard
 KIDNEY & URETER PROCEDURES FOR NEOPLASM W/O CC/MCC,13827.0,Standard
 KIDNEY & URETER PROCEDURES FOR NEOPLASM W CC,16364.052631999999,Standard
 KIDNEY & URETER PROCEDURES FOR NEOPLASM W MCC,31112.909091,Standard
 KIDNEY TRANSPLANT,28986.075758,Standard
 ENDOCRINE DISORDERS W CC,8475.88,Standard
 INTRACRANIAL HEMORRHAGE OR CEREBRAL INFARCTION W/O CC/MCC,6881.655737700001,Standard
 ENDOCRINE DISORDERS W MCC,13661.461538,Standard
" ""MISC DISORDERS OF NUTRITION,METABOLISM,FLUIDS/ELECTROLYTES W/O MCC""",7194.7361111,Standard
" MISC DISORDERS OF NUTRITION,METABOLISM,FLUIDS/ELECTROLYTES W MCC",10479.847059,Standard
 DIABETES W CC,7618.0652174,Standard
 ALCOHOL/DRUG ABUSE OR DEPENDENCE W/O REHABILITATION THERAPY W/O MCC,7110.3846154,Standard
" ""AMPUTAT OF LOWER LIMB FOR ENDOCRINE,NUTRIT,& METABOL DIS W CC""",18551.0,Standard
 CELLULITIS W/O MCC,7954.074626899999,Standard
 CELLULITIS W MCC,12454.578947,Standard
 BONE DISEASES & ARTHROPATHIES W/O MCC,6643.4444444,Standard
 MEDICAL BACK PROBLEMS W/O MCC,7954.706896600001,Standard
 MEDICAL BACK PROBLEMS W MCC,13065.7,Standard
 CONNECTIVE TISSUE DISORDERS W MCC,24398.0,Standard
 OTHER KIDNEY & URINARY TRACT PROCEDURES W MCC,32722.4375,Standard
 OTHER O.R. PROCEDURES FOR INJURIES W MCC,31186.777777999996,Standard
Level 5 Urology and Related Services,2835.8107462686303,DRG
 POISONING & TOXIC EFFECTS OF DRUGS W MCC,14141.045455000001,Standard
Level 2 Upper GI Procedures,1100.34193693693,DRG
 CARDIAC VALVE & OTH MAJ CARDIOTHORACIC PROC W/O CARD CATH W/O CC/MCC,36852.214286,Standard
Level 3 Upper GI Procedures,2075.36123076922,DRG
Level 3 Lower GI Procedures,1788.82268292682,DRG
Complex GI Procedures,3130.1962162162104,DRG
 CARDIAC VALVE & OTH MAJ CARDIOTHORACIC PROC W/O CARD CATH W CC,43021.922077999996,Standard
 CARDIAC VALVE & OTH MAJ CARDIOTHORACIC PROC W/O CARD CATH W MCC,75786.040541,Standard
 CARDIAC VALVE & OTH MAJ CARDIOTHORACIC PROC W CARD CATH W MCC,89281.04347799999,Standard
Level 2 ICD and Similar Procedures,27290.7228571428,DRG
 OTHER HEART ASSIST SYSTEM IMPLANT,94653.964286,Standard
 RESPIRATORY SYSTEM DIAGNOSIS W VENTILATOR SUPPORT >96 HOURS,48594.411765,Standard
 OTHER RESPIRATORY SYSTEM DIAGNOSES W/O MCC,7775.4545455,Standard
 OTHER RESPIRATORY SYSTEM DIAGNOSES W MCC,16251.545455000001,Standard
 BRONCHITIS & ASTHMA W/O CC/MCC,6936.285714300001,Standard
 BRONCHITIS & ASTHMA W CC/MCC,8449.630434800001,Standard
 PNEUMOTHORAX W CC,10017.363636,Standard
 PNEUMOTHORAX W MCC,15345.428571,Standard
 CARDIAC DEFIBRILLATOR IMPLANT W/O CARDIAC CATH W MCC,60143.25,Standard
 RESPIRATORY SYSTEM DIAGNOSIS W VENTILATOR SUPPORT <=96 HOURS,19665.289855000003,Standard
Level 1 ICD and Similar Procedures,19570.083,DRG
Level 4 Pacemaker and Similar Procedures,16126.4,DRG
Level 3 Pacemaker and Similar Procedures,8166.862611940301,DRG
Level 4 Airway Endoscopy,1996.03846153846,DRG
Level 3 Airway Endoscopy,986.1130769230749,DRG
Level 5 Musculoskeletal Procedures,8443.50064285712,DRG
Level 4 Musculoskeletal Procedures,4242.4168879668105,DRG
Level 3 Musculoskeletal Procedures,2080.1980916030498,DRG
Level 2 Musculoskeletal Procedures,1020.4457364341099,DRG
Level 4 Breast/Lymphatic Surgery and Related Procedures,9564.971666666659,DRG
Level 3 Breast/Lymphatic Surgery and Related Procedures,5789.32629629629,DRG
Level 2 Breast/Lymphatic Surgery and Related Procedures,3772.63764705882,DRG
Level 1 Breast/Lymphatic Surgery and Related Procedures,2085.23179104477,DRG
Level 3 Excision/ Biopsy/ Incision and Drainage,1753.89961038961,DRG
Level 2 Excision/ Biopsy/ Incision and Drainage,1017.2223076922901,DRG
Level 5 ENT Procedures,3265.05957264957,DRG
Level 1 Endovascular Procedures,1881.1074170274399,DRG
Level 2 Endovascular Procedures,3944.8580916030396,DRG
Level 3 Endovascular Procedures,8994.665588972359,DRG
Level 4 Endovascular Procedures,14274.7693150684,DRG
Level 3 Electrophysiologic Procedures,16429.4492378047,DRG
Level 2 Pacemaker and Similar Procedures,5722.0084090908995,DRG
 INTERSTITIAL LUNG DISEASE W MCC,14218.56,Standard
 OTHER O.R. PROCEDURES FOR INJURIES W CC,17622.333333000002,Standard
 SIMPLE PNEUMONIA & PLEURISY W/O CC/MCC,7417.3333333,Standard
" ""ECMO OR TRACH W MV >96 HRS OR PDX EXC FACE, MOUTH & NECK W MAJ O.R.",188396.55737999998,Standard
" LIMB REATTACHMENT, HIP & FEMUR PROC FOR MULTIPLE SIGNIFICANT TRAUMA",36421.4375,Standard
 SIGNS & SYMPTOMS W/O MCC,6692.7307692,Standard
Abdominal/Peritoneal/Biliary and Related Procedures,2259.19363247862,DRG
Level 1 Laparoscopy and Related Services,3391.53596296297,DRG
Level 2 Laparoscopy and Related Services,6011.4349999999795,DRG
Level 3 Urology and Related Services,1305.70734463277,DRG
Level 4 Urology and Related Services,2099.76417177914,DRG
" ""TRAUMATIC STUPOR & COMA, COMA >1 HR W/O CC/MCC""",8215.5,Standard
 OTHER O.R. PROCEDURES FOR MULTIPLE SIGNIFICANT TRAUMA W MCC,55111.23076900001,Standard
Level 4 Gynecologic Procedures,1786.0446491228,DRG
 SIGNS & SYMPTOMS W MCC,9921.272727299998,Standard
 COMPLICATIONS OF TREATMENT W CC,9077.5,Standard
 DEGENERATIVE NERVOUS SYSTEM DISORDERS W MCC,19621.076923,Standard
 DEGENERATIVE NERVOUS SYSTEM DISORDERS W/O MCC,9092.296296299999,Standard
" ISCHEMIC STROKE, PRECEREBRAL OCCLUSION OR TRANSIENT ISCHEMIA W THROM",21276.8125,Standard
" ""ISCHEMIC STROKE, PRECEREBRAL OCCLUSION OR TRANSIENT ISCHEMIA W THRO",15084.375,Standard
 COMPLICATIONS OF TREATMENT W MCC,16601.833333000002,Standard
 POISONING & TOXIC EFFECTS OF DRUGS W/O MCC,7362.8181818,Standard
 NERVOUS SYSTEM NEOPLASMS W MCC,12133.923077,Standard
 OTHER MULTIPLE SIGNIFICANT TRAUMA W CC,12997.0,Standard
 EXTENSIVE O.R. PROCEDURE UNRELATED TO PRINCIPAL DIAGNOSIS W MCC,36591.404255,Standard
 EXTENSIVE O.R. PROCEDURE UNRELATED TO PRINCIPAL DIAGNOSIS W CC,77336.333333,Standard
" TRACH W MV >96 HRS OR PDX EXC FACE, MOUTH & NECK W/O MAJ O.R.",112074.90625,Standard
 INTRACRANIAL VASCULAR PROCEDURES W PDX HEMORRHAGE W MCC,110630.75,Standard
  CRANIOTOMY W MAJOR DEVICE IMPLANT OR ACUTE COMPLEX CNS PDX W MCC OR,43231.423729,Standard
 CRANIO W MAJOR DEV IMPL/ACUTE COMPLEX CNS PDX W/O MCC,28085.391304,Standard
 CRANIOTOMY & ENDOVASCULAR INTRACRANIAL PROCEDURES W MCC,34800.051471,Standard
Level 5 Gynecologic Procedures,3130.4977551020397,DRG
 CARDIAC DEFIBRILLATOR IMPLANT W/O CARDIAC CATH W/O MCC,42658.466667,Standard
 OTHER CARDIOTHORACIC PROCEDURES W MCC,55367.071428999996,Standard
 OTHER CARDIOTHORACIC PROCEDURES W/O MCC,33975.35,Standard
 CORONARY BYPASS W CARDIAC CATH W MCC,65227.416667,Standard
 CORONARY BYPASS W CARDIAC CATH W/O MCC,43968.5,Standard
 CRANIOTOMY & ENDOVASCULAR INTRACRANIAL PROCEDURES W CC,27679.8,Standard
 CRANIOTOMY & ENDOVASCULAR INTRACRANIAL PROCEDURES W/O CC/MCC,18002.4,Standard
 NON,14874.636363999998,Standard
 CAROTID ARTERY STENT PROCEDURE W/O CC/MCC,13916.714286000002,Standard
 EXTRACRANIAL PROCEDURES W CC,13655.764706,Standard
 EXTRACRANIAL PROCEDURES W/O CC/MCC,9282.3636364,Standard
 PERIPH/CRANIAL NERVE & OTHER NERV SYST PROC W CC OR PERIPH NEUROSTIM,17875.5,Standard
 NON,31172.230768999998,Standard
 HEART TRANSPLANT OR IMPLANT OF HEART ASSIST SYSTEM W MCC,186301.0,Standard
" TRAUMATIC STUPOR & COMA, COMA <1 HR W MCC",16286.388888999998,Standard
 AMPUTATION FOR CIRC SYS DISORDERS EXC UPPER LIMB & TOE W MCC,34268.25,Standard
" TRAUMATIC STUPOR & COMA, COMA <1 HR W/O CC/MCC",7177.09375,Standard
 HIP & FEMUR PROCEDURES EXCEPT MAJOR JOINT W CC,15807.680328,Standard
 HIP & FEMUR PROCEDURES EXCEPT MAJOR JOINT W MCC,24424.587302,Standard
 CERVICAL SPINAL FUSION W/O CC/MCC,18197.333333000002,Standard
 CERVICAL SPINAL FUSION W CC,23747.9,Standard
 CERVICAL SPINAL FUSION W MCC,42945.0,Standard
 PERIPHERAL VASCULAR DISORDERS W/O CC/MCC,6712.0769231,Standard
 HIP & FEMUR PROCEDURES EXCEPT MAJOR JOINT W/O CC/MCC,14023.909091,Standard
 PERIPHERAL VASCULAR DISORDERS W CC,8459.72,Standard
 HEART FAILURE & SHOCK W/O CC/MCC,6198.136363600001,Standard
 HEART FAILURE & SHOCK W CC,8787.2988506,Standard
 MAJOR HIP AND KNEE JOINT REPLACEMENT OR REATTACHMENT OF LOWER EXTREM,16351.326922999999,Standard
" ""TRAUMATIC STUPOR & COMA, COMA <1 HR W CC""",9834.851851899999,Standard
 MAJOR HIP AND KNEE JOINT REPLACEMENT OR REATTACHMENT OF LOWER EXTREM,25171.254545,Standard
 INFLAMMATORY BOWEL DISEASE W CC,8528.666666699999,Standard
 PERIPHERAL VASCULAR DISORDERS W MCC,12405.176470999999,Standard
 G.I. OBSTRUCTION W MCC,16387.47619,Standard
 MAJOR JOINT/LIMB REATTACHMENT PROCEDURE OF UPPER EXTREMITIES,19392.95,Standard
" LOWER EXTREM & HUMER PROC EXCEPT HIP,FOOT,FEMUR W CC",16821.296296,Standard
 G.I. HEMORRHAGE W MCC,14672.533981,Standard
 HYPERTENSION W/O MCC,6333.548387100001,Standard
 HYPERTENSION W MCC,9338.6666667,Standard
" ""LOWER EXTREM & HUMER PROC EXCEPT HIP,FOOT,FEMUR W/O CC/MCC""",15797.823529,Standard
 OTHER MUSCULOSKELET SYS & CONN TISS O.R. PROC W MCC,24214.266667,Standard
 OTHER MUSCULOSKELET SYS & CONN TISS O.R. PROC W CC,16632.068966,Standard
" ""LOWER EXTREM & HUMER PROC EXCEPT HIP,FOOT,FEMUR W MCC""",23291.277778,Standard
 OTHER MUSCULOSKELET SYS & CONN TISS O.R. PROC W/O CC/MCC,12465.842105,Standard
 MAJOR CHEST PROCEDURES W MCC,32104.315789,Standard
 MAJOR CHEST PROCEDURES W CC,19349.244444,Standard
 COMPLICATED PEPTIC ULCER W MCC,15242.769231,Standard
 MAJOR CHEST PROCEDURES W/O CC/MCC,14306.864407,Standard
 OTHER RESP SYSTEM O.R. PROCEDURES W MCC,32827.561905,Standard
 OTHER RESP SYSTEM O.R. PROCEDURES W CC,17168.827586000003,Standard
 G.I. HEMORRHAGE W CC,8546.537037,Standard
 DIGESTIVE MALIGNANCY W CC,10808.28,Standard
 REVISION OF HIP OR KNEE REPLACEMENT W/O CC/MCC,19032.090909,Standard
" WND DEBRID & SKN GRFT EXC HAND, FOR MUSCULO",27214.461538,Standard
 AORTIC AND HEART ASSIST PROCEDURES EXCEPT PULSATION BALLOON W MCC,58724.0,Standard
 AORTIC AND HEART ASSIST PROCEDURES EXCEPT PULSATION BALLOON W/O MCC,31150.722222000004,Standard
 OTHER MAJOR CARDIOVASCULAR PROCEDURES W MCC,41902.888889,Standard
 OTHER MAJOR CARDIOVASCULAR PROCEDURES W CC,25902.454545,Standard
 PERCUTANEOUS INTRACARDIAC PROCEDURES W MCC,28680.690476,Standard
 PERCUTANEOUS INTRACARDIAC PROCEDURES W/O MCC,20648.486111000002,Standard
 ENDOVASCULAR CARDIAC VALVE REPLACEMENT W/O MCC,47601.036145,Standard
Level 5 Airway Endoscopy,3634.95939759036,DRG
" CIRCULATORY DISORDERS EXCEPT AMI, W CARD CATH W/O MCC",10486.515152,Standard
" ""CIRCULATORY DISORDERS EXCEPT AMI, W CARD CATH W MCC""",19543.463235,Standard
" ACUTE MYOCARDIAL INFARCTION, EXPIRED W MCC",14992.157894999998,Standard
" ""ACUTE MYOCARDIAL INFARCTION, DISCHARGED ALIVE W/O CC/MCC""",6654.3333333,Standard
" ACUTE MYOCARDIAL INFARCTION, DISCHARGED ALIVE W CC",8527.434782600001,Standard
" ""ACUTE MYOCARDIAL INFARCTION, DISCHARGED ALIVE W MCC""",14592.463918000001,Standard
 HEART FAILURE & SHOCK W MCC,12995.612137,Standard
 REVISION OF HIP OR KNEE REPLACEMENT W CC,26194.75,Standard
 MAJOR CHEST TRAUMA W CC,9392.076923100001,Standard
 RESPIRATORY NEOPLASMS W CC,10927.357143000001,Standard
" ""WND DEBRID & SKN GRFT EXC HAND, FOR MUSCULO",34744.545455,Standard
 SPINAL FUSION EXCEPT CERVICAL W/O MCC,31013.286957,Standard
 COMBINED ANTERIOR/POSTERIOR SPINAL FUSION W/O CC/MCC,42352.533333,Standard
 COMBINED ANTERIOR/POSTERIOR SPINAL FUSION W CC,64990.458333,Standard
 COMBINED ANTERIOR/POSTERIOR SPINAL FUSION W MCC,79577.615385,Standard
 DISORDERS OF THE BILIARY TRACT W CC,8905.6666667,Standard
 MAJOR CHEST TRAUMA W MCC,12797.733333,Standard
 DISORDERS OF THE BILIARY TRACT W MCC,17809.35,Standard
 DISORDERS OF PANCREAS EXCEPT MALIGNANCY W CC,8859.2222222,Standard
 PULMONARY EMBOLISM W MCC,13249.276596,Standard
 PULMONARY EMBOLISM W/O MCC,8438.6578947,Standard
 RESPIRATORY INFECTIONS & INFLAMMATIONS W MCC,16190.256944,Standard
 RESPIRATORY INFECTIONS & INFLAMMATIONS W CC,10303.871795000001,Standard
 RESPIRATORY NEOPLASMS W MCC,17090.75,Standard
" ""DISORDERS OF LIVER EXCEPT MALIG,CIRR,ALC HEPA W MCC""",14575.058824000002,Standard
 DIGESTIVE MALIGNANCY W MCC,17188.352941,Standard
Level 4 ENT Procedures,1740.74916666666,DRG
 MAJOR GASTROINTESTINAL DISORDERS & PERITONEAL INFECTIONS W MCC,17385.8125,Standard
 OTHER DIGESTIVE SYSTEM DIAGNOSES W CC,9419.8541667,Standard
 CARDIAC ARRHYTHMIA & CONDUCTION DISORDERS W MCC,10518.154412,Standard
 PERITONEAL ADHESIOLYSIS W CC,19889.941176,Standard
 MAJOR SMALL & LARGE BOWEL PROCEDURES W CC,21908.573034,Standard
 CIRRHOSIS & ALCOHOLIC HEPATITIS W MCC,14077.636363999998,Standard
 MAJOR SMALL & LARGE BOWEL PROCEDURES W MCC,40614.5,Standard
" STOMACH, ESOPHAGEAL & DUODENAL PROC W/O CC/MCC",12901.15,Standard
" ""STOMACH, ESOPHAGEAL & DUODENAL PROC W CC""",18666.692308,Standard
 DISORDERS OF PANCREAS EXCEPT MALIGNANCY W MCC,14456.142856999999,Standard
" ""PANCREAS, LIVER & SHUNT PROCEDURES W MCC""",38848.363636,Standard
 OTHER DIGESTIVE SYSTEM DIAGNOSES W MCC,14784.515152000002,Standard
 LAPAROSCOPIC CHOLECYSTECTOMY W/O C.D.E. W/O CC/MCC,10419.857143000001,Standard
 SIMPLE PNEUMONIA & PLEURISY W MCC,11857.364865000001,Standard
 LAPAROSCOPIC CHOLECYSTECTOMY W/O C.D.E. W MCC,21059.75,Standard
 CHRONIC OBSTRUCTIVE PULMONARY DISEASE W CC,8948.766666700001,Standard
 MAJOR GASTROINTESTINAL DISORDERS & PERITONEAL INFECTIONS W CC,9335.625,Standard
 LAPAROSCOPIC CHOLECYSTECTOMY W/O C.D.E. W CC,15123.892856999999,Standard
" STOMACH, ESOPHAGEAL & DUODENAL PROC W MCC",35506.954545,Standard
 OTHER CIRCULATORY SYSTEM DIAGNOSES W CC,9625.92,Standard
 PLEURAL EFFUSION W MCC,12924.714286,Standard
 CHRONIC OBSTRUCTIVE PULMONARY DISEASE W MCC,12077.788731999999,Standard
 PULMONARY EDEMA & RESPIRATORY FAILURE,15191.068965999999,Standard
 SIMPLE PNEUMONIA & PLEURISY W CC,8410.6,Standard
" ""ESOPHAGITIS, GASTROENT & MISC DIGEST DISORDERS W/O MCC""",7252.854545499999,Standard
 MAJOR SMALL & LARGE BOWEL PROCEDURES W/O CC/MCC,14726.063830000001,Standard
 OTITIS MEDIA & URI W/O MCC,7105.8181818,Standard
 OTHER DIGESTIVE SYSTEM O.R. PROCEDURES W MCC,34132.722222000004,Standard
 ENDOVASCULAR CARDIAC VALVE REPLACEMENT W MCC,59041.588235,Standard
 OTHER CIRCULATORY SYSTEM O.R. PROCEDURES,28739.25,Standard
 CARDIAC PACEMAKER REVISION EXCEPT DEVICE REPLACEMENT W CC,15213.166667,Standard
 G.I. OBSTRUCTION W CC,8352.2954545,Standard
" ESOPHAGITIS, GASTROENT & MISC DIGEST DISORDERS W MCC",11411.490195999999,Standard
 OTHER DISORDERS OF NERVOUS SYSTEM W MCC,13510.0,Standard
 OTHER DISORDERS OF NERVOUS SYSTEM W CC,8757.8695652,Standard
 SEIZURES W MCC,14754.395833,Standard
 SEIZURES W/O MCC,7763.9365079,Standard
 MALIGNANCY OF HEPATOBILIARY SYSTEM OR PANCREAS W MCC,14191.259259,Standard
 G.I. OBSTRUCTION W/O CC/MCC,5847.45,Standard
 PERMANENT CARDIAC PACEMAKER IMPLANT W CC,19691.928571,Standard
 OTHER VASCULAR PROCEDURES W/O CC/MCC,16193.230769,Standard
 PERMANENT CARDIAC PACEMAKER IMPLANT W/O CC/MCC,17362.458333000002,Standard
 OTHER VASCULAR PROCEDURES W CC,20390.196721,Standard
 OTHER VASCULAR PROCEDURES W MCC,35751.877551,Standard
 PERCUTANEOUS CARDIOVASCULAR PROCEDURES W DRUG,26616.453608,Standard
 PERC CARDIOVASC PROC W DRUG,17401.857143,Standard
 HEADACHES W/O MCC,7963.142857100001,Standard
