Description,Charge,Category
 CELLULITIS W/O MCC,6259.4705882,Standard
 RENAL FAILURE W MCC,10644.459459,Standard
 RENAL FAILURE W CC,6804.4473684,Standard
" MISC DISORDERS OF NUTRITION,METABOLISM,FLUIDS/ELECTROLYTES W MCC",9062.285714299998,Standard
Level 1 Laparoscopy and Related Services,3093.71608108107,DRG
 KIDNEY & URINARY TRACT INFECTIONS W/O MCC,5741.1111111,Standard
 OTHER KIDNEY & URINARY TRACT DIAGNOSES W MCC,11046.307692,Standard
 RED BLOOD CELL DISORDERS W/O MCC,6821.0,Standard
 INFECTIOUS & PARASITIC DISEASES W O.R. PROCEDURE W MCC,35059.380952,Standard
 INFECTIOUS & PARASITIC DISEASES W O.R. PROCEDURE W CC,15335.571429,Standard
 SEPTICEMIA OR SEVERE SEPSIS W/O MV >96 HOURS W MCC,13409.449045000001,Standard
 SEPTICEMIA OR SEVERE SEPSIS W/O MV >96 HOURS W/O MCC,7950.597014899999,Standard
 ORGANIC DISTURBANCES & INTELLECTUAL DISABILITY,8626.785714299998,Standard
 MEDICAL BACK PROBLEMS W/O MCC,6881.533333300001,Standard
 KIDNEY & URINARY TRACT INFECTIONS W MCC,8307.875,Standard
 FRACTURES OF HIP & PELVIS W/O MCC,5883.636363600001,Standard
 MAJOR HIP AND KNEE JOINT REPLACEMENT OR REATTACHMENT OF LOWER EXTREM,15014.628205,Standard
Comprehensive Observation Services,1648.3477934272198,DRG
Level 5 Musculoskeletal Procedures,7462.3640625,DRG
Level 4 Musculoskeletal Procedures,3899.3965178571398,DRG
Level 3 Musculoskeletal Procedures,1851.53422680412,DRG
Level 2 Musculoskeletal Procedures,956.62,DRG
Level 2 Breast/Lymphatic Surgery and Related Procedures,3409.8999999999896,DRG
Level 1 Breast/Lymphatic Surgery and Related Procedures,1933.06,DRG
Level 3 Excision/ Biopsy/ Incision and Drainage,1544.521875,DRG
Level 2 Excision/ Biopsy/ Incision and Drainage,936.1249999999981,DRG
 HEART FAILURE & SHOCK W MCC,10349.253012000001,Standard
" ACUTE MYOCARDIAL INFARCTION, DISCHARGED ALIVE W CC",6406.0833333,Standard
" ""ACUTE MYOCARDIAL INFARCTION, DISCHARGED ALIVE W MCC""",10965.611111,Standard
 SIMPLE PNEUMONIA & PLEURISY W MCC,10157.333333,Standard
 PULMONARY EDEMA & RESPIRATORY FAILURE,9525.4222222,Standard
 RESPIRATORY INFECTIONS & INFLAMMATIONS W MCC,12974.363636,Standard
 SEIZURES W/O MCC,6189.5454545,Standard
 TRANSIENT ISCHEMIA W/O THROMBOLYTIC,5965.0,Standard
 INTRACRANIAL HEMORRHAGE OR CEREBRAL INFARCTION W CC OR TPA IN 24 HRS,7748.0,Standard
 INTRACRANIAL HEMORRHAGE OR CEREBRAL INFARCTION W MCC,11948.285714,Standard
 DEGENERATIVE NERVOUS SYSTEM DISORDERS W/O MCC,8263.1333333,Standard
Level 4 Airway Endoscopy,1854.20999999999,DRG
Level 5 Airway Endoscopy,3446.94999999999,DRG
Level 4 ENT Procedures,1558.34,DRG
Level 5 ENT Procedures,2951.664,DRG
Level 2 Intraocular Procedures,2556.81222222222,DRG
Level 1 Intraocular Procedures,1343.7565506329,DRG
Level 1 Nerve Procedures,1100.84073170731,DRG
Level 5 Urology and Related Services,2188.54166666666,DRG
 HIP & FEMUR PROCEDURES EXCEPT MAJOR JOINT W CC,14707.444444,Standard
 HIP & FEMUR PROCEDURES EXCEPT MAJOR JOINT W MCC,19473.090909,Standard
 OTHER DIGESTIVE SYSTEM DIAGNOSES W CC,7039.461538500001,Standard
 OTHER MUSCULOSKELET SYS & CONN TISS O.R. PROC W CC,13687.416667,Standard
 G.I. OBSTRUCTION W CC,6325.733333300001,Standard
" ""ESOPHAGITIS, GASTROENT & MISC DIGEST DISORDERS W/O MCC""",5854.3513514,Standard
 G.I. HEMORRHAGE W MCC,11295.384615,Standard
 SYNCOPE & COLLAPSE,6253.857142899999,Standard
 CARDIAC ARRHYTHMIA & CONDUCTION DISORDERS W/O CC/MCC,4536.0833333,Standard
 CARDIAC ARRHYTHMIA & CONDUCTION DISORDERS W CC,5997.6,Standard
 HEART FAILURE & SHOCK W CC,7276.9090909,Standard
Abdominal/Peritoneal/Biliary and Related Procedures,2062.96,DRG
Level 2 Upper GI Procedures,990.436874999999,DRG
Level 1 Endovascular Procedures,1708.974,DRG
 G.I. HEMORRHAGE W CC,7238.7352941,Standard
