Description,Charge,Category
Comprehensive Observation Services,1842.0105633802802,DRG
 HEART FAILURE & SHOCK W/O CC/MCC,4687.0,Standard
 SEPTICEMIA OR SEVERE SEPSIS W/O MV >96 HOURS W MCC,11643.739884,Standard
 CELLULITIS W/O MCC,5808.5384615,Standard
 FRACTURES OF HIP & PELVIS W/O MCC,5196.0,Standard
Level 2 Excision/ Biopsy/ Incision and Drainage,1051.6973770491802,DRG
Level 3 Excision/ Biopsy/ Incision and Drainage,1844.45999999999,DRG
Level 2 Musculoskeletal Procedures,1070.99,DRG
Level 3 Musculoskeletal Procedures,2075.80913043478,DRG
Level 4 Musculoskeletal Procedures,4369.87649122807,DRG
 SEPTICEMIA OR SEVERE SEPSIS W/O MV >96 HOURS W/O MCC,6915.84375,Standard
Level 1 Laparoscopy and Related Services,3561.14,DRG
Level 1 Nerve Procedures,1277.7,DRG
 MAJOR JOINT/LIMB REATTACHMENT PROCEDURE OF UPPER EXTREMITIES,15333.25,Standard
 HIP & FEMUR PROCEDURES EXCEPT MAJOR JOINT W CC,12963.83871,Standard
 MAJOR HIP AND KNEE JOINT REPLACEMENT OR REATTACHMENT OF LOWER EXTREM,14425.815385,Standard
 REVISION OF HIP OR KNEE REPLACEMENT W CC,22639.384615,Standard
 DIABETES W CC,5681.357142899999,Standard
" ""ESOPHAGITIS, GASTROENT & MISC DIGEST DISORDERS W/O MCC""",5287.3157895,Standard
 G.I. HEMORRHAGE W CC,6594.4444444,Standard
 CARDIAC ARRHYTHMIA & CONDUCTION DISORDERS W CC,5199.5454545,Standard
 INTRACRANIAL HEMORRHAGE OR CEREBRAL INFARCTION W MCC,12134.769231,Standard
 INTRACRANIAL HEMORRHAGE OR CEREBRAL INFARCTION W CC OR TPA IN 24 HRS,6968.15,Standard
 INTRACRANIAL HEMORRHAGE OR CEREBRAL INFARCTION W/O CC/MCC,5641.6,Standard
 TRANSIENT ISCHEMIA W/O THROMBOLYTIC,4866.0,Standard
 RESPIRATORY INFECTIONS & INFLAMMATIONS W MCC,11487.181818000001,Standard
 CHRONIC OBSTRUCTIVE PULMONARY DISEASE W MCC,7806.558441600001,Standard
 CHRONIC OBSTRUCTIVE PULMONARY DISEASE W CC,6307.3529412,Standard
 SIMPLE PNEUMONIA & PLEURISY W MCC,8656.910714299998,Standard
 SIMPLE PNEUMONIA & PLEURISY W CC,6420.2380952,Standard
 BRONCHITIS & ASTHMA W CC/MCC,6253.1875,Standard
 HEART FAILURE & SHOCK W MCC,9506.3,Standard
 HEART FAILURE & SHOCK W CC,6339.222222199999,Standard
 G.I. OBSTRUCTION W CC,5987.9166667,Standard
" ""MISC DISORDERS OF NUTRITION,METABOLISM,FLUIDS/ELECTROLYTES W/O MCC""",5467.2692308,Standard
Abdominal/Peritoneal/Biliary and Related Procedures,2309.59999999999,DRG
 RED BLOOD CELL DISORDERS W/O MCC,5974.1875,Standard
 KIDNEY & URINARY TRACT INFECTIONS W MCC,6888.1333333,Standard
 CARDIAC ARRHYTHMIA & CONDUCTION DISORDERS W MCC,7222.857142899999,Standard
 RENAL FAILURE W MCC,9423.0,Standard
 RENAL FAILURE W CC,6365.4137931000005,Standard
 KIDNEY & URINARY TRACT INFECTIONS W/O MCC,5408.7272727,Standard
