Description,Charge,Category
 SYNCOPE & COLLAPSE,4867.0,Standard
 OTHER CIRCULATORY SYSTEM DIAGNOSES W MCC,11646.451613,Standard
 MAJOR SMALL & LARGE BOWEL PROCEDURES W CC,17495.090909,Standard
 INTRACRANIAL HEMORRHAGE OR CEREBRAL INFARCTION W MCC,10216.333333,Standard
 INTRACRANIAL HEMORRHAGE OR CEREBRAL INFARCTION W CC OR TPA IN 24 HRS,6341.1290323,Standard
 RESPIRATORY INFECTIONS & INFLAMMATIONS W MCC,10817.35,Standard
 RESPIRATORY INFECTIONS & INFLAMMATIONS W CC,7759.2222222,Standard
Level 1 Breast/Lymphatic Surgery and Related Procedures,2086.94,DRG
 PULMONARY EDEMA & RESPIRATORY FAILURE,7506.3384614999995,Standard
 CHRONIC OBSTRUCTIVE PULMONARY DISEASE W CC,5607.2209302,Standard
 CHRONIC OBSTRUCTIVE PULMONARY DISEASE W/O CC/MCC,4691.892857100001,Standard
 SIMPLE PNEUMONIA & PLEURISY W MCC,8671.45,Standard
 BRONCHITIS & ASTHMA W CC/MCC,5708.3888889,Standard
 PERC CARDIOVASC PROC W DRUG,12822.047618999999,Standard
" ""MISC DISORDERS OF NUTRITION,METABOLISM,FLUIDS/ELECTROLYTES W/O MCC""",4711.1153846,Standard
 CHRONIC OBSTRUCTIVE PULMONARY DISEASE W MCC,6956.733333300001,Standard
 RENAL FAILURE W MCC,8759.107142899999,Standard
 CARDIAC ARRHYTHMIA & CONDUCTION DISORDERS W/O CC/MCC,3731.4418604999996,Standard
 CARDIAC ARRHYTHMIA & CONDUCTION DISORDERS W MCC,7122.974359000001,Standard
 DIABETES W CC,5455.7307692,Standard
 SEPTICEMIA OR SEVERE SEPSIS W/O MV >96 HOURS W/O MCC,6343.16,Standard
 SEPTICEMIA OR SEVERE SEPSIS W/O MV >96 HOURS W MCC,10576.640523,Standard
 INFECTIOUS & PARASITIC DISEASES W O.R. PROCEDURE W MCC,39081.5,Standard
" MISC DISORDERS OF NUTRITION,METABOLISM,FLUIDS/ELECTROLYTES W MCC",6988.8181818,Standard
Level 2 Excision/ Biopsy/ Incision and Drainage,1018.20709302325,DRG
 CARDIAC ARRHYTHMIA & CONDUCTION DISORDERS W CC,5192.5128205,Standard
Level 3 Excision/ Biopsy/ Incision and Drainage,1775.7452941176398,DRG
 RED BLOOD CELL DISORDERS W MCC,8037.3529412,Standard
 OTHER KIDNEY & URINARY TRACT DIAGNOSES W MCC,9709.9375,Standard
" CIRCULATORY DISORDERS EXCEPT AMI, W CARD CATH W/O MCC",6948.75,Standard
 HEART FAILURE & SHOCK W MCC,8974.47,Standard
 HEART FAILURE & SHOCK W CC,5831.9583333,Standard
 HEART FAILURE & SHOCK W/O CC/MCC,4178.909090900001,Standard
 RED BLOOD CELL DISORDERS W/O MCC,5453.2307692,Standard
 RENAL FAILURE W CC,5742.6206897,Standard
 SIMPLE PNEUMONIA & PLEURISY W CC,5685.5357143,Standard
" ""CIRCULATORY DISORDERS EXCEPT AMI, W CARD CATH W MCC""",13221.818181999999,Standard
Level 4 Endovascular Procedures,14007.33,DRG
Level 2 Pacemaker and Similar Procedures,5720.66588235294,DRG
Level 3 Pacemaker and Similar Procedures,7747.756129032259,DRG
 KIDNEY & URINARY TRACT INFECTIONS W MCC,6465.0967742,Standard
Abdominal/Peritoneal/Biliary and Related Procedures,2227.18,DRG
Level 1 Laparoscopy and Related Services,3350.32195121951,DRG
Level 3 Urology and Related Services,1245.3792,DRG
Level 4 Urology and Related Services,2063.14999999999,DRG
Level 5 Urology and Related Services,2835.3099999999895,DRG
Level 1 Nerve Procedures,1184.72115384615,DRG
Level 1 Intraocular Procedures,1425.5483116883,DRG
Level 2 Intraocular Procedures,2571.16206896551,DRG
Comprehensive Observation Services,1772.1698578198998,DRG
Level 2 Musculoskeletal Procedures,1006.9604999999901,DRG
Level 3 Musculoskeletal Procedures,2023.74,DRG
Level 3 Endovascular Procedures,8518.73062499998,DRG
Level 2 Endovascular Procedures,3881.17066666666,DRG
Level 2 Upper GI Procedures,1077.4304310344698,DRG
Level 4 Airway Endoscopy,1819.82727272727,DRG
 G.I. HEMORRHAGE W MCC,11076.0,Standard
 G.I. HEMORRHAGE W CC,6358.3181818,Standard
 G.I. OBSTRUCTION W CC,5262.0909091,Standard
Level 1 Endovascular Procedures,1806.9906976744198,DRG
 KIDNEY & URINARY TRACT INFECTIONS W/O MCC,4903.5357143,Standard
" ""ESOPHAGITIS, GASTROENT & MISC DIGEST DISORDERS W/O MCC""",4752.521739100001,Standard
 MAJOR HIP AND KNEE JOINT REPLACEMENT OR REATTACHMENT OF LOWER EXTREM,12430.809159999999,Standard
 G.I. OBSTRUCTION W/O CC/MCC,3901.4166666999995,Standard
 HIP & FEMUR PROCEDURES EXCEPT MAJOR JOINT W/O CC/MCC,9696.266666700001,Standard
 CELLULITIS W/O MCC,5249.521739100001,Standard
 DIABETES W MCC,7905.266666699999,Standard
Level 2 Breast/Lymphatic Surgery and Related Procedures,3681.33,DRG
Level 4 Musculoskeletal Procedures,4166.65142857142,DRG
Level 3 Airway Endoscopy,1012.69,DRG
 HIP & FEMUR PROCEDURES EXCEPT MAJOR JOINT W CC,11812.285714,Standard
