Description,Charge,Category
 DEPRESSIVE NEUROSES,4748.7,Standard
" ""DISORDERS OF LIVER EXCEPT MALIG,CIRR,ALC HEPA W MCC""",10189.142856999999,Standard
 PSYCHOSES,7020.1675978,Standard
 ALCOHOL/DRUG ABUSE OR DEPENDENCE W/O REHABILITATION THERAPY W/O MCC,4872.4545455,Standard
 SPINAL FUSION EXCEPT CERVICAL W/O MCC,23060.0,Standard
 LAPAROSCOPIC CHOLECYSTECTOMY W/O C.D.E. W/O CC/MCC,7953.8461538,Standard
 LAPAROSCOPIC CHOLECYSTECTOMY W/O C.D.E. W MCC,14115.181818000001,Standard
Abdominal/Peritoneal/Biliary and Related Procedures,2033.3476666666602,DRG
Level 1 Laparoscopy and Related Services,3201.78153846154,DRG
Level 3 Urology and Related Services,1233.12242236024,DRG
Level 4 Urology and Related Services,1859.72166666667,DRG
Level 5 Urology and Related Services,2676.57599999999,DRG
Level 4 Gynecologic Procedures,1661.27944444444,DRG
 EXTENSIVE O.R. PROCEDURE UNRELATED TO PRINCIPAL DIAGNOSIS W MCC,21807.052632,Standard
 SIGNS & SYMPTOMS W/O MCC,4771.7272727,Standard
 LAPAROSCOPIC CHOLECYSTECTOMY W/O C.D.E. W CC,9667.5833333,Standard
 G.I. HEMORRHAGE W/O CC/MCC,4356.4705882,Standard
 G.I. OBSTRUCTION W CC,5130.521739100001,Standard
 POISONING & TOXIC EFFECTS OF DRUGS W MCC,8522.5384615,Standard
 G.I. OBSTRUCTION W/O CC/MCC,3810.8461538,Standard
" ESOPHAGITIS, GASTROENT & MISC DIGEST DISORDERS W MCC",7300.0,Standard
" ""ESOPHAGITIS, GASTROENT & MISC DIGEST DISORDERS W/O MCC""",4696.890625,Standard
" ""LOWER EXTREM & HUMER PROC EXCEPT HIP,FOOT,FEMUR W/O CC/MCC""",9965.2307692,Standard
 OTHER DIGESTIVE SYSTEM DIAGNOSES W MCC,9160.642857100001,Standard
 OTHER DIGESTIVE SYSTEM DIAGNOSES W CC,5807.125,Standard
 G.I. OBSTRUCTION W MCC,9804.357142899999,Standard
 SEPTICEMIA OR SEVERE SEPSIS W/O MV >96 HOURS W/O MCC,6374.25,Standard
 CHRONIC OBSTRUCTIVE PULMONARY DISEASE W/O CC/MCC,4456.8666667,Standard
Level 1 Nerve Procedures,1186.88,DRG
 CHRONIC OBSTRUCTIVE PULMONARY DISEASE W CC,5659.3508772,Standard
 CHRONIC OBSTRUCTIVE PULMONARY DISEASE W MCC,6714.142857100001,Standard
 PULMONARY EDEMA & RESPIRATORY FAILURE,7270.2777778,Standard
 PLEURAL EFFUSION W MCC,8881.727272700002,Standard
 RESPIRATORY INFECTIONS & INFLAMMATIONS W CC,7585.2941175999995,Standard
 FRACTURES OF HIP & PELVIS W/O MCC,4676.7857143,Standard
 MEDICAL BACK PROBLEMS W/O MCC,5291.1818182,Standard
 CELLULITIS W/O MCC,5182.121212100001,Standard
 DIABETES W MCC,8181.0,Standard
 DIABETES W CC,5148.931034499999,Standard
" MISC DISORDERS OF NUTRITION,METABOLISM,FLUIDS/ELECTROLYTES W MCC",6796.2285714,Standard
" ""MISC DISORDERS OF NUTRITION,METABOLISM,FLUIDS/ELECTROLYTES W/O MCC""",4593.9354839,Standard
 RENAL FAILURE W MCC,9023.40625,Standard
 RENAL FAILURE W CC,5591.036585399999,Standard
 KIDNEY & URINARY TRACT INFECTIONS W MCC,6422.5,Standard
 KIDNEY & URINARY TRACT INFECTIONS W/O MCC,4868.5384615,Standard
 URINARY STONES W/O ESW LITHOTRIPSY W/O MCC,5198.7857143,Standard
 OTHER KIDNEY & URINARY TRACT DIAGNOSES W MCC,9031.8181818,Standard
 RED BLOOD CELL DISORDERS W MCC,7869.2,Standard
 RED BLOOD CELL DISORDERS W/O MCC,5451.2058824,Standard
 INFECTIOUS & PARASITIC DISEASES W O.R. PROCEDURE W MCC,27460.397059,Standard
 INFECTIOUS & PARASITIC DISEASES W O.R. PROCEDURE W CC,13330.153846,Standard
 SEPTICEMIA OR SEVERE SEPSIS W MV >96 HOURS OR PERIPHERAL EXTRACORPOR,34814.8,Standard
Level 3 Upper GI Procedures,2021.79999999999,DRG
Comprehensive Observation Services,1696.94002341918,DRG
 SEPTICEMIA OR SEVERE SEPSIS W/O MV >96 HOURS W MCC,10830.909474,Standard
Level 2 Upper GI Procedures,1049.41989010988,DRG
 RESPIRATORY SYSTEM DIAGNOSIS W VENTILATOR SUPPORT <=96 HOURS,13401.818181999999,Standard
Level 2 Pacemaker and Similar Procedures,5154.7858823529405,DRG
 MAJOR GASTROINTESTINAL DISORDERS & PERITONEAL INFECTIONS W CC,6322.8333333,Standard
 MAJOR GASTROINTESTINAL DISORDERS & PERITONEAL INFECTIONS W MCC,9771.952381000001,Standard
 MAJOR SMALL & LARGE BOWEL PROCEDURES W/O CC/MCC,10477.666667,Standard
 MAJOR SMALL & LARGE BOWEL PROCEDURES W CC,14549.235294,Standard
 MAJOR SMALL & LARGE BOWEL PROCEDURES W MCC,29537.458333,Standard
 OTHER CIRCULATORY SYSTEM DIAGNOSES W MCC,11338.56,Standard
 CHEST PAIN,4455.8035714,Standard
 SYNCOPE & COLLAPSE,4960.1590909,Standard
 CARDIAC ARRHYTHMIA & CONDUCTION DISORDERS W/O CC/MCC,3621.3428571000004,Standard
 CARDIAC ARRHYTHMIA & CONDUCTION DISORDERS W CC,4744.4081633000005,Standard
 CARDIAC ARRHYTHMIA & CONDUCTION DISORDERS W MCC,6819.7272727,Standard
 PERIPHERAL VASCULAR DISORDERS W CC,6547.6190476,Standard
 PERIPHERAL VASCULAR DISORDERS W MCC,8528.6153846,Standard
 HEART FAILURE & SHOCK W/O CC/MCC,4226.5384615,Standard
 HEART FAILURE & SHOCK W CC,5727.293103399999,Standard
 HEART FAILURE & SHOCK W MCC,8479.189441,Standard
" CIRCULATORY DISORDERS EXCEPT AMI, W CARD CATH W/O MCC",6840.8421053,Standard
" ""CIRCULATORY DISORDERS EXCEPT AMI, W CARD CATH W MCC""",12667.475,Standard
" ""ACUTE MYOCARDIAL INFARCTION, DISCHARGED ALIVE W/O CC/MCC""",4807.1538462,Standard
" ACUTE MYOCARDIAL INFARCTION, DISCHARGED ALIVE W CC",5887.2758621,Standard
" ""ACUTE MYOCARDIAL INFARCTION, DISCHARGED ALIVE W MCC""",9365.1325301,Standard
 OTHER VASCULAR PROCEDURES W CC,14425.0,Standard
 PERC CARDIOVASC PROC W NON,11074.25,Standard
 HIP & FEMUR PROCEDURES EXCEPT MAJOR JOINT W CC,11721.139535,Standard
 PERC CARDIOVASC PROC W DRUG,12131.851852,Standard
 G.I. HEMORRHAGE W MCC,9988.9354839,Standard
Level 3 Pacemaker and Similar Procedures,7666.6499999999905,DRG
 G.I. HEMORRHAGE W CC,5778.2873563,Standard
 INTRACRANIAL HEMORRHAGE OR CEREBRAL INFARCTION W MCC,9654.097561,Standard
Level 3 Endovascular Procedures,8115.423030303041,DRG
Level 2 Endovascular Procedures,3692.47,DRG
Level 1 Endovascular Procedures,1762.9402419354699,DRG
Level 4 Airway Endoscopy,1864.03299999999,DRG
Level 5 Musculoskeletal Procedures,8012.03,DRG
Level 4 Musculoskeletal Procedures,4074.6977333333293,DRG
Level 3 Musculoskeletal Procedures,1714.9935,DRG
Level 2 Musculoskeletal Procedures,943.8821739130431,DRG
Level 2 Breast/Lymphatic Surgery and Related Procedures,3438.7103030303,DRG
Level 1 Breast/Lymphatic Surgery and Related Procedures,2010.30999999999,DRG
Level 3 Excision/ Biopsy/ Incision and Drainage,1582.3252173913002,DRG
Level 2 Excision/ Biopsy/ Incision and Drainage,990.6379098360691,DRG
 PERCUTANEOUS CARDIOVASCULAR PROCEDURES W DRUG,17700.15625,Standard
 PERMANENT CARDIAC PACEMAKER IMPLANT W CC,14741.842105000002,Standard
 PERMANENT CARDIAC PACEMAKER IMPLANT W MCC,20606.294118,Standard
 BRONCHITIS & ASTHMA W CC/MCC,5613.7272727,Standard
 SIMPLE PNEUMONIA & PLEURISY W CC,5571.0,Standard
 RESPIRATORY INFECTIONS & INFLAMMATIONS W MCC,10362.962264,Standard
 PULMONARY EMBOLISM W MCC,8574.0,Standard
 OTHER RESP SYSTEM O.R. PROCEDURES W MCC,20463.538462,Standard
 SEIZURES W/O MCC,4987.913043500001,Standard
 SEIZURES W MCC,9828.75,Standard
 TRANSIENT ISCHEMIA W/O THROMBOLYTIC,4653.1162791,Standard
 INTRACRANIAL HEMORRHAGE OR CEREBRAL INFARCTION W/O CC/MCC,4693.35,Standard
 INTRACRANIAL HEMORRHAGE OR CEREBRAL INFARCTION W CC OR TPA IN 24 HRS,6095.717391300001,Standard
 SIMPLE PNEUMONIA & PLEURISY W MCC,7989.357142899999,Standard
 MAJOR HIP AND KNEE JOINT REPLACEMENT OR REATTACHMENT OF LOWER EXTREM,11945.913793000002,Standard
