Description,Charge,Category
Level 5 Musculoskeletal Procedures,10050.141666666601,DRG
Level 4 Musculoskeletal Procedures,5930.2132142857,DRG
Comprehensive Observation Services,2459.24201834861,DRG
Level 2 Musculoskeletal Procedures,1377.52275862069,DRG
Level 2 Excision/ Biopsy/ Incision and Drainage,1374.02177777777,DRG
Abdominal/Peritoneal/Biliary and Related Procedures,2980.581875,DRG
Level 1 Nerve Procedures,1609.8215,DRG
Level 1 Laparoscopy and Related Services,4480.435,DRG
Level 3 Musculoskeletal Procedures,2605.07454545454,DRG
Level 5 Urology and Related Services,3720.9790000000003,DRG
 HEART FAILURE & SHOCK W MCC,33021.52381,Standard
 SEPTICEMIA OR SEVERE SEPSIS W/O MV >96 HOURS W MCC,21592.1,Standard
 SEPTICEMIA OR SEVERE SEPSIS W/O MV >96 HOURS W/O MCC,13153.235294,Standard
 KIDNEY & URINARY TRACT INFECTIONS W/O MCC,10826.2,Standard
 RENAL FAILURE W CC,12079.944444,Standard
 MAJOR JOINT/LIMB REATTACHMENT PROCEDURE OF UPPER EXTREMITIES,28774.761905,Standard
 CHRONIC OBSTRUCTIVE PULMONARY DISEASE W MCC,13678.545455000001,Standard
 MAJOR HIP AND KNEE JOINT REPLACEMENT OR REATTACHMENT OF LOWER EXTREM,27799.717391000002,Standard
 SIMPLE PNEUMONIA & PLEURISY W CC,11077.888889,Standard
 SPINAL FUSION EXCEPT CERVICAL W/O MCC,47694.2,Standard
 CARDIAC ARRHYTHMIA & CONDUCTION DISORDERS W CC,13622.083333,Standard
