Description,Charge,Category
 G.I. HEMORRHAGE W CC,7062.756097600001,Standard
" CIRCULATORY DISORDERS EXCEPT AMI, W CARD CATH W/O MCC",9028.259259299999,Standard
Level 2 Musculoskeletal Procedures,1234.75999999999,DRG
" ""ESOPHAGITIS, GASTROENT & MISC DIGEST DISORDERS W/O MCC""",6322.7692308,Standard
 MAJOR HIP AND KNEE JOINT REPLACEMENT OR REATTACHMENT OF LOWER EXTREM,15154.273503999999,Standard
Level 3 Musculoskeletal Procedures,2419.5299999999897,DRG
 HIP & FEMUR PROCEDURES EXCEPT MAJOR JOINT W CC,14392.625,Standard
Level 2 Excision/ Biopsy/ Incision and Drainage,1225.50229508196,DRG
" ""CIRCULATORY DISORDERS EXCEPT AMI, W CARD CATH W MCC""",19850.52381,Standard
 HEART FAILURE & SHOCK W MCC,10541.2,Standard
 G.I. HEMORRHAGE W MCC,15917.833333,Standard
 G.I. OBSTRUCTION W CC,6179.6666667,Standard
" ""ACUTE MYOCARDIAL INFARCTION, DISCHARGED ALIVE W MCC""",12336.1,Standard
 OTHER CIRCULATORY SYSTEM DIAGNOSES W MCC,18151.592593,Standard
 CARDIAC ARRHYTHMIA & CONDUCTION DISORDERS W CC,5660.6315789,Standard
 CORONARY BYPASS W CARDIAC CATH W/O MCC,34501.909091,Standard
 CARDIAC VALVE & OTH MAJ CARDIOTHORACIC PROC W/O CARD CATH W CC,36527.904762,Standard
 RESPIRATORY SYSTEM DIAGNOSIS W VENTILATOR SUPPORT <=96 HOURS,17783.416666999998,Standard
 SIMPLE PNEUMONIA & PLEURISY W CC,6560.6,Standard
 SIMPLE PNEUMONIA & PLEURISY W MCC,9725.1666667,Standard
Level 4 Musculoskeletal Procedures,5063.125312499989,DRG
" ACUTE MYOCARDIAL INFARCTION, DISCHARGED ALIVE W CC",7047.9285714,Standard
 CHRONIC OBSTRUCTIVE PULMONARY DISEASE W MCC,8152.807017499999,Standard
 RESPIRATORY NEOPLASMS W MCC,12228.0,Standard
 RESPIRATORY INFECTIONS & INFLAMMATIONS W MCC,12468.470588,Standard
 PERCUTANEOUS CARDIOVASCULAR PROCEDURES W DRUG,24370.68,Standard
 G.I. OBSTRUCTION W MCC,11665.142856999999,Standard
 MAJOR JOINT/LIMB REATTACHMENT PROCEDURE OF UPPER EXTREMITIES,17827.862069,Standard
 G.I. OBSTRUCTION W/O CC/MCC,4353.9,Standard
 PERC CARDIOVASC PROC W DRUG,15415.269841,Standard
 ENDOVASCULAR CARDIAC VALVE REPLACEMENT W/O MCC,43909.055556,Standard
 OTHER CIRCULATORY SYSTEM DIAGNOSES W CC,7034.75,Standard
Level 5 Musculoskeletal Procedures,9772.2,DRG
Level 3 Pacemaker and Similar Procedures,9830.25187499999,DRG
Level 2 Endovascular Procedures,4647.55325,DRG
 PERMANENT CARDIAC PACEMAKER IMPLANT W CC,18655.4375,Standard
 CORONARY BYPASS W/O CARDIAC CATH W/O MCC,27587.65,Standard
 CELLULITIS W/O MCC,5934.857142899999,Standard
 RENAL FAILURE W MCC,10616.647059,Standard
 RENAL FAILURE W CC,6487.4090909,Standard
 KIDNEY & URINARY TRACT INFECTIONS W MCC,7512.5454545,Standard
 KIDNEY & URINARY TRACT INFECTIONS W/O MCC,5823.9444444,Standard
 OTHER KIDNEY & URINARY TRACT DIAGNOSES W MCC,9935.4545455,Standard
 SEPTICEMIA OR SEVERE SEPSIS W/O MV >96 HOURS W MCC,14409.45815,Standard
 SEPTICEMIA OR SEVERE SEPSIS W/O MV >96 HOURS W/O MCC,7492.180555600001,Standard
Comprehensive Observation Services,2149.32,DRG
Level 2 Intraocular Procedures,3302.3490243902397,DRG
Level 1 Intraocular Procedures,1752.6780434782502,DRG
Level 5 Gynecologic Procedures,3668.98,DRG
Level 4 Gynecologic Procedures,2078.84,DRG
Level 5 Urology and Related Services,3389.82,DRG
Level 4 Urology and Related Services,2466.66,DRG
Level 3 Endovascular Procedures,10592.391145833299,DRG
Level 4 Endovascular Procedures,17003.66,DRG
 PULMONARY EMBOLISM W/O MCC,6622.75,Standard
 INTRACRANIAL HEMORRHAGE OR CEREBRAL INFARCTION W CC OR TPA IN 24 HRS,7206.421052600001,Standard
 EXTRACRANIAL PROCEDURES W/O CC/MCC,8101.7368421,Standard
Level 3 Electrophysiologic Procedures,19694.3864754097,DRG
Level 1 Endovascular Procedures,2204.0197916666502,DRG
 HEART FAILURE & SHOCK W CC,6880.5,Standard
Level 2 Pacemaker and Similar Procedures,7114.3999999999905,DRG
Level 2 ICD and Similar Procedures,34087.24,DRG
Level 2 Upper GI Procedures,1299.46761904761,DRG
Abdominal/Peritoneal/Biliary and Related Procedures,2662.76,DRG
Level 1 Laparoscopy and Related Services,4105.69,DRG
Level 3 Urology and Related Services,1551.01,DRG
 CARDIAC ARRHYTHMIA & CONDUCTION DISORDERS W MCC,9949.4285714,Standard
 INFECTIOUS & PARASITIC DISEASES W O.R. PROCEDURE W MCC,34997.333332999995,Standard
