Description,Charge,Category
Level 2 Excision/ Biopsy/ Incision and Drainage,1118.90571428571,DRG
Level 2 Endovascular Procedures,4558.12,DRG
Level 1 Intraocular Procedures,1704.279,DRG
Comprehensive Observation Services,2104.63211764706,DRG
 RESPIRATORY SYSTEM DIAGNOSIS W VENTILATOR SUPPORT <=96 HOURS,21476.277778,Standard
 RENAL FAILURE W MCC,10724.25,Standard
 SEPTICEMIA OR SEVERE SEPSIS W MV >96 HOURS OR PERIPHERAL EXTRACORPOR,52727.0,Standard
 POISONING & TOXIC EFFECTS OF DRUGS W MCC,13159.818181999999,Standard
 INFECTIOUS & PARASITIC DISEASES W O.R. PROCEDURE W MCC,46875.384614999995,Standard
 RENAL FAILURE W CC,9955.1818182,Standard
" TRACH W MV >96 HRS OR PDX EXC FACE, MOUTH & NECK W/O MAJ O.R.",110004.72727,Standard
 SIMPLE PNEUMONIA & PLEURISY W MCC,10622.75,Standard
 SEPTICEMIA OR SEVERE SEPSIS W/O MV >96 HOURS W MCC,17754.861538,Standard
 INTRACRANIAL HEMORRHAGE OR CEREBRAL INFARCTION W MCC,15155.444444,Standard
 NONSPECIFIC CEREBROVASCULAR DISORDERS W MCC,11597.384615,Standard
 PULMONARY EDEMA & RESPIRATORY FAILURE,13011.714286,Standard
 CHRONIC OBSTRUCTIVE PULMONARY DISEASE W MCC,8886.1818182,Standard
 G.I. HEMORRHAGE W MCC,12877.866667,Standard
 CARDIAC ARRHYTHMIA & CONDUCTION DISORDERS W MCC,9687.272727299998,Standard
 HEART FAILURE & SHOCK W MCC,11438.361111,Standard
 INTRACRANIAL HEMORRHAGE OR CEREBRAL INFARCTION W CC OR TPA IN 24 HRS,7640.1333333,Standard
 SEPTICEMIA OR SEVERE SEPSIS W/O MV >96 HOURS W/O MCC,11302.9375,Standard
