Description,Charge,Category
 INTRACRANIAL HEMORRHAGE OR CEREBRAL INFARCTION W CC OR TPA IN 24 HRS,9844.0,Standard
 PULMONARY EDEMA & RESPIRATORY FAILURE,14759.384615,Standard
 HIP & FEMUR PROCEDURES EXCEPT MAJOR JOINT W CC,17811.461538,Standard
 PERC CARDIOVASC PROC W DRUG,29436.705882,Standard
 HEART FAILURE & SHOCK W MCC,16740.666666999998,Standard
 HEART FAILURE & SHOCK W CC,12474.230769,Standard
 G.I. HEMORRHAGE W CC,10316.823529000001,Standard
" ""ESOPHAGITIS, GASTROENT & MISC DIGEST DISORDERS W/O MCC""",11950.666667,Standard
 MAJOR HIP AND KNEE JOINT REPLACEMENT OR REATTACHMENT OF LOWER EXTREM,24125.394737,Standard
 RESPIRATORY SYSTEM DIAGNOSIS W VENTILATOR SUPPORT <=96 HOURS,38925.25,Standard
 SIMPLE PNEUMONIA & PLEURISY W CC,10011.545455,Standard
 DIABETES W CC,9923.0,Standard
Comprehensive Observation Services,2345.47393333333,DRG
Level 2 Intraocular Procedures,3739.03181818181,DRG
Level 2 Excision/ Biopsy/ Incision and Drainage,1047.1575,DRG
 SEPTICEMIA OR SEVERE SEPSIS W/O MV >96 HOURS W/O MCC,14749.803922,Standard
 SEPTICEMIA OR SEVERE SEPSIS W/O MV >96 HOURS W MCC,23589.83871,Standard
 KIDNEY & URINARY TRACT INFECTIONS W/O MCC,8246.6363636,Standard
 RENAL FAILURE W CC,13044.916667,Standard
