Description,Charge,Category
 MAJOR SMALL & LARGE BOWEL PROCEDURES W CC,41758.076923,Standard
 HEART FAILURE & SHOCK W MCC,13226.065217,Standard
 SEPTICEMIA OR SEVERE SEPSIS W/O MV >96 HOURS W/O MCC,10948.978261,Standard
 MAJOR HIP AND KNEE JOINT REPLACEMENT OR REATTACHMENT OF LOWER EXTREM,17284.952381,Standard
 HIP & FEMUR PROCEDURES EXCEPT MAJOR JOINT W CC,22372.636363999998,Standard
" ""AMPUTAT OF LOWER LIMB FOR ENDOCRINE,NUTRIT,& METABOL DIS W CC""",17196.0,Standard
" MISC DISORDERS OF NUTRITION,METABOLISM,FLUIDS/ELECTROLYTES W MCC",8527.0,Standard
 RED BLOOD CELL DISORDERS W/O MCC,14712.181818000001,Standard
 PULMONARY EDEMA & RESPIRATORY FAILURE,13106.0,Standard
 OTHER VASCULAR PROCEDURES W MCC,25468.066667,Standard
 INTRACRANIAL HEMORRHAGE OR CEREBRAL INFARCTION W CC OR TPA IN 24 HRS,9152.714285700002,Standard
 HEART FAILURE & SHOCK W CC,8698.68,Standard
" ""ESOPHAGITIS, GASTROENT & MISC DIGEST DISORDERS W/O MCC""",9636.6,Standard
 INFECTIOUS & PARASITIC DISEASES W O.R. PROCEDURE W MCC,57317.923077,Standard
Level 2 Excision/ Biopsy/ Incision and Drainage,936.035,DRG
Level 2 Endovascular Procedures,4550.14944444444,DRG
Level 1 Laparoscopy and Related Services,4023.5899999999897,DRG
Level 2 Laparoscopy and Related Services,7197.31,DRG
Level 3 Urology and Related Services,1508.0411764705802,DRG
Level 4 Urology and Related Services,2405.3641666666604,DRG
Level 1 Nerve Procedures,1369.2485,DRG
Level 1 Intraocular Procedures,1711.69272727272,DRG
Comprehensive Observation Services,2103.83264705882,DRG
 SEPTICEMIA OR SEVERE SEPSIS W/O MV >96 HOURS W MCC,15027.700787,Standard
 G.I. HEMORRHAGE W CC,10992.583333,Standard
