Description,Charge,Category
Level 2 Endovascular Procedures,4558.12,DRG
Level 1 Intraocular Procedures,1710.08333333333,DRG
Comprehensive Observation Services,2105.5011,DRG
 SEPTICEMIA OR SEVERE SEPSIS W/O MV >96 HOURS W/O MCC,8937.5625,Standard
 HEART FAILURE & SHOCK W MCC,16204.344828,Standard
 MAJOR HIP AND KNEE JOINT REPLACEMENT OR REATTACHMENT OF LOWER EXTREM,23801.208333000002,Standard
 INFECTIOUS & PARASITIC DISEASES W O.R. PROCEDURE W MCC,69169.0,Standard
 SEPTICEMIA OR SEVERE SEPSIS W/O MV >96 HOURS W MCC,17938.861538,Standard
 PULMONARY EDEMA & RESPIRATORY FAILURE,10181.076923,Standard
