Description,Charge,Category
 PSYCHOSES,21158.375,Standard
 POISONING & TOXIC EFFECTS OF DRUGS W MCC,20320.272727,Standard
Level 5 Urology and Related Services,3386.3207317073197,DRG
Level 4 Urology and Related Services,2466.66,DRG
Level 3 Urology and Related Services,1551.00999999999,DRG
Level 4 Musculoskeletal Procedures,5128.0599999999895,DRG
Level 1 Endovascular Procedures,2227.22,DRG
 SEPTICEMIA OR SEVERE SEPSIS W/O MV >96 HOURS W/O MCC,16818.583333000002,Standard
Level 2 Musculoskeletal Procedures,1152.44266666666,DRG
Level 2 Excision/ Biopsy/ Incision and Drainage,1231.8961538461501,DRG
Level 1 Laparoscopy and Related Services,4103.4966666666605,DRG
 SEPTICEMIA OR SEVERE SEPSIS W/O MV >96 HOURS W MCC,24579.541666999998,Standard
Level 5 ENT Procedures,3968.5899999999897,DRG
 RENAL FAILURE W CC,16129.636363999998,Standard
 RED BLOOD CELL DISORDERS W/O MCC,15285.769231,Standard
Implantation of Drug Infusion Device,17484.33,DRG
Comprehensive Observation Services,2149.32,DRG
Level 4 Gynecologic Procedures,2078.84,DRG
 INTRACRANIAL HEMORRHAGE OR CEREBRAL INFARCTION W CC OR TPA IN 24 HRS,17521.0,Standard
Level 4 Neurostimulator and Related Procedures,30576.77,DRG
 HEART FAILURE & SHOCK W MCC,20258.4,Standard
 MAJOR HIP AND KNEE JOINT REPLACEMENT OR REATTACHMENT OF LOWER EXTREM,24590.25,Standard
 HIP & FEMUR PROCEDURES EXCEPT MAJOR JOINT W CC,26193.315789,Standard
 MEDICAL BACK PROBLEMS W/O MCC,14231.125,Standard
 CELLULITIS W/O MCC,14996.0,Standard
 SEIZURES W/O MCC,14835.25,Standard
