Description,Charge,Category
 EXTENSIVE O.R. PROCEDURE UNRELATED TO PRINCIPAL DIAGNOSIS W MCC,34239.333332999995,Standard
 SIGNS & SYMPTOMS W/O MCC,5969.7692308,Standard
" ""OTHER ENDOCRINE, NUTRIT & METAB O.R. PROC W CC""",16809.636363999998,Standard
 HEART FAILURE & SHOCK W MCC,10917.863636,Standard
" CIRCULATORY DISORDERS EXCEPT AMI, W CARD CATH W/O MCC",8764.55,Standard
" ""CIRCULATORY DISORDERS EXCEPT AMI, W CARD CATH W MCC""",16353.421053,Standard
 SEPTICEMIA OR SEVERE SEPSIS W/O MV >96 HOURS W/O MCC,7948.8409091,Standard
 SEPTICEMIA OR SEVERE SEPSIS W/O MV >96 HOURS W MCC,15310.506757,Standard
 INFECTIOUS & PARASITIC DISEASES W O.R. PROCEDURE W MCC,40348.483871,Standard
 RED BLOOD CELL DISORDERS W/O MCC,6776.5,Standard
 CELLULITIS W/O MCC,6344.0740741,Standard
 MEDICAL BACK PROBLEMS W/O MCC,6695.1333333,Standard
 MAJOR HIP AND KNEE JOINT REPLACEMENT OR REATTACHMENT OF LOWER EXTREM,15181.054053999998,Standard
 OTHER DIGESTIVE SYSTEM DIAGNOSES W CC,7604.363636399999,Standard
" ""ESOPHAGITIS, GASTROENT & MISC DIGEST DISORDERS W/O MCC""",5878.425,Standard
 G.I. OBSTRUCTION W/O CC/MCC,7283.5454545,Standard
 G.I. OBSTRUCTION W CC,6548.9411765,Standard
 G.I. HEMORRHAGE W/O CC/MCC,5039.7272727,Standard
 G.I. HEMORRHAGE W CC,7373.7777778,Standard
" MISC DISORDERS OF NUTRITION,METABOLISM,FLUIDS/ELECTROLYTES W MCC",12954.96,Standard
 MAJOR GASTROINTESTINAL DISORDERS & PERITONEAL INFECTIONS W MCC,12445.818181999999,Standard
 CHEST PAIN,5483.0588235,Standard
" ""MISC DISORDERS OF NUTRITION,METABOLISM,FLUIDS/ELECTROLYTES W/O MCC""",5782.4210526,Standard
 CARDIAC ARRHYTHMIA & CONDUCTION DISORDERS W CC,5913.3125,Standard
 CARDIAC ARRHYTHMIA & CONDUCTION DISORDERS W MCC,8946.2307692,Standard
 HEART FAILURE & SHOCK W CC,7237.2777778,Standard
 RENAL FAILURE W MCC,12999.3,Standard
 RENAL FAILURE W CC,7261.92,Standard
 KIDNEY & URINARY TRACT INFECTIONS W MCC,8358.3636364,Standard
 KIDNEY & URINARY TRACT INFECTIONS W/O MCC,6134.9555556000005,Standard
 MAJOR SMALL & LARGE BOWEL PROCEDURES W CC,18389.857143,Standard
 SYNCOPE & COLLAPSE,6149.4347826,Standard
 OTHER CIRCULATORY SYSTEM DIAGNOSES W MCC,16418.636363999998,Standard
Level 3 Pacemaker and Similar Procedures,9832.11999999999,DRG
Level 2 Breast/Lymphatic Surgery and Related Procedures,4401.32,DRG
Level 2 Musculoskeletal Procedures,1214.27625,DRG
Level 3 Musculoskeletal Procedures,2419.53,DRG
Level 4 Musculoskeletal Procedures,4993.111052631571,DRG
Level 6 Musculoskeletal Procedures,16261.18,DRG
Level 3 Airway Endoscopy,1210.43583333333,DRG
Level 1 Endovascular Procedures,2191.86763157893,DRG
Level 2 Endovascular Procedures,4651.14,DRG
Level 3 Endovascular Procedures,10451.9839843749,DRG
Level 4 Endovascular Procedures,17003.6599999999,DRG
Level 2 Pacemaker and Similar Procedures,7114.3999999999905,DRG
Level 2 Upper GI Procedures,1305.5999999999901,DRG
Abdominal/Peritoneal/Biliary and Related Procedures,2650.29809523809,DRG
Level 1 Laparoscopy and Related Services,4007.08928571428,DRG
Level 1 Breast/Lymphatic Surgery and Related Procedures,2348.3294117647,DRG
Level 1 Nerve Procedures,1339.1727272727198,DRG
 INTRACRANIAL HEMORRHAGE OR CEREBRAL INFARCTION W MCC,12467.1,Standard
 INTRACRANIAL HEMORRHAGE OR CEREBRAL INFARCTION W CC OR TPA IN 24 HRS,7681.421052600001,Standard
" ""ACUTE MYOCARDIAL INFARCTION, DISCHARGED ALIVE W MCC""",12746.190476,Standard
 OTHER VASCULAR PROCEDURES W MCC,24326.736842,Standard
 PERC CARDIOVASC PROC W DRUG,15687.0,Standard
 PERCUTANEOUS CARDIOVASCULAR PROCEDURES W DRUG,27337.341463,Standard
 CORONARY BYPASS W CARDIAC CATH W MCC,60855.45454500001,Standard
 RESPIRATORY SYSTEM DIAGNOSIS W VENTILATOR SUPPORT <=96 HOURS,18236.384615,Standard
 SIMPLE PNEUMONIA & PLEURISY W CC,7448.1666667,Standard
 SIMPLE PNEUMONIA & PLEURISY W MCC,10099.4,Standard
 CHRONIC OBSTRUCTIVE PULMONARY DISEASE W CC,6993.6153846,Standard
 CHRONIC OBSTRUCTIVE PULMONARY DISEASE W MCC,8796.157894700002,Standard
 PULMONARY EDEMA & RESPIRATORY FAILURE,9639.6363636,Standard
 OTHER RESP SYSTEM O.R. PROCEDURES W MCC,28776.88,Standard
Comprehensive Observation Services,2103.91183098592,DRG
Level 2 Excision/ Biopsy/ Incision and Drainage,1232.79821428571,DRG
 INTRACRANIAL HEMORRHAGE OR CEREBRAL INFARCTION W/O CC/MCC,5700.9375,Standard
