Description,Charge,Category
Level 2 Excision/ Biopsy/ Incision and Drainage,1265.13808510638,DRG
 CHRONIC OBSTRUCTIVE PULMONARY DISEASE W CC,8847.6666667,Standard
 CHRONIC OBSTRUCTIVE PULMONARY DISEASE W MCC,10288.44,Standard
 SEPTICEMIA OR SEVERE SEPSIS W/O MV >96 HOURS W/O MCC,9720.3589744,Standard
 CHRONIC OBSTRUCTIVE PULMONARY DISEASE W/O CC/MCC,7058.9230769,Standard
 SIMPLE PNEUMONIA & PLEURISY W MCC,12267.454545,Standard
 HEART FAILURE & SHOCK W MCC,12364.16129,Standard
 HEART FAILURE & SHOCK W CC,8529.1153846,Standard
 G.I. HEMORRHAGE W CC,9293.4615385,Standard
" ""ESOPHAGITIS, GASTROENT & MISC DIGEST DISORDERS W/O MCC""",7536.9285714,Standard
 SIMPLE PNEUMONIA & PLEURISY W CC,8802.894736799999,Standard
 SIMPLE PNEUMONIA & PLEURISY W/O CC/MCC,6717.363636399999,Standard
 RESPIRATORY SYSTEM DIAGNOSIS W VENTILATOR SUPPORT <=96 HOURS,20968.214286000002,Standard
 MAJOR HIP AND KNEE JOINT REPLACEMENT OR REATTACHMENT OF LOWER EXTREM,18712.137931,Standard
" ""MISC DISORDERS OF NUTRITION,METABOLISM,FLUIDS/ELECTROLYTES W/O MCC""",7248.3125,Standard
Level 1 Laparoscopy and Related Services,4225.0,DRG
Abdominal/Peritoneal/Biliary and Related Procedures,2731.7896,DRG
 KIDNEY & URINARY TRACT INFECTIONS W/O MCC,7753.4285714,Standard
Comprehensive Observation Services,2192.94038022814,DRG
Level 5 Urology and Related Services,3488.32,DRG
Level 3 Musculoskeletal Procedures,2489.83999999999,DRG
Level 2 Intraocular Procedures,3386.8436,DRG
Level 2 Pacemaker and Similar Procedures,7359.27,DRG
Level 1 Intraocular Procedures,1801.26428571428,DRG
Level 2 Upper GI Procedures,1338.0329268292598,DRG
 SEPTICEMIA OR SEVERE SEPSIS W/O MV >96 HOURS W MCC,14777.679245,Standard
Level 4 Musculoskeletal Procedures,5283.14,DRG
