Description,Charge,Category
Level 1 Nerve Procedures,1468.74212121212,DRG
Level 5 Gynecologic Procedures,3502.20818181818,DRG
Level 4 Gynecologic Procedures,2069.06857142857,DRG
Level 1 Laparoscopy and Related Services,4105.69,DRG
Abdominal/Peritoneal/Biliary and Related Procedures,2662.47636363636,DRG
Level 2 Musculoskeletal Procedures,1194.92903225806,DRG
Level 2 Upper GI Procedures,1300.66571428571,DRG
Level 4 Musculoskeletal Procedures,4898.86260869565,DRG
Level 3 Musculoskeletal Procedures,2000.7651923076899,DRG
Level 3 Excision/ Biopsy/ Incision and Drainage,1772.08333333333,DRG
Level 2 Excision/ Biopsy/ Incision and Drainage,1233.01999999999,DRG
Level 3 Lower GI Procedures,2118.05,DRG
Comprehensive Observation Services,2149.32,DRG
 SIMPLE PNEUMONIA & PLEURISY W MCC,12053.230769,Standard
 HEART FAILURE & SHOCK W CC,7426.6,Standard
 SEPTICEMIA OR SEVERE SEPSIS W/O MV >96 HOURS W MCC,16645.333333000002,Standard
 KIDNEY & URINARY TRACT INFECTIONS W/O MCC,6554.3125,Standard
 CELLULITIS W/O MCC,6850.714285699999,Standard
" ""ESOPHAGITIS, GASTROENT & MISC DIGEST DISORDERS W/O MCC""",6194.222222199999,Standard
 HEART FAILURE & SHOCK W MCC,11337.615385,Standard
 SIMPLE PNEUMONIA & PLEURISY W CC,7478.68,Standard
 CHRONIC OBSTRUCTIVE PULMONARY DISEASE W MCC,8847.7619048,Standard
 SEPTICEMIA OR SEVERE SEPSIS W/O MV >96 HOURS W/O MCC,8662.3478261,Standard
