Description,Charge,Category
 COMPLICATED PEPTIC ULCER W CC,10051.071429000001,Standard
 MAJOR JOINT/LIMB REATTACHMENT PROCEDURE OF UPPER EXTREMITIES,20916.8,Standard
 MAJOR HIP AND KNEE JOINT REPLACEMENT OR REATTACHMENT OF LOWER EXTREM,26490.5,Standard
 HIP & FEMUR PROCEDURES EXCEPT MAJOR JOINT W CC,17308.53125,Standard
 MAJOR HIP AND KNEE JOINT REPLACEMENT OR REATTACHMENT OF LOWER EXTREM,18155.310078,Standard
 OTHER DIGESTIVE SYSTEM DIAGNOSES W CC,8367.642857100001,Standard
 G.I. OBSTRUCTION W CC,7588.694444399999,Standard
" ""ESOPHAGITIS, GASTROENT & MISC DIGEST DISORDERS W/O MCC""",6809.09375,Standard
" ESOPHAGITIS, GASTROENT & MISC DIGEST DISORDERS W MCC",11102.35,Standard
 G.I. OBSTRUCTION W/O CC/MCC,5437.3846154,Standard
 HIP & FEMUR PROCEDURES EXCEPT MAJOR JOINT W/O CC/MCC,14469.545455000001,Standard
" LOWER EXTREM & HUMER PROC EXCEPT HIP,FOOT,FEMUR W CC",19042.928571,Standard
 G.I. HEMORRHAGE W MCC,18154.103447999998,Standard
 G.I. HEMORRHAGE W CC,9335.104477600002,Standard
Level 4 Musculoskeletal Procedures,5958.58086956521,DRG
Level 3 Musculoskeletal Procedures,2795.69,DRG
Level 2 Musculoskeletal Procedures,1425.94145833333,DRG
Level 2 Breast/Lymphatic Surgery and Related Procedures,5085.57,DRG
Level 1 Breast/Lymphatic Surgery and Related Procedures,2882.98999999999,DRG
Level 3 Excision/ Biopsy/ Incision and Drainage,2456.50541666666,DRG
Level 2 Excision/ Biopsy/ Incision and Drainage,1414.6178804347799,DRG
 RESPIRATORY INFECTIONS & INFLAMMATIONS W CC,11319.933332999999,Standard
 RESPIRATORY INFECTIONS & INFLAMMATIONS W MCC,16916.354166999998,Standard
 PULMONARY EMBOLISM W MCC,12233.071429000001,Standard
 SEIZURES W/O MCC,7385.692307699999,Standard
 INTRACRANIAL HEMORRHAGE OR CEREBRAL INFARCTION W CC OR TPA IN 24 HRS,9087.2941176,Standard
 SIMPLE PNEUMONIA & PLEURISY W/O CC/MCC,6369.0,Standard
 BRONCHITIS & ASTHMA W CC/MCC,8213.6363636,Standard
 POISONING & TOXIC EFFECTS OF DRUGS W MCC,12508.583333,Standard
 SIMPLE PNEUMONIA & PLEURISY W CC,8437.8837209,Standard
 ALCOHOL/DRUG ABUSE OR DEPENDENCE W/O REHABILITATION THERAPY W/O MCC,7061.8823529,Standard
Level 5 Musculoskeletal Procedures,12060.1699999999,DRG
Level 4 ENT Procedures,2324.13,DRG
 SIMPLE PNEUMONIA & PLEURISY W MCC,11837.809524,Standard
 CHRONIC OBSTRUCTIVE PULMONARY DISEASE W CC,8134.642857100001,Standard
 CHRONIC OBSTRUCTIVE PULMONARY DISEASE W MCC,11003.188119,Standard
 PULMONARY EDEMA & RESPIRATORY FAILURE,10693.5,Standard
Comprehensive Observation Services,2475.32747540981,DRG
Level 4 Gynecologic Procedures,2402.03,DRG
Level 5 Urology and Related Services,3916.82,DRG
Level 4 Urology and Related Services,2808.2163235294106,DRG
Level 3 Urology and Related Services,1791.8094594594602,DRG
Level 2 Laparoscopy and Related Services,8721.1,DRG
Level 1 Laparoscopy and Related Services,4663.86770491802,DRG
Abdominal/Peritoneal/Biliary and Related Procedures,3019.7535185185197,DRG
Level 2 Upper GI Procedures,1488.91273809523,DRG
Level 3 Pacemaker and Similar Procedures,11234.4354285714,DRG
Level 1 Endovascular Procedures,2554.7126811594103,DRG
Level 3 Airway Endoscopy,1398.99,DRG
 PATHOLOGICAL FRACTURES & MUSCULOSKELET & CONN TISS MALIG W CC,9427.047618999999,Standard
 SEPTICEMIA OR SEVERE SEPSIS W/O MV >96 HOURS W/O MCC,9720.6911765,Standard
 INFECTIOUS & PARASITIC DISEASES W O.R. PROCEDURE W MCC,53471.478261000004,Standard
 DIABETES W CC,7595.1764706,Standard
 CELLULITIS W/O MCC,8465.0277778,Standard
" ACUTE MYOCARDIAL INFARCTION, DISCHARGED ALIVE W CC",8869.307692299999,Standard
" CIRCULATORY DISORDERS EXCEPT AMI, W CARD CATH W/O MCC",12438.666667,Standard
 HEART FAILURE & SHOCK W MCC,12470.578947,Standard
 HEART FAILURE & SHOCK W CC,8892.457142899999,Standard
 SEPTICEMIA OR SEVERE SEPSIS W/O MV >96 HOURS W MCC,16172.46875,Standard
 CARDIAC ARRHYTHMIA & CONDUCTION DISORDERS W MCC,10241.0,Standard
 SYNCOPE & COLLAPSE,7106.875,Standard
 OTHER CIRCULATORY SYSTEM DIAGNOSES W MCC,17801.384615,Standard
 MAJOR SMALL & LARGE BOWEL PROCEDURES W MCC,65167.25,Standard
 MAJOR SMALL & LARGE BOWEL PROCEDURES W CC,22885.764706,Standard
 MAJOR GASTROINTESTINAL DISORDERS & PERITONEAL INFECTIONS W MCC,14629.571429,Standard
 MAJOR GASTROINTESTINAL DISORDERS & PERITONEAL INFECTIONS W CC,23030.928571,Standard
 CARDIAC ARRHYTHMIA & CONDUCTION DISORDERS W CC,6926.578947399999,Standard
 RENAL FAILURE W CC,8044.652173899999,Standard
" MISC DISORDERS OF NUTRITION,METABOLISM,FLUIDS/ELECTROLYTES W MCC",10253.3125,Standard
 KIDNEY & URINARY TRACT INFECTIONS W/O MCC,7107.173913,Standard
 RESPIRATORY SYSTEM DIAGNOSIS W VENTILATOR SUPPORT >96 HOURS,55230.666667,Standard
 RESPIRATORY SYSTEM DIAGNOSIS W VENTILATOR SUPPORT <=96 HOURS,24339.047619,Standard
" ""ACUTE MYOCARDIAL INFARCTION, DISCHARGED ALIVE W MCC""",13167.884615,Standard
 INTRACRANIAL HEMORRHAGE OR CEREBRAL INFARCTION W MCC,17999.055556,Standard
 OTHER KIDNEY & URINARY TRACT DIAGNOSES W CC,9138.1818182,Standard
 OTHER KIDNEY & URINARY TRACT DIAGNOSES W MCC,14083.390244,Standard
 KIDNEY & URINARY TRACT INFECTIONS W MCC,9431.9285714,Standard
