Description,Charge,Category
Level 2 Breast/Lymphatic Surgery and Related Procedures,4348.4741666666605,DRG
 SIMPLE PNEUMONIA & PLEURISY W MCC,12215.884298,Standard
 CHRONIC OBSTRUCTIVE PULMONARY DISEASE W CC,8156.2,Standard
 CHRONIC OBSTRUCTIVE PULMONARY DISEASE W MCC,10288.3125,Standard
 PULMONARY EDEMA & RESPIRATORY FAILURE,11094.373913,Standard
 RESPIRATORY NEOPLASMS W MCC,15072.608696000001,Standard
 RESPIRATORY INFECTIONS & INFLAMMATIONS W MCC,15724.645833,Standard
 PULMONARY EMBOLISM W/O MCC,8128.5,Standard
 OTHER RESP SYSTEM O.R. PROCEDURES W MCC,33998.090909,Standard
Level 2 Excision/ Biopsy/ Incision and Drainage,1318.93281481481,DRG
Level 3 Excision/ Biopsy/ Incision and Drainage,2196.47125,DRG
 SIMPLE PNEUMONIA & PLEURISY W CC,8324.9767442,Standard
Level 3 Musculoskeletal Procedures,2572.90568181817,DRG
Level 2 Musculoskeletal Procedures,1302.21038461538,DRG
Level 1 Breast/Lymphatic Surgery and Related Procedures,2689.23999999999,DRG
 PULMONARY EMBOLISM W MCC,12495.6,Standard
 RESPIRATORY SYSTEM DIAGNOSIS W VENTILATOR SUPPORT >96 HOURS,47124.0,Standard
 CORONARY BYPASS W CARDIAC CATH W/O MCC,50589.75,Standard
Level 4 Musculoskeletal Procedures,5461.962380952371,DRG
 CARDIAC ARRHYTHMIA & CONDUCTION DISORDERS W/O CC/MCC,5321.1875,Standard
 CARDIAC ARRHYTHMIA & CONDUCTION DISORDERS W CC,7092.0454545,Standard
 CARDIAC ARRHYTHMIA & CONDUCTION DISORDERS W MCC,10572.595238,Standard
 HYPERTENSION W/O MCC,6438.125,Standard
 PERIPHERAL VASCULAR DISORDERS W MCC,13166.083333,Standard
 HEART FAILURE & SHOCK W/O CC/MCC,6205.3809524,Standard
Comprehensive Observation Services,2292.82924731185,DRG
 HEART FAILURE & SHOCK W CC,8487.3902439,Standard
 HEART FAILURE & SHOCK W MCC,12703.587983,Standard
" CIRCULATORY DISORDERS EXCEPT AMI, W CARD CATH W/O MCC",10378.558824,Standard
 RESPIRATORY SYSTEM DIAGNOSIS W VENTILATOR SUPPORT <=96 HOURS,21058.066667,Standard
" ""CIRCULATORY DISORDERS EXCEPT AMI, W CARD CATH W MCC""",19024.435897,Standard
" ""ACUTE MYOCARDIAL INFARCTION, DISCHARGED ALIVE W MCC""",14263.510203999998,Standard
 AORTIC AND HEART ASSIST PROCEDURES EXCEPT PULSATION BALLOON W/O MCC,35239.25,Standard
 OTHER VASCULAR PROCEDURES W/O CC/MCC,15738.235294,Standard
 OTHER VASCULAR PROCEDURES W CC,21902.655172,Standard
 OTHER VASCULAR PROCEDURES W MCC,27848.043477999996,Standard
 PERC CARDIOVASC PROC W DRUG,18973.842857,Standard
 PERCUTANEOUS CARDIOVASCULAR PROCEDURES W DRUG,31433.692307999998,Standard
"Level 3 Extraocular, Repair, and Plastic Eye Procedures",1785.72,DRG
 PERMANENT CARDIAC PACEMAKER IMPLANT W CC,22108.222222,Standard
 PERMANENT CARDIAC PACEMAKER IMPLANT W MCC,34136.857143,Standard
" ACUTE MYOCARDIAL INFARCTION, DISCHARGED ALIVE W CC",8866.56,Standard
Level 5 Musculoskeletal Procedures,11160.177878787801,DRG
Level 4 Airway Endoscopy,2579.54,DRG
 SEIZURES W/O MCC,7488.2307692,Standard
Level 2 Laparoscopy and Related Services,7957.841521739109,DRG
 INTRACRANIAL HEMORRHAGE OR CEREBRAL INFARCTION W MCC,16313.868132,Standard
 INTRACRANIAL HEMORRHAGE OR CEREBRAL INFARCTION W CC OR TPA IN 24 HRS,9244.8971963,Standard
 INTRACRANIAL HEMORRHAGE OR CEREBRAL INFARCTION W/O CC/MCC,7267.5,Standard
 TRANSIENT ISCHEMIA W/O THROMBOLYTIC,6905.9583333,Standard
 NONSPECIFIC CEREBROVASCULAR DISORDERS W MCC,13865.75,Standard
 NONSPECIFIC CEREBROVASCULAR DISORDERS W CC,8905.4545455,Standard
" TRAUMATIC STUPOR & COMA, COMA <1 HR W MCC",17713.291666999998,Standard
Level 1 Laparoscopy and Related Services,4392.4669957081605,DRG
" ""TRAUMATIC STUPOR & COMA, COMA <1 HR W CC""",16812.761905,Standard
 OTHER DISORDERS OF NERVOUS SYSTEM W CC,8451.4117647,Standard
Level 3 Urology and Related Services,1614.9565625,DRG
Level 4 Urology and Related Services,2658.58999999999,DRG
Level 5 Urology and Related Services,3653.5799999999895,DRG
Level 4 Gynecologic Procedures,2240.59999999999,DRG
Level 5 Gynecologic Procedures,3948.78486486486,DRG
Level 1 Nerve Procedures,1587.70999999999,DRG
 SYNCOPE & COLLAPSE,7278.5405405,Standard
 OTHER DISORDERS OF NERVOUS SYSTEM W MCC,13503.636363999998,Standard
Abdominal/Peritoneal/Biliary and Related Procedures,2869.06086956522,DRG
Complex GI Procedures,4232.86,DRG
Level 3 Upper GI Procedures,2604.44888888888,DRG
 SEIZURES W MCC,13506.346153999999,Standard
Level 3 Airway Endoscopy,1304.97,DRG
Level 5 ENT Procedures,4143.7215625,DRG
Level 1 Endovascular Procedures,2382.82118343195,DRG
" TRACH W MV >96 HRS OR PDX EXC FACE, MOUTH & NECK W/O MAJ O.R.",74061.0,Standard
  CRANIOTOMY W MAJOR DEVICE IMPLANT OR ACUTE COMPLEX CNS PDX W MCC OR,46551.565217,Standard
Level 2 Endovascular Procedures,4928.606,DRG
 CRANIO W MAJOR DEV IMPL/ACUTE COMPLEX CNS PDX W/O MCC,35003.3125,Standard
 CRANIOTOMY & ENDOVASCULAR INTRACRANIAL PROCEDURES W MCC,35789.55,Standard
 EXTRACRANIAL PROCEDURES W/O CC/MCC,9897.75,Standard
 DEGENERATIVE NERVOUS SYSTEM DISORDERS W MCC,16158.692308000002,Standard
 DEGENERATIVE NERVOUS SYSTEM DISORDERS W/O MCC,9632.307692299999,Standard
" ""ISCHEMIC STROKE, PRECEREBRAL OCCLUSION OR TRANSIENT ISCHEMIA W THRO",16550.090909,Standard
Level 3 Endovascular Procedures,11638.603548387,DRG
Level 4 Endovascular Procedures,18412.596363636298,DRG
Level 2 Pacemaker and Similar Procedures,7770.16,DRG
Level 3 Pacemaker and Similar Procedures,10369.5253333333,DRG
Level 2 ICD and Similar Procedures,36839.329696969704,DRG
Level 2 Upper GI Procedures,1386.43113095238,DRG
 MAJOR CHEST PROCEDURES W MCC,53440.3125,Standard
 OTHER CIRCULATORY SYSTEM DIAGNOSES W MCC,16556.352941,Standard
 PERMANENT CARDIAC PACEMAKER IMPLANT W/O CC/MCC,18459.923077,Standard
 MAJOR SMALL & LARGE BOWEL PROCEDURES W CC,19830.272727,Standard
 MEDICAL BACK PROBLEMS W/O MCC,8005.387096799999,Standard
 MEDICAL BACK PROBLEMS W MCC,12933.5,Standard
 PATHOLOGICAL FRACTURES & MUSCULOSKELET & CONN TISS MALIG W CC,10240.545455,Standard
 FRACTURES OF HIP & PELVIS W/O MCC,6955.7,Standard
 FRACTURES OF HIP & PELVIS W MCC,11258.181818000001,Standard
" LOWER EXTREM & HUMER PROC EXCEPT HIP,FOOT,FEMUR W CC",18565.133333,Standard
 MAJOR JOINT/LIMB REATTACHMENT PROCEDURE OF UPPER EXTREMITIES,20853.185185,Standard
 HIP & FEMUR PROCEDURES EXCEPT MAJOR JOINT W/O CC/MCC,14579.25,Standard
 HIP & FEMUR PROCEDURES EXCEPT MAJOR JOINT W CC,17264.850746,Standard
 HIP & FEMUR PROCEDURES EXCEPT MAJOR JOINT W MCC,24546.088235,Standard
 CERVICAL SPINAL FUSION W CC,24412.25,Standard
" FX, SPRN, STRN & DISL EXCEPT FEMUR, HIP, PELVIS & THIGH W/O MCC",7314.0,Standard
 MAJOR HIP AND KNEE JOINT REPLACEMENT OR REATTACHMENT OF LOWER EXTREM,17766.045455,Standard
 REVISION OF HIP OR KNEE REPLACEMENT W CC,27945.896552,Standard
 SPINAL FUSION EXCEPT CERVICAL W/O MCC,33910.365385000005,Standard
 COMBINED ANTERIOR/POSTERIOR SPINAL FUSION W/O CC/MCC,42977.238095,Standard
 COMBINED ANTERIOR/POSTERIOR SPINAL FUSION W CC,54939.05,Standard
 DISORDERS OF PANCREAS EXCEPT MALIGNANCY W CC,7871.2,Standard
 MALIGNANCY OF HEPATOBILIARY SYSTEM OR PANCREAS W MCC,14490.882353,Standard
 CIRRHOSIS & ALCOHOLIC HEPATITIS W MCC,16519.578946999998,Standard
 LAPAROSCOPIC CHOLECYSTECTOMY W/O C.D.E. W CC,14539.055556,Standard
 LAPAROSCOPIC CHOLECYSTECTOMY W/O C.D.E. W MCC,21424.2,Standard
 OTHER DIGESTIVE SYSTEM DIAGNOSES W CC,9626.7,Standard
 OTHER DIGESTIVE SYSTEM DIAGNOSES W MCC,16281.5,Standard
 MAJOR HIP AND KNEE JOINT REPLACEMENT OR REATTACHMENT OF LOWER EXTREM,25764.553571,Standard
 CELLULITIS W MCC,11715.9375,Standard
 CELLULITIS W/O MCC,8069.636363600001,Standard
 DIABETES W MCC,11212.56,Standard
 LYMPHOMA & NON,26777.090909,Standard
 COAGULATION DISORDERS,15576.545455000001,Standard
 RED BLOOD CELL DISORDERS W/O MCC,7997.9090909,Standard
 OTHER KIDNEY & URINARY TRACT DIAGNOSES W CC,9286.8333333,Standard
 OTHER KIDNEY & URINARY TRACT DIAGNOSES W MCC,13503.203125,Standard
 URINARY STONES W/O ESW LITHOTRIPSY W/O MCC,7430.533333300001,Standard
 KIDNEY & URINARY TRACT INFECTIONS W/O MCC,7138.027026999999,Standard
 KIDNEY & URINARY TRACT INFECTIONS W MCC,9802.9787234,Standard
 RENAL FAILURE W CC,8276.455555600001,Standard
 MAJOR SMALL & LARGE BOWEL PROCEDURES W MCC,43156.258064999995,Standard
 RENAL FAILURE W MCC,12936.29,Standard
 CHEMOTHERAPY W/O ACUTE LEUKEMIA AS SECONDARY DIAGNOSIS W CC,11171.235294,Standard
 INFECTIOUS & PARASITIC DISEASES W O.R. PROCEDURE W MCC,43438.345679000005,Standard
 INFECTIOUS & PARASITIC DISEASES W O.R. PROCEDURE W CC,20606.75,Standard
 POSTOPERATIVE & POST,15066.454544999999,Standard
 SEPTICEMIA OR SEVERE SEPSIS W MV >96 HOURS OR PERIPHERAL EXTRACORPOR,50638.526316,Standard
 SEPTICEMIA OR SEVERE SEPSIS W/O MV >96 HOURS W MCC,15786.460474000001,Standard
 SEPTICEMIA OR SEVERE SEPSIS W/O MV >96 HOURS W/O MCC,9620.3302752,Standard
" ""MISC DISORDERS OF NUTRITION,METABOLISM,FLUIDS/ELECTROLYTES W/O MCC""",6827.060606100001,Standard
" MISC DISORDERS OF NUTRITION,METABOLISM,FLUIDS/ELECTROLYTES W MCC",10374.756757,Standard
 DIABETES W CC,7693.5714286,Standard
 POISONING & TOXIC EFFECTS OF DRUGS W MCC,21371.972973,Standard
 SIGNS & SYMPTOMS W/O MCC,6982.3333333,Standard
 EXTENSIVE O.R. PROCEDURE UNRELATED TO PRINCIPAL DIAGNOSIS W MCC,39319.263158,Standard
 EXTENSIVE O.R. PROCEDURE UNRELATED TO PRINCIPAL DIAGNOSIS W CC,20381.0,Standard
" ""ESOPHAGITIS, GASTROENT & MISC DIGEST DISORDERS W/O MCC""",7226.2028986000005,Standard
" ESOPHAGITIS, GASTROENT & MISC DIGEST DISORDERS W MCC",10954.777778,Standard
 REVISION OF HIP OR KNEE REPLACEMENT W/O CC/MCC,23838.027027,Standard
 MAJOR GASTROINTESTINAL DISORDERS & PERITONEAL INFECTIONS W MCC,14661.133333000002,Standard
 G.I. OBSTRUCTION W CC,7723.9117647,Standard
 G.I. OBSTRUCTION W MCC,12555.75,Standard
 G.I. HEMORRHAGE W CC,8719.065934100001,Standard
 G.I. HEMORRHAGE W MCC,15779.716981,Standard
 MAJOR SMALL & LARGE BOWEL PROCEDURES W/O CC/MCC,13979.066667,Standard
 G.I. OBSTRUCTION W/O CC/MCC,5624.75,Standard
