Description,Charge,Category
 PERMANENT CARDIAC PACEMAKER IMPLANT W/O CC/MCC,19780.789474,Standard
 CARDIAC VALVE & OTH MAJ CARDIOTHORACIC PROC W CARD CATH W MCC,98557.3125,Standard
 CORONARY BYPASS W CARDIAC CATH W/O MCC,70926.105263,Standard
 CARDIAC VALVE & OTH MAJ CARDIOTHORACIC PROC W/O CARD CATH W MCC,112089.15789000002,Standard
 CARDIAC VALVE & OTH MAJ CARDIOTHORACIC PROC W/O CARD CATH W CC,58052.363636,Standard
 OTHER CARDIOTHORACIC PROCEDURES W MCC,68434.272727,Standard
 CORONARY BYPASS W/O CARDIAC CATH W MCC,58457.583333,Standard
 CORONARY BYPASS W/O CARDIAC CATH W/O MCC,40025.59375,Standard
 OTHER HEART ASSIST SYSTEM IMPLANT,139126.6875,Standard
 PERMANENT CARDIAC PACEMAKER IMPLANT W MCC,32140.586207,Standard
 PERMANENT CARDIAC PACEMAKER IMPLANT W CC,23489.607143,Standard
 PERCUTANEOUS CARDIOVASCULAR PROCEDURES W DRUG,30050.620252999997,Standard
 SEPTICEMIA OR SEVERE SEPSIS W/O MV >96 HOURS W MCC,16836.555556,Standard
 PERC CARDIOVASC PROC W NON,18166.454545,Standard
 OTHER VASCULAR PROCEDURES W MCC,42391.190475999996,Standard
 OTHER VASCULAR PROCEDURES W CC,24578.692308,Standard
 ENDOVASCULAR CARDIAC VALVE REPLACEMENT W MCC,78197.421053,Standard
 ENDOVASCULAR CARDIAC VALVE REPLACEMENT W/O MCC,56675.4,Standard
 PERCUTANEOUS INTRACARDIAC PROCEDURES W MCC,38901.266667,Standard
 PERCUTANEOUS INTRACARDIAC PROCEDURES W/O MCC,25163.655172,Standard
 BRONCHITIS & ASTHMA W CC/MCC,9064.857142899999,Standard
Comprehensive Observation Services,2445.89843657815,DRG
"Level 4 Extraocular, Repair, and Plastic Eye Procedures",2552.25545454545,DRG
 HIP & FEMUR PROCEDURES EXCEPT MAJOR JOINT W CC,18505.125,Standard
 PERC CARDIOVASC PROC W DRUG,21008.904,Standard
 SIMPLE PNEUMONIA & PLEURISY W CC,9095.6153846,Standard
 RESPIRATORY INFECTIONS & INFLAMMATIONS W MCC,16236.294118000002,Standard
 CHRONIC OBSTRUCTIVE PULMONARY DISEASE W CC,8768.0714286,Standard
Level 2 Musculoskeletal Procedures,1398.74509803921,DRG
 OTHER CARDIOTHORACIC PROCEDURES W/O MCC,46166.285714,Standard
 POISONING & TOXIC EFFECTS OF DRUGS W MCC,13000.846154,Standard
Level 2 Breast/Lymphatic Surgery and Related Procedures,5085.57,DRG
Level 1 Breast/Lymphatic Surgery and Related Procedures,2879.0047222222197,DRG
Level 3 Excision/ Biopsy/ Incision and Drainage,2451.78592592592,DRG
Level 2 Excision/ Biopsy/ Incision and Drainage,1408.86999999999,DRG
 MAJOR JOINT/LIMB REATTACHMENT PROCEDURE OF UPPER EXTREMITIES,22425.513514,Standard
 OTHER MUSCULOSKELET SYS & CONN TISS O.R. PROC W/O CC/MCC,13921.875,Standard
 MEDICAL BACK PROBLEMS W/O MCC,8608.6666667,Standard
 CELLULITIS W/O MCC,8399.3478261,Standard
 DIABETES W CC,8411.25,Standard
" MISC DISORDERS OF NUTRITION,METABOLISM,FLUIDS/ELECTROLYTES W MCC",11200.888889,Standard
" ""MISC DISORDERS OF NUTRITION,METABOLISM,FLUIDS/ELECTROLYTES W/O MCC""",7467.259259299999,Standard
 RENAL FAILURE W MCC,13356.076923,Standard
 RENAL FAILURE W CC,9581.1212121,Standard
 KIDNEY & URINARY TRACT INFECTIONS W MCC,10057.866667,Standard
 KIDNEY & URINARY TRACT INFECTIONS W/O MCC,7900.766666699999,Standard
 OTHER KIDNEY & URINARY TRACT DIAGNOSES W MCC,16037.684211000002,Standard
 RED BLOOD CELL DISORDERS W/O MCC,8691.3529412,Standard
 INFECTIOUS & PARASITIC DISEASES W O.R. PROCEDURE W MCC,49370.680851,Standard
Level 3 Musculoskeletal Procedures,2749.54568,DRG
Level 4 Musculoskeletal Procedures,6013.77732026145,DRG
Level 5 Musculoskeletal Procedures,11873.7169230769,DRG
Level 5 ENT Procedures,4241.661499999989,DRG
 CHRONIC OBSTRUCTIVE PULMONARY DISEASE W MCC,10978.661765,Standard
 PULMONARY EDEMA & RESPIRATORY FAILURE,17673.897436000003,Standard
 SEPTICEMIA OR SEVERE SEPSIS W/O MV >96 HOURS W/O MCC,11409.351852,Standard
 PULMONARY EMBOLISM W/O MCC,8805.3636364,Standard
Level 1 ICD and Similar Procedures,27120.1415384615,DRG
Level 4 Pacemaker and Similar Procedures,21075.9903846154,DRG
Level 3 Pacemaker and Similar Procedures,11564.8599999999,DRG
Level 2 Pacemaker and Similar Procedures,8424.60999999999,DRG
 SEIZURES W/O MCC,9453.423076899999,Standard
 SEIZURES W MCC,15055.294118000002,Standard
 SIMPLE PNEUMONIA & PLEURISY W MCC,12720.261537999999,Standard
 TRANSIENT ISCHEMIA W/O THROMBOLYTIC,7494.642857100001,Standard
 INTRACRANIAL HEMORRHAGE OR CEREBRAL INFARCTION W MCC,17823.966666999997,Standard
 EXTRACRANIAL PROCEDURES W/O CC/MCC,10717.818181999999,Standard
 CRANIOTOMY & ENDOVASCULAR INTRACRANIAL PROCEDURES W MCC,37320.7,Standard
" ""ECMO OR TRACH W MV >96 HRS OR PDX EXC FACE, MOUTH & NECK W MAJ O.R.",213651.58333,Standard
Level 3 Electrophysiologic Procedures,22949.4463610314,DRG
Level 2 Electrophysiologic Procedures,5707.53999999999,DRG
Level 4 Endovascular Procedures,19840.7082978723,DRG
Level 3 Endovascular Procedures,12539.4364248704,DRG
Level 2 ICD and Similar Procedures,39590.83,DRG
Level 1 Endovascular Procedures,2563.3977177177,DRG
 INTRACRANIAL HEMORRHAGE OR CEREBRAL INFARCTION W CC OR TPA IN 24 HRS,11841.1,Standard
Level 2 Endovascular Procedures,5398.64421052631,DRG
Level 3 Lower GI Procedures,2441.73674999999,DRG
Complex GI Procedures,4188.76615384615,DRG
 MAJOR HIP AND KNEE JOINT REPLACEMENT OR REATTACHMENT OF LOWER EXTREM,19584.433333,Standard
 CERVICAL SPINAL FUSION W CC,28059.454545,Standard
 CERVICAL SPINAL FUSION W/O CC/MCC,21689.368421,Standard
Level 5 Urology and Related Services,3916.82,DRG
Level 4 Urology and Related Services,2850.1299999999896,DRG
 G.I. HEMORRHAGE W MCC,15933.37931,Standard
 G.I. HEMORRHAGE W CC,9427.0238095,Standard
 REVISION OF HIP OR KNEE REPLACEMENT W/O CC/MCC,25276.0,Standard
Level 2 Upper GI Procedures,1508.58,DRG
Level 6 Urology and Related Services,8722.20999999999,DRG
Level 4 Gynecologic Procedures,2402.0299999999897,DRG
Level 1 Nerve Procedures,1697.3859016393399,DRG
Level 3 Neurostimulator and Related Procedures,22953.919999999904,DRG
Level 4 Neurostimulator and Related Procedures,35534.61,DRG
Level 3 Urology and Related Services,1663.68595238095,DRG
Level 2 Laparoscopy and Related Services,8721.1,DRG
 G.I. OBSTRUCTION W CC,8647.5714286,Standard
Level 2 Intraocular Procedures,3794.13064864865,DRG
 SPINAL FUSION EXCEPT CERVICAL W/O MCC,37180.88,Standard
 MAJOR SMALL & LARGE BOWEL PROCEDURES W CC,22439.578946999998,Standard
" ESOPHAGITIS, GASTROENT & MISC DIGEST DISORDERS W MCC",11803.2,Standard
" ""ACUTE MYOCARDIAL INFARCTION, DISCHARGED ALIVE W MCC""",15395.643836000001,Standard
" ACUTE MYOCARDIAL INFARCTION, DISCHARGED ALIVE W CC",9779.25,Standard
" ""ESOPHAGITIS, GASTROENT & MISC DIGEST DISORDERS W/O MCC""",8050.3243243,Standard
" ""ACUTE MYOCARDIAL INFARCTION, DISCHARGED ALIVE W/O CC/MCC""",7571.9090909,Standard
" ""CIRCULATORY DISORDERS EXCEPT AMI, W CARD CATH W MCC""",20515.666666999998,Standard
" CIRCULATORY DISORDERS EXCEPT AMI, W CARD CATH W/O MCC",11328.222222,Standard
 MAJOR SMALL & LARGE BOWEL PROCEDURES W/O CC/MCC,21143.4,Standard
 HEART FAILURE & SHOCK W MCC,13482.206731,Standard
 CARDIAC ARRHYTHMIA & CONDUCTION DISORDERS W MCC,11388.235294,Standard
 CARDIAC ARRHYTHMIA & CONDUCTION DISORDERS W CC,7693.0882353,Standard
 CARDIAC ARRHYTHMIA & CONDUCTION DISORDERS W/O CC/MCC,5841.722222199999,Standard
 SYNCOPE & COLLAPSE,8200.8,Standard
 CHEST PAIN,7074.380952399999,Standard
 OTHER CIRCULATORY SYSTEM DIAGNOSES W MCC,16758.235294,Standard
 OTHER CIRCULATORY SYSTEM DIAGNOSES W CC,8702.5454545,Standard
 HEART FAILURE & SHOCK W CC,9313.3870968,Standard
"Level 3 Extraocular, Repair, and Plastic Eye Procedures",1914.38,DRG
Level 1 Intraocular Procedures,1994.65957031249,DRG
Abdominal/Peritoneal/Biliary and Related Procedures,3026.88080645161,DRG
Level 1 Laparoscopy and Related Services,4703.790504201671,DRG
