Description,Charge,Category
 RESPIRATORY NEOPLASMS W MCC,11856.294118000002,Standard
 RESPIRATORY INFECTIONS & INFLAMMATIONS W CC,10170.384615,Standard
 RESPIRATORY INFECTIONS & INFLAMMATIONS W MCC,14344.702381000001,Standard
 OTHER RESP SYSTEM O.R. PROCEDURES W MCC,27973.133332999998,Standard
 DYSEQUILIBRIUM,5678.3333333,Standard
 SEIZURES W/O MCC,6817.380952399999,Standard
 SEIZURES W MCC,12539.307692,Standard
 OTHER DISORDERS OF NERVOUS SYSTEM W CC,7177.6153846,Standard
 OTHER DISORDERS OF NERVOUS SYSTEM W MCC,12216.375,Standard
 TRANSIENT ISCHEMIA W/O THROMBOLYTIC,6203.25,Standard
 INTRACRANIAL HEMORRHAGE OR CEREBRAL INFARCTION W/O CC/MCC,6069.8181818,Standard
 INTRACRANIAL HEMORRHAGE OR CEREBRAL INFARCTION W CC OR TPA IN 24 HRS,8253.2727273,Standard
 INTRACRANIAL HEMORRHAGE OR CEREBRAL INFARCTION W MCC,13507.40625,Standard
 DEGENERATIVE NERVOUS SYSTEM DISORDERS W/O MCC,8496.5882353,Standard
 DEGENERATIVE NERVOUS SYSTEM DISORDERS W MCC,13583.142856999999,Standard
 CRANIOTOMY & ENDOVASCULAR INTRACRANIAL PROCEDURES W MCC,55332.333333,Standard
" TRACH W MV >96 HRS OR PDX EXC FACE, MOUTH & NECK W/O MAJ O.R.",79655.071429,Standard
 CARDIAC ARRHYTHMIA & CONDUCTION DISORDERS W CC,6389.5405405,Standard
 CARDIAC ARRHYTHMIA & CONDUCTION DISORDERS W/O CC/MCC,4824.6,Standard
 SYNCOPE & COLLAPSE,6497.8405797,Standard
 CHEST PAIN,5819.490909100001,Standard
 OTHER CIRCULATORY SYSTEM DIAGNOSES W MCC,13843.5,Standard
 MAJOR SMALL & LARGE BOWEL PROCEDURES W MCC,41861.4,Standard
 MAJOR SMALL & LARGE BOWEL PROCEDURES W CC,21030.916666999998,Standard
 OTHER DIGESTIVE SYSTEM O.R. PROCEDURES W CC,13905.384615,Standard
 DIGESTIVE MALIGNANCY W CC,9876.1818182,Standard
Level 3 Endovascular Procedures,9952.75500000001,DRG
Level 2 Endovascular Procedures,4102.3675,DRG
Level 1 Endovascular Procedures,1920.1217272727201,DRG
Level 4 Musculoskeletal Procedures,5128.0599999999895,DRG
 HEART FAILURE & SHOCK W CC,7566.525,Standard
 HEART FAILURE & SHOCK W MCC,11772.160156,Standard
" CIRCULATORY DISORDERS EXCEPT AMI, W CARD CATH W/O MCC",9546.642857100001,Standard
" ""CIRCULATORY DISORDERS EXCEPT AMI, W CARD CATH W MCC""",15305.941175999998,Standard
" ACUTE MYOCARDIAL INFARCTION, EXPIRED W MCC",15079.785713999998,Standard
" ACUTE MYOCARDIAL INFARCTION, DISCHARGED ALIVE W CC",7603.3529412,Standard
" ""ACUTE MYOCARDIAL INFARCTION, DISCHARGED ALIVE W MCC""",13216.535714,Standard
 OTHER VASCULAR PROCEDURES W MCC,26076.714286000002,Standard
 PERC CARDIOVASC PROC W DRUG,19158.136363999998,Standard
 PERCUTANEOUS CARDIOVASCULAR PROCEDURES W DRUG,28139.285713999998,Standard
 PERMANENT CARDIAC PACEMAKER IMPLANT W CC,21293.944444,Standard
 PERMANENT CARDIAC PACEMAKER IMPLANT W MCC,29946.277777999996,Standard
 RESPIRATORY SYSTEM DIAGNOSIS W VENTILATOR SUPPORT <=96 HOURS,22278.913043,Standard
 RESPIRATORY SYSTEM DIAGNOSIS W VENTILATOR SUPPORT >96 HOURS,44517.25,Standard
 BRONCHITIS & ASTHMA W CC/MCC,7467.8333333,Standard
Level 2 Excision/ Biopsy/ Incision and Drainage,1161.88423076922,DRG
Level 3 Excision/ Biopsy/ Incision and Drainage,2070.5394736842104,DRG
Level 2 Breast/Lymphatic Surgery and Related Procedures,4401.32,DRG
Level 2 Musculoskeletal Procedures,1160.3211764705802,DRG
Level 3 Musculoskeletal Procedures,2222.90870967741,DRG
 SIMPLE PNEUMONIA & PLEURISY W/O CC/MCC,5820.9166667,Standard
 SIMPLE PNEUMONIA & PLEURISY W CC,7590.055555600001,Standard
 SIMPLE PNEUMONIA & PLEURISY W MCC,10944.664179000001,Standard
 CHRONIC OBSTRUCTIVE PULMONARY DISEASE W/O CC/MCC,6048.3076923,Standard
 CHRONIC OBSTRUCTIVE PULMONARY DISEASE W CC,7411.8333333,Standard
 CHRONIC OBSTRUCTIVE PULMONARY DISEASE W MCC,9381.232142899999,Standard
 PULMONARY EDEMA & RESPIRATORY FAILURE,9811.423076899999,Standard
 G.I. HEMORRHAGE W MCC,13481.575,Standard
 G.I. HEMORRHAGE W CC,7826.7090909,Standard
 SIGNS & SYMPTOMS W/O MCC,6049.857142899999,Standard
Level 2 Pacemaker and Similar Procedures,7102.444,DRG
 MAJOR JOINT/LIMB REATTACHMENT PROCEDURE OF UPPER EXTREMITIES,18768.548387,Standard
 OTHER MUSCULOSKELET SYS & CONN TISS O.R. PROC W/O CC/MCC,11367.0,Standard
 FRACTURES OF HIP & PELVIS W/O MCC,6271.0,Standard
 MEDICAL BACK PROBLEMS W/O MCC,7117.690909100001,Standard
 SIGNS & SYMPTOMS OF MUSCULOSKELETAL SYSTEM & CONN TISSUE W/O MCC,6438.8181818,Standard
" FX, SPRN, STRN & DISL EXCEPT FEMUR, HIP, PELVIS & THIGH W/O MCC",6645.5882353,Standard
 CELLULITIS W MCC,11131.35,Standard
 CELLULITIS W/O MCC,7102.3333333,Standard
" ""TRAUMA TO THE SKIN, SUBCUT TISS & BREAST W/O MCC""",6942.652173899999,Standard
 DIABETES W MCC,11353.0,Standard
 DIABETES W CC,7007.606060600001,Standard
" MISC DISORDERS OF NUTRITION,METABOLISM,FLUIDS/ELECTROLYTES W MCC",9399.1296296,Standard
" ""MISC DISORDERS OF NUTRITION,METABOLISM,FLUIDS/ELECTROLYTES W/O MCC""",6145.0227273,Standard
 RENAL FAILURE W MCC,12892.87931,Standard
 RENAL FAILURE W CC,7545.9333333,Standard
 KIDNEY & URINARY TRACT INFECTIONS W MCC,8564.6153846,Standard
 KIDNEY & URINARY TRACT INFECTIONS W/O MCC,6571.0714286,Standard
 OTHER KIDNEY & URINARY TRACT DIAGNOSES W MCC,12160.565217,Standard
 OTHER KIDNEY & URINARY TRACT DIAGNOSES W CC,7664.0769231,Standard
 UTERINE & ADNEXA PROC FOR NON,7872.5454545,Standard
 RED BLOOD CELL DISORDERS W MCC,10659.333333,Standard
 RED BLOOD CELL DISORDERS W/O MCC,7538.05,Standard
 COAGULATION DISORDERS,13254.947368000001,Standard
 EXTENSIVE O.R. PROCEDURE UNRELATED TO PRINCIPAL DIAGNOSIS W MCC,25107.666666999998,Standard
 INFECTIOUS & PARASITIC DISEASES W O.R. PROCEDURE W MCC,35009.732143,Standard
 SEPTICEMIA OR SEVERE SEPSIS W MV >96 HOURS OR PERIPHERAL EXTRACORPOR,47259.911111,Standard
 SEPTICEMIA OR SEVERE SEPSIS W/O MV >96 HOURS W MCC,14836.498715,Standard
 HIP & FEMUR PROCEDURES EXCEPT MAJOR JOINT W/O CC/MCC,12924.083333,Standard
 SEPTICEMIA OR SEVERE SEPSIS W/O MV >96 HOURS W/O MCC,8630.6630435,Standard
 HIP & FEMUR PROCEDURES EXCEPT MAJOR JOINT W CC,15647.360656,Standard
 MAJOR HIP AND KNEE JOINT REPLACEMENT OR REATTACHMENT OF LOWER EXTREM,18256.199029,Standard
Level 3 Pacemaker and Similar Procedures,8639.30068965517,DRG
Level 2 ICD and Similar Procedures,34083.7558333333,DRG
Level 2 Upper GI Procedures,1142.39999999999,DRG
Level 3 Lower GI Procedures,2099.97,DRG
Abdominal/Peritoneal/Biliary and Related Procedures,2529.5679999999998,DRG
Level 1 Laparoscopy and Related Services,4014.4524444444396,DRG
Level 2 Laparoscopy and Related Services,6449.61625,DRG
Level 3 Urology and Related Services,1378.6755555555499,DRG
Level 4 Urology and Related Services,2342.471,DRG
Level 5 Urology and Related Services,3339.41411764706,DRG
Level 4 Gynecologic Procedures,1847.97842105263,DRG
Level 5 Gynecologic Procedures,2668.34909090909,DRG
Comprehensive Observation Services,1984.4081196581199,DRG
 PERIPHERAL VASCULAR DISORDERS W CC,8020.307692300001,Standard
 G.I. HEMORRHAGE W/O CC/MCC,5433.0,Standard
 G.I. OBSTRUCTION W CC,6972.9047619,Standard
 G.I. OBSTRUCTION W/O CC/MCC,5256.3076923,Standard
" ESOPHAGITIS, GASTROENT & MISC DIGEST DISORDERS W MCC",9891.1818182,Standard
" ""ESOPHAGITIS, GASTROENT & MISC DIGEST DISORDERS W/O MCC""",6211.8695652,Standard
 OTHER DIGESTIVE SYSTEM DIAGNOSES W MCC,14072.25,Standard
 OTHER DIGESTIVE SYSTEM DIAGNOSES W CC,6808.4482759,Standard
 LAPAROSCOPIC CHOLECYSTECTOMY W/O C.D.E. W CC,11005.526316,Standard
 MALIGNANCY OF HEPATOBILIARY SYSTEM OR PANCREAS W MCC,11359.230769,Standard
" ""DISORDERS OF LIVER EXCEPT MALIG,CIRR,ALC HEPA W MCC""",14235.571429,Standard
" DISORDERS OF LIVER EXCEPT MALIG,CIRR,ALC HEPA W CC",7414.4166667,Standard
 SPINAL FUSION EXCEPT CERVICAL W/O MCC,35038.947368,Standard
 MAJOR HIP AND KNEE JOINT REPLACEMENT OR REATTACHMENT OF LOWER EXTREM,28852.133332999998,Standard
 HIP & FEMUR PROCEDURES EXCEPT MAJOR JOINT W MCC,22605.263158,Standard
Level 3 Electrophysiologic Procedures,16191.092368421001,DRG
 CARDIAC ARRHYTHMIA & CONDUCTION DISORDERS W MCC,9302.3714286,Standard
