Description,Charge,Category
 DIABETES W CC,9380.9285714,Standard
 DIABETES W MCC,13784.40625,Standard
 O.R. PROCEDURES FOR OBESITY W/O CC/MCC,17101.653846,Standard
 CELLULITIS W/O MCC,9542.4,Standard
 HEART FAILURE & SHOCK W CC,10086.758620999999,Standard
" MISC DISORDERS OF NUTRITION,METABOLISM,FLUIDS/ELECTROLYTES W MCC",15281.518519,Standard
 HIP & FEMUR PROCEDURES EXCEPT MAJOR JOINT W CC,19895.619048,Standard
 HIP & FEMUR PROCEDURES EXCEPT MAJOR JOINT W MCC,26728.0,Standard
 MAJOR HIP AND KNEE JOINT REPLACEMENT OR REATTACHMENT OF LOWER EXTREM,21844.481481,Standard
 MAJOR JOINT/LIMB REATTACHMENT PROCEDURE OF UPPER EXTREMITIES,24676.153846,Standard
 CHRONIC OBSTRUCTIVE PULMONARY DISEASE W CC,10208.823529000001,Standard
 SEIZURES W MCC,17899.0,Standard
 SIMPLE PNEUMONIA & PLEURISY W CC,10301.368421,Standard
Level 2 Excision/ Biopsy/ Incision and Drainage,1415.02958333333,DRG
 TRANSIENT ISCHEMIA W/O THROMBOLYTIC,8558.833333300001,Standard
 INTRACRANIAL HEMORRHAGE OR CEREBRAL INFARCTION W CC OR TPA IN 24 HRS,10951.277778,Standard
 INTRACRANIAL HEMORRHAGE OR CEREBRAL INFARCTION W MCC,17693.131579,Standard
 POISONING & TOXIC EFFECTS OF DRUGS W MCC,14141.310344999998,Standard
 SEPTICEMIA OR SEVERE SEPSIS W/O MV >96 HOURS W/O MCC,11229.047618999999,Standard
 SEPTICEMIA OR SEVERE SEPSIS W/O MV >96 HOURS W MCC,18682.594118,Standard
 INFECTIOUS & PARASITIC DISEASES W O.R. PROCEDURE W MCC,56227.65,Standard
 OTHER KIDNEY & URINARY TRACT DIAGNOSES W MCC,16619.9375,Standard
 KIDNEY & URINARY TRACT INFECTIONS W/O MCC,9020.9285714,Standard
 KIDNEY & URINARY TRACT INFECTIONS W MCC,11489.947368000001,Standard
 RENAL FAILURE W CC,10230.925926,Standard
 SIMPLE PNEUMONIA & PLEURISY W MCC,14056.265306000001,Standard
Level 3 Excision/ Biopsy/ Incision and Drainage,2436.53384615384,DRG
Level 2 Musculoskeletal Procedures,1419.94897435897,DRG
Level 2 Breast/Lymphatic Surgery and Related Procedures,5068.691176470589,DRG
 CARDIAC ARRHYTHMIA & CONDUCTION DISORDERS W MCC,12819.285714,Standard
Comprehensive Observation Services,2463.21510471202,DRG
Level 1 Intraocular Procedures,2016.03838541666,DRG
Level 1 Nerve Procedures,1702.09999999999,DRG
Level 4 Gynecologic Procedures,2397.31749999999,DRG
Level 5 Urology and Related Services,3913.42576923077,DRG
Level 3 Urology and Related Services,1792.13,DRG
Level 1 Laparoscopy and Related Services,4731.7792592592605,DRG
Level 2 Upper GI Procedures,1506.6356410256399,DRG
Level 5 Musculoskeletal Procedures,12058.6276190476,DRG
" ACUTE MYOCARDIAL INFARCTION, DISCHARGED ALIVE W CC",9890.8461538,Standard
" ""ACUTE MYOCARDIAL INFARCTION, DISCHARGED ALIVE W MCC""",15637.219512,Standard
 CHRONIC OBSTRUCTIVE PULMONARY DISEASE W MCC,12279.166667,Standard
Level 1 Breast/Lymphatic Surgery and Related Procedures,2882.98999999999,DRG
 RESPIRATORY SYSTEM DIAGNOSIS W VENTILATOR SUPPORT <=96 HOURS,24206.346154,Standard
 PULMONARY EDEMA & RESPIRATORY FAILURE,13647.770833,Standard
 RESPIRATORY INFECTIONS & INFLAMMATIONS W MCC,16946.933333,Standard
 CARDIAC ARRHYTHMIA & CONDUCTION DISORDERS W CC,8700.0,Standard
 OTHER CIRCULATORY SYSTEM DIAGNOSES W MCC,18993.214286000002,Standard
 G.I. HEMORRHAGE W MCC,17308.258065,Standard
 SEIZURES W/O MCC,9339.6363636,Standard
 G.I. OBSTRUCTION W CC,9584.7222222,Standard
" ESOPHAGITIS, GASTROENT & MISC DIGEST DISORDERS W MCC",13291.181818000001,Standard
" ""ESOPHAGITIS, GASTROENT & MISC DIGEST DISORDERS W/O MCC""",8606.75,Standard
 REVISION OF HIP OR KNEE REPLACEMENT W CC,28041.833333,Standard
Level 4 Musculoskeletal Procedures,5959.47787234042,DRG
Level 3 Musculoskeletal Procedures,2792.103,DRG
 HEART FAILURE & SHOCK W MCC,15069.698324,Standard
 BRONCHITIS & ASTHMA W CC/MCC,10275.96,Standard
 G.I. HEMORRHAGE W CC,11228.965517,Standard
Level 3 Upper GI Procedures,2894.28636363636,DRG
" ""MISC DISORDERS OF NUTRITION,METABOLISM,FLUIDS/ELECTROLYTES W/O MCC""",9451.5,Standard
 RENAL FAILURE W MCC,15060.933333,Standard
