Description,Charge,Category
 RENAL FAILURE W MCC,11405.972222,Standard
 EXTENSIVE O.R. PROCEDURE UNRELATED TO PRINCIPAL DIAGNOSIS W MCC,34254.8,Standard
 SIGNS & SYMPTOMS W/O MCC,6189.4117647,Standard
 SIGNS & SYMPTOMS W MCC,9133.285714299998,Standard
 POISONING & TOXIC EFFECTS OF DRUGS W MCC,10989.058824,Standard
 SEPTICEMIA OR SEVERE SEPSIS W/O MV >96 HOURS W MCC,14850.83705,Standard
 SEPTICEMIA OR SEVERE SEPSIS W MV >96 HOURS OR PERIPHERAL EXTRACORPOR,54478.816667,Standard
 POSTOPERATIVE & POST,9115.5454545,Standard
 PULMONARY EMBOLISM W MCC,11761.214286,Standard
 RED BLOOD CELL DISORDERS W/O MCC,7148.2121212,Standard
 RED BLOOD CELL DISORDERS W MCC,10315.923077,Standard
" ""UTERINE,ADNEXA PROC FOR NON",9734.1818182,Standard
 OTHER KIDNEY & URINARY TRACT DIAGNOSES W CC,7973.636363600001,Standard
 OTHER KIDNEY & URINARY TRACT DIAGNOSES W MCC,12976.818181999999,Standard
 KIDNEY & URINARY TRACT INFECTIONS W/O MCC,6629.3333333,Standard
 KIDNEY & URINARY TRACT INFECTIONS W MCC,8318.7912088,Standard
 RENAL FAILURE W/O CC/MCC,5116.9090909,Standard
 RENAL FAILURE W CC,8079.231884100001,Standard
 SEPTICEMIA OR SEVERE SEPSIS W/O MV >96 HOURS W/O MCC,8384.5904762,Standard
 ENDOCRINE DISORDERS W CC,7919.0,Standard
 RESPIRATORY INFECTIONS & INFLAMMATIONS W MCC,14187.211268000001,Standard
Comprehensive Observation Services,2144.7165146579896,DRG
Level 1 Endovascular Procedures,2227.0896774193498,DRG
Level 5 ENT Procedures,3967.1185135135206,DRG
Level 4 ENT Procedures,2011.4199999999898,DRG
Level 5 Airway Endoscopy,4449.14,DRG
Level 4 Airway Endoscopy,2273.64449999999,DRG
Level 3 Airway Endoscopy,1181.92333333333,DRG
Level 5 Musculoskeletal Procedures,10260.81,DRG
Level 4 Musculoskeletal Procedures,5128.06000000001,DRG
Level 3 Musculoskeletal Procedures,2383.50029411764,DRG
Level 2 Musculoskeletal Procedures,1187.26923076923,DRG
Level 4 Breast/Lymphatic Surgery and Related Procedures,11707.85,DRG
Level 2 Breast/Lymphatic Surgery and Related Procedures,4401.32,DRG
Level 1 Breast/Lymphatic Surgery and Related Procedures,2287.11428571428,DRG
Level 3 Excision/ Biopsy/ Incision and Drainage,2107.16818181818,DRG
Level 2 Excision/ Biopsy/ Incision and Drainage,1224.83623893804,DRG
Level 2 Endovascular Procedures,4651.14,DRG
" ""MISC DISORDERS OF NUTRITION,METABOLISM,FLUIDS/ELECTROLYTES W/O MCC""",5971.235294100001,Standard
Level 3 Endovascular Procedures,10511.0556363636,DRG
Level 2 Pacemaker and Similar Procedures,7114.3999999999905,DRG
Level 2 Intraocular Procedures,3175.4992307692305,DRG
Level 4 Neurostimulator and Related Procedures,28344.7861538461,DRG
Level 5 Gynecologic Procedures,3668.98,DRG
Level 4 Gynecologic Procedures,2000.88374999999,DRG
Level 5 Urology and Related Services,3238.69866666667,DRG
Level 4 Urology and Related Services,2394.1111764705897,DRG
Level 3 Urology and Related Services,1491.34384615384,DRG
Level 2 Laparoscopy and Related Services,7370.989999999991,DRG
Level 1 Laparoscopy and Related Services,4051.79645669291,DRG
Abdominal/Peritoneal/Biliary and Related Procedures,2662.7599999999898,DRG
Level 3 Lower GI Procedures,2118.05,DRG
Level 3 Upper GI Procedures,2509.36999999999,DRG
Level 2 Upper GI Procedures,1298.83201923077,DRG
Level 2 ICD and Similar Procedures,34082.393684210496,DRG
Level 3 Pacemaker and Similar Procedures,9699.25351351351,DRG
Level 3 Electrophysiologic Procedures,19004.356666666597,DRG
" MISC DISORDERS OF NUTRITION,METABOLISM,FLUIDS/ELECTROLYTES W MCC",9054.65,Standard
 INFECTIOUS & PARASITIC DISEASES W O.R. PROCEDURE W MCC,42177.567568,Standard
 DIABETES W MCC,12241.619048,Standard
" ""CIRCULATORY DISORDERS EXCEPT AMI, W CARD CATH W MCC""",16717.583333000002,Standard
" ""ACUTE MYOCARDIAL INFARCTION, DISCHARGED ALIVE W/O CC/MCC""",6099.363636399999,Standard
" ACUTE MYOCARDIAL INFARCTION, DISCHARGED ALIVE W CC",7414.25,Standard
" ""ACUTE MYOCARDIAL INFARCTION, DISCHARGED ALIVE W MCC""",13591.83871,Standard
 OTHER MAJOR CARDIOVASCULAR PROCEDURES W MCC,50244.727273000004,Standard
 OTHER CIRCULATORY SYSTEM O.R. PROCEDURES,25473.071429,Standard
" CIRCULATORY DISORDERS EXCEPT AMI, W CARD CATH W/O MCC",9516.3157895,Standard
 CARDIAC PACEMAKER REVISION EXCEPT DEVICE REPLACEMENT W MCC,31820.692307999998,Standard
 OTHER VASCULAR PROCEDURES W MCC,26609.15,Standard
 PERC CARDIOVASC PROC W DRUG,16107.609756,Standard
 PERCUTANEOUS CARDIOVASCULAR PROCEDURES W DRUG,25701.956522,Standard
 PERMANENT CARDIAC PACEMAKER IMPLANT W/O CC/MCC,16157.909091,Standard
 OTHER HEART ASSIST SYSTEM IMPLANT,128034.45455,Standard
 RESPIRATORY SYSTEM DIAGNOSIS W VENTILATOR SUPPORT <=96 HOURS,18695.181818,Standard
 OTHER VASCULAR PROCEDURES W/O CC/MCC,15596.0,Standard
 RESPIRATORY SYSTEM DIAGNOSIS W VENTILATOR SUPPORT >96 HOURS,43047.833332999995,Standard
 HEART FAILURE & SHOCK W MCC,11478.868243,Standard
 HEART FAILURE & SHOCK W/O CC/MCC,5495.5882353,Standard
 MAJOR SMALL & LARGE BOWEL PROCEDURES W/O CC/MCC,12716.117647,Standard
 MAJOR SMALL & LARGE BOWEL PROCEDURES W CC,20882.424241999997,Standard
 MAJOR SMALL & LARGE BOWEL PROCEDURES W MCC,38342.833332999995,Standard
" STOMACH, ESOPHAGEAL & DUODENAL PROC W MCC",38790.133333,Standard
 OTHER CIRCULATORY SYSTEM DIAGNOSES W MCC,16129.96,Standard
 CHEST PAIN,6180.7142857,Standard
 HEART FAILURE & SHOCK W CC,7434.1,Standard
 SYNCOPE & COLLAPSE,6489.2894737,Standard
 CARDIAC ARRHYTHMIA & CONDUCTION DISORDERS W CC,6135.1388889,Standard
 HYPERTENSION W/O MCC,5548.8461538,Standard
 PERIPHERAL VASCULAR DISORDERS W/O CC/MCC,6793.4285714,Standard
 DIABETES W CC,6970.1724138,Standard
 PERIPHERAL VASCULAR DISORDERS W CC,8790.7777778,Standard
 PERIPHERAL VASCULAR DISORDERS W MCC,9992.5,Standard
 CARDIAC ARRHYTHMIA & CONDUCTION DISORDERS W/O CC/MCC,4927.0882353,Standard
 BRONCHITIS & ASTHMA W/O CC/MCC,6308.6666667,Standard
 BRONCHITIS & ASTHMA W CC/MCC,7300.7454545,Standard
 SIMPLE PNEUMONIA & PLEURISY W/O CC/MCC,6551.483871,Standard
 NONSPECIFIC CEREBROVASCULAR DISORDERS W MCC,12767.875,Standard
 CRANIAL & PERIPHERAL NERVE DISORDERS W MCC,10743.363636,Standard
 CRANIAL & PERIPHERAL NERVE DISORDERS W/O MCC,7514.2352941,Standard
 OTHER DISORDERS OF NERVOUS SYSTEM W MCC,13143.0,Standard
 SEIZURES W MCC,12516.105263,Standard
 SEIZURES W/O MCC,6361.8461538,Standard
 TRANSIENT ISCHEMIA W/O THROMBOLYTIC,6086.4,Standard
 HEADACHES W/O MCC,10023.0,Standard
 CRANIAL/FACIAL PROCEDURES W/O CC/MCC,11924.625,Standard
 MAJOR CHEST PROCEDURES W MCC,38001.578947,Standard
 OTHER RESP SYSTEM O.R. PROCEDURES W MCC,31823.695652,Standard
 PULMONARY EDEMA & RESPIRATORY FAILURE,9612.9565217,Standard
 RESPIRATORY NEOPLASMS W MCC,12904.285714,Standard
 RESPIRATORY INFECTIONS & INFLAMMATIONS W CC,9729.5,Standard
 CRANIAL/FACIAL PROCEDURES W CC/MCC,19246.9,Standard
 INTRACRANIAL HEMORRHAGE OR CEREBRAL INFARCTION W/O CC/MCC,6496.25,Standard
 INTRACRANIAL HEMORRHAGE OR CEREBRAL INFARCTION W CC OR TPA IN 24 HRS,7985.2307692,Standard
 INTRACRANIAL HEMORRHAGE OR CEREBRAL INFARCTION W MCC,14779.738094999999,Standard
 SIMPLE PNEUMONIA & PLEURISY W CC,7229.608695700001,Standard
 SIMPLE PNEUMONIA & PLEURISY W MCC,10430.078431,Standard
 CHRONIC OBSTRUCTIVE PULMONARY DISEASE W/O CC/MCC,5951.5238094999995,Standard
 CHRONIC OBSTRUCTIVE PULMONARY DISEASE W CC,7153.485714300001,Standard
 REVISION OF HIP OR KNEE REPLACEMENT W/O CC/MCC,23112.571429,Standard
 CHRONIC OBSTRUCTIVE PULMONARY DISEASE W MCC,8863.205128200001,Standard
 CARDIAC ARRHYTHMIA & CONDUCTION DISORDERS W MCC,15037.707316999999,Standard
" TRACH W MV >96 HRS OR PDX EXC FACE, MOUTH & NECK W/O MAJ O.R.",98735.583333,Standard
  CRANIOTOMY W MAJOR DEVICE IMPLANT OR ACUTE COMPLEX CNS PDX W MCC OR,44121.72,Standard
 CRANIO W MAJOR DEV IMPL/ACUTE COMPLEX CNS PDX W/O MCC,30981.083333,Standard
 CRANIOTOMY & ENDOVASCULAR INTRACRANIAL PROCEDURES W MCC,33918.88235299999,Standard
 CRANIOTOMY & ENDOVASCULAR INTRACRANIAL PROCEDURES W/O CC/MCC,17290.375,Standard
 EXTRACRANIAL PROCEDURES W/O CC/MCC,9284.423076899999,Standard
 NERVOUS SYSTEM NEOPLASMS W MCC,13256.727273,Standard
" ""ISCHEMIC STROKE, PRECEREBRAL OCCLUSION OR TRANSIENT ISCHEMIA W THRO",14631.947368000001,Standard
 MAJOR GASTROINTESTINAL DISORDERS & PERITONEAL INFECTIONS W MCC,13037.357143000001,Standard
 MAJOR GASTROINTESTINAL DISORDERS & PERITONEAL INFECTIONS W CC,8236.25,Standard
 URINARY STONES W/O ESW LITHOTRIPSY W/O MCC,7172.625,Standard
 REVISION OF HIP OR KNEE REPLACEMENT W CC,29386.076923,Standard
 LAPAROSCOPIC CHOLECYSTECTOMY W/O C.D.E. W MCC,21635.5,Standard
 SPINAL FUSION EXCEPT CERVICAL W/O MCC,30216.176471,Standard
 MAJOR HIP AND KNEE JOINT REPLACEMENT OR REATTACHMENT OF LOWER EXTREM,33305.681818,Standard
 MAJOR HIP AND KNEE JOINT REPLACEMENT OR REATTACHMENT OF LOWER EXTREM,17062.685039,Standard
 HIP & FEMUR PROCEDURES EXCEPT MAJOR JOINT W MCC,21136.4375,Standard
 HIP & FEMUR PROCEDURES EXCEPT MAJOR JOINT W CC,16307.314815,Standard
 DIGESTIVE MALIGNANCY W MCC,16576.666666999998,Standard
 LAPAROSCOPIC CHOLECYSTECTOMY W/O C.D.E. W CC,16326.454544999999,Standard
 LAPAROSCOPIC CHOLECYSTECTOMY W/O C.D.E. W/O CC/MCC,11281.35,Standard
 OTHER DIGESTIVE SYSTEM DIAGNOSES W/O CC/MCC,5530.9166667,Standard
 DISORDERS OF PANCREAS EXCEPT MALIGNANCY W CC,6984.75,Standard
" DISORDERS OF LIVER EXCEPT MALIG,CIRR,ALC HEPA W CC",7344.9090909,Standard
 DISORDERS OF THE BILIARY TRACT W MCC,12157.076923,Standard
 HIP & FEMUR PROCEDURES EXCEPT MAJOR JOINT W/O CC/MCC,13778.368421000001,Standard
 MAJOR JOINT/LIMB REATTACHMENT PROCEDURE OF UPPER EXTREMITIES,18248.875,Standard
 CIRRHOSIS & ALCOHOLIC HEPATITIS W CC,7827.5882353,Standard
 FRACTURES OF HIP & PELVIS W/O MCC,5796.1578947,Standard
 CELLULITIS W/O MCC,7092.466666699999,Standard
 CELLULITIS W MCC,10929.965517,Standard
 OTHER MUSCULOSKELET SYS & CONN TISS O.R. PROC W CC,14290.909091,Standard
 G.I. HEMORRHAGE W MCC,13362.479167,Standard
 G.I. HEMORRHAGE W CC,7599.1333333,Standard
 G.I. HEMORRHAGE W/O CC/MCC,5232.25,Standard
 G.I. OBSTRUCTION W CC,6958.0833333,Standard
" FX, SPRN, STRN & DISL EXCEPT FEMUR, HIP, PELVIS & THIGH W/O MCC",6549.136363600001,Standard
" ESOPHAGITIS, GASTROENT & MISC DIGEST DISORDERS W MCC",11158.214286,Standard
" ""ESOPHAGITIS, GASTROENT & MISC DIGEST DISORDERS W/O MCC""",6902.2837838,Standard
 MEDICAL BACK PROBLEMS W MCC,10330.764706,Standard
 OTHER DIGESTIVE SYSTEM DIAGNOSES W MCC,12700.3125,Standard
 OTHER DIGESTIVE SYSTEM DIAGNOSES W CC,7438.7037037,Standard
 MEDICAL BACK PROBLEMS W/O MCC,7651.785714300001,Standard
 G.I. OBSTRUCTION W/O CC/MCC,5210.3888889,Standard
