Description,Charge,Category
 INTRACRANIAL HEMORRHAGE OR CEREBRAL INFARCTION W CC OR TPA IN 24 HRS,7891.393939399999,Standard
 NONSPECIFIC CEREBROVASCULAR DISORDERS W CC,10083.333333,Standard
 SEIZURES W MCC,12740.631579,Standard
 SEIZURES W/O MCC,6723.466666699999,Standard
 RESPIRATORY INFECTIONS & INFLAMMATIONS W MCC,13925.363636000002,Standard
 PULMONARY EDEMA & RESPIRATORY FAILURE,9650.1470588,Standard
 CHRONIC OBSTRUCTIVE PULMONARY DISEASE W MCC,9209.175,Standard
 CHRONIC OBSTRUCTIVE PULMONARY DISEASE W CC,7373.5714286,Standard
 SIMPLE PNEUMONIA & PLEURISY W MCC,10344.285714,Standard
 SIMPLE PNEUMONIA & PLEURISY W CC,7394.510204100001,Standard
 BRONCHITIS & ASTHMA W CC/MCC,7780.0,Standard
 RESPIRATORY SYSTEM DIAGNOSIS W VENTILATOR SUPPORT <=96 HOURS,19784.047619,Standard
 CORONARY BYPASS W CARDIAC CATH W MCC,46545.545455,Standard
 PERMANENT CARDIAC PACEMAKER IMPLANT W MCC,25995.0,Standard
 PERMANENT CARDIAC PACEMAKER IMPLANT W CC,19686.75,Standard
 PERCUTANEOUS CARDIOVASCULAR PROCEDURES W DRUG,24742.527778,Standard
 PERC CARDIOVASC PROC W DRUG,17383.263158,Standard
 OTHER VASCULAR PROCEDURES W MCC,25423.285713999998,Standard
 ENDOVASCULAR CARDIAC VALVE REPLACEMENT W MCC,58815.181818,Standard
" ""ACUTE MYOCARDIAL INFARCTION, DISCHARGED ALIVE W MCC""",13485.066667,Standard
" ACUTE MYOCARDIAL INFARCTION, DISCHARGED ALIVE W CC",8329.0714286,Standard
" ACUTE MYOCARDIAL INFARCTION, EXPIRED W MCC",14457.166667,Standard
" ""CIRCULATORY DISORDERS EXCEPT AMI, W CARD CATH W MCC""",18744.578946999998,Standard
" CIRCULATORY DISORDERS EXCEPT AMI, W CARD CATH W/O MCC",9111.857142899999,Standard
 HEART FAILURE & SHOCK W MCC,11384.563636,Standard
 HEART FAILURE & SHOCK W CC,7544.4333333,Standard
 HEART FAILURE & SHOCK W/O CC/MCC,5475.9090909,Standard
 CARDIAC ARRHYTHMIA & CONDUCTION DISORDERS W MCC,10344.871795000001,Standard
 TRANSIENT ISCHEMIA W/O THROMBOLYTIC,6148.0833333,Standard
 INTRACRANIAL HEMORRHAGE OR CEREBRAL INFARCTION W MCC,14270.359375,Standard
 DEGENERATIVE NERVOUS SYSTEM DISORDERS W/O MCC,9478.090909100001,Standard
 CRANIOTOMY & ENDOVASCULAR INTRACRANIAL PROCEDURES W MCC,39215.461537999996,Standard
Level 2 Excision/ Biopsy/ Incision and Drainage,1223.77241935483,DRG
Level 3 Excision/ Biopsy/ Incision and Drainage,2126.5,DRG
Level 1 Breast/Lymphatic Surgery and Related Procedures,2495.09999999999,DRG
Level 2 Breast/Lymphatic Surgery and Related Procedures,4299.9165,DRG
Level 2 Musculoskeletal Procedures,1234.75999999999,DRG
Level 3 Musculoskeletal Procedures,2419.20499999999,DRG
Level 4 Musculoskeletal Procedures,5071.72074626865,DRG
Level 5 Musculoskeletal Procedures,10172.9066666666,DRG
Level 5 Airway Endoscopy,4449.14,DRG
Level 5 ENT Procedures,3968.5899999999897,DRG
Level 1 Endovascular Procedures,2214.36222222221,DRG
Level 2 Endovascular Procedures,4561.69461538462,DRG
Level 3 Endovascular Procedures,9811.89933333333,DRG
 CARDIAC ARRHYTHMIA & CONDUCTION DISORDERS W CC,6257.1111111,Standard
Level 3 Electrophysiologic Procedures,18993.7960869565,DRG
Level 2 Upper GI Procedures,1282.50061538461,DRG
Level 3 Upper GI Procedures,2508.75727272727,DRG
Abdominal/Peritoneal/Biliary and Related Procedures,2662.76,DRG
Level 1 Laparoscopy and Related Services,3944.01013157895,DRG
Level 2 Laparoscopy and Related Services,7370.99,DRG
Level 4 Urology and Related Services,2466.66,DRG
Level 5 Urology and Related Services,3264.2711111111103,DRG
Level 4 Gynecologic Procedures,2078.83999999999,DRG
Level 5 Gynecologic Procedures,3668.98,DRG
Level 1 Intraocular Procedures,1727.9152054794502,DRG
Comprehensive Observation Services,2137.05519373452,DRG
" ""ECMO OR TRACH W MV >96 HRS OR PDX EXC FACE, MOUTH & NECK W MAJ O.R.",141522.18182,Standard
  CRANIOTOMY W MAJOR DEVICE IMPLANT OR ACUTE COMPLEX CNS PDX W MCC OR,42301.588235,Standard
Level 3 Pacemaker and Similar Procedures,9832.12,DRG
 CARDIAC ARRHYTHMIA & CONDUCTION DISORDERS W/O CC/MCC,4749.0,Standard
 PERIPHERAL VASCULAR DISORDERS W MCC,10543.636364,Standard
 CHEST PAIN,6131.142857100001,Standard
 DIABETES W MCC,10298.538462,Standard
 DIABETES W CC,6610.4545455,Standard
" MISC DISORDERS OF NUTRITION,METABOLISM,FLUIDS/ELECTROLYTES W MCC",10449.179487000001,Standard
" ""MISC DISORDERS OF NUTRITION,METABOLISM,FLUIDS/ELECTROLYTES W/O MCC""",6218.7586206999995,Standard
 ENDOCRINE DISORDERS W MCC,11652.0,Standard
 RENAL FAILURE W MCC,11423.942857,Standard
 RENAL FAILURE W CC,8667.826923100001,Standard
 KIDNEY & URINARY TRACT INFECTIONS W MCC,8412.3513514,Standard
 KIDNEY & URINARY TRACT INFECTIONS W/O MCC,6986.863636399999,Standard
 OTHER KIDNEY & URINARY TRACT DIAGNOSES W MCC,13079.166667,Standard
 SYNCOPE & COLLAPSE,6867.6666667,Standard
 RED BLOOD CELL DISORDERS W MCC,10581.409091,Standard
 RED BLOOD CELL DISORDERS W/O MCC,7110.035714300001,Standard
 INFECTIOUS & PARASITIC DISEASES W O.R. PROCEDURE W MCC,49149.875,Standard
 VIRAL ILLNESS W MCC,11672.461538,Standard
 SEPTICEMIA OR SEVERE SEPSIS W MV >96 HOURS OR PERIPHERAL EXTRACORPOR,51739.9,Standard
 SEPTICEMIA OR SEVERE SEPSIS W/O MV >96 HOURS W MCC,14856.711712,Standard
 SEPTICEMIA OR SEVERE SEPSIS W/O MV >96 HOURS W/O MCC,8630.7894737,Standard
 POISONING & TOXIC EFFECTS OF DRUGS W MCC,11078.333333,Standard
 CELLULITIS W/O MCC,6841.548387100001,Standard
 CELLULITIS W MCC,11244.0,Standard
 OTHER KIDNEY & URINARY TRACT DIAGNOSES W CC,8026.636363600001,Standard
 MEDICAL BACK PROBLEMS W/O MCC,7403.0416667,Standard
" FX, SPRN, STRN & DISL EXCEPT FEMUR, HIP, PELVIS & THIGH W/O MCC",6683.8666667,Standard
 OTHER CIRCULATORY SYSTEM DIAGNOSES W MCC,16513.636363999998,Standard
 MAJOR SMALL & LARGE BOWEL PROCEDURES W MCC,36932.36,Standard
 MAJOR SMALL & LARGE BOWEL PROCEDURES W CC,19281.148148,Standard
 G.I. HEMORRHAGE W CC,7677.6666667,Standard
 G.I. OBSTRUCTION W MCC,12561.333333,Standard
 G.I. OBSTRUCTION W CC,7072.25,Standard
 G.I. OBSTRUCTION W/O CC/MCC,5103.4117647,Standard
" ESOPHAGITIS, GASTROENT & MISC DIGEST DISORDERS W MCC",9719.8333333,Standard
 G.I. HEMORRHAGE W MCC,13442.6,Standard
 OTHER DIGESTIVE SYSTEM DIAGNOSES W MCC,14636.714286000002,Standard
 OTHER DIGESTIVE SYSTEM DIAGNOSES W CC,7553.357142899999,Standard
 LAPAROSCOPIC CHOLECYSTECTOMY W/O C.D.E. W MCC,18224.727273,Standard
 SPINAL FUSION EXCEPT CERVICAL W/O MCC,30582.0625,Standard
 MAJOR HIP AND KNEE JOINT REPLACEMENT OR REATTACHMENT OF LOWER EXTREM,17494.841121,Standard
 HIP & FEMUR PROCEDURES EXCEPT MAJOR JOINT W MCC,21577.294118,Standard
 HIP & FEMUR PROCEDURES EXCEPT MAJOR JOINT W CC,15288.542856999999,Standard
" LOWER EXTREM & HUMER PROC EXCEPT HIP,FOOT,FEMUR W CC",16853.727273,Standard
" ""ESOPHAGITIS, GASTROENT & MISC DIGEST DISORDERS W/O MCC""",6927.3166667,Standard
 FRACTURES OF HIP & PELVIS W/O MCC,6042.0833333,Standard
