Description,Charge,Category
Level 4 Neurostimulator and Related Procedures,30576.77,DRG
Comprehensive Observation Services,2139.85391304345,DRG
Level 7 Radiation Therapy,7337.01,DRG
"Level 4 Extraocular, Repair, and Plastic Eye Procedures",2694.1769642857103,DRG
"Level 3 Extraocular, Repair, and Plastic Eye Procedures",1596.3611897106,DRG
Level 2 Intraocular Procedures,3265.2215373961,DRG
Level 1 Intraocular Procedures,1739.70627036815,DRG
Level 2 Excision/ Biopsy/ Incision and Drainage,1215.2902906208801,DRG
Level 3 Neurostimulator and Related Procedures,18751.2476190476,DRG
Level 6 Gynecologic Procedures,5875.42999999999,DRG
Level 1 Endovascular Procedures,2161.30774509802,DRG
Cochlear Implant Procedure,32963.2141666666,DRG
Level 5 ENT Procedures,3901.3570512820397,DRG
Level 4 ENT Procedures,2011.4199999999898,DRG
Level 5 Airway Endoscopy,4446.12338461539,DRG
Level 4 Airway Endoscopy,2392.22303030302,DRG
Level 3 Airway Endoscopy,1186.0408163265301,DRG
Level 2 Endovascular Procedures,4577.89370078741,DRG
Level 5 Musculoskeletal Procedures,9833.27625,DRG
Level 3 Musculoskeletal Procedures,2386.8336486486396,DRG
Level 2 Musculoskeletal Procedures,1232.4459677419302,DRG
Level 4 Breast/Lymphatic Surgery and Related Procedures,11707.85,DRG
Level 3 Breast/Lymphatic Surgery and Related Procedures,5836.53272727272,DRG
Level 2 Breast/Lymphatic Surgery and Related Procedures,4401.32,DRG
Level 1 Breast/Lymphatic Surgery and Related Procedures,2495.1,DRG
Level 3 Excision/ Biopsy/ Incision and Drainage,2086.16849056603,DRG
Level 4 Musculoskeletal Procedures,4990.75439999999,DRG
Level 3 Endovascular Procedures,10274.1604819276,DRG
Level 4 Endovascular Procedures,15772.3190361445,DRG
Level 3 Electrophysiologic Procedures,19359.3018333332,DRG
Level 5 Gynecologic Procedures,3585.59409090909,DRG
Level 4 Gynecologic Procedures,2078.83999999999,DRG
Level 6 Urology and Related Services,7371.94999999999,DRG
Level 5 Urology and Related Services,3310.76673267326,DRG
Level 4 Urology and Related Services,2463.89643939393,DRG
Level 3 Urology and Related Services,1530.86335329341,DRG
Level 2 Laparoscopy and Related Services,7199.57162790697,DRG
Level 1 Laparoscopy and Related Services,4024.9017449664098,DRG
Abdominal/Peritoneal/Biliary and Related Procedures,2580.8289230769196,DRG
Complex GI Procedures,3804.2236923076794,DRG
Level 3 Lower GI Procedures,2003.5608108108102,DRG
Level 3 Upper GI Procedures,2440.54053333333,DRG
Level 2 Upper GI Procedures,1283.87399999998,DRG
Level 2 ICD and Similar Procedures,33108.732,DRG
Level 1 ICD and Similar Procedures,23966.78,DRG
Level 3 Pacemaker and Similar Procedures,9697.55880597014,DRG
Level 2 Pacemaker and Similar Procedures,7114.3999999999905,DRG
Level 1 Nerve Procedures,1473.08999999999,DRG
Level 7 Urology and Related Services,16634.84,DRG
" ""TRAUMATIC STUPOR & COMA, COMA <1 HR W CC""",16427.428571,Standard
 CHEST PAIN,11123.090909,Standard
 POISONING & TOXIC EFFECTS OF DRUGS W MCC,21144.4375,Standard
 OTHER O.R. PROCEDURES FOR INJURIES W CC,31591.153845999997,Standard
 OTHER O.R. PROCEDURES FOR INJURIES W MCC,70239.583333,Standard
 SEPTICEMIA OR SEVERE SEPSIS W/O MV >96 HOURS W/O MCC,17443.3625,Standard
 PATHOLOGICAL FRACTURES & MUSCULOSKELET & CONN TISS MALIG W CC,15030.333333,Standard
 MAJOR HIP AND KNEE JOINT REPLACEMENT OR REATTACHMENT OF LOWER EXTREM,28230.571429000003,Standard
" DISORDERS OF LIVER EXCEPT MALIG,CIRR,ALC HEPA W CC",16456.411765,Standard
" ""DISORDERS OF LIVER EXCEPT MALIG,CIRR,ALC HEPA W MCC""",40051.479452,Standard
 PERCUTANEOUS CARDIOVASCULAR PROCEDURES W DRUG,52102.725,Standard
 PERC CARDIOVASC PROC W DRUG,27809.21875,Standard
 OTHER VASCULAR PROCEDURES W MCC,64165.611111,Standard
 OTHER VASCULAR PROCEDURES W CC,33782.294118,Standard
 OTHER CIRCULATORY SYSTEM O.R. PROCEDURES,71073.071429,Standard
 ENDOVASCULAR CARDIAC VALVE REPLACEMENT W MCC,95055.967742,Standard
 ENDOVASCULAR CARDIAC VALVE REPLACEMENT W/O MCC,70036.65,Standard
 CELLULITIS W/O MCC,12821.545455,Standard
 AORTIC AND HEART ASSIST PROCEDURES EXCEPT PULSATION BALLOON W/O MCC,51737.846154,Standard
 COMPLICATIONS OF TREATMENT W MCC,34669.0,Standard
 COMPLICATIONS OF TREATMENT W CC,16286.8,Standard
 CARDIAC VALVE & OTH MAJ CARDIOTHORACIC PROC W/O CARD CATH W MCC,103652.38961,Standard
 CIRRHOSIS & ALCOHOLIC HEPATITIS W MCC,50065.972973,Standard
 OTHER CARDIOTHORACIC PROCEDURES W MCC,99615.368421,Standard
 OTHER CARDIOTHORACIC PROCEDURES W/O MCC,58018.083333,Standard
 CORONARY BYPASS W CARDIAC CATH W MCC,97068.090909,Standard
 CORONARY BYPASS W/O CARDIAC CATH W MCC,72999.24,Standard
 CORONARY BYPASS W/O CARDIAC CATH W/O MCC,48673.785714,Standard
 PERMANENT CARDIAC PACEMAKER IMPLANT W CC,36200.111111,Standard
" MISC DISORDERS OF NUTRITION,METABOLISM,FLUIDS/ELECTROLYTES W MCC",24627.040816,Standard
 DIABETES W CC,16868.076923,Standard
" THYROID, PARATHYROID & THYROGLOSSAL PROCEDURES W CC",23009.454545,Standard
 NON,81789.04347799999,Standard
 EXTENSIVE O.R. PROCEDURE UNRELATED TO PRINCIPAL DIAGNOSIS W CC,43845.769231,Standard
 EXTENSIVE O.R. PROCEDURE UNRELATED TO PRINCIPAL DIAGNOSIS W MCC,84345.763158,Standard
 SIGNS & SYMPTOMS W/O MCC,11700.142856999999,Standard
 ADRENAL & PITUITARY PROCEDURES W CC/MCC,38364.875,Standard
 OTHER MAJOR CARDIOVASCULAR PROCEDURES W MCC,72579.882353,Standard
 OTHER MAJOR CARDIOVASCULAR PROCEDURES W CC,50688.470588,Standard
 PERCUTANEOUS INTRACARDIAC PROCEDURES W MCC,64636.083333,Standard
 MAJOR GASTROINTESTINAL DISORDERS & PERITONEAL INFECTIONS W MCC,27335.923077,Standard
 MAJOR GASTROINTESTINAL DISORDERS & PERITONEAL INFECTIONS W CC,17407.588235,Standard
 DIGESTIVE MALIGNANCY W MCC,40898.666667000005,Standard
 G.I. HEMORRHAGE W MCC,48713.307692,Standard
 G.I. HEMORRHAGE W CC,16399.55814,Standard
 G.I. OBSTRUCTION W MCC,26652.5,Standard
 G.I. OBSTRUCTION W CC,16776.296296,Standard
 G.I. OBSTRUCTION W/O CC/MCC,11626.0,Standard
" ESOPHAGITIS, GASTROENT & MISC DIGEST DISORDERS W MCC",17972.684211,Standard
" ""ESOPHAGITIS, GASTROENT & MISC DIGEST DISORDERS W/O MCC""",16083.225,Standard
 OTHER DIGESTIVE SYSTEM DIAGNOSES W MCC,28332.0,Standard
 OTHER DIGESTIVE SYSTEM DIAGNOSES W CC,15559.15625,Standard
" ""PANCREAS, LIVER & SHUNT PROCEDURES W MCC""",68644.166667,Standard
" PANCREAS, LIVER & SHUNT PROCEDURES W CC",38716.896552,Standard
" ""PANCREAS, LIVER & SHUNT PROCEDURES W/O CC/MCC""",31429.615385,Standard
 MAJOR SMALL & LARGE BOWEL PROCEDURES W/O CC/MCC,22458.125,Standard
 MAJOR SMALL & LARGE BOWEL PROCEDURES W CC,40532.661017,Standard
 MAJOR SMALL & LARGE BOWEL PROCEDURES W MCC,130761.44,Standard
" ""STOMACH, ESOPHAGEAL & DUODENAL PROC W CC""",34880.64,Standard
 PERCUTANEOUS INTRACARDIAC PROCEDURES W/O MCC,34448.5,Standard
" ""ACUTE MYOCARDIAL INFARCTION, DISCHARGED ALIVE W MCC""",29521.46,Standard
" ACUTE MYOCARDIAL INFARCTION, DISCHARGED ALIVE W CC",15052.761905000001,Standard
" ""CIRCULATORY DISORDERS EXCEPT AMI, W CARD CATH W MCC""",81949.5,Standard
" CIRCULATORY DISORDERS EXCEPT AMI, W CARD CATH W/O MCC",19966.392857,Standard
 HEART FAILURE & SHOCK W MCC,27658.625,Standard
 HEART FAILURE & SHOCK W CC,16235.512821,Standard
 RESPIRATORY SYSTEM DIAGNOSIS W VENTILATOR SUPPORT <=96 HOURS,59190.888889,Standard
 PERIPHERAL VASCULAR DISORDERS W CC,16098.642856999999,Standard
 CARDIAC ARRHYTHMIA & CONDUCTION DISORDERS W MCC,20072.0,Standard
 CARDIAC ARRHYTHMIA & CONDUCTION DISORDERS W CC,13945.633333000002,Standard
 SYNCOPE & COLLAPSE,12976.555556,Standard
 DISORDERS OF PANCREAS EXCEPT MALIGNANCY W CC,16261.090909,Standard
 OTHER CIRCULATORY SYSTEM DIAGNOSES W MCC,39928.818182,Standard
 OTHER CIRCULATORY SYSTEM DIAGNOSES W CC,21643.111111000002,Standard
" STOMACH, ESOPHAGEAL & DUODENAL PROC W MCC",122915.84615,Standard
 HYPERTENSION W/O MCC,11297.0,Standard
 OTHER RESPIRATORY SYSTEM DIAGNOSES W/O MCC,14018.333333,Standard
 CARDIAC VALVE & OTH MAJ CARDIOTHORACIC PROC W/O CARD CATH W CC,71380.666667,Standard
 INTERSTITIAL LUNG DISEASE W MCC,31690.833333,Standard
 EXTRACRANIAL PROCEDURES W/O CC/MCC,13877.214286000002,Standard
 NERVOUS SYSTEM NEOPLASMS W MCC,18592.4375,Standard
 INTRACRANIAL HEMORRHAGE OR CEREBRAL INFARCTION W MCC,28760.903226,Standard
 INTRACRANIAL HEMORRHAGE OR CEREBRAL INFARCTION W CC OR TPA IN 24 HRS,15569.282050999998,Standard
 NONSPECIFIC CEREBROVASCULAR DISORDERS W MCC,52312.916667000005,Standard
" ""TRAUMATIC STUPOR & COMA, COMA >1 HR W MCC""",39704.5,Standard
 CRANIOTOMY & ENDOVASCULAR INTRACRANIAL PROCEDURES W/O CC/MCC,30125.893617,Standard
" TRAUMATIC STUPOR & COMA, COMA >1 HR W CC",17355.454545,Standard
 OTHER DISORDERS OF NERVOUS SYSTEM W CC,17226.722222,Standard
 SEIZURES W MCC,77227.071429,Standard
 SEIZURES W/O MCC,14525.888888999998,Standard
 MAJOR HEAD & NECK PROCEDURES W CC/MCC OR MAJOR DEVICE,32987.357143,Standard
 OTHER RESPIRATORY SYSTEM DIAGNOSES W MCC,32858.607143,Standard
 CRANIAL/FACIAL PROCEDURES W CC/MCC,36038.5,Standard
" TRAUMATIC STUPOR & COMA, COMA <1 HR W MCC",30402.117647000003,Standard
 CRANIOTOMY & ENDOVASCULAR INTRACRANIAL PROCEDURES W CC,39282.769231,Standard
 CRANIOTOMY & ENDOVASCULAR INTRACRANIAL PROCEDURES W MCC,62822.727273000004,Standard
  CRANIOTOMY W MAJOR DEVICE IMPLANT OR ACUTE COMPLEX CNS PDX W MCC OR,83237.8125,Standard
 POSTOPERATIVE & POST,29214.944444,Standard
 POSTOPERATIVE & POST,15931.166667,Standard
 SEPTICEMIA OR SEVERE SEPSIS W MV >96 HOURS OR PERIPHERAL EXTRACORPOR,101084.58333,Standard
 SEPTICEMIA OR SEVERE SEPSIS W/O MV >96 HOURS W MCC,33704.010127,Standard
 INFECTIOUS & PARASITIC DISEASES W O.R. PROCEDURE W MCC,107252.7,Standard
 CHEMO W ACUTE LEUKEMIA AS SDX OR W HIGH DOSE CHEMO AGENT W MCC,106570.66667,Standard
 ACUTE LEUKEMIA W/O MAJOR O.R. PROCEDURE W MCC,128688.46154,Standard
 HEART TRANSPLANT OR IMPLANT OF HEART ASSIST SYSTEM W MCC,478951.6875,Standard
" ""ECMO OR TRACH W MV >96 HRS OR PDX EXC FACE, MOUTH & NECK W MAJ O.R.",319371.05263,Standard
" TRACH W MV >96 HRS OR PDX EXC FACE, MOUTH & NECK W/O MAJ O.R.",198103.58824,Standard
 LIVER TRANSPLANT W MCC OR INTESTINAL TRANSPLANT,291810.95,Standard
 LUNG TRANSPLANT,167857.16667,Standard
" ""TRACHEOSTOMY FOR FACE, MOUTH & NECK DIAGNOSES OR LARYNGECTOMY W CC""",60805.741935000005,Standard
 ALLOGENEIC BONE MARROW TRANSPLANT,151721.5,Standard
 AUTOLOGOUS BONE MARROW TRANSPLANT W CC/MCC,126794.83333,Standard
 OTITIS MEDIA & URI W/O MCC,11695.083333,Standard
 MYELOPROLIF DISORD OR POORLY DIFF NEOPL W MAJ O.R. PROC W CC,32919.285714,Standard
 MAJOR HEAD & NECK PROCEDURES W/O CC/MCC,19748.307692,Standard
 RED BLOOD CELL DISORDERS W MCC,18313.857143,Standard
 SIMPLE PNEUMONIA & PLEURISY W CC,13397.387097,Standard
 SIMPLE PNEUMONIA & PLEURISY W MCC,22148.441176,Standard
 CHRONIC OBSTRUCTIVE PULMONARY DISEASE W MCC,17870.52,Standard
 RED BLOOD CELL DISORDERS W/O MCC,12867.545455,Standard
 PULMONARY EDEMA & RESPIRATORY FAILURE,19449.807692,Standard
" ""MISC DISORDERS OF NUTRITION,METABOLISM,FLUIDS/ELECTROLYTES W/O MCC""",12582.870968000001,Standard
 ENDOCRINE DISORDERS W MCC,23294.235294,Standard
 ENDOCRINE DISORDERS W CC,18541.357143,Standard
 KIDNEY TRANSPLANT,51701.975308999994,Standard
 MAJOR BLADDER PROCEDURES W CC,40213.454545,Standard
 OTHER KIDNEY & URINARY TRACT PROCEDURES W MCC,66828.363636,Standard
 RENAL FAILURE W MCC,27623.555556,Standard
 CIRRHOSIS & ALCOHOLIC HEPATITIS W CC,16546.636363999998,Standard
 KIDNEY & URINARY TRACT INFECTIONS W MCC,15577.111111000002,Standard
 OTHER RESP SYSTEM O.R. PROCEDURES W MCC,78319.913043,Standard
 MAJOR CHEST PROCEDURES W CC,38104.87037,Standard
 MAJOR CHEST PROCEDURES W MCC,87607.642857,Standard
 RENAL FAILURE W CC,16098.918919,Standard
 RESPIRATORY INFECTIONS & INFLAMMATIONS W MCC,30321.428570999997,Standard
 PULMONARY EMBOLISM W MCC,34594.928571,Standard
 MAJOR HEMATOL/IMMUN DIAG EXC SICKLE CELL CRISIS & COAGUL W MCC,30947.166667,Standard
 MAJOR MALE PELVIC PROCEDURES W/O CC/MCC,21429.357143,Standard
 OTHER KIDNEY & URINARY TRACT DIAGNOSES W CC,18720.028571000003,Standard
 OTHER KIDNEY & URINARY TRACT DIAGNOSES W MCC,27169.888888999998,Standard
 KIDNEY & URINARY TRACT INFECTIONS W/O MCC,12874.75,Standard
 MAJOR HEMATOL/IMMUN DIAG EXC SICKLE CELL CRISIS & COAGUL W CC,20552.4,Standard
