Description,Charge,Category
 CHRONIC OBSTRUCTIVE PULMONARY DISEASE W CC,8304.9411765,Standard
 SIMPLE PNEUMONIA & PLEURISY W MCC,13907.6,Standard
 SIMPLE PNEUMONIA & PLEURISY W CC,8651.75,Standard
 OTHER VASCULAR PROCEDURES W MCC,33820.171429,Standard
 OTHER VASCULAR PROCEDURES W CC,24027.25,Standard
 PULMONARY EDEMA & RESPIRATORY FAILURE,10968.653846,Standard
 HEART FAILURE & SHOCK W MCC,12779.3,Standard
 HEART FAILURE & SHOCK W CC,10037.833333,Standard
 G.I. HEMORRHAGE W MCC,19126.384615,Standard
Level 3 Endovascular Procedures,13289.05,DRG
Level 4 Endovascular Procedures,20944.04,DRG
Abdominal/Peritoneal/Biliary and Related Procedures,3235.59,DRG
Comprehensive Observation Services,2599.01189320388,DRG
 CHRONIC OBSTRUCTIVE PULMONARY DISEASE W MCC,10099.92,Standard
" ""ACUTE MYOCARDIAL INFARCTION, DISCHARGED ALIVE W MCC""",12954.25,Standard
 MAJOR HIP AND KNEE JOINT REPLACEMENT OR REATTACHMENT OF LOWER EXTREM,18466.65,Standard
 CELLULITIS W/O MCC,9347.1153846,Standard
" ""MISC DISORDERS OF NUTRITION,METABOLISM,FLUIDS/ELECTROLYTES W/O MCC""",6773.461538500001,Standard
" MISC DISORDERS OF NUTRITION,METABOLISM,FLUIDS/ELECTROLYTES W MCC",10736.4,Standard
 G.I. HEMORRHAGE W CC,8481.2857143,Standard
Level 2 Endovascular Procedures,5751.42,DRG
 OTHER DIGESTIVE SYSTEM DIAGNOSES W CC,8727.272727299998,Standard
 KIDNEY & URINARY TRACT INFECTIONS W/O MCC,7012.5909091,Standard
 OTHER KIDNEY & URINARY TRACT DIAGNOSES W MCC,15138.346153999999,Standard
 INFECTIOUS & PARASITIC DISEASES W O.R. PROCEDURE W MCC,44891.625,Standard
 SEPTICEMIA OR SEVERE SEPSIS W MV >96 HOURS OR PERIPHERAL EXTRACORPOR,54733.333333,Standard
 SEPTICEMIA OR SEVERE SEPSIS W/O MV >96 HOURS W MCC,18515.744,Standard
" ""ESOPHAGITIS, GASTROENT & MISC DIGEST DISORDERS W/O MCC""",7124.8333333,Standard
 SEPTICEMIA OR SEVERE SEPSIS W/O MV >96 HOURS W/O MCC,9558.88,Standard
 G.I. OBSTRUCTION W CC,7796.4545455,Standard
 POISONING & TOXIC EFFECTS OF DRUGS W MCC,15158.0,Standard
 RENAL FAILURE W MCC,13314.090909,Standard
 RENAL FAILURE W CC,8196.5882353,Standard
