Description,Charge,Category
Level 4 Gynecologic Procedures,2560.66,DRG
Level 5 Urology and Related Services,4176.65325,DRG
Level 4 Urology and Related Services,3041.8099999999895,DRG
Level 2 Upper GI Procedures,1605.6155384615302,DRG
Level 2 Endovascular Procedures,5850.893969465639,DRG
Level 3 Endovascular Procedures,13416.6236842105,DRG
Level 1 Intraocular Procedures,2163.7552941176396,DRG
Level 3 Urology and Related Services,1909.9031764705899,DRG
Level 2 Intraocular Procedures,4071.9933333333292,DRG
Level 3 Excision/ Biopsy/ Incision and Drainage,2622.33999999999,DRG
Comprehensive Observation Services,2650.17226072605,DRG
Level 1 Endovascular Procedures,2746.53999999999,DRG
Level 4 Musculoskeletal Procedures,6591.55,DRG
Level 3 Musculoskeletal Procedures,2983.71,DRG
Level 2 Musculoskeletal Procedures,1522.6699999999898,DRG
Level 2 Breast/Lymphatic Surgery and Related Procedures,5471.29,DRG
Level 1 Breast/Lymphatic Surgery and Related Procedures,3076.89,DRG
Level 1 Laparoscopy and Related Services,5062.873333333329,DRG
Level 2 Excision/ Biopsy/ Incision and Drainage,1519.0600819672102,DRG
"Level 3 Extraocular, Repair, and Plastic Eye Procedures",2043.11999999999,DRG
Abdominal/Peritoneal/Biliary and Related Procedures,3194.3845,DRG
 MAJOR SMALL & LARGE BOWEL PROCEDURES W CC,35804.272726999996,Standard
 PERC CARDIOVASC PROC W DRUG,34716.818182,Standard
 CARDIAC ARRHYTHMIA & CONDUCTION DISORDERS W CC,15822.466666999999,Standard
 OTHER CIRCULATORY SYSTEM DIAGNOSES W MCC,45318.947368,Standard
 G.I. HEMORRHAGE W MCC,26379.117647,Standard
 G.I. HEMORRHAGE W CC,19338.789474,Standard
" ""ESOPHAGITIS, GASTROENT & MISC DIGEST DISORDERS W/O MCC""",15333.894737,Standard
 CIRRHOSIS & ALCOHOLIC HEPATITIS W MCC,27454.4,Standard
 MAJOR HIP AND KNEE JOINT REPLACEMENT OR REATTACHMENT OF LOWER EXTREM,30451.764706,Standard
 HIP & FEMUR PROCEDURES EXCEPT MAJOR JOINT W CC,29742.533333,Standard
 MEDICAL BACK PROBLEMS W/O MCC,16218.333333,Standard
 CELLULITIS W/O MCC,16398.0,Standard
 DIABETES W CC,16363.785713999998,Standard
" MISC DISORDERS OF NUTRITION,METABOLISM,FLUIDS/ELECTROLYTES W MCC",22819.655172,Standard
" ""MISC DISORDERS OF NUTRITION,METABOLISM,FLUIDS/ELECTROLYTES W/O MCC""",15164.842105000002,Standard
 RENAL FAILURE W MCC,23662.266667,Standard
 RENAL FAILURE W CC,18033.64,Standard
 CARDIAC ARRHYTHMIA & CONDUCTION DISORDERS W MCC,24764.5,Standard
 KIDNEY & URINARY TRACT INFECTIONS W MCC,20722.3125,Standard
 HEART FAILURE & SHOCK W CC,17593.777778,Standard
" CIRCULATORY DISORDERS EXCEPT AMI, W CARD CATH W/O MCC",25577.454545,Standard
 CRANIOTOMY & ENDOVASCULAR INTRACRANIAL PROCEDURES W MCC,101984.76922999999,Standard
 DEGENERATIVE NERVOUS SYSTEM DISORDERS W/O MCC,20118.727273,Standard
 INTRACRANIAL HEMORRHAGE OR CEREBRAL INFARCTION W MCC,30148.210526,Standard
 INTRACRANIAL HEMORRHAGE OR CEREBRAL INFARCTION W CC OR TPA IN 24 HRS,18371.137931,Standard
" TRAUMATIC STUPOR & COMA, COMA >1 HR W CC",21284.545455,Standard
" ""TRAUMATIC STUPOR & COMA, COMA >1 HR W/O CC/MCC""",17051.071429,Standard
 RESPIRATORY INFECTIONS & INFLAMMATIONS W MCC,26171.857143,Standard
 PULMONARY EDEMA & RESPIRATORY FAILURE,41401.066667,Standard
 CHRONIC OBSTRUCTIVE PULMONARY DISEASE W MCC,25065.533333000003,Standard
 CHRONIC OBSTRUCTIVE PULMONARY DISEASE W CC,17350.307692,Standard
 SIMPLE PNEUMONIA & PLEURISY W CC,17162.142857,Standard
 RESPIRATORY SYSTEM DIAGNOSIS W VENTILATOR SUPPORT >96 HOURS,102398.0,Standard
 RESPIRATORY SYSTEM DIAGNOSIS W VENTILATOR SUPPORT <=96 HOURS,37387.6,Standard
 OTHER VASCULAR PROCEDURES W MCC,49341.941176,Standard
" ""ACUTE MYOCARDIAL INFARCTION, DISCHARGED ALIVE W MCC""",25916.666666999998,Standard
 HEART FAILURE & SHOCK W MCC,24842.552632,Standard
 KIDNEY & URINARY TRACT INFECTIONS W/O MCC,15432.888888999998,Standard
 OTHER DIGESTIVE SYSTEM DIAGNOSES W MCC,25723.333333000002,Standard
 OTHER KIDNEY & URINARY TRACT DIAGNOSES W CC,18718.181818,Standard
 POISONING & TOXIC EFFECTS OF DRUGS W MCC,24073.388888999998,Standard
 ALCOHOL/DRUG ABUSE OR DEPENDENCE W/O REHABILITATION THERAPY W/O MCC,15845.625,Standard
 ALCOHOL/DRUG ABUSE OR DEPENDENCE W/O REHABILITATION THERAPY W MCC,30386.363636000002,Standard
 SEPTICEMIA OR SEVERE SEPSIS W/O MV >96 HOURS W/O MCC,18804.453333,Standard
 OTHER KIDNEY & URINARY TRACT DIAGNOSES W MCC,28397.85,Standard
 SEPTICEMIA OR SEVERE SEPSIS W MV >96 HOURS OR PERIPHERAL EXTRACORPOR,90854.64705900001,Standard
 INFECTIOUS & PARASITIC DISEASES W O.R. PROCEDURE W CC,36741.818182,Standard
 INFECTIOUS & PARASITIC DISEASES W O.R. PROCEDURE W MCC,79036.8,Standard
 SEPTICEMIA OR SEVERE SEPSIS W/O MV >96 HOURS W MCC,29323.800797000004,Standard
