Description,Charge,Category
 ALCOHOL/DRUG ABUSE OR DEPENDENCE W/O REHABILITATION THERAPY W/O MCC,11550.454545,Standard
 OTHER O.R. PROCEDURES FOR INJURIES W MCC,59415.666667,Standard
 OTHER O.R. PROCEDURES FOR INJURIES W CC,27554.875,Standard
 POISONING & TOXIC EFFECTS OF DRUGS W MCC,28142.166667,Standard
 COMPLICATIONS OF TREATMENT W MCC,60062.395833,Standard
 SIGNS & SYMPTOMS W/O MCC,11496.272727,Standard
 SIGNS & SYMPTOMS W MCC,26027.272727,Standard
 EXTENSIVE O.R. PROCEDURE UNRELATED TO PRINCIPAL DIAGNOSIS W MCC,66402.625,Standard
 NON,95909.35294099999,Standard
 CHEMOTHERAPY W/O ACUTE LEUKEMIA AS SECONDARY DIAGNOSIS W CC,18806.236842,Standard
 INFECTIOUS & PARASITIC DISEASES W O.R. PROCEDURE W CC,31325.6,Standard
 COMPLICATIONS OF TREATMENT W CC,14684.1,Standard
 ORGANIC DISTURBANCES & INTELLECTUAL DISABILITY,26424.769231000002,Standard
Cochlear Implant Procedure,44646.5165,DRG
 SEPTICEMIA OR SEVERE SEPSIS W/O MV >96 HOURS W/O MCC,15022.155039,Standard
Level 3 Endovascular Procedures,13448.811684665301,DRG
Level 2 Endovascular Procedures,5855.26844594594,DRG
Level 1 Endovascular Procedures,2743.07372685186,DRG
 CHEMOTHERAPY W/O ACUTE LEUKEMIA AS SECONDARY DIAGNOSIS W MCC,45504.793651,Standard
Level 5 ENT Procedures,4831.66861344536,DRG
Level 4 ENT Procedures,2480.42999999999,DRG
Level 5 Airway Endoscopy,5510.791481481479,DRG
Level 4 Airway Endoscopy,2932.2052467532503,DRG
Level 3 Airway Endoscopy,1493.03576555023,DRG
 POSTOPERATIVE OR POST,71933.18518500001,Standard
 POSTOPERATIVE OR POST,26583.3125,Standard
 POSTOPERATIVE & POST,27319.380952,Standard
 POSTOPERATIVE & POST,16383.913043,Standard
 VIRAL ILLNESS W/O MCC,12210.846154,Standard
 SEPTICEMIA OR SEVERE SEPSIS W/O MV >96 HOURS W MCC,28051.514735,Standard
 ACUTE ADJUSTMENT REACTION & PSYCHOSOCIAL DYSFUNCTION,11705.636364,Standard
 LYMPHOMA & NON,31350.695652,Standard
 MAJOR HEMATOL/IMMUN DIAG EXC SICKLE CELL CRISIS & COAGUL W CC,16960.304347999998,Standard
 ACUTE LEUKEMIA W/O MAJOR O.R. PROCEDURE W MCC,116100.77777999999,Standard
 CELLULITIS W/O MCC,12351.926829,Standard
 ADRENAL & PITUITARY PROCEDURES W CC/MCC,31159.5625,Standard
 O.R. PROCEDURES FOR OBESITY W/O CC/MCC,21058.863636000002,Standard
 DIABETES W MCC,21010.636363999998,Standard
 DIABETES W CC,12644.0,Standard
" MISC DISORDERS OF NUTRITION,METABOLISM,FLUIDS/ELECTROLYTES W MCC",19765.5,Standard
 MAJOR MALE PELVIC PROCEDURES W CC/MCC,24723.117647,Standard
 OTHER KIDNEY & URINARY TRACT DIAGNOSES W CC,15739.085713999999,Standard
 OTHER KIDNEY & URINARY TRACT DIAGNOSES W MCC,24366.344262,Standard
" ""MISC DISORDERS OF NUTRITION,METABOLISM,FLUIDS/ELECTROLYTES W/O MCC""",11465.577778,Standard
 CELLULITIS W MCC,20840.538462,Standard
 ENDOCRINE DISORDERS W MCC,22035.4375,Standard
 KIDNEY TRANSPLANT,43761.555556,Standard
 MAJOR BLADDER PROCEDURES W CC,33425.348837,Standard
 KIDNEY & URETER PROCEDURES FOR NEOPLASM W CC,26256.175,Standard
 KIDNEY & URETER PROCEDURES FOR NON,24087.933333,Standard
 RENAL FAILURE W MCC,24718.569231,Standard
 RENAL FAILURE W CC,14000.932203,Standard
 KIDNEY & URINARY TRACT INFECTIONS W MCC,15298.0,Standard
Level 3 Excision/ Biopsy/ Incision and Drainage,2562.1107518797,DRG
 KIDNEY & URINARY TRACT INFECTIONS W/O MCC,11409.509804000001,Standard
Level 2 Excision/ Biopsy/ Incision and Drainage,1510.18305890704,DRG
 ENDOCRINE DISORDERS W CC,14448.714286000002,Standard
 LYMPHOMA & NON,59488.55814,Standard
" ""OTHER SKIN, SUBCUT TISS & BREAST PROC W/O CC/MCC""",17777.0,Standard
 MAJOR MALE PELVIC PROCEDURES W/O CC/MCC,22131.65,Standard
 MYELOPROLIFERATIVE DISORDERS OR POORLY DIFFERENTIATED NEOPLASMS W OT,45917.357143,Standard
 MYELOPROLIF DISORD OR POORLY DIFF NEOPL W MAJ O.R. PROC W CC,31996.379310000004,Standard
 MYELOPROLIF DISORD OR POORLY DIFF NEOPL W MAJ O.R. PROC W MCC,92750.076923,Standard
 RED BLOOD CELL DISORDERS W/O MCC,13180.6875,Standard
 RED BLOOD CELL DISORDERS W MCC,19847.8125,Standard
 MAJOR HEMATOL/IMMUN DIAG EXC SICKLE CELL CRISIS & COAGUL W MCC,33716.857143,Standard
" ""UTERINE,ADNEXA PROC FOR NON",17331.071429,Standard
Level 6 Musculoskeletal Procedures,20359.08,DRG
Level 5 Musculoskeletal Procedures,12959.5699999999,DRG
Level 4 Musculoskeletal Procedures,6551.18168292681,DRG
" OTHER SKIN, SUBCUT TISS & BREAST PROC W CC",22486.75,Standard
Level 3 Musculoskeletal Procedures,2911.48633440513,DRG
Level 4 Breast/Lymphatic Surgery and Related Procedures,14744.03,DRG
Level 2 Breast/Lymphatic Surgery and Related Procedures,5471.29000000001,DRG
Level 1 Breast/Lymphatic Surgery and Related Procedures,3076.8900000000103,DRG
 BACK & NECK PROC EXC SPINAL FUSION W CC,23796.12,Standard
 BACK & NECK PROC EXC SPINAL FUSION W/O CC/MCC,17421.636363999998,Standard
 FRACTURES OF HIP & PELVIS W/O MCC,11525.461538,Standard
 PATHOLOGICAL FRACTURES & MUSCULOSKELET & CONN TISS MALIG W MCC,27458.846154000003,Standard
 PATHOLOGICAL FRACTURES & MUSCULOSKELET & CONN TISS MALIG W CC,15414.8125,Standard
 CONNECTIVE TISSUE DISORDERS W MCC,41532.16,Standard
 MEDICAL BACK PROBLEMS W/O MCC,12846.181818000001,Standard
Level 2 Musculoskeletal Procedures,1464.52352941176,DRG
" FX, SPRN, STRN & DISL EXCEPT FEMUR, HIP, PELVIS & THIGH W/O MCC",12320.444444,Standard
 BIOPSIES OF MUSCULOSKELETAL SYSTEM & CONNECTIVE TISSUE W CC,28567.583333,Standard
 OTHER MUSCULOSKELET SYS & CONN TISS O.R. PROC W CC,26662.275862000002,Standard
 OTHER VASCULAR PROCEDURES W CC,42027.133333,Standard
 OTHER VASCULAR PROCEDURES W MCC,53014.966667,Standard
 PERC CARDIOVASC PROC W DRUG,27554.151514999998,Standard
 PERCUTANEOUS CARDIOVASCULAR PROCEDURES W DRUG,48316.727273000004,Standard
 PERMANENT CARDIAC PACEMAKER IMPLANT W/O CC/MCC,27611.454545,Standard
 PERMANENT CARDIAC PACEMAKER IMPLANT W CC,33251.25,Standard
 PERMANENT CARDIAC PACEMAKER IMPLANT W MCC,53586.95,Standard
 CORONARY BYPASS W/O CARDIAC CATH W/O MCC,55198.916667,Standard
 CORONARY BYPASS W/O CARDIAC CATH W MCC,97700.0,Standard
 CORONARY BYPASS W CARDIAC CATH W MCC,128032.76922999999,Standard
 OTHER CARDIOTHORACIC PROCEDURES W/O MCC,62554.2,Standard
 CARDIAC VALVE & OTH MAJ CARDIOTHORACIC PROC W/O CARD CATH W CC,78543.83177599999,Standard
 CARDIAC VALVE & OTH MAJ CARDIOTHORACIC PROC W/O CARD CATH W MCC,126312.74242000001,Standard
 CARDIAC VALVE & OTH MAJ CARDIOTHORACIC PROC W CARD CATH W MCC,195057.16667,Standard
 RESPIRATORY SYSTEM DIAGNOSIS W VENTILATOR SUPPORT <=96 HOURS,57616.384614999995,Standard
 OTHER RESPIRATORY SYSTEM DIAGNOSES W/O MCC,14115.833333,Standard
 OTHER RESPIRATORY SYSTEM DIAGNOSES W MCC,25661.173913,Standard
 BRONCHITIS & ASTHMA W CC/MCC,13582.0,Standard
 INTERSTITIAL LUNG DISEASE W MCC,26548.153846,Standard
 OTHER VASCULAR PROCEDURES W/O CC/MCC,24199.916666999998,Standard
 OTHER CIRCULATORY SYSTEM O.R. PROCEDURES,83887.26666699999,Standard
 ENDOVASCULAR CARDIAC VALVE REPLACEMENT W MCC,99909.76,Standard
 ENDOVASCULAR CARDIAC VALVE REPLACEMENT W/O MCC,75789.678082,Standard
 PERIPHERAL VASCULAR DISORDERS W CC,15808.727272999999,Standard
 PERIPHERAL VASCULAR DISORDERS W MCC,19268.444444,Standard
"Level 3 Extraocular, Repair, and Plastic Eye Procedures",2024.5461818181698,DRG
"Level 4 Extraocular, Repair, and Plastic Eye Procedures",3278.77757575757,DRG
Level 7 Radiation Therapy,9354.01,DRG
Comprehensive Observation Services,2639.48915420025,DRG
 HEART TRANSPLANT OR IMPLANT OF HEART ASSIST SYSTEM W MCC,422964.63636,Standard
" ""ECMO OR TRACH W MV >96 HRS OR PDX EXC FACE, MOUTH & NECK W MAJ O.R.",439629.2766,Standard
 HEART FAILURE & SHOCK W CC,14360.679245,Standard
" TRACH W MV >96 HRS OR PDX EXC FACE, MOUTH & NECK W/O MAJ O.R.",166368.42857000002,Standard
 HEART FAILURE & SHOCK W MCC,24329.207071,Standard
" ""CIRCULATORY DISORDERS EXCEPT AMI, W CARD CATH W MCC""",42451.893617,Standard
" ACUTE MYOCARDIAL INFARCTION, DISCHARGED ALIVE W CC",13768.585366,Standard
" ""ACUTE MYOCARDIAL INFARCTION, DISCHARGED ALIVE W MCC""",22725.368421,Standard
 PERCUTANEOUS INTRACARDIAC PROCEDURES W/O MCC,36939.724138,Standard
 PERCUTANEOUS INTRACARDIAC PROCEDURES W MCC,47127.909091,Standard
 OTHER MAJOR CARDIOVASCULAR PROCEDURES W CC,54146.04545499999,Standard
 OTHER MAJOR CARDIOVASCULAR PROCEDURES W MCC,72771.142857,Standard
 AORTIC AND HEART ASSIST PROCEDURES EXCEPT PULSATION BALLOON W/O MCC,52794.046512,Standard
 AORTIC AND HEART ASSIST PROCEDURES EXCEPT PULSATION BALLOON W MCC,107510.72727,Standard
" CIRCULATORY DISORDERS EXCEPT AMI, W CARD CATH W/O MCC",20324.069766999997,Standard
 LIVER TRANSPLANT W MCC OR INTESTINAL TRANSPLANT,225407.5625,Standard
" TRACHEOSTOMY FOR FACE,MOUTH & NECK DIAGNOSES W MCC",74294.285714,Standard
" ""TRACHEOSTOMY FOR FACE, MOUTH & NECK DIAGNOSES OR LARYNGECTOMY W CC""",50845.954545,Standard
 MAJOR HEAD & NECK PROCEDURES W CC/MCC OR MAJOR DEVICE,32325.035713999998,Standard
 MAJOR HEAD & NECK PROCEDURES W/O CC/MCC,20413.0,Standard
 CRANIAL/FACIAL PROCEDURES W CC/MCC,34284.166667000005,Standard
 MAJOR CHEST PROCEDURES W MCC,80278.583333,Standard
 MAJOR CHEST PROCEDURES W CC,34415.11764700001,Standard
 MAJOR CHEST PROCEDURES W/O CC/MCC,24674.1,Standard
 OTHER RESP SYSTEM O.R. PROCEDURES W MCC,54954.142857000006,Standard
 OTHER RESP SYSTEM O.R. PROCEDURES W CC,27860.0,Standard
 PULMONARY EMBOLISM W MCC,24523.15,Standard
 SEIZURES W/O MCC,12872.073171,Standard
 PULMONARY EMBOLISM W/O MCC,13049.153846,Standard
 RESPIRATORY INFECTIONS & INFLAMMATIONS W CC,18256.862069,Standard
 RESPIRATORY NEOPLASMS W MCC,23918.727273,Standard
 MAJOR CHEST TRAUMA W MCC,22314.928571,Standard
 MAJOR CHEST TRAUMA W CC,22079.225806,Standard
 PULMONARY EDEMA & RESPIRATORY FAILURE,19012.793103,Standard
 CHRONIC OBSTRUCTIVE PULMONARY DISEASE W MCC,17395.27451,Standard
 CHRONIC OBSTRUCTIVE PULMONARY DISEASE W CC,13238.388889,Standard
 SIMPLE PNEUMONIA & PLEURISY W MCC,18675.934211,Standard
 SIMPLE PNEUMONIA & PLEURISY W CC,13450.675675999999,Standard
 RESPIRATORY INFECTIONS & INFLAMMATIONS W MCC,26052.409836000003,Standard
 HYPERTENSION W MCC,14970.0,Standard
 SEIZURES W MCC,28395.892857,Standard
 OTHER DISORDERS OF NERVOUS SYSTEM W MCC,22791.35,Standard
 ALLOGENEIC BONE MARROW TRANSPLANT,187943.21429,Standard
 AUTOLOGOUS BONE MARROW TRANSPLANT W CC/MCC,96584.315789,Standard
  CRANIOTOMY W MAJOR DEVICE IMPLANT OR ACUTE COMPLEX CNS PDX W MCC OR,75981.826087,Standard
 CRANIO W MAJOR DEV IMPL/ACUTE COMPLEX CNS PDX W/O MCC,44296.473684,Standard
 CRANIOTOMY & ENDOVASCULAR INTRACRANIAL PROCEDURES W MCC,55813.511628,Standard
 CRANIOTOMY & ENDOVASCULAR INTRACRANIAL PROCEDURES W CC,38423.355932,Standard
 CRANIOTOMY & ENDOVASCULAR INTRACRANIAL PROCEDURES W/O CC/MCC,30473.297619,Standard
 SPINAL PROCEDURES W CC OR SPINAL NEUROSTIMULATORS,42226.5,Standard
 EXTRACRANIAL PROCEDURES W CC,21871.318182,Standard
 OTHER DISORDERS OF NERVOUS SYSTEM W CC,14899.483871,Standard
 EXTRACRANIAL PROCEDURES W/O CC/MCC,14754.055556,Standard
 DEGENERATIVE NERVOUS SYSTEM DISORDERS W MCC,31615.904762000002,Standard
 DEGENERATIVE NERVOUS SYSTEM DISORDERS W/O MCC,17663.866667,Standard
 INTRACRANIAL HEMORRHAGE OR CEREBRAL INFARCTION W MCC,27078.195401999998,Standard
 INTRACRANIAL HEMORRHAGE OR CEREBRAL INFARCTION W CC OR TPA IN 24 HRS,13947.357143000001,Standard
 TRANSIENT ISCHEMIA W/O THROMBOLYTIC,13137.818181999999,Standard
 CRANIAL & PERIPHERAL NERVE DISORDERS W/O MCC,14729.694444,Standard
" TRAUMATIC STUPOR & COMA, COMA >1 HR W CC",17514.5,Standard
" TRAUMATIC STUPOR & COMA, COMA <1 HR W MCC",31260.4,Standard
" ""TRAUMATIC STUPOR & COMA, COMA <1 HR W CC""",16334.545455000001,Standard
 NERVOUS SYSTEM NEOPLASMS W MCC,19722.575758000003,Standard
 HYPERTENSION W/O MCC,10264.692308,Standard
 CARDIAC ARRHYTHMIA & CONDUCTION DISORDERS W MCC,21286.636363999998,Standard
 CARDIAC ARRHYTHMIA & CONDUCTION DISORDERS W CC,11642.828571,Standard
 MAJOR HIP AND KNEE JOINT REPLACEMENT OR REATTACHMENT OF LOWER EXTREM,27727.663697000004,Standard
 MAJOR HIP AND KNEE JOINT REPLACEMENT OR REATTACHMENT OF LOWER EXTREM,52201.034482999996,Standard
 REVISION OF HIP OR KNEE REPLACEMENT W/O CC/MCC,36028.195651999995,Standard
 REVISION OF HIP OR KNEE REPLACEMENT W CC,45102.25,Standard
 REVISION OF HIP OR KNEE REPLACEMENT W MCC,63115.76923099999,Standard
" ""WND DEBRID & SKN GRFT EXC HAND, FOR MUSCULO",28127.294118,Standard
" WND DEBRID & SKN GRFT EXC HAND, FOR MUSCULO",43477.76087,Standard
" ""WND DEBRID & SKN GRFT EXC HAND, FOR MUSCULO",69148.529412,Standard
 SPINAL FUSION EXCEPT CERVICAL W/O MCC,51972.670213,Standard
 CERVICAL SPINAL FUSION W CC,39135.583332999995,Standard
 SPINAL FUSION EXCEPT CERVICAL W MCC,75611.0,Standard
 SPINAL FUS EXC CERV W SPINAL CURV/MALIG/INFEC OR EXT FUS W MCC,124549.21429,Standard
 COMBINED ANTERIOR/POSTERIOR SPINAL FUSION W/O CC/MCC,66316.576923,Standard
 COMBINED ANTERIOR/POSTERIOR SPINAL FUSION W CC,89134.83168300001,Standard
 COMBINED ANTERIOR/POSTERIOR SPINAL FUSION W MCC,139762.95652,Standard
 DISORDERS OF THE BILIARY TRACT W CC,15678.75,Standard
 DISORDERS OF THE BILIARY TRACT W MCC,23162.36,Standard
" DISORDERS OF LIVER EXCEPT MALIG,CIRR,ALC HEPA W CC",14706.933333,Standard
" ""DISORDERS OF LIVER EXCEPT MALIG,CIRR,ALC HEPA W MCC""",30688.236364,Standard
 DISORDERS OF PANCREAS EXCEPT MALIGNANCY W CC,15624.84375,Standard
 SPINAL FUS EXC CERV W SPINAL CURV/MALIG/INFEC OR EXT FUS W CC,89095.227273,Standard
 DISORDERS OF PANCREAS EXCEPT MALIGNANCY W MCC,23320.45,Standard
 CERVICAL SPINAL FUSION W/O CC/MCC,30950.047619,Standard
 HIP & FEMUR PROCEDURES EXCEPT MAJOR JOINT W CC,27522.610389999998,Standard
 SOFT TISSUE PROCEDURES W CC,23607.764706,Standard
Level 4 Endovascular Procedures,21274.68,DRG
Level 3 Electrophysiologic Procedures,24792.2945833333,DRG
Level 2 Pacemaker and Similar Procedures,9079.48999999999,DRG
Level 3 Pacemaker and Similar Procedures,12430.9399999999,DRG
Level 4 Pacemaker and Similar Procedures,22295.3729411764,DRG
Level 1 ICD and Similar Procedures,29861.43,DRG
Level 2 ICD and Similar Procedures,42341.72,DRG
Level 2 Upper GI Procedures,1607.93555153709,DRG
 HIP & FEMUR PROCEDURES EXCEPT MAJOR JOINT W MCC,39935.043478,Standard
Level 3 Upper GI Procedures,2987.35602272727,DRG
Complex GI Procedures,4540.321875,DRG
Abdominal/Peritoneal/Biliary and Related Procedures,3283.6500000000106,DRG
Level 1 Laparoscopy and Related Services,5020.1229661017105,DRG
Level 2 Laparoscopy and Related Services,9158.05835443037,DRG
" ""LOWER EXTREM & HUMER PROC EXCEPT HIP,FOOT,FEMUR W/O CC/MCC""",24945.0625,Standard
" LOWER EXTREM & HUMER PROC EXCEPT HIP,FOOT,FEMUR W CC",30334.774194,Standard
 KNEE PROCEDURES W/O PDX OF INFECTION W CC/MCC,26701.642857,Standard
 MAJOR JOINT/LIMB REATTACHMENT PROCEDURE OF UPPER EXTREMITIES,34185.203297,Standard
 HIP & FEMUR PROCEDURES EXCEPT MAJOR JOINT W/O CC/MCC,22012.85,Standard
Level 3 Lower GI Procedures,2611.92999999999,DRG
 OTHER MUSCULOSKELET SYS & CONN TISS O.R. PROC W/O CC/MCC,19086.541666999998,Standard
 MALIGNANCY OF HEPATOBILIARY SYSTEM OR PANCREAS W CC,18916.363636000002,Standard
 CIRRHOSIS & ALCOHOLIC HEPATITIS W CC,15088.363636000002,Standard
 DIGESTIVE MALIGNANCY W MCC,27090.888888999998,Standard
 MAJOR GASTROINTESTINAL DISORDERS & PERITONEAL INFECTIONS W CC,15762.75,Standard
 MAJOR GASTROINTESTINAL DISORDERS & PERITONEAL INFECTIONS W MCC,45272.65,Standard
 OTHER DIGESTIVE SYSTEM O.R. PROCEDURES W CC,30444.888888999998,Standard
 HERNIA PROCEDURES EXCEPT INGUINAL & FEMORAL W CC,24031.066667,Standard
 MAJOR SMALL & LARGE BOWEL PROCEDURES W/O CC/MCC,23837.0,Standard
Level 2 Neurostimulator and Related Procedures,6522.46111111111,DRG
Level 3 Neurostimulator and Related Procedures,24024.840975609703,DRG
Level 4 Neurostimulator and Related Procedures,37706.1558870967,DRG
 DIGESTIVE MALIGNANCY W CC,17910.371429,Standard
Level 1 Intraocular Procedures,2161.01981895632,DRG
 MAJOR SMALL & LARGE BOWEL PROCEDURES W CC,33992.953704,Standard
 MAJOR SMALL & LARGE BOWEL PROCEDURES W MCC,81333.26190499999,Standard
" STOMACH, ESOPHAGEAL & DUODENAL PROC W/O CC/MCC",20566.944444,Standard
" ""STOMACH, ESOPHAGEAL & DUODENAL PROC W CC""",30928.042552999996,Standard
" STOMACH, ESOPHAGEAL & DUODENAL PROC W MCC",78906.70967699999,Standard
 OTHER CIRCULATORY SYSTEM DIAGNOSES W CC,16392.78,Standard
 OTHER CIRCULATORY SYSTEM DIAGNOSES W MCC,29422.406977,Standard
 SYNCOPE & COLLAPSE,15144.166667,Standard
 CARDIAC ARRHYTHMIA & CONDUCTION DISORDERS W/O CC/MCC,8919.029411799998,Standard
Level 2 Intraocular Procedures,4057.6711827957,DRG
 MALIGNANCY OF HEPATOBILIARY SYSTEM OR PANCREAS W MCC,26638.914894,Standard
 G.I. HEMORRHAGE W MCC,22711.378378,Standard
 COMPLICATED PEPTIC ULCER W MCC,37211.083332999995,Standard
 CIRRHOSIS & ALCOHOLIC HEPATITIS W MCC,26513.294118,Standard
" ""PANCREAS, LIVER & SHUNT PROCEDURES W/O CC/MCC""",26398.826087,Standard
" PANCREAS, LIVER & SHUNT PROCEDURES W CC",38129.728814,Standard
" ""PANCREAS, LIVER & SHUNT PROCEDURES W MCC""",78213.372093,Standard
 OTHER DIGESTIVE SYSTEM DIAGNOSES W CC,14181.468084999999,Standard
 OTHER DIGESTIVE SYSTEM DIAGNOSES W MCC,27830.393938999998,Standard
" ""ESOPHAGITIS, GASTROENT & MISC DIGEST DISORDERS W/O MCC""",12367.323944,Standard
" ESOPHAGITIS, GASTROENT & MISC DIGEST DISORDERS W MCC",19994.433962,Standard
 G.I. OBSTRUCTION W/O CC/MCC,10055.863636,Standard
 G.I. HEMORRHAGE W CC,13797.88,Standard
Level 3 Urology and Related Services,1907.20215846993,DRG
Level 5 Urology and Related Services,4153.27070967741,DRG
Level 7 Urology and Related Services,20252.859375,DRG
Level 4 Gynecologic Procedures,2531.525375,DRG
Level 5 Gynecologic Procedures,4524.48999999999,DRG
Level 6 Gynecologic Procedures,7551.63,DRG
Level 1 Nerve Procedures,1798.53027027026,DRG
Level 2 Nerve Procedures,4745.2,DRG
 G.I. OBSTRUCTION W CC,13463.476190000001,Standard
 G.I. OBSTRUCTION W MCC,20984.722222,Standard
Level 4 Urology and Related Services,3011.8709448819,DRG
 OTHER DISORDERS OF NERVOUS SYSTEM W/O CC/MCC,11782.235294,Standard
 INFECTIOUS & PARASITIC DISEASES W O.R. PROCEDURE W MCC,95931.338028,Standard
