Description,Charge,Category
 HEART FAILURE & SHOCK W MCC,11946.130435,Standard
 SEPTICEMIA OR SEVERE SEPSIS W/O MV >96 HOURS W/O MCC,8932.6153846,Standard
 SEPTICEMIA OR SEVERE SEPSIS W/O MV >96 HOURS W MCC,15058.301281999999,Standard
 INFECTIOUS & PARASITIC DISEASES W O.R. PROCEDURE W MCC,37196.222222000004,Standard
 OTHER KIDNEY & URINARY TRACT DIAGNOSES W MCC,12246.461538,Standard
 KIDNEY & URINARY TRACT INFECTIONS W/O MCC,6677.5238094999995,Standard
 KIDNEY & URINARY TRACT INFECTIONS W MCC,9109.0,Standard
 RENAL FAILURE W MCC,12292.9375,Standard
" ""MISC DISORDERS OF NUTRITION,METABOLISM,FLUIDS/ELECTROLYTES W/O MCC""",7914.2,Standard
" MISC DISORDERS OF NUTRITION,METABOLISM,FLUIDS/ELECTROLYTES W MCC",11286.454545,Standard
 CELLULITIS W/O MCC,7423.363636399999,Standard
 INTRACRANIAL HEMORRHAGE OR CEREBRAL INFARCTION W MCC,18814.0,Standard
 INTRACRANIAL HEMORRHAGE OR CEREBRAL INFARCTION W CC OR TPA IN 24 HRS,8638.785714299998,Standard
 RESPIRATORY INFECTIONS & INFLAMMATIONS W MCC,12925.363636,Standard
 PULMONARY EDEMA & RESPIRATORY FAILURE,10190.317073,Standard
 CHRONIC OBSTRUCTIVE PULMONARY DISEASE W MCC,9746.173912999999,Standard
 SIMPLE PNEUMONIA & PLEURISY W MCC,11319.615385,Standard
 G.I. HEMORRHAGE W CC,8267.55,Standard
 G.I. HEMORRHAGE W MCC,13653.0,Standard
 RENAL FAILURE W CC,8387.0,Standard
 SIMPLE PNEUMONIA & PLEURISY W CC,7926.75,Standard
" ""ESOPHAGITIS, GASTROENT & MISC DIGEST DISORDERS W/O MCC""",6604.7857143,Standard
Level 5 Airway Endoscopy,4852.08,DRG
Level 3 Airway Endoscopy,1320.41,DRG
Level 1 Laparoscopy and Related Services,4053.2690625,DRG
Level 5 Urology and Related Services,3695.8983333333294,DRG
Level 1 Nerve Procedures,1495.1117647058802,DRG
Level 4 Musculoskeletal Procedures,5240.6769230769205,DRG
Level 2 Upper GI Procedures,1423.83999999999,DRG
Abdominal/Peritoneal/Biliary and Related Procedures,2661.045,DRG
Level 3 Excision/ Biopsy/ Incision and Drainage,2319.09,DRG
Level 1 Intraocular Procedures,1913.93222222222,DRG
Comprehensive Observation Services,2332.35053571427,DRG
Level 2 Excision/ Biopsy/ Incision and Drainage,1343.46517857142,DRG
 MAJOR HIP AND KNEE JOINT REPLACEMENT OR REATTACHMENT OF LOWER EXTREM,16772.823528999998,Standard
Level 3 Musculoskeletal Procedures,2638.65,DRG
