Description,Charge,Category
 RED BLOOD CELL DISORDERS W MCC,14099.476190000001,Standard
Abdominal/Peritoneal/Biliary and Related Procedures,3071.58145833333,DRG
Level 1 Laparoscopy and Related Services,4743.119324324311,DRG
Level 2 Laparoscopy and Related Services,8719.79006849315,DRG
Level 3 Urology and Related Services,1736.12593749999,DRG
Level 4 Urology and Related Services,2801.8461290322603,DRG
Level 5 Urology and Related Services,3886.6906153846203,DRG
Level 7 Urology and Related Services,19425.1699999999,DRG
Level 4 Gynecologic Procedures,2402.0299999999897,DRG
Level 5 Gynecologic Procedures,4239.39,DRG
Level 6 Gynecologic Procedures,6833.644,DRG
Level 3 Neurostimulator and Related Procedures,22953.614999999903,DRG
Level 4 Neurostimulator and Related Procedures,35529.419999999904,DRG
Level 7 Radiation Therapy,8681.82,DRG
Comprehensive Observation Services,2463.1164424779,DRG
Level 2 Endovascular Procedures,5404.59,DRG
 HEART TRANSPLANT OR IMPLANT OF HEART ASSIST SYSTEM W MCC,235189.95833000002,Standard
" ""ECMO OR TRACH W MV >96 HRS OR PDX EXC FACE, MOUTH & NECK W MAJ O.R.",225834.6,Standard
  CRANIOTOMY W MAJOR DEVICE IMPLANT OR ACUTE COMPLEX CNS PDX W MCC OR,46979.823529,Standard
 CRANIOTOMY & ENDOVASCULAR INTRACRANIAL PROCEDURES W MCC,46544.592593,Standard
 CRANIOTOMY & ENDOVASCULAR INTRACRANIAL PROCEDURES W/O CC/MCC,23042.0,Standard
Complex GI Procedures,4537.82999999999,DRG
Level 3 Upper GI Procedures,2899.48999999999,DRG
Level 2 Upper GI Procedures,1503.96196261682,DRG
Level 2 ICD and Similar Procedures,39430.9472916667,DRG
Level 1 Endovascular Procedures,2560.61363414632,DRG
Level 5 ENT Procedures,4585.57999999999,DRG
Level 4 Airway Endoscopy,2765.3799999999896,DRG
Level 3 Airway Endoscopy,1398.99,DRG
Level 6 Musculoskeletal Procedures,18993.4099999999,DRG
Level 5 Musculoskeletal Procedures,12060.17,DRG
Level 4 Musculoskeletal Procedures,6090.36904761906,DRG
Level 3 Musculoskeletal Procedures,2792.35325581395,DRG
Level 2 Musculoskeletal Procedures,1422.1012,DRG
Level 2 Breast/Lymphatic Surgery and Related Procedures,5011.8942142857,DRG
Level 1 Breast/Lymphatic Surgery and Related Procedures,2881.1665454545396,DRG
Level 3 Excision/ Biopsy/ Incision and Drainage,2453.513,DRG
Level 2 Excision/ Biopsy/ Incision and Drainage,1423.05091954023,DRG
 OTHER VASCULAR PROCEDURES W CC,24402.259259,Standard
Level 3 Endovascular Procedures,12450.6898550724,DRG
Level 4 Endovascular Procedures,19851.32,DRG
Level 2 Electrophysiologic Procedures,5707.54,DRG
Level 3 Electrophysiologic Procedures,22999.5605696203,DRG
Level 2 Pacemaker and Similar Procedures,8424.60999999999,DRG
Level 3 Pacemaker and Similar Procedures,11561.5419999999,DRG
Level 4 Pacemaker and Similar Procedures,21919.03,DRG
 VENTRICULAR SHUNT PROCEDURES W/O CC/MCC,16738.818182,Standard
 EXTRACRANIAL PROCEDURES W CC,16376.28125,Standard
 EXTRACRANIAL PROCEDURES W/O CC/MCC,11442.468084999999,Standard
 DEGENERATIVE NERVOUS SYSTEM DISORDERS W/O MCC,11520.083333,Standard
" ""LOWER EXTREM & HUMER PROC EXCEPT HIP,FOOT,FEMUR W/O CC/MCC""",17311.333333000002,Standard
 OTHER MUSCULOSKELET SYS & CONN TISS O.R. PROC W CC,18480.818182,Standard
 OTHER MUSCULOSKELET SYS & CONN TISS O.R. PROC W/O CC/MCC,14419.818181999999,Standard
 BACK & NECK PROC EXC SPINAL FUSION W MCC OR DISC DEVICE/NEUROSTIM,27546.6,Standard
 FRACTURES OF HIP & PELVIS W/O MCC,8213.333333300001,Standard
 MEDICAL BACK PROBLEMS W/O MCC,9249.727272700002,Standard
 CELLULITIS W MCC,14315.933333,Standard
 CELLULITIS W/O MCC,9168.633333299998,Standard
 DIABETES W CC,9141.88,Standard
" MISC DISORDERS OF NUTRITION,METABOLISM,FLUIDS/ELECTROLYTES W MCC",11890.208333,Standard
" ""MISC DISORDERS OF NUTRITION,METABOLISM,FLUIDS/ELECTROLYTES W/O MCC""",8032.0285714,Standard
 COAGULATION DISORDERS,17359.461538,Standard
 RENAL FAILURE W MCC,17030.115385,Standard
 RENAL FAILURE W CC,9878.5072464,Standard
 KIDNEY & URINARY TRACT INFECTIONS W MCC,10712.263158,Standard
 KIDNEY & URINARY TRACT INFECTIONS W/O MCC,8939.5777778,Standard
 OTHER KIDNEY & URINARY TRACT DIAGNOSES W MCC,15317.884615,Standard
 OTHER KIDNEY & URINARY TRACT DIAGNOSES W CC,11963.571429000001,Standard
 MAJOR MALE PELVIC PROCEDURES W/O CC/MCC,15216.333333,Standard
 CESAREAN SECTION W CC/MCC,13851.230769,Standard
 VAGINAL DELIVERY W/O COMPLICATING DIAGNOSES,7203.0769231,Standard
" LOWER EXTREM & HUMER PROC EXCEPT HIP,FOOT,FEMUR W CC",21258.619048,Standard
 CHEMOTHERAPY W/O ACUTE LEUKEMIA AS SECONDARY DIAGNOSIS W CC,14226.88,Standard
 INFECTIOUS & PARASITIC DISEASES W O.R. PROCEDURE W MCC,52631.013158,Standard
 INFECTIOUS & PARASITIC DISEASES W O.R. PROCEDURE W CC,22016.857143,Standard
 INTRACRANIAL HEMORRHAGE OR CEREBRAL INFARCTION W MCC,16751.264151,Standard
 INTRACRANIAL HEMORRHAGE OR CEREBRAL INFARCTION W CC OR TPA IN 24 HRS,10702.25,Standard
 INTRACRANIAL HEMORRHAGE OR CEREBRAL INFARCTION W/O CC/MCC,8083.5714286,Standard
 TRANSIENT ISCHEMIA W/O THROMBOLYTIC,8157.5833333,Standard
 NONSPECIFIC CEREBROVASCULAR DISORDERS W MCC,37838.727273000004,Standard
 OTHER DISORDERS OF NERVOUS SYSTEM W CC,9637.3333333,Standard
 SEIZURES W MCC,15766.466666999999,Standard
 SEIZURES W/O MCC,9004.969697,Standard
 MAJOR CHEST PROCEDURES W CC,23547.0,Standard
 OTHER RESP SYSTEM O.R. PROCEDURES W MCC,61968.461537999996,Standard
 RED BLOOD CELL DISORDERS W/O MCC,10024.757576,Standard
 PULMONARY EMBOLISM W MCC,14056.692308000002,Standard
 EXTENSIVE O.R. PROCEDURE UNRELATED TO PRINCIPAL DIAGNOSIS W MCC,42120.555556,Standard
 SIGNS & SYMPTOMS W/O MCC,9757.2222222,Standard
 COMPLICATIONS OF TREATMENT W CC,10452.928570999999,Standard
 COMPLICATIONS OF TREATMENT W MCC,18432.769231000002,Standard
 POISONING & TOXIC EFFECTS OF DRUGS W MCC,15008.153846000001,Standard
 OTHER O.R. PROCEDURES FOR INJURIES W CC,18541.454545,Standard
 SEPTICEMIA OR SEVERE SEPSIS W/O MV >96 HOURS W/O MCC,10724.430656999999,Standard
 SEPTICEMIA OR SEVERE SEPSIS W/O MV >96 HOURS W MCC,18868.343629,Standard
 SEPTICEMIA OR SEVERE SEPSIS W MV >96 HOURS OR PERIPHERAL EXTRACORPOR,72704.1,Standard
 POSTOPERATIVE & POST,17750.916666999998,Standard
 PULMONARY EMBOLISM W/O MCC,9480.4545455,Standard
 KIDNEY & URETER PROCEDURES FOR NEOPLASM W/O CC/MCC,15511.375,Standard
 OTHER VASCULAR PROCEDURES W MCC,30996.321429000003,Standard
 CARDIAC VALVE & OTH MAJ CARDIOTHORACIC PROC W/O CARD CATH W MCC,78779.466667,Standard
 MAJOR SMALL & LARGE BOWEL PROCEDURES W/O CC/MCC,16476.333333000002,Standard
 MAJOR SMALL & LARGE BOWEL PROCEDURES W CC,22986.0,Standard
 MAJOR SMALL & LARGE BOWEL PROCEDURES W MCC,48108.772726999996,Standard
 OTHER CIRCULATORY SYSTEM DIAGNOSES W CC,9947.5,Standard
 OTHER CIRCULATORY SYSTEM DIAGNOSES W MCC,17759.033333000003,Standard
 DISORDERS OF PANCREAS EXCEPT MALIGNANCY W MCC,16461.368421,Standard
 DISORDERS OF PANCREAS EXCEPT MALIGNANCY W CC,9313.6666667,Standard
" ""DISORDERS OF LIVER EXCEPT MALIG,CIRR,ALC HEPA W MCC""",31425.521739,Standard
" DISORDERS OF LIVER EXCEPT MALIG,CIRR,ALC HEPA W CC",9671.055555600002,Standard
 DISORDERS OF THE BILIARY TRACT W MCC,15181.181818000001,Standard
 DISORDERS OF THE BILIARY TRACT W CC,11003.533333,Standard
 COMBINED ANTERIOR/POSTERIOR SPINAL FUSION W CC,65445.673913,Standard
 COMBINED ANTERIOR/POSTERIOR SPINAL FUSION W/O CC/MCC,51145.421053,Standard
 SPINAL FUSION EXCEPT CERVICAL W/O MCC,39501.302751999996,Standard
 REVISION OF HIP OR KNEE REPLACEMENT W/O CC/MCC,26943.565217000003,Standard
 MAJOR HIP AND KNEE JOINT REPLACEMENT OR REATTACHMENT OF LOWER EXTREM,29358.838710000004,Standard
 MAJOR HIP AND KNEE JOINT REPLACEMENT OR REATTACHMENT OF LOWER EXTREM,21243.6175,Standard
 CERVICAL SPINAL FUSION W CC,29481.909091,Standard
 SYNCOPE & COLLAPSE,8584.909090899999,Standard
 CARDIAC ARRHYTHMIA & CONDUCTION DISORDERS W/O CC/MCC,6910.4117647,Standard
 CARDIAC ARRHYTHMIA & CONDUCTION DISORDERS W CC,8358.642857100001,Standard
 MAJOR GASTROINTESTINAL DISORDERS & PERITONEAL INFECTIONS W CC,11046.133333,Standard
 CARDIAC ARRHYTHMIA & CONDUCTION DISORDERS W MCC,12163.304348,Standard
 G.I. HEMORRHAGE W MCC,19649.809524,Standard
 G.I. OBSTRUCTION W MCC,14364.6,Standard
 PERC CARDIOVASC PROC W DRUG,22765.867469999997,Standard
 PERCUTANEOUS CARDIOVASCULAR PROCEDURES W DRUG,31926.452830000002,Standard
 PERMANENT CARDIAC PACEMAKER IMPLANT W CC,24742.933333,Standard
 PERMANENT CARDIAC PACEMAKER IMPLANT W MCC,35509.894737,Standard
 CORONARY BYPASS W/O CARDIAC CATH W/O MCC,37458.976744,Standard
 CORONARY BYPASS W/O CARDIAC CATH W MCC,52283.193548,Standard
 CORONARY BYPASS W CARDIAC CATH W/O MCC,46630.16,Standard
 CORONARY BYPASS W CARDIAC CATH W MCC,62079.352941,Standard
 OTHER CARDIOTHORACIC PROCEDURES W/O MCC,42788.5,Standard
 OTHER CARDIOTHORACIC PROCEDURES W MCC,61455.44444400001,Standard
 CARDIAC VALVE & OTH MAJ CARDIOTHORACIC PROC W/O CARD CATH W CC,53162.930435,Standard
 CARDIAC VALVE & OTH MAJ CARDIOTHORACIC PROC W CARD CATH W MCC,94894.941176,Standard
 RESPIRATORY SYSTEM DIAGNOSIS W VENTILATOR SUPPORT <=96 HOURS,24376.722222,Standard
 BRONCHITIS & ASTHMA W CC/MCC,9846.809523799999,Standard
 SIMPLE PNEUMONIA & PLEURISY W CC,9581.482142899999,Standard
 MALIGNANCY OF HEPATOBILIARY SYSTEM OR PANCREAS W MCC,16552.722222,Standard
 OTHER DIGESTIVE SYSTEM DIAGNOSES W CC,9835.393939399999,Standard
 OTHER DIGESTIVE SYSTEM DIAGNOSES W MCC,16283.384615,Standard
" ""ESOPHAGITIS, GASTROENT & MISC DIGEST DISORDERS W/O MCC""",8364.737704899999,Standard
" ESOPHAGITIS, GASTROENT & MISC DIGEST DISORDERS W MCC",12600.8,Standard
 G.I. OBSTRUCTION W CC,9821.3461538,Standard
 G.I. HEMORRHAGE W CC,10289.773196,Standard
 PERIPHERAL VASCULAR DISORDERS W CC,10595.25,Standard
 CHEST PAIN,7899.375,Standard
 PERCUTANEOUS INTRACARDIAC PROCEDURES W/O MCC,26906.655172000002,Standard
" ""ACUTE MYOCARDIAL INFARCTION, DISCHARGED ALIVE W MCC""",16195.929825,Standard
 OTHER VASCULAR PROCEDURES W/O CC/MCC,18649.190476,Standard
 RESPIRATORY INFECTIONS & INFLAMMATIONS W MCC,17599.526316,Standard
 RESPIRATORY NEOPLASMS W MCC,16757.8,Standard
 PULMONARY EDEMA & RESPIRATORY FAILURE,14677.349206,Standard
 CHRONIC OBSTRUCTIVE PULMONARY DISEASE W MCC,12267.016129000001,Standard
 CHRONIC OBSTRUCTIVE PULMONARY DISEASE W CC,9647.7,Standard
 ENDOVASCULAR CARDIAC VALVE REPLACEMENT W MCC,74720.62963,Standard
 CHRONIC OBSTRUCTIVE PULMONARY DISEASE W/O CC/MCC,7852.0,Standard
 SIMPLE PNEUMONIA & PLEURISY W MCC,13700.048387,Standard
 HEART FAILURE & SHOCK W MCC,14900.655,Standard
 HIP & FEMUR PROCEDURES EXCEPT MAJOR JOINT W/O CC/MCC,16266.0,Standard
 HIP & FEMUR PROCEDURES EXCEPT MAJOR JOINT W CC,20780.804878,Standard
 MAJOR JOINT/LIMB REATTACHMENT PROCEDURE OF UPPER EXTREMITIES,24135.386363999998,Standard
 CERVICAL SPINAL FUSION W/O CC/MCC,22124.923077,Standard
" ACUTE MYOCARDIAL INFARCTION, DISCHARGED ALIVE W CC",10698.378378,Standard
 PERCUTANEOUS INTRACARDIAC PROCEDURES W MCC,43039.533333,Standard
 HIP & FEMUR PROCEDURES EXCEPT MAJOR JOINT W MCC,28051.117647000003,Standard
" ACUTE MYOCARDIAL INFARCTION, EXPIRED W MCC",20337.454545,Standard
" ""CIRCULATORY DISORDERS EXCEPT AMI, W CARD CATH W MCC""",22994.0,Standard
" ""ACUTE MYOCARDIAL INFARCTION, DISCHARGED ALIVE W/O CC/MCC""",8241.0,Standard
 OTHER MAJOR CARDIOVASCULAR PROCEDURES W/O CC/MCC,23615.615385,Standard
 OTHER MAJOR CARDIOVASCULAR PROCEDURES W CC,32721.206897000004,Standard
 OTHER MAJOR CARDIOVASCULAR PROCEDURES W MCC,52926.652174,Standard
 AORTIC AND HEART ASSIST PROCEDURES EXCEPT PULSATION BALLOON W/O MCC,39118.269231,Standard
 ENDOVASCULAR CARDIAC VALVE REPLACEMENT W/O MCC,58333.785714,Standard
" CIRCULATORY DISORDERS EXCEPT AMI, W CARD CATH W/O MCC",11915.517856999999,Standard
 HEART FAILURE & SHOCK W CC,10381.481481,Standard
