Description,Charge,Category
 CARDIAC ARRHYTHMIA & CONDUCTION DISORDERS W CC,6574.1818182,Standard
 KIDNEY & URINARY TRACT INFECTIONS W/O MCC,6386.3333333,Standard
Level 5 ENT Procedures,4279.87466666666,DRG
Level 3 Endovascular Procedures,12572.1599999999,DRG
Level 4 Endovascular Procedures,19851.32,DRG
 OTHER KIDNEY & URINARY TRACT DIAGNOSES W MCC,16206.470588,Standard
Level 3 Pacemaker and Similar Procedures,11564.86,DRG
Level 2 Upper GI Procedures,1503.13102040816,DRG
 INFECTIOUS & PARASITIC DISEASES W O.R. PROCEDURE W MCC,38255.388889,Standard
 SEPTICEMIA OR SEVERE SEPSIS W/O MV >96 HOURS W MCC,14279.630952000001,Standard
 SEPTICEMIA OR SEVERE SEPSIS W/O MV >96 HOURS W/O MCC,8647.324324299998,Standard
 POISONING & TOXIC EFFECTS OF DRUGS W MCC,12181.0,Standard
 CARDIAC ARRHYTHMIA & CONDUCTION DISORDERS W MCC,9828.15,Standard
Abdominal/Peritoneal/Biliary and Related Procedures,3076.73,DRG
 MAJOR JOINT/LIMB REATTACHMENT PROCEDURE OF UPPER EXTREMITIES,20910.08,Standard
 HIP & FEMUR PROCEDURES EXCEPT MAJOR JOINT W CC,16644.583333000002,Standard
Comprehensive Observation Services,2476.11159663863,DRG
Level 6 Gynecologic Procedures,6993.03,DRG
Level 5 Gynecologic Procedures,4239.39,DRG
Level 5 Urology and Related Services,3823.64635294118,DRG
Level 4 Urology and Related Services,2850.1299999999896,DRG
 KIDNEY & URINARY TRACT INFECTIONS W MCC,8811.4166667,Standard
 RENAL FAILURE W CC,7877.210526299999,Standard
 RENAL FAILURE W MCC,12055.615385,Standard
" ""MISC DISORDERS OF NUTRITION,METABOLISM,FLUIDS/ELECTROLYTES W/O MCC""",6418.9444444,Standard
 HEART FAILURE & SHOCK W MCC,12103.361702,Standard
 CELLULITIS W/O MCC,7236.1666667,Standard
 SIMPLE PNEUMONIA & PLEURISY W CC,7395.6666667,Standard
 SIMPLE PNEUMONIA & PLEURISY W MCC,11675.552631999999,Standard
 CHRONIC OBSTRUCTIVE PULMONARY DISEASE W MCC,9390.272727299998,Standard
 PULMONARY EDEMA & RESPIRATORY FAILURE,10134.645161,Standard
Level 2 Excision/ Biopsy/ Incision and Drainage,1424.69999999999,DRG
Level 1 Breast/Lymphatic Surgery and Related Procedures,2882.99,DRG
Level 2 Breast/Lymphatic Surgery and Related Procedures,5085.57,DRG
 INTRACRANIAL HEMORRHAGE OR CEREBRAL INFARCTION W CC OR TPA IN 24 HRS,8379.5238095,Standard
 CARDIAC ARRHYTHMIA & CONDUCTION DISORDERS W/O CC/MCC,4918.2307692,Standard
 MAJOR SMALL & LARGE BOWEL PROCEDURES W CC,20545.785713999998,Standard
 G.I. HEMORRHAGE W CC,7865.733333300001,Standard
 G.I. OBSTRUCTION W/O CC/MCC,5104.6153846,Standard
" ""ESOPHAGITIS, GASTROENT & MISC DIGEST DISORDERS W/O MCC""",6804.8,Standard
 MAJOR HIP AND KNEE JOINT REPLACEMENT OR REATTACHMENT OF LOWER EXTREM,17224.826531,Standard
Level 2 Musculoskeletal Procedures,1426.72,DRG
Level 3 Musculoskeletal Procedures,2795.69,DRG
Level 4 Musculoskeletal Procedures,5988.37086206896,DRG
Level 5 Airway Endoscopy,5140.83,DRG
 DIABETES W CC,6879.8181818,Standard
Level 3 Urology and Related Services,1792.13,DRG
Level 1 Laparoscopy and Related Services,4743.98999999999,DRG
