Description,Charge,Category
Comprehensive Observation Services,2462.62091286305,DRG
Level 1 Intraocular Procedures,1992.78185873605,DRG
 SEPTICEMIA OR SEVERE SEPSIS W/O MV >96 HOURS W MCC,16917.10219,Standard
 SEPTICEMIA OR SEVERE SEPSIS W/O MV >96 HOURS W/O MCC,9703.233333299999,Standard
Level 2 Excision/ Biopsy/ Incision and Drainage,1424.7,DRG
 OTHER KIDNEY & URINARY TRACT DIAGNOSES W MCC,13421.833333,Standard
 CELLULITIS W/O MCC,8032.538461499999,Standard
 HIP & FEMUR PROCEDURES EXCEPT MAJOR JOINT W CC,17453.083333000002,Standard
 CERVICAL SPINAL FUSION W/O CC/MCC,20221.0,Standard
 SPINAL FUSION EXCEPT CERVICAL W/O MCC,35924.243243,Standard
 G.I. HEMORRHAGE W CC,8867.75,Standard
 HEART FAILURE & SHOCK W MCC,13228.95122,Standard
 SIMPLE PNEUMONIA & PLEURISY W CC,10066.0,Standard
 SIMPLE PNEUMONIA & PLEURISY W MCC,12299.64,Standard
 CHRONIC OBSTRUCTIVE PULMONARY DISEASE W MCC,10086.290323000001,Standard
 PULMONARY EDEMA & RESPIRATORY FAILURE,11148.75,Standard
 RESPIRATORY INFECTIONS & INFLAMMATIONS W MCC,17613.583333000002,Standard
Level 1 Nerve Procedures,1668.38745762712,DRG
Level 4 Gynecologic Procedures,2402.03,DRG
 MAJOR HIP AND KNEE JOINT REPLACEMENT OR REATTACHMENT OF LOWER EXTREM,19105.894118,Standard
Level 4 Urology and Related Services,2565.118,DRG
Level 5 Urology and Related Services,3916.82,DRG
Level 2 Breast/Lymphatic Surgery and Related Procedures,4847.15444444444,DRG
Level 1 Breast/Lymphatic Surgery and Related Procedures,2882.98999999999,DRG
Level 3 Musculoskeletal Procedures,2714.1135897435897,DRG
Level 4 Musculoskeletal Procedures,5890.7054098360595,DRG
Level 2 Musculoskeletal Procedures,1394.2945454545402,DRG
Level 2 Upper GI Procedures,1505.77219512195,DRG
Abdominal/Peritoneal/Biliary and Related Procedures,3006.8043181818102,DRG
Level 1 Laparoscopy and Related Services,4541.4008333333295,DRG
Level 3 Urology and Related Services,1792.13,DRG
Level 5 Musculoskeletal Procedures,12060.1699999999,DRG
