Description,Charge,Category
 INTRACRANIAL HEMORRHAGE OR CEREBRAL INFARCTION W CC OR TPA IN 24 HRS,7058.4285714,Standard
 RESPIRATORY INFECTIONS & INFLAMMATIONS W MCC,17541.375,Standard
Level 2 Breast/Lymphatic Surgery and Related Procedures,955.64,DRG
 PULMONARY EDEMA & RESPIRATORY FAILURE,8570.148148100001,Standard
 INTRACRANIAL HEMORRHAGE OR CEREBRAL INFARCTION W MCC,9995.9375,Standard
Level 3 Musculoskeletal Procedures,1107.12386363636,DRG
 SIMPLE PNEUMONIA & PLEURISY W CC,8890.84,Standard
Level 4 Musculoskeletal Procedures,2937.26,DRG
Level 1 Laparoscopy and Related Services,2267.91957446808,DRG
Level 2 Upper GI Procedures,429.478947368421,DRG
Level 2 Musculoskeletal Procedures,414.134960629921,DRG
Level 3 Pacemaker and Similar Procedures,6716.91428571428,DRG
 SIMPLE PNEUMONIA & PLEURISY W MCC,13055.056604000001,Standard
Level 3 Urology and Related Services,548.421149425287,DRG
" ""ACUTE MYOCARDIAL INFARCTION, DISCHARGED ALIVE W MCC""",15690.816327,Standard
Level 3 Excision/ Biopsy/ Incision and Drainage,1022.375,DRG
Level 1 Breast/Lymphatic Surgery and Related Procedures,1370.96,DRG
Abdominal/Peritoneal/Biliary and Related Procedures,985.431578947368,DRG
 G.I. HEMORRHAGE W MCC,11615.857143000001,Standard
 KIDNEY & URINARY TRACT INFECTIONS W/O MCC,5478.4166667,Standard
 KIDNEY & URINARY TRACT INFECTIONS W MCC,6763.266666699999,Standard
 RENAL FAILURE W CC,6199.8529412,Standard
 RENAL FAILURE W MCC,8729.8181818,Standard
" ""MISC DISORDERS OF NUTRITION,METABOLISM,FLUIDS/ELECTROLYTES W/O MCC""",5997.4545455,Standard
" MISC DISORDERS OF NUTRITION,METABOLISM,FLUIDS/ELECTROLYTES W MCC",6860.055555600001,Standard
 DIABETES W CC,5750.3529412,Standard
 CELLULITIS W/O MCC,8106.2222222,Standard
 CARDIAC ARRHYTHMIA & CONDUCTION DISORDERS W MCC,7960.057142899999,Standard
 MEDICAL BACK PROBLEMS W/O MCC,5183.1818182,Standard
 HIP & FEMUR PROCEDURES EXCEPT MAJOR JOINT W CC,12781.631579,Standard
 HIP & FEMUR PROCEDURES EXCEPT MAJOR JOINT W MCC,21873.333333000002,Standard
 CARDIAC ARRHYTHMIA & CONDUCTION DISORDERS W CC,4594.925,Standard
 CARDIAC ARRHYTHMIA & CONDUCTION DISORDERS W/O CC/MCC,3897.4242424000004,Standard
 SYNCOPE & COLLAPSE,7604.25,Standard
 G.I. OBSTRUCTION W CC,4480.739130399999,Standard
" ""ESOPHAGITIS, GASTROENT & MISC DIGEST DISORDERS W/O MCC""",7247.0,Standard
 OTHER DIGESTIVE SYSTEM DIAGNOSES W CC,4756.2142857,Standard
 DISORDERS OF PANCREAS EXCEPT MALIGNANCY W CC,6752.461538500001,Standard
 MAJOR HIP AND KNEE JOINT REPLACEMENT OR REATTACHMENT OF LOWER EXTREM,19766.404762000002,Standard
 G.I. HEMORRHAGE W CC,6233.9375,Standard
 FRACTURES OF HIP & PELVIS W/O MCC,5274.1666667,Standard
 HYPERTENSION W/O MCC,5314.6666667,Standard
 CHRONIC OBSTRUCTIVE PULMONARY DISEASE W CC,5662.235294100001,Standard
 HEART FAILURE & SHOCK W CC,9104.517241399999,Standard
Level 2 Excision/ Biopsy/ Incision and Drainage,629.935040650406,DRG
Level 4 Urology and Related Services,948.22275,DRG
Level 5 Urology and Related Services,1364.5772580645098,DRG
Level 4 Gynecologic Procedures,1082.75375,DRG
Level 1 Nerve Procedures,772.614545454545,DRG
Level 1 Intraocular Procedures,747.423583333334,DRG
Comprehensive Observation Services,925.3810133333341,DRG
 PSYCHOSES,9684.0888889,Standard
 SEPTICEMIA OR SEVERE SEPSIS W/O MV >96 HOURS W/O MCC,10049.870968000001,Standard
 SEPTICEMIA OR SEVERE SEPSIS W/O MV >96 HOURS W MCC,17326.91844,Standard
 HEART FAILURE & SHOCK W/O CC/MCC,6424.1666667,Standard
 RED BLOOD CELL DISORDERS W/O MCC,6816.6842105000005,Standard
 HEART FAILURE & SHOCK W MCC,13986.818181999999,Standard
" ""ACUTE MYOCARDIAL INFARCTION, DISCHARGED ALIVE W/O CC/MCC""",7241.0,Standard
 CHRONIC OBSTRUCTIVE PULMONARY DISEASE W MCC,6306.9555556000005,Standard
" ACUTE MYOCARDIAL INFARCTION, DISCHARGED ALIVE W CC",9332.4615385,Standard
