Description,Charge,Category
 CHEST PAIN,5098.857142899999,Standard
 SYNCOPE & COLLAPSE,6506.0555556,Standard
 REVISION OF HIP OR KNEE REPLACEMENT W CC,26122.210526,Standard
Abdominal/Peritoneal/Biliary and Related Procedures,2519.10999999999,DRG
 MAJOR HIP AND KNEE JOINT REPLACEMENT OR REATTACHMENT OF LOWER EXTREM,23896.4,Standard
 MAJOR HIP AND KNEE JOINT REPLACEMENT OR REATTACHMENT OF LOWER EXTREM,15450.599525999998,Standard
 ANGINA PECTORIS,5434.2142857,Standard
 CARDIAC ARRHYTHMIA & CONDUCTION DISORDERS W/O CC/MCC,4150.24,Standard
 HYPERTENSION W/O MCC,5025.857142899999,Standard
 CARDIAC ARRHYTHMIA & CONDUCTION DISORDERS W MCC,9175.5,Standard
 OTHER CIRCULATORY SYSTEM DIAGNOSES W MCC,18541.032258000003,Standard
 ATHEROSCLEROSIS W/O MCC,4822.0,Standard
 HIP & FEMUR PROCEDURES EXCEPT MAJOR JOINT W MCC,20468.190476,Standard
 HIP & FEMUR PROCEDURES EXCEPT MAJOR JOINT W CC,15211.480769,Standard
 PERIPHERAL VASCULAR DISORDERS W CC,9551.133333299998,Standard
 HEART FAILURE & SHOCK W CC,7549.5588235,Standard
 HEART FAILURE & SHOCK W MCC,10452.850498,Standard
 CARDIAC ARRHYTHMIA & CONDUCTION DISORDERS W CC,5751.3818181999995,Standard
 OTHER CIRCULATORY SYSTEM DIAGNOSES W CC,7902.7272727,Standard
" DISORDERS OF LIVER EXCEPT MALIG,CIRR,ALC HEPA W CC",7944.8,Standard
 MAJOR SMALL & LARGE BOWEL PROCEDURES W CC,20658.909091,Standard
" CIRCULATORY DISORDERS EXCEPT AMI, W CARD CATH W/O MCC",9754.3823529,Standard
 APPENDECTOMY W COMPLICATED PRINCIPAL DIAG W/O CC/MCC,12238.181818000001,Standard
 DIGESTIVE MALIGNANCY W CC,8680.5,Standard
 G.I. HEMORRHAGE W MCC,13290.385965000001,Standard
 G.I. HEMORRHAGE W CC,7166.271739100001,Standard
 G.I. OBSTRUCTION W CC,6011.0,Standard
 G.I. OBSTRUCTION W/O CC/MCC,4563.2962963,Standard
" ESOPHAGITIS, GASTROENT & MISC DIGEST DISORDERS W MCC",8685.8333333,Standard
 MAJOR SMALL & LARGE BOWEL PROCEDURES W/O CC/MCC,11658.954545,Standard
" ""ESOPHAGITIS, GASTROENT & MISC DIGEST DISORDERS W/O MCC""",5792.8823529,Standard
 OTHER DIGESTIVE SYSTEM DIAGNOSES W CC,7390.6875,Standard
 LAPAROSCOPIC CHOLECYSTECTOMY W/O C.D.E. W MCC,16487.285713999998,Standard
 LAPAROSCOPIC CHOLECYSTECTOMY W/O C.D.E. W CC,12720.0,Standard
 DISORDERS OF PANCREAS EXCEPT MALIGNANCY W MCC,11326.8,Standard
 DISORDERS OF PANCREAS EXCEPT MALIGNANCY W CC,7406.347826100001,Standard
" ""DISORDERS OF LIVER EXCEPT MALIG,CIRR,ALC HEPA W MCC""",25358.428571,Standard
 DISORDERS OF THE BILIARY TRACT W CC,8533.909090899999,Standard
 MAJOR SMALL & LARGE BOWEL PROCEDURES W MCC,36153.612902999994,Standard
" ""CIRCULATORY DISORDERS EXCEPT AMI, W CARD CATH W MCC""",16477.806452,Standard
 INTRACRANIAL HEMORRHAGE OR CEREBRAL INFARCTION W CC OR TPA IN 24 HRS,7169.8933333,Standard
" ""ACUTE MYOCARDIAL INFARCTION, DISCHARGED ALIVE W/O CC/MCC""",5474.6111111,Standard
 TRANSIENT ISCHEMIA W/O THROMBOLYTIC,5429.7272727,Standard
Level 4 Gynecologic Procedures,1855.0602777777697,DRG
Level 7 Urology and Related Services,15666.58,DRG
Level 6 Urology and Related Services,6372.378461538461,DRG
Level 5 Urology and Related Services,3134.1116358838694,DRG
Level 4 Urology and Related Services,2332.89912698412,DRG
Level 3 Urology and Related Services,1458.27742268041,DRG
 PULMONARY EDEMA & RESPIRATORY FAILURE,8332.7142857,Standard
 EXTENSIVE O.R. PROCEDURE UNRELATED TO PRINCIPAL DIAGNOSIS W MCC,33046.272726999996,Standard
 CHRONIC OBSTRUCTIVE PULMONARY DISEASE W MCC,6645.1111111,Standard
 SIMPLE PNEUMONIA & PLEURISY W CC,5619.297872300001,Standard
 SIMPLE PNEUMONIA & PLEURISY W/O CC/MCC,4423.3823529,Standard
 PERC CARDIOVASC PROC W DRUG,13951.916667,Standard
" ""ESOPHAGITIS, GASTROENT & MISC DIGEST DISORDERS W/O MCC""",4705.4545455,Standard
" ""MISC DISORDERS OF NUTRITION,METABOLISM,FLUIDS/ELECTROLYTES W/O MCC""",4528.0,Standard
 KIDNEY & URINARY TRACT INFECTIONS W/O MCC,4866.1851852,Standard
Level 2 Laparoscopy and Related Services,6485.9698275862,DRG
Level 1 Laparoscopy and Related Services,3843.6052791878,DRG
 SIMPLE PNEUMONIA & PLEURISY W MCC,7720.761904800001,Standard
 COMPLICATIONS OF TREATMENT W CC,7089.8461538,Standard
 POISONING & TOXIC EFFECTS OF DRUGS W MCC,9810.620689700001,Standard
 ALCOHOL/DRUG ABUSE OR DEPENDENCE W/O REHABILITATION THERAPY W MCC,15985.153846000001,Standard
" ACUTE MYOCARDIAL INFARCTION, DISCHARGED ALIVE W CC",7517.4634146,Standard
 SIMPLE PNEUMONIA & PLEURISY W MCC,9635.5833333,Standard
 CHRONIC OBSTRUCTIVE PULMONARY DISEASE W CC,6548.0833333,Standard
 CHRONIC OBSTRUCTIVE PULMONARY DISEASE W MCC,8131.863636399999,Standard
 PULMONARY EDEMA & RESPIRATORY FAILURE,9240.792746100002,Standard
 RESPIRATORY INFECTIONS & INFLAMMATIONS W MCC,13351.8125,Standard
Level 2 Excision/ Biopsy/ Incision and Drainage,1147.89490813647,DRG
 PULMONARY EMBOLISM W/O MCC,7959.8888889,Standard
 EXTRACRANIAL PROCEDURES W CC,12178.142856999999,Standard
 EXTRACRANIAL PROCEDURES W/O CC/MCC,7869.9375,Standard
" ""ISCHEMIC STROKE, PRECEREBRAL OCCLUSION OR TRANSIENT ISCHEMIA W THRO",15821.181818000001,Standard
 INTRACRANIAL HEMORRHAGE OR CEREBRAL INFARCTION W MCC,13623.25,Standard
Complex GI Procedures,3715.41,DRG
 PULMONARY EMBOLISM W MCC,10839.405405,Standard
 OTHER RESP SYSTEM O.R. PROCEDURES W MCC,30454.5,Standard
 MAJOR CHEST PROCEDURES W MCC,44776.75,Standard
 SEIZURES W/O MCC,5939.75,Standard
 NONSPECIFIC CEREBROVASCULAR DISORDERS W CC,19069.916666999998,Standard
 NONSPECIFIC CEREBROVASCULAR DISORDERS W MCC,12403.384615,Standard
" ACUTE MYOCARDIAL INFARCTION, EXPIRED W MCC",16290.473684,Standard
Level 3 Lower GI Procedures,1948.12888888888,DRG
 LAPAROSCOPIC CHOLECYSTECTOMY W/O C.D.E. W/O CC/MCC,9163.5454545,Standard
Level 2 Upper GI Procedures,1172.90999999999,DRG
 OTHER CARDIOTHORACIC PROCEDURES W/O MCC,41316.066667,Standard
 CARDIAC VALVE & OTH MAJ CARDIOTHORACIC PROC W/O CARD CATH W CC,59149.846154,Standard
 RESPIRATORY SYSTEM DIAGNOSIS W VENTILATOR SUPPORT <=96 HOURS,23883.314286,Standard
 RED BLOOD CELL DISORDERS W/O MCC,6310.4117647,Standard
 COAGULATION DISORDERS,12035.875,Standard
 CHEMOTHERAPY W/O ACUTE LEUKEMIA AS SECONDARY DIAGNOSIS W CC,8841.0833333,Standard
Level 3 Upper GI Procedures,2373.98,DRG
 INFECTIOUS & PARASITIC DISEASES W O.R. PROCEDURE W CC,22976.25,Standard
 SEPTICEMIA OR SEVERE SEPSIS W MV >96 HOURS OR PERIPHERAL EXTRACORPOR,50523.090909,Standard
 SEPTICEMIA OR SEVERE SEPSIS W/O MV >96 HOURS W MCC,14478.075658000002,Standard
 SEPTICEMIA OR SEVERE SEPSIS W/O MV >96 HOURS W/O MCC,7767.4640884,Standard
 RED BLOOD CELL DISORDERS W MCC,9371.625,Standard
 MAJOR MALE PELVIC PROCEDURES W/O CC/MCC,10899.666667,Standard
 OTHER KIDNEY & URINARY TRACT DIAGNOSES W CC,7789.363636399999,Standard
 OTHER KIDNEY & URINARY TRACT DIAGNOSES W MCC,13378.919355,Standard
 KIDNEY & URINARY TRACT INFECTIONS W/O MCC,5798.878787899999,Standard
 KIDNEY & URINARY TRACT INFECTIONS W MCC,8159.21875,Standard
 RENAL FAILURE W CC,7472.123076899999,Standard
 RENAL FAILURE W MCC,12683.402778,Standard
 KIDNEY & URETER PROCEDURES FOR NEOPLASM W/O CC/MCC,13950.384615,Standard
" ""MISC DISORDERS OF NUTRITION,METABOLISM,FLUIDS/ELECTROLYTES W/O MCC""",5381.857142899999,Standard
" MISC DISORDERS OF NUTRITION,METABOLISM,FLUIDS/ELECTROLYTES W MCC",10780.805556,Standard
 DIABETES W CC,6357.4210526,Standard
 DIABETES W MCC,10515.117647,Standard
" ""AMPUTAT OF LOWER LIMB FOR ENDOCRINE,NUTRIT,& METABOL DIS W CC""",17825.25,Standard
 CORONARY BYPASS W CARDIAC CATH W MCC,65480.25,Standard
 CELLULITIS W/O MCC,6210.7027026999995,Standard
 CORONARY BYPASS W CARDIAC CATH W/O MCC,46110.421053,Standard
 PERMANENT CARDIAC PACEMAKER IMPLANT W MCC,32006.0,Standard
Comprehensive Observation Services,1629.45143497757,DRG
Level 1 Intraocular Procedures,1330.43682352941,DRG
Level 2 Neurostimulator and Related Procedures,3500.0833333333303,DRG
Level 1 Nerve Procedures,1117.02,DRG
Level 1 Laparoscopy and Related Services,3113.3,DRG
Level 2 Upper GI Procedures,929.2531372549009,DRG
Level 2 ICD and Similar Procedures,25530.5499999999,DRG
Level 3 Pacemaker and Similar Procedures,6589.08,DRG
Level 3 Endovascular Procedures,6178.822075471679,DRG
" ""ACUTE MYOCARDIAL INFARCTION, DISCHARGED ALIVE W MCC""",12530.545455,Standard
 PERCUTANEOUS INTRACARDIAC PROCEDURES W/O MCC,19022.3,Standard
 OTHER MAJOR CARDIOVASCULAR PROCEDURES W CC,28987.75,Standard
 OTHER MAJOR CARDIOVASCULAR PROCEDURES W MCC,51085.709677,Standard
Level 1 Endovascular Procedures,1640.0149640287698,DRG
Level 4 Musculoskeletal Procedures,3888.55,DRG
Level 3 Musculoskeletal Procedures,1834.7,DRG
Level 2 Excision/ Biopsy/ Incision and Drainage,934.9799999999989,DRG
 AORTIC AND HEART ASSIST PROCEDURES EXCEPT PULSATION BALLOON W/O MCC,35308.833332999995,Standard
 ENDOVASCULAR CARDIAC VALVE REPLACEMENT W/O MCC,44837.888889,Standard
 OTHER VASCULAR PROCEDURES W CC,25722.272727,Standard
 OTHER VASCULAR PROCEDURES W MCC,23341.714286000002,Standard
 PERC CARDIOVASC PROC W DRUG,17263.916666999998,Standard
 PERCUTANEOUS CARDIOVASCULAR PROCEDURES W DRUG,23586.328358000002,Standard
 PERMANENT CARDIAC PACEMAKER IMPLANT W/O CC/MCC,14787.363636000002,Standard
 PERMANENT CARDIAC PACEMAKER IMPLANT W CC,18788.272727,Standard
 CORONARY BYPASS W/O CARDIAC CATH W/O MCC,44656.576923,Standard
 CELLULITIS W MCC,9905.444444399998,Standard
 INFECTIOUS & PARASITIC DISEASES W O.R. PROCEDURE W MCC,50692.822222,Standard
 MAJOR JOINT/LIMB REATTACHMENT PROCEDURE OF UPPER EXTREMITIES,17815.896552000002,Standard
Level 3 Excision/ Biopsy/ Incision and Drainage,1918.9190769230702,DRG
Level 1 Breast/Lymphatic Surgery and Related Procedures,2225.60485714285,DRG
Level 2 Breast/Lymphatic Surgery and Related Procedures,4071.33955555555,DRG
Level 2 Musculoskeletal Procedures,1154.2473999999902,DRG
Level 3 Musculoskeletal Procedures,2260.0351898734198,DRG
Level 5 Musculoskeletal Procedures,9480.984032258051,DRG
Level 3 Airway Endoscopy,1145.43999999999,DRG
Level 4 Airway Endoscopy,2264.19,DRG
Level 4 ENT Procedures,1902.91,DRG
Level 5 Gynecologic Procedures,3471.05,DRG
Level 5 ENT Procedures,3556.8947368421004,DRG
Level 2 Endovascular Procedures,4330.47128787877,DRG
Level 3 Endovascular Procedures,9981.88423076928,DRG
Level 4 Endovascular Procedures,16011.2802352941,DRG
Level 3 Electrophysiologic Procedures,18537.3256603773,DRG
Level 2 Pacemaker and Similar Procedures,6437.7583333333305,DRG
Level 3 Pacemaker and Similar Procedures,9088.16938461537,DRG
Level 4 Pacemaker and Similar Procedures,17708.46,DRG
" LOWER EXTREM & HUMER PROC EXCEPT HIP,FOOT,FEMUR W CC",20751.666666999998,Standard
Level 2 ICD and Similar Procedures,32177.4599999999,DRG
Level 1 Endovascular Procedures,2079.2335779816603,DRG
Level 1 Nerve Procedures,1318.47358974359,DRG
Level 4 Musculoskeletal Procedures,4713.96615819209,DRG
Level 2 Intraocular Procedures,3124.17764705882,DRG
 HIP & FEMUR PROCEDURES EXCEPT MAJOR JOINT W/O CC/MCC,11878.266667,Standard
 SIMPLE PNEUMONIA & PLEURISY W CC,7104.9,Standard
Level 2 Neurostimulator and Related Procedures,5240.11,DRG
Comprehensive Observation Services,2003.46831654677,DRG
