Description,Charge,Category
 MAJOR HIP AND KNEE JOINT REPLACEMENT OR REATTACHMENT OF LOWER EXTREM,16655.376866,Standard
 G.I. HEMORRHAGE W MCC,15845.5,Standard
 MAJOR SMALL & LARGE BOWEL PROCEDURES W CC,18384.529412,Standard
 OTHER CIRCULATORY SYSTEM DIAGNOSES W MCC,13893.857143000001,Standard
 SYNCOPE & COLLAPSE,6615.4,Standard
 CARDIAC ARRHYTHMIA & CONDUCTION DISORDERS W/O CC/MCC,4910.4761905000005,Standard
 CARDIAC ARRHYTHMIA & CONDUCTION DISORDERS W CC,6562.3823529,Standard
 CARDIAC ARRHYTHMIA & CONDUCTION DISORDERS W MCC,8868.4,Standard
 HEART FAILURE & SHOCK W/O CC/MCC,6313.5454545,Standard
 G.I. HEMORRHAGE W CC,7749.1372549,Standard
 MAJOR SMALL & LARGE BOWEL PROCEDURES W MCC,34047.357143,Standard
 LAPAROSCOPIC CHOLECYSTECTOMY W/O C.D.E. W CC,13416.705881999998,Standard
 G.I. OBSTRUCTION W CC,6784.6956522,Standard
 HIP & FEMUR PROCEDURES EXCEPT MAJOR JOINT W CC,15332.933333,Standard
 MAJOR JOINT/LIMB REATTACHMENT PROCEDURE OF UPPER EXTREMITIES,18533.025316,Standard
 CELLULITIS W MCC,11784.533333,Standard
 CELLULITIS W/O MCC,7658.461538500001,Standard
 DIABETES W MCC,10727.454545,Standard
 HEART FAILURE & SHOCK W CC,8169.8709677,Standard
 DIABETES W CC,8016.0,Standard
" MISC DISORDERS OF NUTRITION,METABOLISM,FLUIDS/ELECTROLYTES W MCC",9850.8367347,Standard
" ""MISC DISORDERS OF NUTRITION,METABOLISM,FLUIDS/ELECTROLYTES W/O MCC""",6392.0384615,Standard
 RENAL FAILURE W MCC,11617.652173999999,Standard
 RENAL FAILURE W CC,7519.1290323,Standard
 KIDNEY & URINARY TRACT INFECTIONS W MCC,8352.6153846,Standard
 KIDNEY & URINARY TRACT INFECTIONS W/O MCC,7952.96,Standard
 OTHER KIDNEY & URINARY TRACT DIAGNOSES W MCC,13834.736841999998,Standard
 RED BLOOD CELL DISORDERS W/O MCC,6987.4545455,Standard
 INFECTIOUS & PARASITIC DISEASES W O.R. PROCEDURE W MCC,39893.138889,Standard
 INFECTIOUS & PARASITIC DISEASES W O.R. PROCEDURE W CC,18067.0,Standard
Level 5 Gynecologic Procedures,3473.88,DRG
Level 1 Nerve Procedures,1301.77599999999,DRG
Level 2 Neurostimulator and Related Procedures,3845.87866666666,DRG
Comprehensive Observation Services,1998.3627927928,DRG
 G.I. OBSTRUCTION W/O CC/MCC,4996.6666667,Standard
" ESOPHAGITIS, GASTROENT & MISC DIGEST DISORDERS W MCC",9612.25,Standard
 G.I. OBSTRUCTION W MCC,11456.6,Standard
" ""ESOPHAGITIS, GASTROENT & MISC DIGEST DISORDERS W/O MCC""",6591.9655172,Standard
 SPINAL FUSION EXCEPT CERVICAL W/O MCC,28439.470588,Standard
 BILATERAL OR MULTIPLE MAJOR JOINT PROCS OF LOWER EXTREMITY W/O MCC,23583.272727,Standard
 MAJOR HIP AND KNEE JOINT REPLACEMENT OR REATTACHMENT OF LOWER EXTREM,24566.090909,Standard
 POISONING & TOXIC EFFECTS OF DRUGS W MCC,9581.2,Standard
 SEPTICEMIA OR SEVERE SEPSIS W/O MV >96 HOURS W/O MCC,8245.095238099999,Standard
 SEPTICEMIA OR SEVERE SEPSIS W/O MV >96 HOURS W MCC,14036.768924000002,Standard
 OTHER DIGESTIVE SYSTEM DIAGNOSES W CC,7949.714285699999,Standard
 HEART FAILURE & SHOCK W MCC,11535.336206999998,Standard
Level 1 Laparoscopy and Related Services,3886.66685714285,DRG
Level 2 Excision/ Biopsy/ Incision and Drainage,1152.0130864197502,DRG
 OTHER VASCULAR PROCEDURES W MCC,23975.615385,Standard
 RESPIRATORY SYSTEM DIAGNOSIS W VENTILATOR SUPPORT <=96 HOURS,18195.275862000002,Standard
 BRONCHITIS & ASTHMA W CC/MCC,8644.8333333,Standard
 SIMPLE PNEUMONIA & PLEURISY W CC,7813.6,Standard
" ACUTE MYOCARDIAL INFARCTION, DISCHARGED ALIVE W CC",7065.357142899999,Standard
 CHRONIC OBSTRUCTIVE PULMONARY DISEASE W CC,7516.0,Standard
 CHRONIC OBSTRUCTIVE PULMONARY DISEASE W MCC,9549.1304348,Standard
 PULMONARY EDEMA & RESPIRATORY FAILURE,9704.296703299999,Standard
 RESPIRATORY INFECTIONS & INFLAMMATIONS W MCC,13212.888889,Standard
 PULMONARY EMBOLISM W/O MCC,7859.8333333,Standard
 OTHER DISORDERS OF NERVOUS SYSTEM W CC,7155.8181818,Standard
 NONSPECIFIC CEREBROVASCULAR DISORDERS W CC,9951.25,Standard
 NONSPECIFIC CEREBROVASCULAR DISORDERS W MCC,11923.0,Standard
 TRANSIENT ISCHEMIA W/O THROMBOLYTIC,6872.6153846,Standard
 INTRACRANIAL HEMORRHAGE OR CEREBRAL INFARCTION W/O CC/MCC,6410.0,Standard
 INTRACRANIAL HEMORRHAGE OR CEREBRAL INFARCTION W CC OR TPA IN 24 HRS,8219.5135135,Standard
 INTRACRANIAL HEMORRHAGE OR CEREBRAL INFARCTION W MCC,14793.590909,Standard
" ""ACUTE MYOCARDIAL INFARCTION, DISCHARGED ALIVE W MCC""",11377.483870999999,Standard
Level 4 Gynecologic Procedures,1913.6161111111103,DRG
 SIMPLE PNEUMONIA & PLEURISY W MCC,10723.508197,Standard
Level 4 Urology and Related Services,2335.49,DRG
Level 3 Excision/ Biopsy/ Incision and Drainage,1677.8416666666599,DRG
Level 5 Urology and Related Services,3097.45915094339,DRG
Level 2 Breast/Lymphatic Surgery and Related Procedures,3906.815625,DRG
Level 2 Musculoskeletal Procedures,1107.56842105263,DRG
Level 3 Musculoskeletal Procedures,2290.87,DRG
Level 4 Musculoskeletal Procedures,4796.1581707317,DRG
Level 5 Musculoskeletal Procedures,9645.34,DRG
Level 3 Airway Endoscopy,1146.3699999999901,DRG
Level 1 Breast/Lymphatic Surgery and Related Procedures,2362.41,DRG
Level 5 ENT Procedures,3757.5599999999895,DRG
Level 1 Endovascular Procedures,2108.78,DRG
Level 2 Endovascular Procedures,4400.753928571429,DRG
Level 2 Upper GI Procedures,1223.01925531914,DRG
Abdominal/Peritoneal/Biliary and Related Procedures,2427.7837037036998,DRG
Level 2 Laparoscopy and Related Services,6673.659090909089,DRG
Level 3 Urology and Related Services,1428.83999999999,DRG
Level 4 Airway Endoscopy,2091.11791666666,DRG
