Description,Charge,Category
Level 2 Excision/ Biopsy/ Incision and Drainage,1090.6644936708801,DRG
Level 2 Endovascular Procedures,4168.91,DRG
Level 1 Endovascular Procedures,1967.15693430656,DRG
Level 5 ENT Procedures,3557.14,DRG
Level 4 ENT Procedures,1802.88,DRG
Level 2 Musculoskeletal Procedures,1103.6069999999902,DRG
Level 4 Musculoskeletal Procedures,4595.54079207921,DRG
Level 3 Musculoskeletal Procedures,2120.4871111110997,DRG
Level 2 Breast/Lymphatic Surgery and Related Procedures,3940.5065625,DRG
Level 3 Excision/ Biopsy/ Incision and Drainage,1906.02,DRG
Level 2 Pacemaker and Similar Procedures,6240.63,DRG
Level 5 Musculoskeletal Procedures,9060.82999999999,DRG
Level 3 Pacemaker and Similar Procedures,8676.59999999999,DRG
 DIABETES W MCC,8884.142857100001,Standard
Level 3 Upper GI Procedures,2249.2,DRG
 SEPTICEMIA OR SEVERE SEPSIS W/O MV >96 HOURS W/O MCC,7545.465517199999,Standard
 SEPTICEMIA OR SEVERE SEPSIS W/O MV >96 HOURS W MCC,13360.878048999999,Standard
 INFECTIOUS & PARASITIC DISEASES W O.R. PROCEDURE W MCC,34969.851852,Standard
 OTHER KIDNEY & URINARY TRACT DIAGNOSES W MCC,11518.703704000001,Standard
 KIDNEY & URINARY TRACT INFECTIONS W/O MCC,5574.5,Standard
 KIDNEY & URINARY TRACT INFECTIONS W MCC,7541.6666667,Standard
 RENAL FAILURE W CC,6565.782608699999,Standard
 RENAL FAILURE W MCC,10443.647059,Standard
Comprehensive Observation Services,1898.7878468899398,DRG
Level 2 Upper GI Procedures,1157.79063829787,DRG
Level 2 Intraocular Procedures,2959.96028571428,DRG
Level 5 Gynecologic Procedures,3035.6215384615302,DRG
Level 4 Gynecologic Procedures,1863.31,DRG
Level 5 Urology and Related Services,3004.82177142856,DRG
Level 4 Urology and Related Services,2210.43253521126,DRG
Level 3 Urology and Related Services,1390.19999999999,DRG
 EXTRACRANIAL PROCEDURES W/O CC/MCC,8112.521739100001,Standard
Level 1 Laparoscopy and Related Services,3620.2779687499897,DRG
Abdominal/Peritoneal/Biliary and Related Procedures,2383.93096153846,DRG
Complex GI Procedures,3520.09,DRG
Level 1 Nerve Procedures,1319.18164383561,DRG
Level 1 Intraocular Procedures,1553.89647058823,DRG
 INTRACRANIAL HEMORRHAGE OR CEREBRAL INFARCTION W CC OR TPA IN 24 HRS,7969.2083333,Standard
 INTRACRANIAL HEMORRHAGE OR CEREBRAL INFARCTION W/O CC/MCC,5217.6153846,Standard
 G.I. OBSTRUCTION W CC,6269.2,Standard
 G.I. OBSTRUCTION W/O CC/MCC,5153.0,Standard
" ESOPHAGITIS, GASTROENT & MISC DIGEST DISORDERS W MCC",9034.2307692,Standard
" ""ESOPHAGITIS, GASTROENT & MISC DIGEST DISORDERS W/O MCC""",5360.9230769,Standard
 OTHER DIGESTIVE SYSTEM DIAGNOSES W MCC,11154.727273,Standard
 OTHER DIGESTIVE SYSTEM DIAGNOSES W CC,7500.0625,Standard
 DISORDERS OF PANCREAS EXCEPT MALIGNANCY W CC,6381.5,Standard
 COMBINED ANTERIOR/POSTERIOR SPINAL FUSION W CC,48187.230769,Standard
 SPINAL FUSION EXCEPT CERVICAL W/O MCC,30695.05,Standard
 REVISION OF HIP OR KNEE REPLACEMENT W/O CC/MCC,21950.0,Standard
 MAJOR HIP AND KNEE JOINT REPLACEMENT OR REATTACHMENT OF LOWER EXTREM,21468.866667,Standard
 MAJOR HIP AND KNEE JOINT REPLACEMENT OR REATTACHMENT OF LOWER EXTREM,14891.915385,Standard
 CERVICAL SPINAL FUSION W CC,19947.911111,Standard
 CERVICAL SPINAL FUSION W/O CC/MCC,16228.484847999998,Standard
 HIP & FEMUR PROCEDURES EXCEPT MAJOR JOINT W CC,14049.6,Standard
 HIP & FEMUR PROCEDURES EXCEPT MAJOR JOINT W/O CC/MCC,11173.0,Standard
 MAJOR JOINT/LIMB REATTACHMENT PROCEDURE OF UPPER EXTREMITIES,16805.034483000003,Standard
 CELLULITIS W/O MCC,5930.6666667,Standard
" ""MISC DISORDERS OF NUTRITION,METABOLISM,FLUIDS/ELECTROLYTES W/O MCC""",5884.4285714,Standard
" MISC DISORDERS OF NUTRITION,METABOLISM,FLUIDS/ELECTROLYTES W MCC",8157.4375,Standard
 DIABETES W CC,7218.1875,Standard
 G.I. HEMORRHAGE W CC,6828.9019608,Standard
 G.I. HEMORRHAGE W MCC,13499.88,Standard
 MAJOR SMALL & LARGE BOWEL PROCEDURES W CC,18486.928571,Standard
 MAJOR SMALL & LARGE BOWEL PROCEDURES W MCC,32050.090909,Standard
 TRANSIENT ISCHEMIA W/O THROMBOLYTIC,5409.4375,Standard
 NONSPECIFIC CEREBROVASCULAR DISORDERS W CC,7242.4285714,Standard
 PULMONARY EMBOLISM W MCC,10276.736842,Standard
 RESPIRATORY INFECTIONS & INFLAMMATIONS W MCC,13158.387097,Standard
 PULMONARY EDEMA & RESPIRATORY FAILURE,9118.195122,Standard
 CHRONIC OBSTRUCTIVE PULMONARY DISEASE W MCC,7987.0967742,Standard
 CHRONIC OBSTRUCTIVE PULMONARY DISEASE W CC,6691.260869600001,Standard
 SIMPLE PNEUMONIA & PLEURISY W MCC,9755.1707317,Standard
 SIMPLE PNEUMONIA & PLEURISY W CC,6549.488888899999,Standard
 RESPIRATORY SYSTEM DIAGNOSIS W VENTILATOR SUPPORT <=96 HOURS,16073.666667,Standard
 INTRACRANIAL HEMORRHAGE OR CEREBRAL INFARCTION W MCC,11926.433332999999,Standard
 PERCUTANEOUS CARDIOVASCULAR PROCEDURES W DRUG,24817.846154,Standard
" ""ACUTE MYOCARDIAL INFARCTION, DISCHARGED ALIVE W MCC""",11151.865385,Standard
" ACUTE MYOCARDIAL INFARCTION, DISCHARGED ALIVE W CC",6531.9090909,Standard
" ""ACUTE MYOCARDIAL INFARCTION, DISCHARGED ALIVE W/O CC/MCC""",5329.857142899999,Standard
" CIRCULATORY DISORDERS EXCEPT AMI, W CARD CATH W/O MCC",8822.142857100001,Standard
 HEART FAILURE & SHOCK W MCC,10304.538462,Standard
 HEART FAILURE & SHOCK W CC,6662.4166667,Standard
 CARDIAC ARRHYTHMIA & CONDUCTION DISORDERS W MCC,8206.40625,Standard
 CARDIAC ARRHYTHMIA & CONDUCTION DISORDERS W CC,5476.7142857,Standard
 CARDIAC ARRHYTHMIA & CONDUCTION DISORDERS W/O CC/MCC,3920.5,Standard
 CHEST PAIN,5723.2727273,Standard
 PERC CARDIOVASC PROC W DRUG,15347.772727000001,Standard
 COMBINED ANTERIOR/POSTERIOR SPINAL FUSION W/O CC/MCC,35890.4,Standard
