Description,Charge,Category
 MAJOR HIP AND KNEE JOINT REPLACEMENT OR REATTACHMENT OF LOWER EXTREM,16201.779449000001,Standard
" ESOPHAGITIS, GASTROENT & MISC DIGEST DISORDERS W MCC",9935.6666667,Standard
" ""CIRCULATORY DISORDERS EXCEPT AMI, W CARD CATH W MCC""",17143.625,Standard
" ""ACUTE MYOCARDIAL INFARCTION, DISCHARGED ALIVE W/O CC/MCC""",6251.478260899999,Standard
 TRANSURETHRAL PROCEDURES W CC,11542.181818000001,Standard
" ""MISC DISORDERS OF NUTRITION,METABOLISM,FLUIDS/ELECTROLYTES W/O MCC""",6245.3043478,Standard
" MISC DISORDERS OF NUTRITION,METABOLISM,FLUIDS/ELECTROLYTES W MCC",9509.203703700001,Standard
 DIABETES W CC,7077.451612899999,Standard
 DIABETES W MCC,10129.25,Standard
" ""AMPUTAT OF LOWER LIMB FOR ENDOCRINE,NUTRIT,& METABOL DIS W CC""",15804.714286000002,Standard
 CELLULITIS W/O MCC,7294.3111111,Standard
 CELLULITIS W MCC,11835.75,Standard
 MEDICAL BACK PROBLEMS W/O MCC,6873.038461499999,Standard
 PATHOLOGICAL FRACTURES & MUSCULOSKELET & CONN TISS MALIG W CC,8341.4761905,Standard
 PATHOLOGICAL FRACTURES & MUSCULOSKELET & CONN TISS MALIG W MCC,13579.0,Standard
 FRACTURES OF HIP & PELVIS W/O MCC,6347.1333333,Standard
Level 3 Airway Endoscopy,1132.7999999999902,DRG
Level 5 Musculoskeletal Procedures,9515.56999999997,DRG
Level 4 Musculoskeletal Procedures,4745.56032258064,DRG
Level 3 Musculoskeletal Procedures,2235.44324999999,DRG
Level 2 Musculoskeletal Procedures,1155.25,DRG
" CIRCULATORY DISORDERS EXCEPT AMI, W CARD CATH W/O MCC",10541.840909,Standard
 RENAL FAILURE W MCC,12986.773333,Standard
 RENAL FAILURE W CC,7417.8977273,Standard
 KIDNEY & URINARY TRACT INFECTIONS W MCC,8405.0232558,Standard
Level 1 Endovascular Procedures,2059.0405013927602,DRG
Level 5 ENT Procedures,3610.6910810810796,DRG
Level 4 ENT Procedures,1746.8846666666598,DRG
Level 5 Airway Endoscopy,4162.267826086961,DRG
 OTHER VASCULAR PROCEDURES W CC,22757.285713999998,Standard
 RED BLOOD CELL DISORDERS W MCC,10944.0,Standard
 EXTRACRANIAL PROCEDURES W/O CC/MCC,9326.1304348,Standard
 CRANIOTOMY & ENDOVASCULAR INTRACRANIAL PROCEDURES W/O CC/MCC,19659.5,Standard
 CRANIOTOMY & ENDOVASCULAR INTRACRANIAL PROCEDURES W MCC,34542.5,Standard
Level 2 Breast/Lymphatic Surgery and Related Procedures,3993.1442424242296,DRG
  CRANIOTOMY W MAJOR DEVICE IMPLANT OR ACUTE COMPLEX CNS PDX W MCC OR,46599.227273000004,Standard
 MAJOR SMALL & LARGE BOWEL PROCEDURES W MCC,37745.422222,Standard
 MAJOR SMALL & LARGE BOWEL PROCEDURES W CC,21284.259259,Standard
 MAJOR SMALL & LARGE BOWEL PROCEDURES W/O CC/MCC,13278.272727,Standard
 MAJOR GASTROINTESTINAL DISORDERS & PERITONEAL INFECTIONS W MCC,15383.947368000001,Standard
 MAJOR GASTROINTESTINAL DISORDERS & PERITONEAL INFECTIONS W CC,9638.5,Standard
 MAJOR HEMATOL/IMMUN DIAG EXC SICKLE CELL CRISIS & COAGUL W CC,9168.909090899999,Standard
 OTHER KIDNEY & URINARY TRACT DIAGNOSES W CC,8599.5833333,Standard
 OTHER KIDNEY & URINARY TRACT DIAGNOSES W MCC,12202.183332999999,Standard
 KIDNEY & URINARY TRACT INFECTIONS W/O MCC,6999.75,Standard
 OTHER CIRCULATORY SYSTEM DIAGNOSES W CC,11509.45,Standard
Level 1 Breast/Lymphatic Surgery and Related Procedures,2334.44,DRG
Level 3 Excision/ Biopsy/ Incision and Drainage,1989.58,DRG
Level 2 Excision/ Biopsy/ Incision and Drainage,1123.09598253275,DRG
 DISORDERS OF THE BILIARY TRACT W CC,8692.076923100001,Standard
" DISORDERS OF LIVER EXCEPT MALIG,CIRR,ALC HEPA W CC",8026.2307692,Standard
" ""DISORDERS OF LIVER EXCEPT MALIG,CIRR,ALC HEPA W MCC""",13722.785713999998,Standard
 DISORDERS OF PANCREAS EXCEPT MALIGNANCY W CC,6776.0,Standard
 MALIGNANCY OF HEPATOBILIARY SYSTEM OR PANCREAS W MCC,12481.894737,Standard
 CIRRHOSIS & ALCOHOLIC HEPATITIS W MCC,18272.666666999998,Standard
 LAPAROSCOPIC CHOLECYSTECTOMY W/O C.D.E. W/O CC/MCC,10456.307692,Standard
 LAPAROSCOPIC CHOLECYSTECTOMY W/O C.D.E. W CC,13756.4375,Standard
 LAPAROSCOPIC CHOLECYSTECTOMY W/O C.D.E. W MCC,17683.0,Standard
 COMBINED ANTERIOR/POSTERIOR SPINAL FUSION W CC,49814.636364,Standard
 OTHER DIGESTIVE SYSTEM DIAGNOSES W/O CC/MCC,5931.8333333,Standard
 OTHER DIGESTIVE SYSTEM DIAGNOSES W MCC,14173.375,Standard
" ""ESOPHAGITIS, GASTROENT & MISC DIGEST DISORDERS W/O MCC""",6404.8470588,Standard
 ENDOVASCULAR CARDIAC VALVE REPLACEMENT W MCC,56630.195651999995,Standard
 G.I. OBSTRUCTION W/O CC/MCC,5488.5454545,Standard
 G.I. OBSTRUCTION W CC,6727.8,Standard
 G.I. HEMORRHAGE W/O CC/MCC,5169.266666699999,Standard
 G.I. HEMORRHAGE W CC,7734.8934426,Standard
 G.I. HEMORRHAGE W MCC,13816.301887,Standard
 OTHER VASCULAR PROCEDURES W/O CC/MCC,13375.833333,Standard
 OTHER DIGESTIVE SYSTEM DIAGNOSES W CC,8040.4166667,Standard
Level 2 Endovascular Procedures,4351.65,DRG
 COMBINED ANTERIOR/POSTERIOR SPINAL FUSION W/O CC/MCC,37500.481481,Standard
 BILATERAL OR MULTIPLE MAJOR JOINT PROCS OF LOWER EXTREMITY W/O MCC,26990.75,Standard
 BACK & NECK PROC EXC SPINAL FUSION W/O CC/MCC,9734.714285700002,Standard
 OTHER MUSCULOSKELET SYS & CONN TISS O.R. PROC W/O CC/MCC,13499.0,Standard
" ""LOWER EXTREM & HUMER PROC EXCEPT HIP,FOOT,FEMUR W/O CC/MCC""",16986.764706,Standard
" LOWER EXTREM & HUMER PROC EXCEPT HIP,FOOT,FEMUR W CC",18103.0,Standard
 MAJOR JOINT/LIMB REATTACHMENT PROCEDURE OF UPPER EXTREMITIES,18070.566265,Standard
 HIP & FEMUR PROCEDURES EXCEPT MAJOR JOINT W CC,15460.075472,Standard
 HIP & FEMUR PROCEDURES EXCEPT MAJOR JOINT W MCC,21218.583333000002,Standard
 BIOPSIES OF MUSCULOSKELETAL SYSTEM & CONNECTIVE TISSUE W CC,18909.727273,Standard
 CERVICAL SPINAL FUSION W/O CC/MCC,16816.529412,Standard
 SPINAL FUSION EXCEPT CERVICAL W/O MCC,29472.5,Standard
 CERVICAL SPINAL FUSION W CC,22171.6875,Standard
" ""ACUTE MYOCARDIAL INFARCTION, DISCHARGED ALIVE W MCC""",13631.961538,Standard
 PERCUTANEOUS INTRACARDIAC PROCEDURES W MCC,30811.263157999998,Standard
 OTHER MAJOR CARDIOVASCULAR PROCEDURES W CC,33189.071429,Standard
 OTHER MAJOR CARDIOVASCULAR PROCEDURES W MCC,38736.0,Standard
 AORTIC AND HEART ASSIST PROCEDURES EXCEPT PULSATION BALLOON W/O MCC,34157.227273000004,Standard
 ENDOVASCULAR CARDIAC VALVE REPLACEMENT W/O MCC,45448.424242,Standard
 MAJOR HIP AND KNEE JOINT REPLACEMENT OR REATTACHMENT OF LOWER EXTREM,22558.731707,Standard
 REVISION OF HIP OR KNEE REPLACEMENT W/O CC/MCC,24660.384615,Standard
 REVISION OF HIP OR KNEE REPLACEMENT W CC,30522.346154000003,Standard
" ACUTE MYOCARDIAL INFARCTION, DISCHARGED ALIVE W CC",7942.478260899999,Standard
Level 3 Endovascular Procedures,9929.30972222218,DRG
Level 4 Airway Endoscopy,2238.66045454545,DRG
 RED BLOOD CELL DISORDERS W/O MCC,7572.9722222,Standard
 CORONARY BYPASS W/O CARDIAC CATH W/O MCC,28828.428570999997,Standard
 PERMANENT CARDIAC PACEMAKER IMPLANT W MCC,27455.166667,Standard
 PERMANENT CARDIAC PACEMAKER IMPLANT W/O CC/MCC,19374.714286000002,Standard
 PERCUTANEOUS CARDIOVASCULAR PROCEDURES W DRUG,26734.944444,Standard
 RESPIRATORY NEOPLASMS W CC,9780.8461538,Standard
 RESPIRATORY NEOPLASMS W MCC,12664.076923,Standard
 PERC CARDIOVASC PROC W DRUG,18220.564935,Standard
 OTHER VASCULAR PROCEDURES W MCC,31399.76,Standard
 RESPIRATORY INFECTIONS & INFLAMMATIONS W MCC,14536.871795,Standard
 PULMONARY EMBOLISM W/O MCC,6874.631578899999,Standard
 CORONARY BYPASS W CARDIAC CATH W/O MCC,42755.611111,Standard
 PULMONARY EMBOLISM W MCC,11866.695652,Standard
 MAJOR CHEST PROCEDURES W CC,21054.947368,Standard
 SEIZURES W MCC,13249.0,Standard
 OTHER DISORDERS OF NERVOUS SYSTEM W CC,7296.636363600001,Standard
 OTHER DISORDERS OF NERVOUS SYSTEM W MCC,13716.538462,Standard
" ""TRAUMATIC STUPOR & COMA, COMA <1 HR W CC""",9102.0,Standard
" TRAUMATIC STUPOR & COMA, COMA <1 HR W MCC",22284.0,Standard
 NONSPECIFIC CEREBROVASCULAR DISORDERS W CC,7535.6818182,Standard
 EXTENSIVE O.R. PROCEDURE UNRELATED TO PRINCIPAL DIAGNOSIS W MCC,29990.066667000003,Standard
 COMPLICATIONS OF TREATMENT W MCC,13026.909091,Standard
Level 4 Endovascular Procedures,15824.28,DRG
 OTHER RESP SYSTEM O.R. PROCEDURES W MCC,32582.828571,Standard
 OTHER O.R. PROCEDURES FOR INJURIES W MCC,33174.538462000004,Standard
 CORONARY BYPASS W CARDIAC CATH W MCC,52520.285714,Standard
 CARDIAC VALVE & OTH MAJ CARDIOTHORACIC PROC W/O CARD CATH W MCC,64417.46666699999,Standard
 CARDIAC ARRHYTHMIA & CONDUCTION DISORDERS W MCC,9146.857142899999,Standard
 CARDIAC ARRHYTHMIA & CONDUCTION DISORDERS W CC,6106.1168831,Standard
 CARDIAC ARRHYTHMIA & CONDUCTION DISORDERS W/O CC/MCC,5308.0909091,Standard
 HYPERTENSION W/O MCC,5934.533333300001,Standard
 PERIPHERAL VASCULAR DISORDERS W MCC,10604.615385,Standard
 HEART FAILURE & SHOCK W/O CC/MCC,5386.2941176,Standard
 HEART FAILURE & SHOCK W CC,7664.7647059,Standard
 HEART FAILURE & SHOCK W MCC,11735.297222,Standard
 SYNCOPE & COLLAPSE,6259.5454545,Standard
 CHEST PAIN,6943.2916667,Standard
 CARDIAC VALVE & OTH MAJ CARDIOTHORACIC PROC W/O CARD CATH W CC,38602.55,Standard
 OTHER CIRCULATORY SYSTEM DIAGNOSES W MCC,18525.808511000003,Standard
 CHRONIC OBSTRUCTIVE PULMONARY DISEASE W MCC,11105.886792,Standard
 CHRONIC OBSTRUCTIVE PULMONARY DISEASE W CC,7157.038461499999,Standard
 CHRONIC OBSTRUCTIVE PULMONARY DISEASE W/O CC/MCC,6251.2307692,Standard
 SIMPLE PNEUMONIA & PLEURISY W MCC,11080.930435,Standard
 SIMPLE PNEUMONIA & PLEURISY W CC,8346.081081100001,Standard
 BRONCHITIS & ASTHMA W CC/MCC,7431.625,Standard
 OTHER RESPIRATORY SYSTEM DIAGNOSES W MCC,11446.714286,Standard
 RESPIRATORY SYSTEM DIAGNOSIS W VENTILATOR SUPPORT >96 HOURS,49981.133333,Standard
 RESPIRATORY SYSTEM DIAGNOSIS W VENTILATOR SUPPORT <=96 HOURS,18008.4375,Standard
 OTHER HEART ASSIST SYSTEM IMPLANT,101271.08696,Standard
 PULMONARY EDEMA & RESPIRATORY FAILURE,9794.339285700002,Standard
Comprehensive Observation Services,1968.74802564103,DRG
 POISONING & TOXIC EFFECTS OF DRUGS W MCC,10680.243243,Standard
Level 3 Neurostimulator and Related Procedures,18336.53,DRG
 ALCOHOL/DRUG ABUSE OR DEPENDENCE W/O REHABILITATION THERAPY W MCC,12310.333333,Standard
 PSYCHOSES,8180.0,Standard
 ORGANIC DISTURBANCES & INTELLECTUAL DISABILITY,10203.884615,Standard
 SEPTICEMIA OR SEVERE SEPSIS W/O MV >96 HOURS W/O MCC,9188.2761905,Standard
 SEPTICEMIA OR SEVERE SEPSIS W/O MV >96 HOURS W MCC,15234.205251,Standard
 SEPTICEMIA OR SEVERE SEPSIS W MV >96 HOURS OR PERIPHERAL EXTRACORPOR,62050.2,Standard
 POSTOPERATIVE & POST,19069.636363999998,Standard
Level 2 Laparoscopy and Related Services,6811.83999999999,DRG
Level 1 Laparoscopy and Related Services,3770.4556896551794,DRG
Abdominal/Peritoneal/Biliary and Related Procedures,2463.2048514851504,DRG
Complex GI Procedures,3674.4,DRG
Level 2 Upper GI Procedures,1219.6906410256402,DRG
Level 2 ICD and Similar Procedures,31792.0558823529,DRG
Level 1 ICD and Similar Procedures,22042.2776923077,DRG
Level 3 Pacemaker and Similar Procedures,8838.312727272729,DRG
Level 2 Pacemaker and Similar Procedures,6571.7416,DRG
Level 3 Electrophysiologic Procedures,18494.04,DRG
 INFECTIOUS & PARASITIC DISEASES W O.R. PROCEDURE W CC,17156.4375,Standard
 INFECTIOUS & PARASITIC DISEASES W O.R. PROCEDURE W MCC,44690.212121,Standard
 CHEMOTHERAPY W/O ACUTE LEUKEMIA AS SECONDARY DIAGNOSIS W CC,12600.804878,Standard
 COAGULATION DISORDERS,16047.757575999998,Standard
Level 2 Intraocular Procedures,3089.9216666666603,DRG
 DEGENERATIVE NERVOUS SYSTEM DISORDERS W/O MCC,12323.888889,Standard
 DEGENERATIVE NERVOUS SYSTEM DISORDERS W MCC,15132.863636000002,Standard
 INTRACRANIAL HEMORRHAGE OR CEREBRAL INFARCTION W CC OR TPA IN 24 HRS,8323.368421100002,Standard
Level 1 Nerve Procedures,1378.24,DRG
Level 4 Gynecologic Procedures,1944.99,DRG
Level 6 Urology and Related Services,6812.7299999999905,DRG
Level 5 Urology and Related Services,3171.5499999999897,DRG
 NONSPECIFIC CEREBROVASCULAR DISORDERS W MCC,13810.1875,Standard
 TRANSIENT ISCHEMIA W/O THROMBOLYTIC,6504.2444444,Standard
Level 4 Urology and Related Services,2307.7986111111,DRG
Level 3 Urology and Related Services,1447.51976190476,DRG
" ""ISCHEMIC STROKE, PRECEREBRAL OCCLUSION OR TRANSIENT ISCHEMIA W THRO",14310.692308000002,Standard
 INTRACRANIAL HEMORRHAGE OR CEREBRAL INFARCTION W MCC,13640.219512,Standard
 INTRACRANIAL HEMORRHAGE OR CEREBRAL INFARCTION W/O CC/MCC,6641.3333333,Standard
