Description,Charge,Category
 RENAL FAILURE W CC,7234.7,Standard
Level 1 Nerve Procedures,1335.25662921348,DRG
Level 4 Gynecologic Procedures,1905.75999999999,DRG
Level 5 Urology and Related Services,3089.3342384106,DRG
Level 4 Urology and Related Services,2261.26999999999,DRG
Level 3 Urology and Related Services,1387.18048780487,DRG
Level 2 Laparoscopy and Related Services,6452.412352941171,DRG
Level 1 Laparoscopy and Related Services,3763.8499999999894,DRG
Comprehensive Observation Services,1955.74703448275,DRG
Level 1 Intraocular Procedures,1602.83979865771,DRG
 OTHER KIDNEY & URINARY TRACT DIAGNOSES W MCC,10738.354839,Standard
 SEPTICEMIA OR SEVERE SEPSIS W/O MV >96 HOURS W/O MCC,7803.75,Standard
 DISORDERS OF PANCREAS EXCEPT MALIGNANCY W CC,6157.6875,Standard
 OTHER DIGESTIVE SYSTEM DIAGNOSES W CC,7259.0714286,Standard
 OTHER DIGESTIVE SYSTEM DIAGNOSES W MCC,11328.727273,Standard
" ""ESOPHAGITIS, GASTROENT & MISC DIGEST DISORDERS W/O MCC""",5539.8421053,Standard
 G.I. OBSTRUCTION W/O CC/MCC,4472.875,Standard
 G.I. OBSTRUCTION W CC,6163.8125,Standard
 G.I. HEMORRHAGE W CC,7084.435897399999,Standard
 SIMPLE PNEUMONIA & PLEURISY W MCC,9397.5671642,Standard
 SIMPLE PNEUMONIA & PLEURISY W CC,6813.55,Standard
 RESPIRATORY SYSTEM DIAGNOSIS W VENTILATOR SUPPORT <=96 HOURS,16157.777778,Standard
" ""ACUTE MYOCARDIAL INFARCTION, DISCHARGED ALIVE W MCC""",10747.777778,Standard
 HEART FAILURE & SHOCK W MCC,10138.246032,Standard
 HEART FAILURE & SHOCK W CC,6771.8181818,Standard
 CARDIAC ARRHYTHMIA & CONDUCTION DISORDERS W MCC,8362.388888899999,Standard
 CARDIAC ARRHYTHMIA & CONDUCTION DISORDERS W CC,5513.777777800001,Standard
 SYNCOPE & COLLAPSE,5787.8235294,Standard
 MAJOR SMALL & LARGE BOWEL PROCEDURES W MCC,34904.791667000005,Standard
 COMBINED ANTERIOR/POSTERIOR SPINAL FUSION W/O CC/MCC,41044.714286,Standard
 REVISION OF HIP OR KNEE REPLACEMENT W CC,25565.84,Standard
 REVISION OF HIP OR KNEE REPLACEMENT W/O CC/MCC,20224.962962999998,Standard
 MAJOR HIP AND KNEE JOINT REPLACEMENT OR REATTACHMENT OF LOWER EXTREM,20757.0,Standard
 SEPTICEMIA OR SEVERE SEPSIS W/O MV >96 HOURS W MCC,12454.567623,Standard
 SEPTICEMIA OR SEVERE SEPSIS W MV >96 HOURS OR PERIPHERAL EXTRACORPOR,38804.333332999995,Standard
 INFECTIOUS & PARASITIC DISEASES W O.R. PROCEDURE W CC,16253.928571,Standard
 INFECTIOUS & PARASITIC DISEASES W O.R. PROCEDURE W MCC,33870.714286,Standard
Abdominal/Peritoneal/Biliary and Related Procedures,2362.7402173913,DRG
 KIDNEY & URINARY TRACT INFECTIONS W/O MCC,5780.1666667,Standard
 KIDNEY & URINARY TRACT INFECTIONS W MCC,8529.137931000001,Standard
 RENAL FAILURE W MCC,10755.458333,Standard
 POISONING & TOXIC EFFECTS OF DRUGS W MCC,11038.631579,Standard
" ""MISC DISORDERS OF NUTRITION,METABOLISM,FLUIDS/ELECTROLYTES W/O MCC""",5317.5,Standard
 DIABETES W CC,6148.2727273,Standard
 FRACTURES OF HIP & PELVIS W/O MCC,5511.5833333,Standard
" LOWER EXTREM & HUMER PROC EXCEPT HIP,FOOT,FEMUR W CC",14859.636363999998,Standard
 MAJOR JOINT/LIMB REATTACHMENT PROCEDURE OF UPPER EXTREMITIES,17375.333333000002,Standard
 HIP & FEMUR PROCEDURES EXCEPT MAJOR JOINT W/O CC/MCC,11428.894737,Standard
 HIP & FEMUR PROCEDURES EXCEPT MAJOR JOINT W CC,13635.7,Standard
 HIP & FEMUR PROCEDURES EXCEPT MAJOR JOINT W MCC,19271.0,Standard
 MAJOR HIP AND KNEE JOINT REPLACEMENT OR REATTACHMENT OF LOWER EXTREM,14861.422131,Standard
" MISC DISORDERS OF NUTRITION,METABOLISM,FLUIDS/ELECTROLYTES W MCC",8199.166666699999,Standard
Level 3 Upper GI Procedures,2300.43,DRG
 G.I. HEMORRHAGE W MCC,11833.65,Standard
Level 5 Musculoskeletal Procedures,9101.425397727242,DRG
 INTRACRANIAL HEMORRHAGE OR CEREBRAL INFARCTION W MCC,11925.0,Standard
 INTRACRANIAL HEMORRHAGE OR CEREBRAL INFARCTION W CC OR TPA IN 24 HRS,7864.243902399999,Standard
 INTRACRANIAL HEMORRHAGE OR CEREBRAL INFARCTION W/O CC/MCC,5465.5,Standard
 PULMONARY EMBOLISM W MCC,9925.3333333,Standard
 RESPIRATORY INFECTIONS & INFLAMMATIONS W MCC,12397.423077,Standard
 CHRONIC OBSTRUCTIVE PULMONARY DISEASE W MCC,7934.037037,Standard
Level 2 Upper GI Procedures,1196.7963235294098,DRG
 MAJOR SMALL & LARGE BOWEL PROCEDURES W CC,19679.466666999997,Standard
 PULMONARY EDEMA & RESPIRATORY FAILURE,9012.919354799998,Standard
Level 4 Musculoskeletal Procedures,4700.786515151521,DRG
Level 2 Excision/ Biopsy/ Incision and Drainage,1130.35,DRG
Level 3 Excision/ Biopsy/ Incision and Drainage,1949.44,DRG
Level 1 Breast/Lymphatic Surgery and Related Procedures,2287.33999999999,DRG
Level 2 Breast/Lymphatic Surgery and Related Procedures,4034.86,DRG
Level 2 Musculoskeletal Procedures,1130.19454545454,DRG
Level 3 Musculoskeletal Procedures,2218.07,DRG
