Description,Charge,Category
 CRANIAL & PERIPHERAL NERVE DISORDERS W MCC,11913.583333,Standard
 TRANSIENT ISCHEMIA W/O THROMBOLYTIC,6373.857142899999,Standard
Comprehensive Observation Services,1936.2920700636998,DRG
 INTRACRANIAL HEMORRHAGE OR CEREBRAL INFARCTION W/O CC/MCC,6962.956521699999,Standard
 OTHER DISORDERS OF NERVOUS SYSTEM W MCC,17442.454545,Standard
 OTHER DIGESTIVE SYSTEM O.R. PROCEDURES W CC,16950.545455,Standard
 OTHER DIGESTIVE SYSTEM O.R. PROCEDURES W MCC,36996.333332999995,Standard
Abdominal/Peritoneal/Biliary and Related Procedures,2448.6877443609,DRG
 MAJOR SMALL & LARGE BOWEL PROCEDURES W/O CC/MCC,14114.814815,Standard
 MAJOR SMALL & LARGE BOWEL PROCEDURES W CC,22304.125,Standard
Level 7 Radiation Therapy,6764.47,DRG
 MAJOR SMALL & LARGE BOWEL PROCEDURES W MCC,49527.645161,Standard
" STOMACH, ESOPHAGEAL & DUODENAL PROC W/O CC/MCC",13656.875,Standard
" ""STOMACH, ESOPHAGEAL & DUODENAL PROC W CC""",20265.043478,Standard
" STOMACH, ESOPHAGEAL & DUODENAL PROC W MCC",43471.68,Standard
 OTHER CIRCULATORY SYSTEM DIAGNOSES W CC,8376.2352941,Standard
 OTHER CIRCULATORY SYSTEM DIAGNOSES W MCC,17332.703704,Standard
 CHEST PAIN,6494.857142899999,Standard
 HERNIA PROCEDURES EXCEPT INGUINAL & FEMORAL W/O CC/MCC,11203.428570999999,Standard
"Level 4 Extraocular, Repair, and Plastic Eye Procedures",2521.0045454545398,DRG
Level 4 Neurostimulator and Related Procedures,28466.0499999999,DRG
Level 2 Intraocular Procedures,2979.73838709677,DRG
Level 1 Laparoscopy and Related Services,3766.6359537572202,DRG
Level 2 Laparoscopy and Related Services,6796.21,DRG
Level 3 Urology and Related Services,1426.6492558139498,DRG
Level 4 Urology and Related Services,2251.4914,DRG
Level 5 Urology and Related Services,3070.96865671642,DRG
 MAJOR GASTROINTESTINAL DISORDERS & PERITONEAL INFECTIONS W MCC,15092.352941,Standard
Level 7 Urology and Related Services,15446.91,DRG
Level 4 Gynecologic Procedures,1910.4266666666601,DRG
Level 5 Gynecologic Procedures,3294.36538461538,DRG
" ""TRACHEOSTOMY FOR FACE, MOUTH & NECK DIAGNOSES OR LARYNGECTOMY W CC""",45464.071429,Standard
  CRANIOTOMY W MAJOR DEVICE IMPLANT OR ACUTE COMPLEX CNS PDX W MCC OR,52806.827586,Standard
 CRANIOTOMY & ENDOVASCULAR INTRACRANIAL PROCEDURES W MCC,44405.608695999996,Standard
 CRANIOTOMY & ENDOVASCULAR INTRACRANIAL PROCEDURES W/O CC/MCC,18983.583333000002,Standard
 EXTRACRANIAL PROCEDURES W/O CC/MCC,9110.5238095,Standard
Level 6 Gynecologic Procedures,4930.09695652174,DRG
Level 1 Nerve Procedures,1356.07808510638,DRG
Level 2 Neurostimulator and Related Procedures,5172.3099999999895,DRG
Level 3 Neurostimulator and Related Procedures,18298.7299999999,DRG
 SYNCOPE & COLLAPSE,9513.7586207,Standard
 INTRACRANIAL HEMORRHAGE OR CEREBRAL INFARCTION W MCC,21079.978723,Standard
 INTRACRANIAL HEMORRHAGE OR CEREBRAL INFARCTION W CC OR TPA IN 24 HRS,9947.516666700001,Standard
"Level 3 Extraocular, Repair, and Plastic Eye Procedures",1545.71940594059,DRG
 CARDIAC ARRHYTHMIA & CONDUCTION DISORDERS W/O CC/MCC,4925.3076923,Standard
 MAJOR CHEST PROCEDURES W/O CC/MCC,15388.818181999999,Standard
 SEIZURES W MCC,17724.636363999998,Standard
 CARDIAC VALVE & OTH MAJ CARDIOTHORACIC PROC W/O CARD CATH W CC,45443.555556,Standard
 CARDIAC VALVE & OTH MAJ CARDIOTHORACIC PROC W/O CARD CATH W MCC,83735.85185199999,Standard
 RESPIRATORY INFECTIONS & INFLAMMATIONS W MCC,18322.592593,Standard
 RESPIRATORY INFECTIONS & INFLAMMATIONS W CC,11556.5,Standard
 RESPIRATORY NEOPLASMS W MCC,18901.428571,Standard
 PULMONARY EDEMA & RESPIRATORY FAILURE,12614.066667000001,Standard
 CHRONIC OBSTRUCTIVE PULMONARY DISEASE W MCC,10919.73913,Standard
 CHRONIC OBSTRUCTIVE PULMONARY DISEASE W CC,8451.142857100001,Standard
 SIMPLE PNEUMONIA & PLEURISY W MCC,12936.871795000001,Standard
 SIMPLE PNEUMONIA & PLEURISY W CC,8360.7,Standard
 HEART FAILURE & SHOCK W/O CC/MCC,5987.1818182,Standard
 HEART FAILURE & SHOCK W CC,9339.977777799999,Standard
 HEART FAILURE & SHOCK W MCC,14234.884615,Standard
" CIRCULATORY DISORDERS EXCEPT AMI, W CARD CATH W/O MCC",10558.545455,Standard
" ACUTE MYOCARDIAL INFARCTION, DISCHARGED ALIVE W CC",8820.08,Standard
" ""ACUTE MYOCARDIAL INFARCTION, DISCHARGED ALIVE W MCC""",16197.755102000001,Standard
 PERCUTANEOUS INTRACARDIAC PROCEDURES W/O MCC,22228.875,Standard
 OTHER MAJOR CARDIOVASCULAR PROCEDURES W/O CC/MCC,19749.833333000002,Standard
 RESPIRATORY SYSTEM DIAGNOSIS W VENTILATOR SUPPORT <=96 HOURS,24746.0,Standard
 CORONARY BYPASS W CARDIAC CATH W MCC,67213.615385,Standard
 CARDIAC ARRHYTHMIA & CONDUCTION DISORDERS W CC,7423.4583333,Standard
 CORONARY BYPASS W/O CARDIAC CATH W MCC,66551.588235,Standard
 PERMANENT CARDIAC PACEMAKER IMPLANT W MCC,36037.210526,Standard
 DYSEQUILIBRIUM,6232.4,Standard
 MAJOR CHEST PROCEDURES W MCC,44092.862069,Standard
 MAJOR CHEST PROCEDURES W CC,22324.972973,Standard
 OTHER RESP SYSTEM O.R. PROCEDURES W MCC,46571.11764700001,Standard
 OTHER RESP SYSTEM O.R. PROCEDURES W CC,15687.222222,Standard
 CARDIAC ARRHYTHMIA & CONDUCTION DISORDERS W MCC,13777.166667,Standard
 HYPERTENSION W MCC,11217.538462,Standard
 PERIPHERAL VASCULAR DISORDERS W MCC,15670.625,Standard
 OTHER MAJOR CARDIOVASCULAR PROCEDURES W CC,34287.785714,Standard
 AORTIC AND HEART ASSIST PROCEDURES EXCEPT PULSATION BALLOON W/O MCC,41055.727273000004,Standard
 ENDOVASCULAR CARDIAC VALVE REPLACEMENT W/O MCC,50215.342105,Standard
 ENDOVASCULAR CARDIAC VALVE REPLACEMENT W MCC,70915.827586,Standard
 OTHER CIRCULATORY SYSTEM O.R. PROCEDURES,26075.833333000002,Standard
 OTHER VASCULAR PROCEDURES W/O CC/MCC,16164.227272999999,Standard
 OTHER VASCULAR PROCEDURES W CC,22724.408163,Standard
 OTHER VASCULAR PROCEDURES W MCC,36694.074074000004,Standard
 PERC CARDIOVASC PROC W DRUG,19129.867925,Standard
 PERCUTANEOUS CARDIOVASCULAR PROCEDURES W DRUG,31960.727273,Standard
 PERMANENT CARDIAC PACEMAKER IMPLANT W CC,23463.909091,Standard
 CORONARY BYPASS W/O CARDIAC CATH W/O MCC,34673.787233999996,Standard
Complex GI Procedures,3587.27059459459,DRG
Level 4 Endovascular Procedures,15791.3,DRG
Level 3 Upper GI Procedures,2343.28,DRG
Level 3 Musculoskeletal Procedures,2215.97351851852,DRG
Level 4 Musculoskeletal Procedures,4642.07288557215,DRG
Level 5 Musculoskeletal Procedures,9494.75,DRG
Level 3 Airway Endoscopy,1103.49246031746,DRG
Level 4 Airway Endoscopy,2203.22690140845,DRG
Level 5 Airway Endoscopy,4079.1207272727297,DRG
Level 4 ENT Procedures,1807.854,DRG
Level 5 ENT Procedures,3588.0684251968396,DRG
Cochlear Implant Procedure,32204.6538461538,DRG
Level 1 Endovascular Procedures,2043.94137931034,DRG
Level 2 Endovascular Procedures,4312.00857142858,DRG
Level 3 Endovascular Procedures,9831.709767441871,DRG
Level 2 Electrophysiologic Procedures,4357.58399999999,DRG
Level 3 Electrophysiologic Procedures,18106.054549763,DRG
Level 2 Pacemaker and Similar Procedures,6556.59,DRG
 OTHER KIDNEY & URINARY TRACT DIAGNOSES W MCC,21224.875,Standard
 KIDNEY & URINARY TRACT INFECTIONS W/O MCC,7367.436363600001,Standard
 KIDNEY & URINARY TRACT INFECTIONS W MCC,10501.153846,Standard
 RENAL FAILURE W CC,8376.1296296,Standard
Level 2 Musculoskeletal Procedures,1087.15199999999,DRG
Level 2 Breast/Lymphatic Surgery and Related Procedures,4110.0,DRG
Level 1 Breast/Lymphatic Surgery and Related Procedures,2329.95,DRG
Level 3 Excision/ Biopsy/ Incision and Drainage,1956.96115942029,DRG
 MAJOR MALE PELVIC PROCEDURES W/O CC/MCC,13786.965516999999,Standard
 RED BLOOD CELL DISORDERS W MCC,11624.166667,Standard
 RED BLOOD CELL DISORDERS W/O MCC,7705.6666667,Standard
 LYMPHOMA & NON,28275.090909,Standard
 CHEMOTHERAPY W/O ACUTE LEUKEMIA AS SECONDARY DIAGNOSIS W CC,15326.818181999999,Standard
 OTHER KIDNEY & URINARY TRACT DIAGNOSES W CC,12783.416667,Standard
 INFECTIOUS & PARASITIC DISEASES W O.R. PROCEDURE W MCC,65641.105263,Standard
 POSTOPERATIVE & POST,10929.076923,Standard
 PULMONARY EMBOLISM W/O MCC,8092.5,Standard
 RENAL FAILURE W MCC,14813.973684,Standard
 SEPTICEMIA OR SEVERE SEPSIS W/O MV >96 HOURS W MCC,19293.884956,Standard
 PSYCHOSES,20772.884615,Standard
 OTHER O.R. PROCEDURES FOR INJURIES W MCC,59366.727273000004,Standard
 COMPLICATIONS OF TREATMENT W MCC,15783.24,Standard
 COMPLICATIONS OF TREATMENT W CC,9260.6875,Standard
 SIGNS & SYMPTOMS W MCC,11222.636364,Standard
 SIGNS & SYMPTOMS W/O MCC,7252.0909091,Standard
 EXTENSIVE O.R. PROCEDURE UNRELATED TO PRINCIPAL DIAGNOSIS W MCC,43250.852941000005,Standard
 EXTENSIVE O.R. PROCEDURE UNRELATED TO PRINCIPAL DIAGNOSIS W CC,21489.470588,Standard
Level 2 Excision/ Biopsy/ Incision and Drainage,1118.09476534297,DRG
 SEPTICEMIA OR SEVERE SEPSIS W/O MV >96 HOURS W/O MCC,9736.707692299999,Standard
Level 3 Lower GI Procedures,1773.2627586206897,DRG
 OTHER KIDNEY & URINARY TRACT PROCEDURES W MCC,46301.846154,Standard
 KIDNEY TRANSPLANT,54020.907895000004,Standard
" DISORDERS OF LIVER EXCEPT MALIG,CIRR,ALC HEPA W CC",9431.909090899999,Standard
" ""DISORDERS OF LIVER EXCEPT MALIG,CIRR,ALC HEPA W MCC""",18964.277778,Standard
 DISORDERS OF PANCREAS EXCEPT MALIGNANCY W CC,8380.5384615,Standard
 DISORDERS OF PANCREAS EXCEPT MALIGNANCY W MCC,15850.15625,Standard
 MALIGNANCY OF HEPATOBILIARY SYSTEM OR PANCREAS W MCC,16574.0,Standard
" PANCREAS, LIVER & SHUNT PROCEDURES W CC",24717.958333000002,Standard
" ""PANCREAS, LIVER & SHUNT PROCEDURES W MCC""",69794.56,Standard
 OTHER DIGESTIVE SYSTEM DIAGNOSES W CC,8656.6969697,Standard
 OTHER DIGESTIVE SYSTEM DIAGNOSES W MCC,19238.233333,Standard
" ""ESOPHAGITIS, GASTROENT & MISC DIGEST DISORDERS W/O MCC""",7318.069444399999,Standard
" ESOPHAGITIS, GASTROENT & MISC DIGEST DISORDERS W MCC",12668.525,Standard
 G.I. OBSTRUCTION W CC,9564.724137899999,Standard
 G.I. HEMORRHAGE W CC,9257.5657895,Standard
 G.I. HEMORRHAGE W MCC,17859.24,Standard
 DIGESTIVE MALIGNANCY W CC,10798.666667,Standard
 DIGESTIVE MALIGNANCY W MCC,17795.105263,Standard
Level 3 Pacemaker and Similar Procedures,9092.08647058823,DRG
Level 2 ICD and Similar Procedures,31744.16,DRG
Level 2 Upper GI Procedures,1186.19081081081,DRG
 DISORDERS OF THE BILIARY TRACT W MCC,15896.607143000001,Standard
 DISORDERS OF THE BILIARY TRACT W CC,10491.222222,Standard
 DISORDERS OF THE BILIARY TRACT W/O CC/MCC,6800.857142899999,Standard
 COMBINED ANTERIOR/POSTERIOR SPINAL FUSION W CC,68405.071429,Standard
" ""MISC DISORDERS OF NUTRITION,METABOLISM,FLUIDS/ELECTROLYTES W/O MCC""",6848.9166667,Standard
" MISC DISORDERS OF NUTRITION,METABOLISM,FLUIDS/ELECTROLYTES W MCC",10891.652173999999,Standard
 DIABETES W CC,8334.5,Standard
 DIABETES W MCC,13123.058824,Standard
 O.R. PROCEDURES FOR OBESITY W/O CC/MCC,12294.0,Standard
" ""TRAUMA TO THE SKIN, SUBCUT TISS & BREAST W/O MCC""",7793.25,Standard
 CELLULITIS W/O MCC,9099.4736842,Standard
 CELLULITIS W MCC,14103.9375,Standard
 MEDICAL BACK PROBLEMS W/O MCC,7662.464285699999,Standard
 KIDNEY & URETER PROCEDURES FOR NEOPLASM W/O CC/MCC,13862.444444,Standard
 MAJOR JOINT/LIMB REATTACHMENT PROCEDURE OF UPPER EXTREMITIES,21491.910713999998,Standard
 CERVICAL SPINAL FUSION W CC,27585.666667,Standard
 MAJOR HIP AND KNEE JOINT REPLACEMENT OR REATTACHMENT OF LOWER EXTREM,17555.228791999998,Standard
 MAJOR HIP AND KNEE JOINT REPLACEMENT OR REATTACHMENT OF LOWER EXTREM,27893.285713999998,Standard
 REVISION OF HIP OR KNEE REPLACEMENT W/O CC/MCC,22651.538462,Standard
 REVISION OF HIP OR KNEE REPLACEMENT W CC,28923.863636000002,Standard
" WND DEBRID & SKN GRFT EXC HAND, FOR MUSCULO",30968.0,Standard
 BILATERAL OR MULTIPLE MAJOR JOINT PROCS OF LOWER EXTREMITY W/O MCC,27265.791667,Standard
 SPINAL FUSION EXCEPT CERVICAL W/O MCC,38729.857143,Standard
 COMBINED ANTERIOR/POSTERIOR SPINAL FUSION W/O CC/MCC,45591.0,Standard
 HIP & FEMUR PROCEDURES EXCEPT MAJOR JOINT W CC,19909.130435,Standard
 OTHER RESP SYSTEM O.R. PROCEDURES W/O CC/MCC,11526.235294,Standard
