Description,Charge,Category
 EXTENSIVE O.R. PROCEDURE UNRELATED TO PRINCIPAL DIAGNOSIS W MCC,34167.0,Standard
 MAJOR CHEST PROCEDURES W MCC,33232.962963,Standard
 TRANSURETHRAL PROCEDURES W CC,10788.5,Standard
 EXTENSIVE O.R. PROCEDURE UNRELATED TO PRINCIPAL DIAGNOSIS W CC,18122.55,Standard
 OTHER KIDNEY & URINARY TRACT PROCEDURES W MCC,28482.421053,Standard
 INTRACRANIAL HEMORRHAGE OR CEREBRAL INFARCTION W CC OR TPA IN 24 HRS,9407.9943182,Standard
 OTHER KIDNEY & URINARY TRACT PROCEDURES W CC,18567.266667,Standard
 TRANSIENT ISCHEMIA W/O THROMBOLYTIC,6933.5925926,Standard
 INTRACRANIAL HEMORRHAGE OR CEREBRAL INFARCTION W/O CC/MCC,8259.7777778,Standard
 INTRACRANIAL HEMORRHAGE OR CEREBRAL INFARCTION W MCC,15452.520958000001,Standard
 OTHER RESP SYSTEM O.R. PROCEDURES W MCC,24728.083333000002,Standard
" ISCHEMIC STROKE, PRECEREBRAL OCCLUSION OR TRANSIENT ISCHEMIA W THROM",19952.28125,Standard
 MAJOR CHEST PROCEDURES W CC,19689.906977000002,Standard
 DEGENERATIVE NERVOUS SYSTEM DISORDERS W/O MCC,9419.25,Standard
 DEGENERATIVE NERVOUS SYSTEM DISORDERS W MCC,23013.142857,Standard
 MAJOR CHEST PROCEDURES W/O CC/MCC,14478.592593000001,Standard
 RENAL FAILURE W MCC,12392.802469,Standard
 OTHER RESP SYSTEM O.R. PROCEDURES W CC,13891.727272999999,Standard
 PULMONARY EMBOLISM W MCC,12415.138889,Standard
 PULMONARY EMBOLISM W/O MCC,7625.8695652,Standard
 RESPIRATORY INFECTIONS & INFLAMMATIONS W MCC,15083.431034000001,Standard
 RESPIRATORY INFECTIONS & INFLAMMATIONS W CC,10173.166667,Standard
" ""ISCHEMIC STROKE, PRECEREBRAL OCCLUSION OR TRANSIENT ISCHEMIA W THRO",15325.538462,Standard
 RENAL FAILURE W CC,8156.256097600001,Standard
 POISONING & TOXIC EFFECTS OF DRUGS W/O MCC,6777.8461538,Standard
 KIDNEY & URINARY TRACT INFECTIONS W/O MCC,7300.543478300001,Standard
" ""TRAUMATIC STUPOR & COMA, COMA >1 HR W MCC""",16310.363636000002,Standard
" TRAUMATIC STUPOR & COMA, COMA >1 HR W CC",10477.5,Standard
 RESPIRATORY NEOPLASMS W MCC,13459.166667,Standard
" TRAUMATIC STUPOR & COMA, COMA <1 HR W MCC",15603.5,Standard
" ""TRAUMATIC STUPOR & COMA, COMA <1 HR W CC""",9841.6818182,Standard
" TRAUMATIC STUPOR & COMA, COMA <1 HR W/O CC/MCC",7394.7368421,Standard
 OTHER DISORDERS OF NERVOUS SYSTEM W MCC,12750.882353,Standard
 OTHER DISORDERS OF NERVOUS SYSTEM W CC,8036.2727273,Standard
 OTHER DISORDERS OF NERVOUS SYSTEM W/O CC/MCC,8397.066666699999,Standard
 CRANIAL & PERIPHERAL NERVE DISORDERS W/O MCC,8502.3636364,Standard
 SEIZURES W MCC,15590.313725,Standard
 INFECTIOUS & PARASITIC DISEASES W O.R. PROCEDURE W MCC,37927.873786000004,Standard
 CHEMOTHERAPY W/O ACUTE LEUKEMIA AS SECONDARY DIAGNOSIS W CC,10203.333333,Standard
 LYMPHOMA & NON,13003.818181999999,Standard
 CHEMO W ACUTE LEUKEMIA AS SDX OR W HIGH DOSE CHEMO AGENT W MCC,42837.090909,Standard
 ACUTE LEUKEMIA W/O MAJOR O.R. PROCEDURE W MCC,48377.307692,Standard
 RED BLOOD CELL DISORDERS W MCC,12727.8,Standard
 MAJOR HEMATOL/IMMUN DIAG EXC SICKLE CELL CRISIS & COAGUL W CC,11411.454545,Standard
 MAJOR HEMATOL/IMMUN DIAG EXC SICKLE CELL CRISIS & COAGUL W MCC,16861.454545,Standard
 UTERINE & ADNEXA PROC FOR NON,9145.466666700002,Standard
 SEIZURES W/O MCC,7900.6231884,Standard
 KIDNEY & URINARY TRACT INFECTIONS W MCC,9932.490566,Standard
 NONSPECIFIC CEREBROVASCULAR DISORDERS W CC,8603.2307692,Standard
 UTERINE & ADNEXA PROC FOR NON,12692.272727,Standard
 URINARY STONES W/O ESW LITHOTRIPSY W/O MCC,7210.8,Standard
 OTHER KIDNEY & URINARY TRACT DIAGNOSES W MCC,13113.507042,Standard
 OTHER MULTIPLE SIGNIFICANT TRAUMA W CC,12567.833333,Standard
 SIGNS & SYMPTOMS W/O MCC,7178.4166667,Standard
 COMPLICATIONS OF TREATMENT W CC,8541.142857100001,Standard
 POISONING & TOXIC EFFECTS OF DRUGS W MCC,10888.458333,Standard
 OTHER O.R. PROCEDURES FOR INJURIES W CC,13801.5,Standard
 ALCOHOL/DRUG ABUSE OR DEPENDENCE W/O REHABILITATION THERAPY W/O MCC,7274.380952399999,Standard
 ALCOHOL/DRUG ABUSE OR DEPENDENCE W/O REHABILITATION THERAPY W MCC,12907.4,Standard
 NONSPECIFIC CEREBROVASCULAR DISORDERS W MCC,13868.032258000001,Standard
 PSYCHOSES,12286.666667,Standard
 SEPTICEMIA OR SEVERE SEPSIS W/O MV >96 HOURS W/O MCC,8961.5362319,Standard
 SEPTICEMIA OR SEVERE SEPSIS W/O MV >96 HOURS W MCC,14294.056319,Standard
 SEPTICEMIA OR SEVERE SEPSIS W MV >96 HOURS OR PERIPHERAL EXTRACORPOR,43952.096774,Standard
 POSTOPERATIVE & POST,8252.5,Standard
 POSTOPERATIVE & POST,13783.333333,Standard
 OTHER KIDNEY & URINARY TRACT DIAGNOSES W CC,8323.888888899999,Standard
 POSTOPERATIVE OR POST,14596.0,Standard
 INFECTIOUS & PARASITIC DISEASES W O.R. PROCEDURE W CC,23209.533333000003,Standard
" ""UTERINE,ADNEXA PROC FOR NON",11138.454545,Standard
 ACUTE ADJUSTMENT REACTION & PSYCHOSOCIAL DYSFUNCTION,8021.526315800001,Standard
 ENDOCRINE DISORDERS W CC,9191.4545455,Standard
 CARDIAC ARRHYTHMIA & CONDUCTION DISORDERS W/O CC/MCC,5871.2857143,Standard
" ""MISC DISORDERS OF NUTRITION,METABOLISM,FLUIDS/ELECTROLYTES W/O MCC""",6959.8421053,Standard
 MALIGNANCY OF HEPATOBILIARY SYSTEM OR PANCREAS W MCC,13124.769231,Standard
 DISORDERS OF PANCREAS EXCEPT MALIGNANCY W MCC,13436.714286000002,Standard
 DISORDERS OF PANCREAS EXCEPT MALIGNANCY W CC,8870.6666667,Standard
" ""DISORDERS OF LIVER EXCEPT MALIG,CIRR,ALC HEPA W MCC""",14732.181818000001,Standard
" DISORDERS OF LIVER EXCEPT MALIG,CIRR,ALC HEPA W CC",8140.8125,Standard
 DISORDERS OF THE BILIARY TRACT W MCC,20384.833333000002,Standard
 DISORDERS OF THE BILIARY TRACT W CC,8991.851851899999,Standard
 COMBINED ANTERIOR/POSTERIOR SPINAL FUSION W CC,46851.1875,Standard
 COMBINED ANTERIOR/POSTERIOR SPINAL FUSION W/O CC/MCC,34462.615385000005,Standard
 SPINAL FUSION EXCEPT CERVICAL W/O MCC,30570.44,Standard
" ""WND DEBRID & SKN GRFT EXC HAND, FOR MUSCULO",39881.181818,Standard
 MAJOR HIP AND KNEE JOINT REPLACEMENT OR REATTACHMENT OF LOWER EXTREM,22600.693878000002,Standard
 MAJOR HIP AND KNEE JOINT REPLACEMENT OR REATTACHMENT OF LOWER EXTREM,15214.68,Standard
 CERVICAL SPINAL FUSION W CC,22570.285713999998,Standard
 RED BLOOD CELL DISORDERS W/O MCC,7769.0666667,Standard
 HIP & FEMUR PROCEDURES EXCEPT MAJOR JOINT W MCC,22015.015385,Standard
 HIP & FEMUR PROCEDURES EXCEPT MAJOR JOINT W CC,15847.607143000001,Standard
 HIP & FEMUR PROCEDURES EXCEPT MAJOR JOINT W/O CC/MCC,13740.615385,Standard
" ""LOWER EXTREM & HUMER PROC EXCEPT HIP,FOOT,FEMUR W MCC""",26407.153846,Standard
" LOWER EXTREM & HUMER PROC EXCEPT HIP,FOOT,FEMUR W CC",16234.307691999998,Standard
 FRACTURES OF HIP & PELVIS W/O MCC,7154.5,Standard
 PATHOLOGICAL FRACTURES & MUSCULOSKELET & CONN TISS MALIG W CC,9191.0833333,Standard
 CARDIAC ARRHYTHMIA & CONDUCTION DISORDERS W MCC,9932.025641,Standard
 CIRRHOSIS & ALCOHOLIC HEPATITIS W MCC,13627.363636000002,Standard
 HYPERTENSION W/O MCC,6446.8181818,Standard
 LAPAROSCOPIC CHOLECYSTECTOMY W/O C.D.E. W CC,13090.136364,Standard
" PANCREAS, LIVER & SHUNT PROCEDURES W CC",23088.642857,Standard
 SYNCOPE & COLLAPSE,7321.5,Standard
 OTHER CIRCULATORY SYSTEM DIAGNOSES W MCC,18135.795455,Standard
" STOMACH, ESOPHAGEAL & DUODENAL PROC W MCC",34971.384614999995,Standard
" ""STOMACH, ESOPHAGEAL & DUODENAL PROC W CC""",17614.5,Standard
 MAJOR SMALL & LARGE BOWEL PROCEDURES W MCC,34971.046512,Standard
 MAJOR SMALL & LARGE BOWEL PROCEDURES W CC,18912.84466,Standard
 MAJOR SMALL & LARGE BOWEL PROCEDURES W/O CC/MCC,13620.367347,Standard
 PERITONEAL ADHESIOLYSIS W CC,17464.285713999998,Standard
 OTHER DIGESTIVE SYSTEM O.R. PROCEDURES W MCC,27918.117647000003,Standard
 OTHER DIGESTIVE SYSTEM O.R. PROCEDURES W CC,17349.727273,Standard
 MAJOR GASTROINTESTINAL DISORDERS & PERITONEAL INFECTIONS W CC,8977.263157899999,Standard
 DIGESTIVE MALIGNANCY W CC,10255.090909,Standard
 G.I. HEMORRHAGE W MCC,13471.657894999998,Standard
 G.I. HEMORRHAGE W CC,8401.5873016,Standard
 COMPLICATED PEPTIC ULCER W CC,9124.5454545,Standard
 G.I. OBSTRUCTION W MCC,12969.0,Standard
 G.I. OBSTRUCTION W CC,8132.4,Standard
 G.I. OBSTRUCTION W/O CC/MCC,5640.65,Standard
" ESOPHAGITIS, GASTROENT & MISC DIGEST DISORDERS W MCC",10323.242424,Standard
" ""ESOPHAGITIS, GASTROENT & MISC DIGEST DISORDERS W/O MCC""",7416.2526316,Standard
 OTHER DIGESTIVE SYSTEM DIAGNOSES W MCC,12903.882353,Standard
 OTHER DIGESTIVE SYSTEM DIAGNOSES W CC,8767.607142899999,Standard
" ""PANCREAS, LIVER & SHUNT PROCEDURES W MCC""",47337.272726999996,Standard
 LAPAROSCOPIC CHOLECYSTECTOMY W/O C.D.E. W MCC,19082.5,Standard
 HYPERTENSION W MCC,9026.714285700002,Standard
 PERIPHERAL VASCULAR DISORDERS W CC,8705.6,Standard
 PERIPHERAL VASCULAR DISORDERS W MCC,13530.363636000002,Standard
 CORONARY BYPASS W CARDIAC CATH W MCC,57966.4,Standard
 OTHER CARDIOTHORACIC PROCEDURES W MCC,54800.75,Standard
 CARDIAC VALVE & OTH MAJ CARDIOTHORACIC PROC W/O CARD CATH W CC,37408.133333,Standard
 CARDIAC VALVE & OTH MAJ CARDIOTHORACIC PROC W CARD CATH W MCC,75974.727273,Standard
 NERVOUS SYSTEM NEOPLASMS W MCC,10833.863636,Standard
 OTHER HEART ASSIST SYSTEM IMPLANT,92023.857143,Standard
 RESPIRATORY SYSTEM DIAGNOSIS W VENTILATOR SUPPORT <=96 HOURS,17793.97619,Standard
 RESPIRATORY SYSTEM DIAGNOSIS W VENTILATOR SUPPORT >96 HOURS,48477.11764700001,Standard
 PNEUMOTHORAX W CC,8968.2307692,Standard
 SIMPLE PNEUMONIA & PLEURISY W CC,8014.862069,Standard
 SIMPLE PNEUMONIA & PLEURISY W MCC,11334.165049,Standard
 CHRONIC OBSTRUCTIVE PULMONARY DISEASE W MCC,9465.9661017,Standard
 PULMONARY EDEMA & RESPIRATORY FAILURE,10025.268293000001,Standard
 MAJOR CHEST TRAUMA W CC,9954.6785714,Standard
 MAJOR CHEST TRAUMA W MCC,11938.529412,Standard
 CARDIAC ARRHYTHMIA & CONDUCTION DISORDERS W CC,7001.7435897,Standard
 MEDICAL BACK PROBLEMS W/O MCC,7751.32,Standard
 CELLULITIS W MCC,11261.928570999999,Standard
 CELLULITIS W/O MCC,7818.6666667,Standard
" ""AMPUTAT OF LOWER LIMB FOR ENDOCRINE,NUTRIT,& METABOL DIS W CC""",16009.181818000001,Standard
 DIABETES W MCC,11442.9375,Standard
 DIABETES W CC,7675.761904800001,Standard
" MISC DISORDERS OF NUTRITION,METABOLISM,FLUIDS/ELECTROLYTES W MCC",9979.372881399999,Standard
 CORONARY BYPASS W CARDIAC CATH W/O MCC,39935.529412,Standard
 CORONARY BYPASS W/O CARDIAC CATH W MCC,42609.230769,Standard
 CORONARY BYPASS W/O CARDIAC CATH W/O MCC,31178.545455,Standard
 AMPUTATION FOR CIRC SYS DISORDERS EXC UPPER LIMB & TOE W MCC,33066.0,Standard
 HEART FAILURE & SHOCK W CC,8101.243902399999,Standard
 HEART FAILURE & SHOCK W MCC,11585.35,Standard
" CIRCULATORY DISORDERS EXCEPT AMI, W CARD CATH W/O MCC",10126.45977,Standard
" ""CIRCULATORY DISORDERS EXCEPT AMI, W CARD CATH W MCC""",19619.423077,Standard
" ""ACUTE MYOCARDIAL INFARCTION, DISCHARGED ALIVE W/O CC/MCC""",7438.8947368,Standard
" ACUTE MYOCARDIAL INFARCTION, DISCHARGED ALIVE W CC",8774.6551724,Standard
" ""ACUTE MYOCARDIAL INFARCTION, DISCHARGED ALIVE W MCC""",13719.055556,Standard
 PERCUTANEOUS INTRACARDIAC PROCEDURES W/O MCC,21815.338983,Standard
 PERCUTANEOUS INTRACARDIAC PROCEDURES W MCC,25573.818182,Standard
 OTHER MAJOR CARDIOVASCULAR PROCEDURES W CC,29258.894737,Standard
 OTHER MAJOR CARDIOVASCULAR PROCEDURES W MCC,36308.75,Standard
 ENDOCRINE DISORDERS W MCC,17388.071429,Standard
 AORTIC AND HEART ASSIST PROCEDURES EXCEPT PULSATION BALLOON W/O MCC,29259.9,Standard
 ENDOVASCULAR CARDIAC VALVE REPLACEMENT W/O MCC,46459.852941000005,Standard
 ENDOVASCULAR CARDIAC VALVE REPLACEMENT W MCC,51488.193548,Standard
 OTHER CIRCULATORY SYSTEM O.R. PROCEDURES,26104.909091,Standard
 OTHER VASCULAR PROCEDURES W CC,19775.621622,Standard
 OTHER VASCULAR PROCEDURES W MCC,25118.958333000002,Standard
 PERC CARDIOVASC PROC W DRUG,17422.597403,Standard
 PERCUTANEOUS CARDIOVASCULAR PROCEDURES W DRUG,25311.890411,Standard
 PERMANENT CARDIAC PACEMAKER IMPLANT W/O CC/MCC,15844.894737,Standard
 PERMANENT CARDIAC PACEMAKER IMPLANT W CC,18710.116278999998,Standard
 PERMANENT CARDIAC PACEMAKER IMPLANT W MCC,26878.85,Standard
 AMPUTATION FOR CIRC SYS DISORDERS EXC UPPER LIMB & TOE W CC,19402.75,Standard
 AORTIC AND HEART ASSIST PROCEDURES EXCEPT PULSATION BALLOON W MCC,50710.666667000005,Standard
 EXTRACRANIAL PROCEDURES W/O CC/MCC,9012.925,Standard
 CARDIAC VALVE & OTH MAJ CARDIOTHORACIC PROC W/O CARD CATH W MCC,62702.6,Standard
 CRANIOTOMY & ENDOVASCULAR INTRACRANIAL PROCEDURES W/O CC/MCC,20415.714286000002,Standard
Level 4 Pacemaker and Similar Procedures,14689.8809302325,DRG
Level 3 Pacemaker and Similar Procedures,7605.538818181801,DRG
Level 2 Pacemaker and Similar Procedures,5455.8523076923,DRG
Level 3 Electrophysiologic Procedures,15826.061065088701,DRG
Level 2 Electrophysiologic Procedures,3953.43,DRG
Implantation Wireless PA Pressure Monitor,29027.103095238,DRG
Level 4 Endovascular Procedures,13235.8871794871,DRG
Level 3 Endovascular Procedures,8208.77066059217,DRG
Level 2 Endovascular Procedures,3721.80927461139,DRG
Level 1 Endovascular Procedures,1744.59130769232,DRG
Level 5 ENT Procedures,3169.75642857143,DRG
Level 5 Airway Endoscopy,3437.6225,DRG
Level 4 Airway Endoscopy,1902.88818749999,DRG
Level 3 Airway Endoscopy,971.0433333333341,DRG
Level 5 Musculoskeletal Procedures,7858.33507462687,DRG
Level 4 Musculoskeletal Procedures,4034.20811594201,DRG
Level 3 Musculoskeletal Procedures,1902.7485714285601,DRG
Level 2 Musculoskeletal Procedures,963.7197309417039,DRG
Level 2 Breast/Lymphatic Surgery and Related Procedures,3518.72325,DRG
Level 1 Breast/Lymphatic Surgery and Related Procedures,2029.3,DRG
Level 3 Excision/ Biopsy/ Incision and Drainage,1600.2302941176401,DRG
Level 1 ICD and Similar Procedures,17643.4775,DRG
Level 2 ICD and Similar Procedures,26944.4073563218,DRG
Level 2 Upper GI Procedures,1045.8548249999901,DRG
Level 3 Upper GI Procedures,1897.39,DRG
Comprehensive Observation Services,1700.88241717789,DRG
"Level 4 Extraocular, Repair, and Plastic Eye Procedures",2150.1097959183603,DRG
"Level 3 Extraocular, Repair, and Plastic Eye Procedures",1325.4531189710601,DRG
Level 2 Intraocular Procedures,2524.74733333333,DRG
Level 1 Intraocular Procedures,1395.90443298969,DRG
Level 4 Neurostimulator and Related Procedures,23899.2211764705,DRG
Level 3 Neurostimulator and Related Procedures,14938.1715789473,DRG
Level 2 Nerve Procedures,3442.56,DRG
 EXTRACRANIAL PROCEDURES W CC,13845.736841999998,Standard
Level 6 Gynecologic Procedures,4420.01026315789,DRG
Level 2 Excision/ Biopsy/ Incision and Drainage,980.8567484662559,DRG
Level 5 Gynecologic Procedures,2937.414375,DRG
Level 7 Urology and Related Services,12730.7299999999,DRG
Level 6 Urology and Related Services,5750.58,DRG
Level 5 Urology and Related Services,2695.99464601769,DRG
Level 4 Urology and Related Services,1963.61490909091,DRG
Level 3 Urology and Related Services,1225.87242339833,DRG
Level 2 Laparoscopy and Related Services,5383.2020134228205,DRG
Level 1 Laparoscopy and Related Services,3200.68866972476,DRG
Abdominal/Peritoneal/Biliary and Related Procedures,2109.6825641025603,DRG
Complex GI Procedures,3132.6061904761896,DRG
Level 3 Lower GI Procedures,1695.72375,DRG
Level 4 Gynecologic Procedures,1663.04262295081,DRG
" ""ECMO OR TRACH W MV >96 HRS OR PDX EXC FACE, MOUTH & NECK W MAJ O.R.",140288.44615,Standard
Level 1 Nerve Procedures,1166.50336283185,DRG
" TRACH W MV >96 HRS OR PDX EXC FACE, MOUTH & NECK W/O MAJ O.R.",69545.863636,Standard
 CRANIO W MAJOR DEV IMPL/ACUTE COMPLEX CNS PDX W/O MCC,31022.454545,Standard
 CRANIOTOMY & ENDOVASCULAR INTRACRANIAL PROCEDURES W MCC,35271.75,Standard
 CRANIOTOMY & ENDOVASCULAR INTRACRANIAL PROCEDURES W CC,23848.875,Standard
  CRANIOTOMY W MAJOR DEVICE IMPLANT OR ACUTE COMPLEX CNS PDX W MCC OR,45719.541667000005,Standard
