Description,Charge,Category
 INFECTIOUS & PARASITIC DISEASES W O.R. PROCEDURE W MCC,37976.538462000004,Standard
 SEPTICEMIA OR SEVERE SEPSIS W/O MV >96 HOURS W MCC,13296.011834,Standard
 SEPTICEMIA OR SEVERE SEPSIS W/O MV >96 HOURS W/O MCC,7595.0833333,Standard
 RED BLOOD CELL DISORDERS W/O MCC,6490.5,Standard
 SIMPLE PNEUMONIA & PLEURISY W MCC,9843.2413793,Standard
 KIDNEY & URINARY TRACT INFECTIONS W MCC,7740.0909091,Standard
 RENAL FAILURE W CC,7173.0909091,Standard
 RENAL FAILURE W MCC,10664.466667,Standard
 HIP & FEMUR PROCEDURES EXCEPT MAJOR JOINT W CC,14698.714286000002,Standard
 MAJOR HIP AND KNEE JOINT REPLACEMENT OR REATTACHMENT OF LOWER EXTREM,15594.857143000001,Standard
 G.I. HEMORRHAGE W CC,6946.0416667,Standard
 CHRONIC OBSTRUCTIVE PULMONARY DISEASE W MCC,8267.833333300001,Standard
 PULMONARY EDEMA & RESPIRATORY FAILURE,9457.111111100001,Standard
 RESPIRATORY INFECTIONS & INFLAMMATIONS W MCC,13263.0,Standard
 INTRACRANIAL HEMORRHAGE OR CEREBRAL INFARCTION W CC OR TPA IN 24 HRS,7431.6666667,Standard
Comprehensive Observation Services,1697.12916408668,DRG
 KIDNEY & URINARY TRACT INFECTIONS W/O MCC,6029.0,Standard
Abdominal/Peritoneal/Biliary and Related Procedures,2035.48,DRG
 HEART FAILURE & SHOCK W MCC,10797.660377,Standard
Level 4 Musculoskeletal Procedures,3806.1925,DRG
Level 3 Musculoskeletal Procedures,1843.85882352941,DRG
Level 2 Musculoskeletal Procedures,958.1320833333341,DRG
Level 2 Excision/ Biopsy/ Incision and Drainage,998.37,DRG
Level 2 Upper GI Procedures,1060.63260869565,DRG
