Description,Charge,Category
 OTHER RESP SYSTEM O.R. PROCEDURES W MCC,21027.896552000002,Standard
 INTRACRANIAL HEMORRHAGE OR CEREBRAL INFARCTION W CC OR TPA IN 24 HRS,6493.9375,Standard
Comprehensive Observation Services,1736.6645031055898,DRG
Level 1 Nerve Procedures,1198.09,DRG
Level 1 Laparoscopy and Related Services,3136.85242424242,DRG
Abdominal/Peritoneal/Biliary and Related Procedures,1977.34173913043,DRG
Level 4 Musculoskeletal Procedures,3837.0716,DRG
 RESPIRATORY INFECTIONS & INFLAMMATIONS W CC,7523.1666667,Standard
Level 3 Musculoskeletal Procedures,1816.76962962962,DRG
Level 2 Musculoskeletal Procedures,1004.25,DRG
Level 1 Breast/Lymphatic Surgery and Related Procedures,2029.29999999999,DRG
Level 3 Excision/ Biopsy/ Incision and Drainage,1729.51,DRG
Level 2 Excision/ Biopsy/ Incision and Drainage,1002.83,DRG
Level 3 Airway Endoscopy,984.012558139535,DRG
 PULMONARY EDEMA & RESPIRATORY FAILURE,9004.714285700002,Standard
 OTHER RESP SYSTEM O.R. PROCEDURES W CC,11695.541667,Standard
 CHRONIC OBSTRUCTIVE PULMONARY DISEASE W CC,6581.4545455,Standard
 SEPTICEMIA OR SEVERE SEPSIS W/O MV >96 HOURS W/O MCC,7920.9375,Standard
 SEPTICEMIA OR SEVERE SEPSIS W/O MV >96 HOURS W MCC,11489.984375,Standard
 INFECTIOUS & PARASITIC DISEASES W O.R. PROCEDURE W MCC,28017.842105,Standard
 RED BLOOD CELL DISORDERS W/O MCC,6156.266666699999,Standard
 KIDNEY & URINARY TRACT INFECTIONS W/O MCC,5671.4878049,Standard
 KIDNEY & URINARY TRACT INFECTIONS W MCC,7010.733333300001,Standard
 RENAL FAILURE W CC,6497.6315789,Standard
 CHRONIC OBSTRUCTIVE PULMONARY DISEASE W MCC,7445.4090909,Standard
 CELLULITIS W/O MCC,5936.733333300001,Standard
" ""MISC DISORDERS OF NUTRITION,METABOLISM,FLUIDS/ELECTROLYTES W/O MCC""",5383.7857143,Standard
 HEART FAILURE & SHOCK W CC,6572.0434783,Standard
 HEART FAILURE & SHOCK W MCC,8854.9375,Standard
 SIMPLE PNEUMONIA & PLEURISY W CC,6316.3333333,Standard
 SIMPLE PNEUMONIA & PLEURISY W MCC,9468.1470588,Standard
" ""ESOPHAGITIS, GASTROENT & MISC DIGEST DISORDERS W/O MCC""",5464.5833333,Standard
