Description,Charge,Category
 DIABETES W CC,7167.636363600001,Standard
Level 1 Laparoscopy and Related Services,2910.009375,DRG
Abdominal/Peritoneal/Biliary and Related Procedures,1858.2646153846104,DRG
 RENAL FAILURE W CC,7000.142857100001,Standard
 KIDNEY & URINARY TRACT INFECTIONS W/O MCC,6087.0,Standard
 SEPTICEMIA OR SEVERE SEPSIS W/O MV >96 HOURS W MCC,11919.529412,Standard
 HEART FAILURE & SHOCK W MCC,10075.411765,Standard
 RESPIRATORY SYSTEM DIAGNOSIS W VENTILATOR SUPPORT <=96 HOURS,16036.615385,Standard
 BRONCHITIS & ASTHMA W CC/MCC,6751.5,Standard
 SIMPLE PNEUMONIA & PLEURISY W CC,6904.461538500001,Standard
Level 3 Musculoskeletal Procedures,1829.23,DRG
 SIMPLE PNEUMONIA & PLEURISY W MCC,9466.0,Standard
 PULMONARY EDEMA & RESPIRATORY FAILURE,8720.048387100001,Standard
 RESPIRATORY INFECTIONS & INFLAMMATIONS W CC,9368.5,Standard
 RESPIRATORY INFECTIONS & INFLAMMATIONS W MCC,12171.5,Standard
 INTRACRANIAL HEMORRHAGE OR CEREBRAL INFARCTION W CC OR TPA IN 24 HRS,7441.7777778,Standard
Comprehensive Observation Services,1600.15817721518,DRG
Level 1 Nerve Procedures,1096.22363636363,DRG
 G.I. HEMORRHAGE W CC,7325.7222222,Standard
 CHRONIC OBSTRUCTIVE PULMONARY DISEASE W CC,6880.3333333,Standard
 SEPTICEMIA OR SEVERE SEPSIS W/O MV >96 HOURS W/O MCC,7717.0714286,Standard
