Description,Charge,Category
Comprehensive Observation Services,1680.00023396227,DRG
Level 7 Radiation Therapy,5504.609999999991,DRG
"Level 4 Extraocular, Repair, and Plastic Eye Procedures",2127.82888888888,DRG
"Level 3 Extraocular, Repair, and Plastic Eye Procedures",1305.22791044775,DRG
 FEVER AND INFLAMMATORY CONDITIONS,9667.6363636,Standard
 EXTENSIVE O.R. PROCEDURE UNRELATED TO PRINCIPAL DIAGNOSIS W CC,25822.823528999998,Standard
Level 5 ENT Procedures,3127.91,DRG
Level 4 ENT Procedures,1585.34,DRG
Level 5 Airway Endoscopy,3506.67999999999,DRG
Level 4 Airway Endoscopy,1886.32999999999,DRG
Level 3 Airway Endoscopy,954.28,DRG
Level 5 Musculoskeletal Procedures,7809.06,DRG
Level 4 Musculoskeletal Procedures,4041.7699999999895,DRG
Level 3 Musculoskeletal Procedures,1841.23172413793,DRG
Cochlear Implant Procedure,27607.318245614,DRG
Level 2 Musculoskeletal Procedures,963.943870967742,DRG
Level 1 Breast/Lymphatic Surgery and Related Procedures,1896.32571428571,DRG
Level 3 Excision/ Biopsy/ Incision and Drainage,1676.03999999999,DRG
Level 2 Excision/ Biopsy/ Incision and Drainage,954.7361231883999,DRG
Level 4 Gynecologic Procedures,1629.71408163265,DRG
 OTHER O.R. PROCEDURES FOR INJURIES W MCC,33296.090909,Standard
 SEPTICEMIA OR SEVERE SEPSIS W/O MV >96 HOURS W/O MCC,10318.611111,Standard
 SEPTICEMIA OR SEVERE SEPSIS W/O MV >96 HOURS W MCC,16279.456338,Standard
 INFECTIOUS & PARASITIC DISEASES W O.R. PROCEDURE W MCC,59259.05,Standard
Level 2 Breast/Lymphatic Surgery and Related Procedures,3468.98,DRG
Level 1 Endovascular Procedures,1743.47495750708,DRG
Level 2 Endovascular Procedures,3664.35129411765,DRG
Level 3 Endovascular Procedures,7985.16291228072,DRG
 EXTENSIVE O.R. PROCEDURE UNRELATED TO PRINCIPAL DIAGNOSIS W MCC,42790.033333,Standard
 OTHER MULTIPLE SIGNIFICANT TRAUMA W CC,12237.823529000001,Standard
 SIGNS & SYMPTOMS W/O MCC,18067.333333000002,Standard
 COMPLICATIONS OF TREATMENT W MCC,14157.181818000001,Standard
 POISONING & TOXIC EFFECTS OF DRUGS W MCC,11966.130435,Standard
Level 2 Laparoscopy and Related Services,5531.3999999999905,DRG
Level 1 Laparoscopy and Related Services,3235.98,DRG
Abdominal/Peritoneal/Biliary and Related Procedures,2098.71,DRG
Level 3 Upper GI Procedures,1974.346,DRG
Level 2 Upper GI Procedures,1029.02999999999,DRG
Level 2 ICD and Similar Procedures,26242.9974025974,DRG
Level 1 ICD and Similar Procedures,18461.028888888897,DRG
Level 4 Pacemaker and Similar Procedures,14534.0,DRG
Level 3 Pacemaker and Similar Procedures,7471.199999999971,DRG
Level 2 Pacemaker and Similar Procedures,5237.09050359712,DRG
Level 3 Electrophysiologic Procedures,15371.313227513201,DRG
Level 2 Electrophysiologic Procedures,3831.19,DRG
Implantation Wireless PA Pressure Monitor,28084.999166666603,DRG
Level 4 Endovascular Procedures,13122.7455813953,DRG
 SEPTICEMIA OR SEVERE SEPSIS W MV >96 HOURS OR PERIPHERAL EXTRACORPOR,49346.4,Standard
Level 5 Gynecologic Procedures,2891.77,DRG
Level 5 Urology and Related Services,2671.73999999999,DRG
 OTHER VASCULAR PROCEDURES W/O CC/MCC,14536.611111000002,Standard
 OTHER DISORDERS OF NERVOUS SYSTEM W CC,8861.5714286,Standard
 SEIZURES W MCC,17978.018519,Standard
 SEIZURES W/O MCC,8684.9756098,Standard
 MAJOR CHEST PROCEDURES W CC,19230.85,Standard
 G.I. HEMORRHAGE W MCC,15390.240741,Standard
 MAJOR GASTROINTESTINAL DISORDERS & PERITONEAL INFECTIONS W CC,10880.5,Standard
 MAJOR SMALL & LARGE BOWEL PROCEDURES W CC,19081.466666999997,Standard
 OTHER DISORDERS OF NERVOUS SYSTEM W MCC,13557.363636000002,Standard
 MAJOR SMALL & LARGE BOWEL PROCEDURES W MCC,57531.857142999994,Standard
 CHEST PAIN,6820.857142899999,Standard
 SYNCOPE & COLLAPSE,7592.59375,Standard
 CARDIAC ARRHYTHMIA & CONDUCTION DISORDERS W/O CC/MCC,6129.3333333,Standard
 CARDIAC ARRHYTHMIA & CONDUCTION DISORDERS W CC,7462.0,Standard
 CARDIAC ARRHYTHMIA & CONDUCTION DISORDERS W MCC,10518.603774,Standard
 HYPERTENSION W/O MCC,6861.2352941,Standard
 HYPERTENSION W MCC,9588.9565217,Standard
 OTHER CIRCULATORY SYSTEM DIAGNOSES W MCC,17500.355556,Standard
" TRAUMATIC STUPOR & COMA, COMA <1 HR W/O CC/MCC",8268.583333300001,Standard
" ""TRAUMATIC STUPOR & COMA, COMA <1 HR W CC""",10408.2,Standard
" ""TRAUMATIC STUPOR & COMA, COMA >1 HR W/O CC/MCC""",8130.107142899999,Standard
 OTHER DIGESTIVE SYSTEM DIAGNOSES W MCC,13193.75,Standard
" ""ESOPHAGITIS, GASTROENT & MISC DIGEST DISORDERS W/O MCC""",8732.969697,Standard
" ESOPHAGITIS, GASTROENT & MISC DIGEST DISORDERS W MCC",10939.7,Standard
 SIMPLE PNEUMONIA & PLEURISY W CC,8346.7307692,Standard
 G.I. OBSTRUCTION W CC,8112.25,Standard
 G.I. OBSTRUCTION W MCC,13465.045455000001,Standard
Level 2 Intraocular Procedures,2599.5170000000003,DRG
 G.I. HEMORRHAGE W CC,8922.172043,Standard
 INTRACRANIAL HEMORRHAGE OR CEREBRAL INFARCTION W MCC,15843.534722,Standard
Level 1 Intraocular Procedures,1381.2777,DRG
 INTRACRANIAL HEMORRHAGE OR CEREBRAL INFARCTION W CC OR TPA IN 24 HRS,9270.422535200001,Standard
 INTRACRANIAL HEMORRHAGE OR CEREBRAL INFARCTION W/O CC/MCC,7147.108695700001,Standard
 TRANSIENT ISCHEMIA W/O THROMBOLYTIC,7185.636363600001,Standard
 NONSPECIFIC CEREBROVASCULAR DISORDERS W MCC,18224.576923,Standard
 NONSPECIFIC CEREBROVASCULAR DISORDERS W CC,9176.727272700002,Standard
" ""TRAUMATIC STUPOR & COMA, COMA >1 HR W MCC""",17428.375,Standard
" TRAUMATIC STUPOR & COMA, COMA >1 HR W CC",11171.870968000001,Standard
 PERIPHERAL VASCULAR DISORDERS W CC,9775.285714299998,Standard
 HEART FAILURE & SHOCK W/O CC/MCC,6735.675,Standard
 HEART FAILURE & SHOCK W CC,9055.5735294,Standard
 HEART FAILURE & SHOCK W MCC,12925.038123,Standard
 PERMANENT CARDIAC PACEMAKER IMPLANT W/O CC/MCC,16636.75,Standard
 PERMANENT CARDIAC PACEMAKER IMPLANT W CC,21439.777778,Standard
 PERMANENT CARDIAC PACEMAKER IMPLANT W MCC,33462.461537999996,Standard
 AMPUTATION FOR CIRC SYS DISORDERS EXC UPPER LIMB & TOE W MCC,52090.583332999995,Standard
 CORONARY BYPASS W/O CARDIAC CATH W/O MCC,29610.468085000004,Standard
 CORONARY BYPASS W CARDIAC CATH W/O MCC,39637.055556,Standard
 CORONARY BYPASS W CARDIAC CATH W MCC,55829.470588,Standard
 CARDIAC VALVE & OTH MAJ CARDIOTHORACIC PROC W/O CARD CATH W CC,44904.921053,Standard
 CARDIAC VALVE & OTH MAJ CARDIOTHORACIC PROC W/O CARD CATH W MCC,70482.230769,Standard
 RESPIRATORY SYSTEM DIAGNOSIS W VENTILATOR SUPPORT <=96 HOURS,20436.0,Standard
 RESPIRATORY INFECTIONS & INFLAMMATIONS W CC,11141.769231,Standard
 RESPIRATORY NEOPLASMS W MCC,14291.133333000002,Standard
 PLEURAL EFFUSION W MCC,15368.769231,Standard
 PULMONARY EDEMA & RESPIRATORY FAILURE,10203.777778,Standard
 CHRONIC OBSTRUCTIVE PULMONARY DISEASE W MCC,10478.428570999999,Standard
 CHRONIC OBSTRUCTIVE PULMONARY DISEASE W CC,8222.2222222,Standard
 BRONCHITIS & ASTHMA W CC/MCC,8719.3846154,Standard
 RESPIRATORY INFECTIONS & INFLAMMATIONS W MCC,15125.970149,Standard
 OTHER DIGESTIVE SYSTEM DIAGNOSES W CC,8879.3636364,Standard
 PULMONARY EMBOLISM W/O MCC,9012.6086957,Standard
 OTHER RESP SYSTEM O.R. PROCEDURES W MCC,36726.526316,Standard
" CIRCULATORY DISORDERS EXCEPT AMI, W CARD CATH W/O MCC",9939.319444399998,Standard
" ""CIRCULATORY DISORDERS EXCEPT AMI, W CARD CATH W MCC""",19447.1,Standard
" ""ACUTE MYOCARDIAL INFARCTION, DISCHARGED ALIVE W/O CC/MCC""",7891.5666667,Standard
" ACUTE MYOCARDIAL INFARCTION, DISCHARGED ALIVE W CC",9506.555555600002,Standard
" ""ACUTE MYOCARDIAL INFARCTION, DISCHARGED ALIVE W MCC""",14093.756757,Standard
 PERCUTANEOUS INTRACARDIAC PROCEDURES W/O MCC,19977.52459,Standard
 PERCUTANEOUS INTRACARDIAC PROCEDURES W MCC,30026.277777999996,Standard
 OTHER MAJOR CARDIOVASCULAR PROCEDURES W MCC,51355.4375,Standard
 AORTIC AND HEART ASSIST PROCEDURES EXCEPT PULSATION BALLOON W/O MCC,33126.896552,Standard
 ENDOVASCULAR CARDIAC VALVE REPLACEMENT W/O MCC,39896.8,Standard
 ENDOVASCULAR CARDIAC VALVE REPLACEMENT W MCC,51571.54,Standard
 OTHER CIRCULATORY SYSTEM O.R. PROCEDURES,29599.954545,Standard
 OTHER VASCULAR PROCEDURES W CC,20894.142857,Standard
 OTHER VASCULAR PROCEDURES W MCC,32342.119048,Standard
 PERC CARDIOVASC PROC W DRUG,17732.318966,Standard
 PERCUTANEOUS CARDIOVASCULAR PROCEDURES W DRUG,25020.237288,Standard
Level 3 Urology and Related Services,1219.01555555555,DRG
 PULMONARY EMBOLISM W MCC,12483.967742,Standard
" ""DISORDERS OF LIVER EXCEPT MALIG,CIRR,ALC HEPA W MCC""",14084.857143000001,Standard
 G.I. OBSTRUCTION W/O CC/MCC,6265.7272727,Standard
 HIP & FEMUR PROCEDURES EXCEPT MAJOR JOINT W MCC,23928.884615,Standard
 CRANIOTOMY & ENDOVASCULAR INTRACRANIAL PROCEDURES W MCC,39714.051724000004,Standard
 COMBINED ANTERIOR/POSTERIOR SPINAL FUSION W MCC,69163.909091,Standard
 COMBINED ANTERIOR/POSTERIOR SPINAL FUSION W CC,43855.65,Standard
 COMBINED ANTERIOR/POSTERIOR SPINAL FUSION W/O CC/MCC,34562.352941000005,Standard
 SPINAL FUSION EXCEPT CERVICAL W/O MCC,33789.333332999995,Standard
 MAJOR HIP AND KNEE JOINT REPLACEMENT OR REATTACHMENT OF LOWER EXTREM,22958.769231000002,Standard
  CRANIOTOMY W MAJOR DEVICE IMPLANT OR ACUTE COMPLEX CNS PDX W MCC OR,53842.021738999996,Standard
 MAJOR HIP AND KNEE JOINT REPLACEMENT OR REATTACHMENT OF LOWER EXTREM,17011.989796,Standard
 CERVICAL SPINAL FUSION W CC,23498.933333,Standard
 HIP & FEMUR PROCEDURES EXCEPT MAJOR JOINT W CC,15786.566037999999,Standard
" TRACH W MV >96 HRS OR PDX EXC FACE, MOUTH & NECK W/O MAJ O.R.",79675.8125,Standard
" ""ECMO OR TRACH W MV >96 HRS OR PDX EXC FACE, MOUTH & NECK W MAJ O.R.",131151.69767,Standard
 HEART TRANSPLANT OR IMPLANT OF HEART ASSIST SYSTEM W MCC,261110.76471,Standard
 MAJOR JOINT/LIMB REATTACHMENT PROCEDURE OF UPPER EXTREMITIES,17744.315789,Standard
" LOWER EXTREM & HUMER PROC EXCEPT HIP,FOOT,FEMUR W CC",21432.733333,Standard
 FRACTURES OF HIP & PELVIS W/O MCC,7418.0833333,Standard
 MEDICAL BACK PROBLEMS W/O MCC,8461.729729699999,Standard
 CHEMOTHERAPY W/O ACUTE LEUKEMIA AS SECONDARY DIAGNOSIS W CC,10758.0,Standard
 RED BLOOD CELL DISORDERS W/O MCC,8174.232142899999,Standard
 RED BLOOD CELL DISORDERS W MCC,11224.423077,Standard
 MAJOR HEMATOL/IMMUN DIAG EXC SICKLE CELL CRISIS & COAGUL W CC,26427.916666999998,Standard
 OTHER KIDNEY & URINARY TRACT DIAGNOSES W MCC,16964.611111000002,Standard
 KIDNEY & URINARY TRACT INFECTIONS W/O MCC,7864.789473700001,Standard
 CRANIOTOMY & ENDOVASCULAR INTRACRANIAL PROCEDURES W CC,21421.666666999998,Standard
 KIDNEY & URINARY TRACT INFECTIONS W MCC,10301.788462,Standard
 RENAL FAILURE W MCC,13552.739130000002,Standard
" ""MISC DISORDERS OF NUTRITION,METABOLISM,FLUIDS/ELECTROLYTES W/O MCC""",8449.5675676,Standard
" MISC DISORDERS OF NUTRITION,METABOLISM,FLUIDS/ELECTROLYTES W MCC",10565.878378,Standard
 DIABETES W CC,8633.525,Standard
 DIABETES W MCC,13669.714286000002,Standard
 CELLULITIS W/O MCC,7957.733333300001,Standard
 RENAL FAILURE W CC,8669.418918899999,Standard
 CRANIOTOMY & ENDOVASCULAR INTRACRANIAL PROCEDURES W/O CC/MCC,19414.666666999998,Standard
 SIMPLE PNEUMONIA & PLEURISY W MCC,11793.878788,Standard
" ISCHEMIC STROKE, PRECEREBRAL OCCLUSION OR TRANSIENT ISCHEMIA W THROM",26693.727273,Standard
 EXTRACRANIAL PROCEDURES W/O CC/MCC,9780.169811299998,Standard
 PERIPH/CRANIAL NERVE & OTHER NERV SYST PROC W MCC,28642.75,Standard
 PERIPH/CRANIAL NERVE & OTHER NERV SYST PROC W CC OR PERIPH NEUROSTIM,22912.454545,Standard
 NERVOUS SYSTEM NEOPLASMS W MCC,12102.666667,Standard
 DEGENERATIVE NERVOUS SYSTEM DISORDERS W MCC,22675.578946999998,Standard
 DEGENERATIVE NERVOUS SYSTEM DISORDERS W/O MCC,10616.526316,Standard
" ""ISCHEMIC STROKE, PRECEREBRAL OCCLUSION OR TRANSIENT ISCHEMIA W THRO",15228.117647,Standard
 DISORDERS OF THE BILIARY TRACT W MCC,13364.916667,Standard
