Description,Charge,Category
Level 4 Airway Endoscopy,2076.0,DRG
Level 2 Excision/ Biopsy/ Incision and Drainage,1062.49103658536,DRG
Level 3 Urology and Related Services,1345.36,DRG
Level 1 Laparoscopy and Related Services,3488.6693877551,DRG
Abdominal/Peritoneal/Biliary and Related Procedures,2309.72,DRG
Level 3 Upper GI Procedures,2166.42214285714,DRG
Level 2 Upper GI Procedures,1131.94893617021,DRG
Level 4 Endovascular Procedures,14575.1799999999,DRG
Level 3 Endovascular Procedures,9035.30157407408,DRG
Level 2 Endovascular Procedures,3969.40774193548,DRG
Level 1 Endovascular Procedures,1899.4396103896104,DRG
Level 5 ENT Procedures,3059.9466666666603,DRG
Level 5 Airway Endoscopy,3675.4952380952295,DRG
 INFECTIOUS & PARASITIC DISEASES W O.R. PROCEDURE W MCC,45458.28,Standard
 COMPLICATIONS OF TREATMENT W MCC,18760.8,Standard
 OTHER O.R. PROCEDURES FOR INJURIES W CC,25154.0,Standard
 SEPTICEMIA OR SEVERE SEPSIS W/O MV >96 HOURS W/O MCC,9669.9545455,Standard
 SEPTICEMIA OR SEVERE SEPSIS W/O MV >96 HOURS W MCC,17250.9875,Standard
 POSTOPERATIVE OR POST,24558.166666999998,Standard
Level 3 Excision/ Biopsy/ Incision and Drainage,1844.57,DRG
Level 2 Musculoskeletal Procedures,1014.4674999999901,DRG
Level 4 Gynecologic Procedures,1661.62769230769,DRG
Level 3 Musculoskeletal Procedures,2051.05113636363,DRG
Level 4 Musculoskeletal Procedures,4448.17,DRG
Level 5 Musculoskeletal Procedures,8726.31,DRG
Level 3 Airway Endoscopy,1050.23,DRG
 POSTOPERATIVE OR POST,29045.5,Standard
Level 1 Intraocular Procedures,1516.8521739130401,DRG
 LYMPHOMA & NON,80366.636364,Standard
Comprehensive Observation Services,1862.49675324674,DRG
 HERNIA PROCEDURES EXCEPT INGUINAL & FEMORAL W/O CC/MCC,15280.133333000002,Standard
 HERNIA PROCEDURES EXCEPT INGUINAL & FEMORAL W CC,31239.666667,Standard
 ALLOGENEIC BONE MARROW TRANSPLANT,115776.30769000002,Standard
 MAJOR SMALL & LARGE BOWEL PROCEDURES W CC,19800.892857,Standard
 MAJOR SMALL & LARGE BOWEL PROCEDURES W MCC,48375.5,Standard
 HEART FAILURE & SHOCK W MCC,12551.034483,Standard
 AORTIC AND HEART ASSIST PROCEDURES EXCEPT PULSATION BALLOON W/O MCC,34868.0,Standard
 PERC CARDIOVASC PROC W DRUG,18247.272727,Standard
" ""ESOPHAGITIS, GASTROENT & MISC DIGEST DISORDERS W/O MCC""",7736.478260899999,Standard
 REVISION OF HIP OR KNEE REPLACEMENT W CC,26833.228571,Standard
" ""WND DEBRID & SKN GRFT EXC HAND, FOR MUSCULO",34734.454545,Standard
 SPINAL FUSION EXCEPT CERVICAL W/O MCC,41710.472973,Standard
 SPINAL FUS EXC CERV W SPINAL CURV/MALIG/INFEC OR EXT FUS W CC,72060.0,Standard
 COMBINED ANTERIOR/POSTERIOR SPINAL FUSION W CC,66293.125,Standard
 COMBINED ANTERIOR/POSTERIOR SPINAL FUSION W MCC,93996.192308,Standard
 SIMPLE PNEUMONIA & PLEURISY W MCC,20377.769231000002,Standard
 SPINAL PROCEDURES W CC OR SPINAL NEUROSTIMULATORS,38558.272726999996,Standard
 AUTOLOGOUS BONE MARROW TRANSPLANT W CC/MCC,61945.603774,Standard
" WND DEBRID & SKN GRFT EXC HAND, FOR MUSCULO",24351.9,Standard
 REVISION OF HIP OR KNEE REPLACEMENT W/O CC/MCC,27494.928570999997,Standard
 MAJOR SMALL & LARGE BOWEL PROCEDURES W/O CC/MCC,14221.9375,Standard
"Level 3 Extraocular, Repair, and Plastic Eye Procedures",1437.1399999999899,DRG
 CERVICAL SPINAL FUSION W CC,26246.0,Standard
 MAJOR HIP AND KNEE JOINT REPLACEMENT OR REATTACHMENT OF LOWER EXTREM,17398.439394,Standard
 OTHER MUSCULOSKELET SYS & CONN TISS O.R. PROC W CC,15864.05,Standard
 BACK & NECK PROC EXC SPINAL FUSION W CC,18847.25,Standard
 CELLULITIS W/O MCC,7936.785714300001,Standard
" MISC DISORDERS OF NUTRITION,METABOLISM,FLUIDS/ELECTROLYTES W MCC",15967.2,Standard
 KIDNEY TRANSPLANT,33324.5,Standard
 RENAL FAILURE W MCC,18943.823528999998,Standard
 BACK & NECK PROC EXC SPINAL FUSION W/O CC/MCC,11465.0,Standard
 OTHER KIDNEY & URINARY TRACT DIAGNOSES W MCC,13566.055556,Standard
 RENAL FAILURE W CC,11328.181818000001,Standard
 OTHER KIDNEY & URINARY TRACT DIAGNOSES W CC,13240.952381000001,Standard
 CHEMO W ACUTE LEUKEMIA AS SDX OR W HIGH DOSE CHEMO AGENT W MCC,94775.272727,Standard
