Description,Charge,Category
 EXTENSIVE O.R. PROCEDURE UNRELATED TO PRINCIPAL DIAGNOSIS W MCC,42542.684211,Standard
 PSYCHOSES,15870.117647,Standard
 ALCOHOL/DRUG ABUSE OR DEPENDENCE W/O REHABILITATION THERAPY W/O MCC,10219.928570999999,Standard
 POISONING & TOXIC EFFECTS OF DRUGS W MCC,15056.538462,Standard
 COMPLICATIONS OF TREATMENT W MCC,17989.4,Standard
 HIV W MAJOR RELATED CONDITION W MCC,27221.384615,Standard
 NON,31676.833333,Standard
Level 4 Musculoskeletal Procedures,3745.7322807017604,DRG
Level 3 Excision/ Biopsy/ Incision and Drainage,1697.45404761904,DRG
Level 1 Breast/Lymphatic Surgery and Related Procedures,1995.68,DRG
Level 2 Breast/Lymphatic Surgery and Related Procedures,3375.225,DRG
Level 2 Musculoskeletal Procedures,987.61,DRG
Level 3 Musculoskeletal Procedures,1879.9571428571398,DRG
 SEPTICEMIA OR SEVERE SEPSIS W/O MV >96 HOURS W/O MCC,12585.380282,Standard
Level 2 Excision/ Biopsy/ Incision and Drainage,981.158571428571,DRG
 SEPTICEMIA OR SEVERE SEPSIS W/O MV >96 HOURS W MCC,19567.882353,Standard
 UTERINE & ADNEXA PROC FOR OVARIAN OR ADNEXAL MALIGNANCY W CC,19872.636363999998,Standard
 POSTOPERATIVE & POST,20271.363636000002,Standard
 KIDNEY & URETER PROCEDURES FOR NEOPLASM W MCC,42011.0,Standard
 KIDNEY & URETER PROCEDURES FOR NEOPLASM W CC,20038.583333000002,Standard
 RENAL FAILURE W MCC,16063.476190000001,Standard
 RENAL FAILURE W CC,10810.84058,Standard
 KIDNEY & URINARY TRACT INFECTIONS W MCC,11944.129031999999,Standard
 KIDNEY & URINARY TRACT INFECTIONS W/O MCC,10306.378378,Standard
 OTHER KIDNEY & URINARY TRACT DIAGNOSES W MCC,17644.3,Standard
 OTHER KIDNEY & URINARY TRACT DIAGNOSES W CC,13964.904762,Standard
Level 5 Musculoskeletal Procedures,7502.82722222222,DRG
 MAJOR HEMATOL/IMMUN DIAG EXC SICKLE CELL CRISIS & COAGUL W CC,13796.307691999998,Standard
 RED BLOOD CELL DISORDERS W MCC,14436.625,Standard
 RED BLOOD CELL DISORDERS W/O MCC,10599.314815,Standard
 CHEMOTHERAPY W/O ACUTE LEUKEMIA AS SECONDARY DIAGNOSIS W MCC,24286.916666999998,Standard
 CHEMOTHERAPY W/O ACUTE LEUKEMIA AS SECONDARY DIAGNOSIS W CC,14241.0625,Standard
 INFECTIOUS & PARASITIC DISEASES W O.R. PROCEDURE W MCC,49019.442623,Standard
 SEPTICEMIA OR SEVERE SEPSIS W MV >96 HOURS OR PERIPHERAL EXTRACORPOR,55799.0,Standard
Level 3 Airway Endoscopy,968.419999999998,DRG
Level 4 Endovascular Procedures,13332.5529729729,DRG
Level 5 Airway Endoscopy,3558.6199999999894,DRG
Level 5 Urology and Related Services,2663.76280701754,DRG
Level 7 Urology and Related Services,13042.41,DRG
Level 4 Gynecologic Procedures,1660.8048387096699,DRG
Level 5 Gynecologic Procedures,2934.61,DRG
Level 6 Gynecologic Procedures,4464.26,DRG
Level 1 Nerve Procedures,1049.95842105263,DRG
Level 2 Neurostimulator and Related Procedures,4269.62565217391,DRG
Level 3 Neurostimulator and Related Procedures,14077.3545454545,DRG
Level 4 Neurostimulator and Related Procedures,24193.75,DRG
Level 1 Intraocular Procedures,1381.9322689075598,DRG
Level 2 Intraocular Procedures,2641.3179999999898,DRG
"Level 3 Extraocular, Repair, and Plastic Eye Procedures",1325.17999999999,DRG
"Level 4 Extraocular, Repair, and Plastic Eye Procedures",2159.34533333333,DRG
Level 7 Radiation Therapy,5605.6,DRG
Comprehensive Observation Services,1692.9330604982401,DRG
Level 4 Urology and Related Services,1972.94,DRG
Level 4 Airway Endoscopy,1914.26999999999,DRG
Level 3 Urology and Related Services,1192.33284023668,DRG
Level 1 Laparoscopy and Related Services,3233.61633802817,DRG
Level 4 ENT Procedures,1608.82,DRG
Level 5 ENT Procedures,3148.9858394160497,DRG
Level 1 Endovascular Procedures,1716.93352201258,DRG
Level 2 Endovascular Procedures,3609.83567796609,DRG
Level 3 Endovascular Procedures,7898.20991228068,DRG
 KIDNEY TRANSPLANT,34857.914894,Standard
Level 3 Electrophysiologic Procedures,15221.1081355932,DRG
Level 2 Pacemaker and Similar Procedures,5425.95263157894,DRG
Level 3 Pacemaker and Similar Procedures,7601.3,DRG
Level 2 ICD and Similar Procedures,26130.551612903197,DRG
Level 2 Upper GI Procedures,1036.7028260869502,DRG
Level 3 Upper GI Procedures,2007.09999999999,DRG
Level 3 Lower GI Procedures,1690.77555555555,DRG
Complex GI Procedures,3069.79954545454,DRG
Abdominal/Peritoneal/Biliary and Related Procedures,2076.54524999999,DRG
Level 2 Laparoscopy and Related Services,5535.5344,DRG
" ""MISC DISORDERS OF NUTRITION,METABOLISM,FLUIDS/ELECTROLYTES W/O MCC""",10088.16129,Standard
 HIP & FEMUR PROCEDURES EXCEPT MAJOR JOINT W CC,20527.0625,Standard
 DIABETES W CC,10310.357143000001,Standard
 SIMPLE PNEUMONIA & PLEURISY W MCC,14408.717949000002,Standard
 SIMPLE PNEUMONIA & PLEURISY W CC,11027.742857,Standard
 RESPIRATORY SYSTEM DIAGNOSIS W VENTILATOR SUPPORT <=96 HOURS,23594.545455,Standard
 CARDIAC VALVE & OTH MAJ CARDIOTHORACIC PROC W/O CARD CATH W MCC,76348.5,Standard
 CORONARY BYPASS W/O CARDIAC CATH W/O MCC,36257.769231,Standard
 PERMANENT CARDIAC PACEMAKER IMPLANT W MCC,34239.909091,Standard
 CHRONIC OBSTRUCTIVE PULMONARY DISEASE W MCC,12362.107143000001,Standard
 PERCUTANEOUS CARDIOVASCULAR PROCEDURES W DRUG,31111.53125,Standard
 PERC CARDIOVASC PROC W/O CORONARY ARTERY STENT W/O MCC,16970.0625,Standard
 OTHER VASCULAR PROCEDURES W MCC,29822.6,Standard
 OTHER VASCULAR PROCEDURES W CC,24112.857143,Standard
 OTHER MAJOR CARDIOVASCULAR PROCEDURES W MCC,54646.058824,Standard
" ""ACUTE MYOCARDIAL INFARCTION, DISCHARGED ALIVE W MCC""",18305.142857,Standard
" ACUTE MYOCARDIAL INFARCTION, DISCHARGED ALIVE W CC",11775.241379000001,Standard
 PERC CARDIOVASC PROC W DRUG,21350.121212000002,Standard
 PULMONARY EDEMA & RESPIRATORY FAILURE,13657.444444,Standard
 RESPIRATORY INFECTIONS & INFLAMMATIONS W CC,14288.791667,Standard
 RESPIRATORY INFECTIONS & INFLAMMATIONS W MCC,21119.696969999997,Standard
 AUTOLOGOUS BONE MARROW TRANSPLANT W CC/MCC,59060.363636,Standard
  CRANIOTOMY W MAJOR DEVICE IMPLANT OR ACUTE COMPLEX CNS PDX W MCC OR,50058.76,Standard
 CRANIOTOMY & ENDOVASCULAR INTRACRANIAL PROCEDURES W MCC,42806.535714,Standard
 CRANIOTOMY & ENDOVASCULAR INTRACRANIAL PROCEDURES W CC,28892.545455,Standard
 CRANIOTOMY & ENDOVASCULAR INTRACRANIAL PROCEDURES W/O CC/MCC,22118.631579,Standard
 NERVOUS SYSTEM NEOPLASMS W MCC,16822.0,Standard
 DEGENERATIVE NERVOUS SYSTEM DISORDERS W/O MCC,14484.16,Standard
 INTRACRANIAL HEMORRHAGE OR CEREBRAL INFARCTION W MCC,19577.097222,Standard
 INTRACRANIAL HEMORRHAGE OR CEREBRAL INFARCTION W CC OR TPA IN 24 HRS,12818.844828,Standard
 INTRACRANIAL HEMORRHAGE OR CEREBRAL INFARCTION W/O CC/MCC,9421.2,Standard
 OTHER DISORDERS OF NERVOUS SYSTEM W CC,11552.454545,Standard
 SEIZURES W MCC,18992.62963,Standard
 MAJOR CHEST PROCEDURES W CC,23963.481481,Standard
 OTHER RESP SYSTEM O.R. PROCEDURES W MCC,30334.583333,Standard
 PULMONARY EMBOLISM W/O MCC,13062.0,Standard
" ""ACUTE MYOCARDIAL INFARCTION, DISCHARGED ALIVE W/O CC/MCC""",9399.25,Standard
" ""CIRCULATORY DISORDERS EXCEPT AMI, W CARD CATH W MCC""",23082.717949,Standard
" CIRCULATORY DISORDERS EXCEPT AMI, W CARD CATH W/O MCC",13128.594595,Standard
 HEART FAILURE & SHOCK W MCC,15480.622449,Standard
 G.I. OBSTRUCTION W/O CC/MCC,8737.1818182,Standard
" ESOPHAGITIS, GASTROENT & MISC DIGEST DISORDERS W MCC",14799.166667,Standard
" ""ESOPHAGITIS, GASTROENT & MISC DIGEST DISORDERS W/O MCC""",11248.285714,Standard
 OTHER DIGESTIVE SYSTEM DIAGNOSES W MCC,18220.214286000002,Standard
 OTHER DIGESTIVE SYSTEM DIAGNOSES W CC,11684.875,Standard
" PANCREAS, LIVER & SHUNT PROCEDURES W CC",26488.4,Standard
 DISORDERS OF PANCREAS EXCEPT MALIGNANCY W MCC,17118.384615,Standard
 DISORDERS OF PANCREAS EXCEPT MALIGNANCY W CC,11504.5,Standard
 SPINAL FUSION EXCEPT CERVICAL W/O MCC,34736.0,Standard
 MAJOR HIP AND KNEE JOINT REPLACEMENT OR REATTACHMENT OF LOWER EXTREM,19422.833333000002,Standard
 MAJOR JOINT/LIMB REATTACHMENT PROCEDURE OF UPPER EXTREMITIES,22902.303030000003,Standard
 OTHER MUSCULOSKELET SYS & CONN TISS O.R. PROC W/O CC/MCC,14888.090909,Standard
 CELLULITIS W/O MCC,10663.4375,Standard
 O.R. PROCEDURES FOR OBESITY W/O CC/MCC,15120.454544999999,Standard
 DIABETES W MCC,17446.428571,Standard
 G.I. OBSTRUCTION W MCC,17111.909091,Standard
" MISC DISORDERS OF NUTRITION,METABOLISM,FLUIDS/ELECTROLYTES W MCC",13368.156863,Standard
 G.I. HEMORRHAGE W CC,11601.952381000001,Standard
 MAJOR GASTROINTESTINAL DISORDERS & PERITONEAL INFECTIONS W CC,14944.352941,Standard
 HEART FAILURE & SHOCK W CC,11127.054054,Standard
 HEART FAILURE & SHOCK W/O CC/MCC,9073.0666667,Standard
 PERIPHERAL VASCULAR DISORDERS W MCC,13945.5,Standard
 ATHEROSCLEROSIS W/O MCC,8630.125,Standard
 HYPERTENSION W MCC,12393.857143000001,Standard
 CARDIAC ARRHYTHMIA & CONDUCTION DISORDERS W MCC,15334.0,Standard
 CARDIAC ARRHYTHMIA & CONDUCTION DISORDERS W CC,9576.4137931,Standard
 CARDIAC ARRHYTHMIA & CONDUCTION DISORDERS W/O CC/MCC,7918.875,Standard
 OTHER CIRCULATORY SYSTEM DIAGNOSES W MCC,21937.903226,Standard
 OTHER CIRCULATORY SYSTEM DIAGNOSES W CC,11367.833333,Standard
" ""STOMACH, ESOPHAGEAL & DUODENAL PROC W CC""",21993.692308,Standard
 MAJOR SMALL & LARGE BOWEL PROCEDURES W MCC,44331.3,Standard
 MAJOR SMALL & LARGE BOWEL PROCEDURES W CC,23327.628571,Standard
 MAJOR SMALL & LARGE BOWEL PROCEDURES W/O CC/MCC,16841.416666999998,Standard
 MAJOR GASTROINTESTINAL DISORDERS & PERITONEAL INFECTIONS W MCC,19444.909091,Standard
 G.I. HEMORRHAGE W MCC,17622.444444,Standard
" TRACH W MV >96 HRS OR PDX EXC FACE, MOUTH & NECK W/O MAJ O.R.",82022.363636,Standard
" ""ECMO OR TRACH W MV >96 HRS OR PDX EXC FACE, MOUTH & NECK W MAJ O.R.",162304.5,Standard
