Description,Charge,Category
Comprehensive Observation Services,1681.80779220778,DRG
 KIDNEY & URINARY TRACT INFECTIONS W/O MCC,4052.2307692,Standard
" ""ESOPHAGITIS, GASTROENT & MISC DIGEST DISORDERS W/O MCC""",4207.0714286,Standard
 SIMPLE PNEUMONIA & PLEURISY W CC,4678.4285714,Standard
 CHRONIC OBSTRUCTIVE PULMONARY DISEASE W/O CC/MCC,3674.0,Standard
 CHRONIC OBSTRUCTIVE PULMONARY DISEASE W MCC,5814.6666667,Standard
