Description,Charge,Category
 SIMPLE PNEUMONIA & PLEURISY W/O CC/MCC,5026.8333333,Standard
" ""ESOPHAGITIS, GASTROENT & MISC DIGEST DISORDERS W/O MCC""",5309.642857100001,Standard
Comprehensive Observation Services,1532.84192660549,DRG
" ""MISC DISORDERS OF NUTRITION,METABOLISM,FLUIDS/ELECTROLYTES W/O MCC""",5140.5,Standard
 CHRONIC OBSTRUCTIVE PULMONARY DISEASE W MCC,6950.214285699999,Standard
 SIMPLE PNEUMONIA & PLEURISY W CC,7181.1176471,Standard
Level 2 Upper GI Procedures,878.826666666667,DRG
Level 1 Intraocular Procedures,1184.30389830508,DRG
 SEPTICEMIA OR SEVERE SEPSIS W/O MV >96 HOURS W MCC,9539.2307692,Standard
 KIDNEY & URINARY TRACT INFECTIONS W/O MCC,5479.6111111,Standard
