Description,Charge,Category
Comprehensive Observation Services,1726.0266666666598,DRG
 SIMPLE PNEUMONIA & PLEURISY W CC,5046.3709677,Standard
 SIMPLE PNEUMONIA & PLEURISY W/O CC/MCC,3935.4285714000002,Standard
 CHRONIC OBSTRUCTIVE PULMONARY DISEASE W CC,5291.363636399999,Standard
 CHRONIC OBSTRUCTIVE PULMONARY DISEASE W/O CC/MCC,4337.0,Standard
 SIMPLE PNEUMONIA & PLEURISY W MCC,7273.6538462,Standard
 BRONCHITIS & ASTHMA W/O CC/MCC,4529.0909091,Standard
 BRONCHITIS & ASTHMA W CC/MCC,5042.2941176,Standard
 INFECTIOUS & PARASITIC DISEASES W O.R. PROCEDURE W MCC,29950.75,Standard
 MAJOR SMALL & LARGE BOWEL PROCEDURES W CC,13626.318181999999,Standard
 PULMONARY EMBOLISM W/O MCC,5246.5384615,Standard
 KIDNEY & URINARY TRACT INFECTIONS W/O MCC,4462.4259259,Standard
 KIDNEY & URINARY TRACT INFECTIONS W MCC,5590.1578947,Standard
 RENAL FAILURE W CC,5101.9534883999995,Standard
 RENAL FAILURE W MCC,7285.785714300001,Standard
" ""MISC DISORDERS OF NUTRITION,METABOLISM,FLUIDS/ELECTROLYTES W/O MCC""",3968.5833333000005,Standard
" MISC DISORDERS OF NUTRITION,METABOLISM,FLUIDS/ELECTROLYTES W MCC",6120.75,Standard
 DIABETES W CC,4445.4736842,Standard
 RESPIRATORY INFECTIONS & INFLAMMATIONS W MCC,9249.555555600002,Standard
 TRANSIENT ISCHEMIA W/O THROMBOLYTIC,4220.6153846,Standard
 RESPIRATORY INFECTIONS & INFLAMMATIONS W CC,6733.5454545,Standard
 PULMONARY EDEMA & RESPIRATORY FAILURE,6664.7878788,Standard
 CHRONIC OBSTRUCTIVE PULMONARY DISEASE W MCC,6190.5892857,Standard
 INTRACRANIAL HEMORRHAGE OR CEREBRAL INFARCTION W/O CC/MCC,3946.8461538,Standard
 INTRACRANIAL HEMORRHAGE OR CEREBRAL INFARCTION W CC OR TPA IN 24 HRS,5826.1923077,Standard
 PERC CARDIOVASC PROC W DRUG,11301.027778,Standard
 PERIPHERAL VASCULAR DISORDERS W CC,5803.8333333,Standard
 CARDIAC ARRHYTHMIA & CONDUCTION DISORDERS W MCC,6316.6315789,Standard
 CARDIAC ARRHYTHMIA & CONDUCTION DISORDERS W CC,4404.0625,Standard
 CARDIAC ARRHYTHMIA & CONDUCTION DISORDERS W/O CC/MCC,3285.8214285999998,Standard
 SYNCOPE & COLLAPSE,4233.2727273,Standard
 KIDNEY & URINARY TRACT INFECTIONS W/O MCC,5761.3888889,Standard
 CHRONIC OBSTRUCTIVE PULMONARY DISEASE W MCC,7551.6875,Standard
 PULMONARY EDEMA & RESPIRATORY FAILURE,8457.5882353,Standard
 MAJOR SMALL & LARGE BOWEL PROCEDURES W MCC,27693.888888999998,Standard
 RED BLOOD CELL DISORDERS W/O MCC,4619.85,Standard
Level 4 Musculoskeletal Procedures,3984.7206666666602,DRG
 OTHER VASCULAR PROCEDURES W/O CC/MCC,10771.230769,Standard
 HEART FAILURE & SHOCK W MCC,8157.6605505,Standard
Comprehensive Observation Services,1660.72494880543,DRG
 HIP & FEMUR PROCEDURES EXCEPT MAJOR JOINT W CC,10698.285714,Standard
 CELLULITIS W/O MCC,4540.7346939,Standard
 SIGNS & SYMPTOMS W/O MCC,4678.9090909,Standard
 SEPTICEMIA OR SEVERE SEPSIS W/O MV >96 HOURS W MCC,10070.987342,Standard
" FX, SPRN, STRN & DISL EXCEPT FEMUR, HIP, PELVIS & THIGH W/O MCC",4383.5,Standard
 G.I. HEMORRHAGE W MCC,9011.3125,Standard
 MAJOR GASTROINTESTINAL DISORDERS & PERITONEAL INFECTIONS W CC,5950.4545455,Standard
" ""ACUTE MYOCARDIAL INFARCTION, DISCHARGED ALIVE W MCC""",8232.16,Standard
" ACUTE MYOCARDIAL INFARCTION, DISCHARGED ALIVE W CC",5223.7142857,Standard
" CIRCULATORY DISORDERS EXCEPT AMI, W CARD CATH W/O MCC",6251.4571429,Standard
 G.I. OBSTRUCTION W CC,4813.0833333,Standard
Level 2 Breast/Lymphatic Surgery and Related Procedures,3480.07,DRG
Level 3 Excision/ Biopsy/ Incision and Drainage,1681.4,DRG
 HEART FAILURE & SHOCK W CC,4972.18,Standard
 HEART FAILURE & SHOCK W/O CC/MCC,3581.6666666999995,Standard
Level 2 Musculoskeletal Procedures,920.3205,DRG
 CORONARY BYPASS W/O CARDIAC CATH W/O MCC,19326.818182,Standard
Level 2 Excision/ Biopsy/ Incision and Drainage,971.504047619046,DRG
 SEPTICEMIA OR SEVERE SEPSIS W/O MV >96 HOURS W/O MCC,5634.3846154,Standard
 CELLULITIS W MCC,7328.8461538,Standard
Level 1 Nerve Procedures,1164.75,DRG
 CORONARY BYPASS W CARDIAC CATH W/O MCC,26655.571429,Standard
 MEDICAL BACK PROBLEMS W/O MCC,4842.1111111,Standard
Level 3 Musculoskeletal Procedures,1913.09999999999,DRG
Level 5 Musculoskeletal Procedures,7837.74431034482,DRG
" ""ESOPHAGITIS, GASTROENT & MISC DIGEST DISORDERS W/O MCC""",4364.3207547,Standard
 SPINAL FUSION EXCEPT CERVICAL W/O MCC,21268.642857,Standard
 G.I. HEMORRHAGE W CC,5462.777777800001,Standard
Level 4 Airway Endoscopy,1892.36,DRG
 MAJOR HIP AND KNEE JOINT REPLACEMENT OR REATTACHMENT OF LOWER EXTREM,11162.882883,Standard
 HIP & FEMUR PROCEDURES EXCEPT MAJOR JOINT W MCC,16498.454545,Standard
Level 1 Endovascular Procedures,1738.8511764705802,DRG
Level 2 Endovascular Procedures,3455.54352941176,DRG
 RESPIRATORY SYSTEM DIAGNOSIS W VENTILATOR SUPPORT <=96 HOURS,12926.933332999999,Standard
Level 3 Electrophysiologic Procedures,14938.275,DRG
Level 3 Pacemaker and Similar Procedures,7499.28,DRG
Level 3 Endovascular Procedures,7928.60952380952,DRG
Level 3 Upper GI Procedures,1984.13,DRG
Level 4 Gynecologic Procedures,1643.70999999999,DRG
Level 5 Urology and Related Services,2668.55086956521,DRG
Level 2 Upper GI Procedures,1010.01606060606,DRG
Level 3 Urology and Related Services,1195.69124999999,DRG
Level 2 Laparoscopy and Related Services,5546.97823529411,DRG
Level 4 Urology and Related Services,1950.31270833333,DRG
Abdominal/Peritoneal/Biliary and Related Procedures,2105.41,DRG
Level 1 Laparoscopy and Related Services,3201.24208333332,DRG
