Description,Charge,Category
 SIMPLE PNEUMONIA & PLEURISY W/O CC/MCC,5683.6666667,Standard
 SIMPLE PNEUMONIA & PLEURISY W CC,7397.392857100001,Standard
 CHRONIC OBSTRUCTIVE PULMONARY DISEASE W/O CC/MCC,5701.6,Standard
" ""ESOPHAGITIS, GASTROENT & MISC DIGEST DISORDERS W/O MCC""",6097.2727273,Standard
 SEPTICEMIA OR SEVERE SEPSIS W/O MV >96 HOURS W MCC,12374.214286,Standard
 KIDNEY & URINARY TRACT INFECTIONS W/O MCC,6213.5454545,Standard
 RED BLOOD CELL DISORDERS W/O MCC,6724.5714286,Standard
Level 2 Upper GI Procedures,881.342592592592,DRG
 CHRONIC OBSTRUCTIVE PULMONARY DISEASE W MCC,9262.266666700001,Standard
Comprehensive Observation Services,1552.46344632768,DRG
Level 1 Intraocular Procedures,1260.92109243697,DRG
 CELLULITIS W/O MCC,6781.266666699999,Standard
 PULMONARY EDEMA & RESPIRATORY FAILURE,9330.3636364,Standard
 CHRONIC OBSTRUCTIVE PULMONARY DISEASE W CC,6918.0909091,Standard
