Description,Charge,Category
 PERCUTANEOUS CARDIOVASCULAR PROCEDURES W DRUG,23811.615385,Standard
 SIMPLE PNEUMONIA & PLEURISY W CC,5938.1219512,Standard
 SIMPLE PNEUMONIA & PLEURISY W MCC,9339.9036145,Standard
 CHRONIC OBSTRUCTIVE PULMONARY DISEASE W/O CC/MCC,4758.4,Standard
 PERC CARDIOVASC PROC W DRUG,15422.652174,Standard
 CHRONIC OBSTRUCTIVE PULMONARY DISEASE W CC,5614.0571429,Standard
 CHRONIC OBSTRUCTIVE PULMONARY DISEASE W MCC,7528.5882353,Standard
 PULMONARY EDEMA & RESPIRATORY FAILURE,7590.356321799999,Standard
 RESPIRATORY NEOPLASMS W MCC,10166.75,Standard
 RESPIRATORY INFECTIONS & INFLAMMATIONS W MCC,12149.695652,Standard
 SEIZURES W/O MCC,5056.4615385,Standard
 TRANSIENT ISCHEMIA W/O THROMBOLYTIC,4934.45,Standard
 RESPIRATORY SYSTEM DIAGNOSIS W VENTILATOR SUPPORT <=96 HOURS,15973.3,Standard
 SYNCOPE & COLLAPSE,5055.9375,Standard
 CARDIAC ARRHYTHMIA & CONDUCTION DISORDERS W MCC,7547.961538500001,Standard
 DIABETES W MCC,9041.809523799999,Standard
 CELLULITIS W/O MCC,5177.3043478,Standard
 HIP & FEMUR PROCEDURES EXCEPT MAJOR JOINT W CC,12572.5,Standard
 MAJOR HIP AND KNEE JOINT REPLACEMENT OR REATTACHMENT OF LOWER EXTREM,12430.947368000001,Standard
 DISORDERS OF THE BILIARY TRACT W CC,6408.8181818,Standard
 OTHER DIGESTIVE SYSTEM DIAGNOSES W MCC,10302.833333,Standard
" ""ESOPHAGITIS, GASTROENT & MISC DIGEST DISORDERS W/O MCC""",4697.03125,Standard
" ESOPHAGITIS, GASTROENT & MISC DIGEST DISORDERS W MCC",7495.1764706,Standard
 G.I. OBSTRUCTION W/O CC/MCC,3584.9285714000002,Standard
 G.I. OBSTRUCTION W CC,5189.24,Standard
 G.I. HEMORRHAGE W CC,5882.2682927000005,Standard
 G.I. HEMORRHAGE W MCC,11021.666667,Standard
 MAJOR GASTROINTESTINAL DISORDERS & PERITONEAL INFECTIONS W CC,6424.0,Standard
 OTHER CIRCULATORY SYSTEM DIAGNOSES W MCC,12065.225806,Standard
 CHEST PAIN,4452.7,Standard
 DIABETES W CC,5424.5945946,Standard
 CARDIAC ARRHYTHMIA & CONDUCTION DISORDERS W CC,4986.6129032,Standard
 DIABETES W/O CC/MCC,4179.5263158,Standard
" ""MISC DISORDERS OF NUTRITION,METABOLISM,FLUIDS/ELECTROLYTES W/O MCC""",4605.5945946,Standard
 CARDIAC ARRHYTHMIA & CONDUCTION DISORDERS W/O CC/MCC,3666.7,Standard
" ""ACUTE MYOCARDIAL INFARCTION, DISCHARGED ALIVE W MCC""",9977.388888899999,Standard
" ""CIRCULATORY DISORDERS EXCEPT AMI, W CARD CATH W MCC""",13505.4375,Standard
" CIRCULATORY DISORDERS EXCEPT AMI, W CARD CATH W/O MCC",7337.627906999999,Standard
 HEART FAILURE & SHOCK W MCC,9487.8222222,Standard
 HEART FAILURE & SHOCK W CC,5875.71875,Standard
 HEART FAILURE & SHOCK W/O CC/MCC,4196.6818182,Standard
 ATHEROSCLEROSIS W/O MCC,5343.642857100001,Standard
 SEPTICEMIA OR SEVERE SEPSIS W/O MV >96 HOURS W/O MCC,6527.44,Standard
 SEPTICEMIA OR SEVERE SEPSIS W/O MV >96 HOURS W MCC,12532.301309999999,Standard
 RED BLOOD CELL DISORDERS W/O MCC,7259.0833333,Standard
 RED BLOOD CELL DISORDERS W MCC,8100.2727273,Standard
 KIDNEY & URINARY TRACT INFECTIONS W MCC,6613.7692308,Standard
 RENAL FAILURE W CC,6064.7708333,Standard
 RENAL FAILURE W MCC,11820.466667,Standard
" MISC DISORDERS OF NUTRITION,METABOLISM,FLUIDS/ELECTROLYTES W MCC",7091.9583333,Standard
 KIDNEY & URINARY TRACT INFECTIONS W/O MCC,4876.2941176,Standard
 INTRACRANIAL HEMORRHAGE OR CEREBRAL INFARCTION W CC OR TPA IN 24 HRS,6242.3181818,Standard
Comprehensive Observation Services,1672.66113496932,DRG
Level 5 Urology and Related Services,2672.54285714285,DRG
Level 1 Intraocular Procedures,1338.0907894736802,DRG
Level 4 Urology and Related Services,1944.4494117647,DRG
Abdominal/Peritoneal/Biliary and Related Procedures,2100.75,DRG
Level 2 Upper GI Procedures,1026.62404761904,DRG
Level 3 Endovascular Procedures,7737.67894736842,DRG
Level 1 Laparoscopy and Related Services,3238.8556,DRG
Level 1 Endovascular Procedures,1729.8921794871699,DRG
Level 4 Musculoskeletal Procedures,3734.51076923077,DRG
Level 3 Musculoskeletal Procedures,1832.5056,DRG
Level 2 Excision/ Biopsy/ Incision and Drainage,955.504999999999,DRG
 INTRACRANIAL HEMORRHAGE OR CEREBRAL INFARCTION W MCC,11777.105263,Standard
Level 2 Endovascular Procedures,3363.6716666666603,DRG
Level 3 Urology and Related Services,1162.4675,DRG
