Description,Charge,Category
 PERMANENT CARDIAC PACEMAKER IMPLANT W/O CC/MCC,11147.272727,Standard
 OTHER KIDNEY & URINARY TRACT DIAGNOSES W CC,5335.4545455,Standard
 OTHER KIDNEY & URINARY TRACT DIAGNOSES W MCC,8419.0689655,Standard
 KIDNEY & URINARY TRACT INFECTIONS W/O MCC,4234.9117647,Standard
 KIDNEY & URINARY TRACT INFECTIONS W MCC,5693.6888889,Standard
 RENAL FAILURE W/O CC/MCC,3344.5454545000002,Standard
 RENAL FAILURE W CC,4902.1875,Standard
 RENAL FAILURE W MCC,8804.745098000001,Standard
 OTHER KIDNEY & URINARY TRACT PROCEDURES W MCC,19541.583333000002,Standard
" ""MISC DISORDERS OF NUTRITION,METABOLISM,FLUIDS/ELECTROLYTES W/O MCC""",3914.5882353,Standard
" MISC DISORDERS OF NUTRITION,METABOLISM,FLUIDS/ELECTROLYTES W MCC",6376.6153846,Standard
 DIABETES W CC,4789.45,Standard
 DIABETES W MCC,7164.0,Standard
 CELLULITIS W/O MCC,4438.8888889,Standard
" FX, SPRN, STRN & DISL EXCEPT FEMUR, HIP, PELVIS & THIGH W/O MCC",4268.5454545,Standard
 SIGNS & SYMPTOMS OF MUSCULOSKELETAL SYSTEM & CONN TISSUE W/O MCC,4127.6363636,Standard
 MEDICAL BACK PROBLEMS W/O MCC,4728.9642857,Standard
 FRACTURES OF HIP & PELVIS W/O MCC,3585.9166666999995,Standard
 BACK & NECK PROC EXC SPINAL FUSION W/O CC/MCC,6776.357142899999,Standard
 OTHER MUSCULOSKELET SYS & CONN TISS O.R. PROC W/O CC/MCC,7498.2941175999995,Standard
 OTHER MUSCULOSKELET SYS & CONN TISS O.R. PROC W CC,9839.785714299998,Standard
 MAJOR JOINT/LIMB REATTACHMENT PROCEDURE OF UPPER EXTREMITIES,13217.218181999999,Standard
 HIP & FEMUR PROCEDURES EXCEPT MAJOR JOINT W/O CC/MCC,8403.6470588,Standard
 HIP & FEMUR PROCEDURES EXCEPT MAJOR JOINT W CC,10056.487179000002,Standard
 HIP & FEMUR PROCEDURES EXCEPT MAJOR JOINT W MCC,16079.461538,Standard
 CERVICAL SPINAL FUSION W/O CC/MCC,12039.272727,Standard
 MAJOR HIP AND KNEE JOINT REPLACEMENT OR REATTACHMENT OF LOWER EXTREM,11109.368671,Standard
 MAJOR HIP AND KNEE JOINT REPLACEMENT OR REATTACHMENT OF LOWER EXTREM,14833.625,Standard
 RED BLOOD CELL DISORDERS W/O MCC,4689.1,Standard
 INFECTIOUS & PARASITIC DISEASES W O.R. PROCEDURE W MCC,27538.230768999998,Standard
 SEPTICEMIA OR SEVERE SEPSIS W MV >96 HOURS OR PERIPHERAL EXTRACORPOR,32509.944444,Standard
 REVISION OF HIP OR KNEE REPLACEMENT W/O CC/MCC,14475.027027000002,Standard
Level 2 Excision/ Biopsy/ Incision and Drainage,912.720574712642,DRG
Level 3 Excision/ Biopsy/ Incision and Drainage,1525.1494736842099,DRG
Level 2 Breast/Lymphatic Surgery and Related Procedures,3332.03,DRG
Level 2 Musculoskeletal Procedures,860.4224999999989,DRG
Level 3 Musculoskeletal Procedures,1756.4402803738299,DRG
Level 4 Musculoskeletal Procedures,3680.5564426877295,DRG
Level 5 Musculoskeletal Procedures,7279.59892655365,DRG
Level 3 Airway Endoscopy,915.7557446808501,DRG
Level 4 Airway Endoscopy,1811.86,DRG
Level 1 Endovascular Procedures,1674.2375438596398,DRG
Level 2 Endovascular Procedures,3443.82213114753,DRG
Level 3 Endovascular Procedures,7668.2007522123595,DRG
Level 4 Endovascular Procedures,12553.65,DRG
Level 3 Electrophysiologic Procedures,14340.8309090908,DRG
Level 3 Pacemaker and Similar Procedures,7123.978732394351,DRG
Level 2 ICD and Similar Procedures,24944.5765957446,DRG
Level 2 Upper GI Procedures,988.41,DRG
Abdominal/Peritoneal/Biliary and Related Procedures,1881.146,DRG
Level 1 Laparoscopy and Related Services,2956.21415929203,DRG
Level 1 Nerve Procedures,1058.01974358974,DRG
Level 3 Neurostimulator and Related Procedures,14586.459999999899,DRG
Level 4 Neurostimulator and Related Procedures,22829.239999999903,DRG
Level 1 Intraocular Procedures,1284.42890186916,DRG
Level 2 Intraocular Procedures,2343.67375,DRG
Comprehensive Observation Services,1618.7806629834301,DRG
 EXTENSIVE O.R. PROCEDURE UNRELATED TO PRINCIPAL DIAGNOSIS W MCC,24196.666666999998,Standard
 POISONING & TOXIC EFFECTS OF DRUGS W MCC,8321.142857100001,Standard
 SEPTICEMIA OR SEVERE SEPSIS W/O MV >96 HOURS W/O MCC,5701.220339,Standard
 SEPTICEMIA OR SEVERE SEPSIS W/O MV >96 HOURS W MCC,9700.1032609,Standard
 FEVER AND INFLAMMATORY CONDITIONS,4739.1666667,Standard
 SPINAL FUSION EXCEPT CERVICAL W/O MCC,21290.243243,Standard
 COMBINED ANTERIOR/POSTERIOR SPINAL FUSION W/O CC/MCC,28877.961038999998,Standard
 COMBINED ANTERIOR/POSTERIOR SPINAL FUSION W CC,37672.916667000005,Standard
 DEGENERATIVE NERVOUS SYSTEM DISORDERS W/O MCC,5966.9375,Standard
 INTRACRANIAL HEMORRHAGE OR CEREBRAL INFARCTION W MCC,9193.0943396,Standard
 INTRACRANIAL HEMORRHAGE OR CEREBRAL INFARCTION W CC OR TPA IN 24 HRS,5348.7,Standard
 INTRACRANIAL HEMORRHAGE OR CEREBRAL INFARCTION W/O CC/MCC,4045.0,Standard
 TRANSIENT ISCHEMIA W/O THROMBOLYTIC,3959.4242424000004,Standard
 NONSPECIFIC CEREBROVASCULAR DISORDERS W MCC,8313.263157899999,Standard
 NONSPECIFIC CEREBROVASCULAR DISORDERS W CC,5108.875,Standard
" TRAUMATIC STUPOR & COMA, COMA <1 HR W/O CC/MCC",4345.1818182,Standard
 OTHER DISORDERS OF NERVOUS SYSTEM W CC,4922.9565217,Standard
 OTHER DISORDERS OF NERVOUS SYSTEM W/O CC/MCC,3904.2307692,Standard
 SEIZURES W MCC,8604.5833333,Standard
 SEIZURES W/O MCC,4399.8235294,Standard
 DYSEQUILIBRIUM,3708.2,Standard
 MAJOR CHEST PROCEDURES W CC,13397.363636,Standard
 PERC CARDIOVASC PROC W DRUG,11385.4,Standard
 RESPIRATORY INFECTIONS & INFLAMMATIONS W MCC,9750.090909100001,Standard
 PULMONARY EDEMA & RESPIRATORY FAILURE,6639.8181818,Standard
 CHRONIC OBSTRUCTIVE PULMONARY DISEASE W MCC,6298.9390244,Standard
 CHRONIC OBSTRUCTIVE PULMONARY DISEASE W CC,4843.4761905000005,Standard
 CHRONIC OBSTRUCTIVE PULMONARY DISEASE W/O CC/MCC,3790.3333333000005,Standard
 SIMPLE PNEUMONIA & PLEURISY W MCC,7279.763636399999,Standard
 SIMPLE PNEUMONIA & PLEURISY W CC,5158.3125,Standard
 SIMPLE PNEUMONIA & PLEURISY W/O CC/MCC,3770.6363636,Standard
 BRONCHITIS & ASTHMA W CC/MCC,5112.2857143,Standard
 RESPIRATORY SYSTEM DIAGNOSIS W VENTILATOR SUPPORT <=96 HOURS,12427.275862,Standard
 OTHER HEART ASSIST SYSTEM IMPLANT,73579.315789,Standard
 CARDIAC VALVE & OTH MAJ CARDIOTHORACIC PROC W/O CARD CATH W CC,28158.083333,Standard
 CORONARY BYPASS W CARDIAC CATH W/O MCC,32052.166667,Standard
 CORONARY BYPASS W/O CARDIAC CATH W/O MCC,21200.72,Standard
 EXTRACRANIAL PROCEDURES W/O CC/MCC,5844.1034483,Standard
 PERCUTANEOUS CARDIOVASCULAR PROCEDURES W DRUG,17367.642857,Standard
 CRANIOTOMY & ENDOVASCULAR INTRACRANIAL PROCEDURES W/O CC/MCC,13146.125,Standard
 OTHER VASCULAR PROCEDURES W CC,14134.235294,Standard
 LAPAROSCOPIC CHOLECYSTECTOMY W/O C.D.E. W/O CC/MCC,7070.3846154,Standard
 LAPAROSCOPIC CHOLECYSTECTOMY W/O C.D.E. W CC,8720.692307700001,Standard
 OTHER DIGESTIVE SYSTEM DIAGNOSES W CC,5163.0,Standard
" ""ESOPHAGITIS, GASTROENT & MISC DIGEST DISORDERS W/O MCC""",4175.656716400001,Standard
 G.I. OBSTRUCTION W/O CC/MCC,3340.0,Standard
 G.I. OBSTRUCTION W CC,4504.086956499999,Standard
 G.I. HEMORRHAGE W CC,5119.62,Standard
 MAJOR GASTROINTESTINAL DISORDERS & PERITONEAL INFECTIONS W MCC,8982.8333333,Standard
 MAJOR SMALL & LARGE BOWEL PROCEDURES W CC,14266.3,Standard
 MAJOR SMALL & LARGE BOWEL PROCEDURES W MCC,28118.826087,Standard
 OTHER CIRCULATORY SYSTEM DIAGNOSES W MCC,11118.857143000001,Standard
 CHEST PAIN,3776.7671233,Standard
 SYNCOPE & COLLAPSE,4221.5555556,Standard
 CARDIAC ARRHYTHMIA & CONDUCTION DISORDERS W/O CC/MCC,3081.8723403999998,Standard
 CARDIAC ARRHYTHMIA & CONDUCTION DISORDERS W CC,4032.1923077,Standard
 CARDIAC ARRHYTHMIA & CONDUCTION DISORDERS W MCC,6482.2058824,Standard
 HYPERTENSION W/O MCC,3654.3888889,Standard
 HEART FAILURE & SHOCK W/O CC/MCC,3650.25,Standard
 HEART FAILURE & SHOCK W CC,4963.075,Standard
 HEART FAILURE & SHOCK W MCC,7601.0071942,Standard
" CIRCULATORY DISORDERS EXCEPT AMI, W CARD CATH W/O MCC",6300.346666699999,Standard
" ""CIRCULATORY DISORDERS EXCEPT AMI, W CARD CATH W MCC""",12713.058824,Standard
" ACUTE MYOCARDIAL INFARCTION, DISCHARGED ALIVE W CC",5205.75,Standard
 PERCUTANEOUS INTRACARDIAC PROCEDURES W/O MCC,14309.279069999999,Standard
 AORTIC AND HEART ASSIST PROCEDURES EXCEPT PULSATION BALLOON W/O MCC,26245.545455,Standard
 ENDOVASCULAR CARDIAC VALVE REPLACEMENT W/O MCC,33368.0,Standard
 ENDOVASCULAR CARDIAC VALVE REPLACEMENT W MCC,40676.461537999996,Standard
 OTHER CIRCULATORY SYSTEM O.R. PROCEDURES,15618.6,Standard
 OTHER VASCULAR PROCEDURES W/O CC/MCC,9440.8461538,Standard
 OTHER VASCULAR PROCEDURES W MCC,20858.028571000003,Standard
 OTHER RESP SYSTEM O.R. PROCEDURES W MCC,19523.208333000002,Standard
 G.I. HEMORRHAGE W MCC,9009.75,Standard
