Description,Charge,Category
 SIMPLE PNEUMONIA & PLEURISY W/O CC/MCC,5686.5833333,Standard
 KIDNEY & URINARY TRACT INFECTIONS W/O MCC,6216.6666667,Standard
Comprehensive Observation Services,1611.37893333333,DRG
