Description,Charge,Category
 PERIPHERAL VASCULAR DISORDERS W CC,10507.0,Standard
 SIMPLE PNEUMONIA & PLEURISY W/O CC/MCC,5737.1818182,Standard
 BRONCHITIS & ASTHMA W CC/MCC,7039.2647059,Standard
 RESPIRATORY SYSTEM DIAGNOSIS W VENTILATOR SUPPORT <=96 HOURS,18124.533333000003,Standard
 PERCUTANEOUS CARDIOVASCULAR PROCEDURES W DRUG,28312.0,Standard
 PERC CARDIOVASC PROC W DRUG,16773.434783,Standard
 OTHER VASCULAR PROCEDURES W MCC,28410.060606,Standard
 OTHER VASCULAR PROCEDURES W CC,16530.533333000003,Standard
 OTHER CIRCULATORY SYSTEM O.R. PROCEDURES,22152.357143,Standard
" ""ACUTE MYOCARDIAL INFARCTION, DISCHARGED ALIVE W MCC""",12929.709676999999,Standard
" ""CIRCULATORY DISORDERS EXCEPT AMI, W CARD CATH W MCC""",15106.210525999999,Standard
" CIRCULATORY DISORDERS EXCEPT AMI, W CARD CATH W/O MCC",9176.6666667,Standard
 HEART FAILURE & SHOCK W MCC,11247.672897,Standard
 HEART FAILURE & SHOCK W CC,7181.4772727,Standard
 PERIPHERAL VASCULAR DISORDERS W MCC,9766.5714286,Standard
 HYPERTENSION W MCC,8395.333333300001,Standard
 HYPERTENSION W/O MCC,6198.3333333,Standard
 CARDIAC ARRHYTHMIA & CONDUCTION DISORDERS W MCC,9224.266666700001,Standard
 CARDIAC ARRHYTHMIA & CONDUCTION DISORDERS W CC,6618.4736842,Standard
 SYNCOPE & COLLAPSE,6279.6206897,Standard
 CHEST PAIN,5716.6315789,Standard
 OTHER CIRCULATORY SYSTEM DIAGNOSES W MCC,13592.142856999999,Standard
 MAJOR SMALL & LARGE BOWEL PROCEDURES W MCC,32470.791667,Standard
 PERITONEAL ADHESIOLYSIS W CC,15454.545455000001,Standard
 MAJOR GASTROINTESTINAL DISORDERS & PERITONEAL INFECTIONS W CC,7833.4285714,Standard
 G.I. HEMORRHAGE W MCC,12128.771429,Standard
 SIMPLE PNEUMONIA & PLEURISY W CC,7010.6956522,Standard
 SIMPLE PNEUMONIA & PLEURISY W MCC,10384.483516,Standard
 CHRONIC OBSTRUCTIVE PULMONARY DISEASE W CC,6976.714285699999,Standard
 CHRONIC OBSTRUCTIVE PULMONARY DISEASE W MCC,8307.925925900001,Standard
Level 5 Musculoskeletal Procedures,7503.979285714291,DRG
Level 4 Musculoskeletal Procedures,4089.2968181818105,DRG
Level 3 Musculoskeletal Procedures,1692.9223728813502,DRG
Comprehensive Observation Services,1736.33924865831,DRG
Level 2 Excision/ Biopsy/ Incision and Drainage,941.142135922332,DRG
Level 3 Excision/ Biopsy/ Incision and Drainage,1627.07111111111,DRG
Level 1 Breast/Lymphatic Surgery and Related Procedures,2045.48,DRG
Level 2 Breast/Lymphatic Surgery and Related Procedures,3436.3619047619,DRG
Level 2 Musculoskeletal Procedures,1012.25,DRG
 EXTRACRANIAL PROCEDURES W/O CC/MCC,9357.535714299998,Standard
 INTRACRANIAL HEMORRHAGE OR CEREBRAL INFARCTION W MCC,12161.075,Standard
 INTRACRANIAL HEMORRHAGE OR CEREBRAL INFARCTION W CC OR TPA IN 24 HRS,8348.859649099999,Standard
 G.I. HEMORRHAGE W CC,7729.9375,Standard
 INTRACRANIAL HEMORRHAGE OR CEREBRAL INFARCTION W/O CC/MCC,6007.363636399999,Standard
 NONSPECIFIC CEREBROVASCULAR DISORDERS W MCC,11345.263158,Standard
 NONSPECIFIC CEREBROVASCULAR DISORDERS W CC,7392.533333300001,Standard
 OTHER DISORDERS OF NERVOUS SYSTEM W MCC,11490.529412,Standard
 OTHER DISORDERS OF NERVOUS SYSTEM W CC,7078.1578947,Standard
 SEIZURES W MCC,11204.380952,Standard
 SEIZURES W/O MCC,7075.3888889,Standard
 OTHER RESP SYSTEM O.R. PROCEDURES W MCC,29239.190476,Standard
 PULMONARY EMBOLISM W MCC,9865.7058824,Standard
 PULMONARY EMBOLISM W/O MCC,6817.538461499999,Standard
 RESPIRATORY INFECTIONS & INFLAMMATIONS W MCC,12796.233333,Standard
 RESPIRATORY INFECTIONS & INFLAMMATIONS W CC,9222.0,Standard
 PULMONARY EDEMA & RESPIRATORY FAILURE,9277.982758600001,Standard
 TRANSIENT ISCHEMIA W/O THROMBOLYTIC,6013.6875,Standard
 G.I. OBSTRUCTION W CC,6589.85,Standard
 MAJOR SMALL & LARGE BOWEL PROCEDURES W CC,16879.090909,Standard
" ""ESOPHAGITIS, GASTROENT & MISC DIGEST DISORDERS W/O MCC""",6571.25,Standard
 SEPTICEMIA OR SEVERE SEPSIS W/O MV >96 HOURS W/O MCC,8438.98,Standard
 PSYCHOSES,8629.518518500001,Standard
" ESOPHAGITIS, GASTROENT & MISC DIGEST DISORDERS W MCC",10281.95,Standard
 POISONING & TOXIC EFFECTS OF DRUGS W MCC,10212.130435,Standard
 FULL THICKNESS BURN W SKIN GRAFT OR INHAL INJ W CC/MCC,37870.142857,Standard
 NON,12265.210526,Standard
 EXTENSIVE O.R. PROCEDURE UNRELATED TO PRINCIPAL DIAGNOSIS W MCC,33596.083332999995,Standard
Level 5 Gynecologic Procedures,3007.82,DRG
Level 4 Gynecologic Procedures,1629.2442,DRG
Level 7 Urology and Related Services,11344.7811764705,DRG
Level 6 Urology and Related Services,5806.86,DRG
Level 5 Urology and Related Services,2718.67169230768,DRG
Level 4 Urology and Related Services,1987.4845714285602,DRG
Level 3 Urology and Related Services,1198.5190816326499,DRG
Level 2 Laparoscopy and Related Services,5581.9829,DRG
Level 1 Laparoscopy and Related Services,3208.17368421052,DRG
Abdominal/Peritoneal/Biliary and Related Procedures,2182.91999999999,DRG
Level 3 Airway Endoscopy,902.3363636363631,DRG
Level 4 Airway Endoscopy,1900.0710526315697,DRG
Level 5 ENT Procedures,3036.53466666666,DRG
Level 1 Endovascular Procedures,1807.96931372548,DRG
Level 2 Endovascular Procedures,3681.49793103448,DRG
Level 3 Endovascular Procedures,7905.8981481481405,DRG
Level 4 Endovascular Procedures,13702.89,DRG
Level 2 Pacemaker and Similar Procedures,5595.71,DRG
Level 3 Pacemaker and Similar Procedures,7823.7,DRG
Level 2 ICD and Similar Procedures,25026.5354838709,DRG
 SEPTICEMIA OR SEVERE SEPSIS W/O MV >96 HOURS W MCC,14214.595318000001,Standard
 SEPTICEMIA OR SEVERE SEPSIS W MV >96 HOURS OR PERIPHERAL EXTRACORPOR,39066.0,Standard
 ALCOHOL/DRUG ABUSE OR DEPENDENCE W/O REHABILITATION THERAPY W/O MCC,6227.9772727,Standard
 RED BLOOD CELL DISORDERS W/O MCC,6823.4848485,Standard
 OTHER DIGESTIVE SYSTEM DIAGNOSES W CC,7338.4545455,Standard
 LAPAROSCOPIC CHOLECYSTECTOMY W/O C.D.E. W CC,11410.071429000001,Standard
 SPINAL FUSION EXCEPT CERVICAL W/O MCC,26945.095237999998,Standard
 REVISION OF HIP OR KNEE REPLACEMENT W CC,21918.769231000002,Standard
 MAJOR HIP AND KNEE JOINT REPLACEMENT OR REATTACHMENT OF LOWER EXTREM,21758.8,Standard
 MAJOR HIP AND KNEE JOINT REPLACEMENT OR REATTACHMENT OF LOWER EXTREM,16626.580357,Standard
 HIP & FEMUR PROCEDURES EXCEPT MAJOR JOINT W MCC,21576.263158,Standard
 INFECTIOUS & PARASITIC DISEASES W O.R. PROCEDURE W MCC,40372.5,Standard
 MAJOR JOINT/LIMB REATTACHMENT PROCEDURE OF UPPER EXTREMITIES,18607.232143,Standard
 FRACTURES OF HIP & PELVIS W/O MCC,5999.25,Standard
 MEDICAL BACK PROBLEMS W/O MCC,7419.0,Standard
 CELLULITIS W MCC,9936.0,Standard
 HIP & FEMUR PROCEDURES EXCEPT MAJOR JOINT W CC,13641.235294,Standard
Level 2 Upper GI Procedures,1070.33,DRG
 OTHER KIDNEY & URINARY TRACT DIAGNOSES W CC,9101.214285700002,Standard
 OTHER KIDNEY & URINARY TRACT DIAGNOSES W MCC,10515.655172,Standard
 CELLULITIS W/O MCC,6716.0882353,Standard
 KIDNEY & URINARY TRACT INFECTIONS W/O MCC,6727.3703704,Standard
 RED BLOOD CELL DISORDERS W MCC,9557.9,Standard
 RENAL FAILURE W CC,7246.014285699999,Standard
 KIDNEY & URINARY TRACT INFECTIONS W MCC,8885.3333333,Standard
" ""MISC DISORDERS OF NUTRITION,METABOLISM,FLUIDS/ELECTROLYTES W/O MCC""",5938.0,Standard
" MISC DISORDERS OF NUTRITION,METABOLISM,FLUIDS/ELECTROLYTES W MCC",9856.1666667,Standard
 DIABETES W CC,7023.6785714,Standard
 DIABETES W MCC,9955.709677399998,Standard
" ""AMPUTAT OF LOWER LIMB FOR ENDOCRINE,NUTRIT,& METABOL DIS W CC""",14303.727272999999,Standard
 RENAL FAILURE W MCC,10325.269231,Standard
