Description,Charge,Category
 CARDIAC ARRHYTHMIA & CONDUCTION DISORDERS W MCC,8673.09375,Standard
 G.I. OBSTRUCTION W/O CC/MCC,4567.7272727,Standard
 G.I. OBSTRUCTION W CC,6022.0555556,Standard
 G.I. HEMORRHAGE W CC,7236.1304348,Standard
 HEART FAILURE & SHOCK W/O CC/MCC,4993.6666667,Standard
 MAJOR SMALL & LARGE BOWEL PROCEDURES W CC,15898.0,Standard
 OTHER CIRCULATORY SYSTEM DIAGNOSES W MCC,14404.583333,Standard
 CHEST PAIN,5797.95,Standard
 SYNCOPE & COLLAPSE,5649.636363600001,Standard
 CARDIAC ARRHYTHMIA & CONDUCTION DISORDERS W/O CC/MCC,4348.5,Standard
 G.I. HEMORRHAGE W MCC,10992.541667,Standard
 CARDIAC ARRHYTHMIA & CONDUCTION DISORDERS W CC,5686.2830189,Standard
 HEART FAILURE & SHOCK W CC,6794.491228100001,Standard
 HEART FAILURE & SHOCK W MCC,9594.75,Standard
 CHRONIC OBSTRUCTIVE PULMONARY DISEASE W CC,6342.7307692,Standard
 INTRACRANIAL HEMORRHAGE OR CEREBRAL INFARCTION W CC OR TPA IN 24 HRS,7341.9285714,Standard
 SIMPLE PNEUMONIA & PLEURISY W MCC,9194.3157895,Standard
 SIMPLE PNEUMONIA & PLEURISY W CC,6407.5208333,Standard
 RESPIRATORY SYSTEM DIAGNOSIS W VENTILATOR SUPPORT <=96 HOURS,14332.0,Standard
 PERCUTANEOUS CARDIOVASCULAR PROCEDURES W DRUG,19987.928571,Standard
 PERC CARDIOVASC PROC W DRUG,13997.552631999999,Standard
" ""ACUTE MYOCARDIAL INFARCTION, DISCHARGED ALIVE W MCC""",12668.5,Standard
 INTRACRANIAL HEMORRHAGE OR CEREBRAL INFARCTION W MCC,11832.090909,Standard
" ACUTE MYOCARDIAL INFARCTION, DISCHARGED ALIVE W CC",6780.6666667,Standard
" CIRCULATORY DISORDERS EXCEPT AMI, W CARD CATH W/O MCC",8121.4,Standard
 CHRONIC OBSTRUCTIVE PULMONARY DISEASE W/O CC/MCC,5299.8461538,Standard
" ESOPHAGITIS, GASTROENT & MISC DIGEST DISORDERS W MCC",8359.5,Standard
 CHRONIC OBSTRUCTIVE PULMONARY DISEASE W MCC,8438.975,Standard
 PULMONARY EDEMA & RESPIRATORY FAILURE,8973.851851899999,Standard
 TRANSIENT ISCHEMIA W/O THROMBOLYTIC,5444.7142857,Standard
" ""CIRCULATORY DISORDERS EXCEPT AMI, W CARD CATH W MCC""",13997.0,Standard
" ""ESOPHAGITIS, GASTROENT & MISC DIGEST DISORDERS W/O MCC""",5647.2093023,Standard
 KIDNEY & URINARY TRACT INFECTIONS W/O MCC,5847.9285714,Standard
 MAJOR HIP AND KNEE JOINT REPLACEMENT OR REATTACHMENT OF LOWER EXTREM,14136.972972999998,Standard
Level 2 Musculoskeletal Procedures,1003.24,DRG
 LAPAROSCOPIC CHOLECYSTECTOMY W/O C.D.E. W/O CC/MCC,8653.6363636,Standard
Level 4 Musculoskeletal Procedures,3652.3147368421,DRG
Level 3 Airway Endoscopy,983.73,DRG
Level 4 Airway Endoscopy,1944.56,DRG
Level 1 Endovascular Procedures,1724.34068592056,DRG
Level 2 Endovascular Procedures,3334.4294117646996,DRG
Level 3 Endovascular Procedures,8193.18196969697,DRG
Level 2 Breast/Lymphatic Surgery and Related Procedures,3576.04,DRG
Level 4 Endovascular Procedures,13143.879655172399,DRG
Level 2 ICD and Similar Procedures,27449.43,DRG
Level 2 Upper GI Procedures,1021.5999280575501,DRG
Abdominal/Peritoneal/Biliary and Related Procedures,2083.35111111111,DRG
Level 1 Laparoscopy and Related Services,3200.60733333333,DRG
Level 3 Urology and Related Services,1225.27342105263,DRG
Level 4 Urology and Related Services,2004.14,DRG
Level 5 Urology and Related Services,2733.0238461538397,DRG
Comprehensive Observation Services,1713.5056682027698,DRG
Level 3 Pacemaker and Similar Procedures,7432.608,DRG
Level 1 Breast/Lymphatic Surgery and Related Procedures,2027.25,DRG
Level 3 Musculoskeletal Procedures,1965.86,DRG
Level 2 Excision/ Biopsy/ Incision and Drainage,977.957428571427,DRG
 HIP & FEMUR PROCEDURES EXCEPT MAJOR JOINT W CC,12863.621622,Standard
 MAJOR JOINT/LIMB REATTACHMENT PROCEDURE OF UPPER EXTREMITIES,15056.636363999998,Standard
 CELLULITIS W/O MCC,5864.1388889,Standard
 O.R. PROCEDURES FOR OBESITY W/O CC/MCC,10200.642856999999,Standard
 DIABETES W MCC,11290.484848,Standard
Level 3 Excision/ Biopsy/ Incision and Drainage,1583.7891666666599,DRG
" MISC DISORDERS OF NUTRITION,METABOLISM,FLUIDS/ELECTROLYTES W MCC",7880.511111100001,Standard
" ""MISC DISORDERS OF NUTRITION,METABOLISM,FLUIDS/ELECTROLYTES W/O MCC""",5600.7,Standard
 RENAL FAILURE W MCC,12796.675,Standard
 DIABETES W CC,6045.5405405,Standard
 RENAL FAILURE W/O CC/MCC,4646.9230769,Standard
 KIDNEY & URINARY TRACT INFECTIONS W MCC,7051.9411765,Standard
 OTHER KIDNEY & URINARY TRACT DIAGNOSES W MCC,9221.1818182,Standard
 INFECTIOUS & PARASITIC DISEASES W O.R. PROCEDURE W MCC,31370.476189999998,Standard
 SEPTICEMIA OR SEVERE SEPSIS W/O MV >96 HOURS W MCC,12438.840206,Standard
 SEPTICEMIA OR SEVERE SEPSIS W/O MV >96 HOURS W/O MCC,8264.6891892,Standard
 POISONING & TOXIC EFFECTS OF DRUGS W MCC,10059.888889,Standard
 SIGNS & SYMPTOMS W/O MCC,5592.7272727,Standard
 RENAL FAILURE W CC,6522.142857100001,Standard
Level 2 Laparoscopy and Related Services,5742.6499999999905,DRG
