Description,Charge,Category
"Enterocolitis due to Clostridium difficile, not specified as recurrent",11087.2,Standard
Rotaviral enteritis,17917.0,Standard
"Infectious gastroenteritis and colitis, unspecified",7271.0,Standard
"Sepsis due to streptococcus, group B",16262.0,Standard
"Gram-negative sepsis, unspecified",15819.0,Standard
Sepsis due to Escherichia coli [E. coli],17444.75,Standard
Other Gram-negative sepsis,42528.0,Standard
Other specified sepsis,21874.5,Standard
"Sepsis, unspecified organism",25463.3,Standard
Varicella meningitis,21262.0,Standard
Zoster without complications,13494.0,Standard
Pulmonary candidiasis,27828.0,Standard
Malignant neoplasm of cecum,33429.0,Standard
Malignant neoplasm of rectum,8865.0,Standard
Malignant neoplasm of unspecified part of unspecified bronchus or lung,11621.5,Standard
Malignant neoplasm of abdomen,84861.0,Standard
Secondary malignant neoplasm of liver and intrahepatic bile duct,30965.0,Standard
Benign neoplasm of rectum,21814.0,Standard
Neoplasm of unspecified behavior of digestive system,61772.0,Standard
Iron deficiency anemia secondary to blood loss (chronic),25289.6667,Standard
"Iron deficiency anemia, unspecified",31133.0,Standard
Other pancytopenia,4567.0,Standard
Acute posthemorrhagic anemia,20367.6667,Standard
"Anemia, unspecified",21019.5,Standard
Type 2 diabetes mellitus with hyperosmolarity without nonketotic hyperglycemic-hyperosmolar coma (NKHHC),11574.0,Standard
Type 2 diabetes mellitus with diabetic autonomic (poly)neuropathy,18012.0,Standard
Type 2 diabetes mellitus with diabetic peripheral angiopathy with gangrene,13063.0,Standard
Type 2 diabetes mellitus with foot ulcer,10178.6667,Standard
Type 2 diabetes mellitus with hyperglycemia,10784.5,Standard
Type 2 diabetes mellitus with other specified complication,31910.0,Standard
Morbid (severe) obesity with alveolar hypoventilation,32068.0,Standard
Other disorders of bilirubin metabolism,4073.0,Standard
Hypercalcemia,12842.0,Standard
Dehydration,11728.2,Standard
Hyperosmolality and hypernatremia,15138.0,Standard
Hypo-osmolality and hyponatremia,8680.4286,Standard
Hyperkalemia,6979.0,Standard
Hypokalemia,5379.3333,Standard
Vascular dementia with behavioral disturbance,16042.0,Standard
Unspecified dementia without behavioral disturbance,29342.5,Standard
"Alcohol abuse with intoxication, unspecified",8209.0,Standard
"Alcohol dependence with intoxication, unspecified",13195.0,Standard
"Alcohol dependence with withdrawal, unspecified",14702.0,Standard
Alcohol dependence with alcohol-induced persisting dementia,4555.0,Standard
"Opioid dependence, uncomplicated",6903.0,Standard
Paranoid schizophrenia,9166.6,Standard
Unspecified psychosis not due to a substance or known physiological condition,12510.6667,Standard
"Bipolar disorder, current episode manic severe with psychotic features",13076.0,Standard
"Bipolar disorder, current episode depressed, severe, with psychotic features",12159.6667,Standard
Bipolar II disorder,10886.5,Standard
"Bipolar disorder, unspecified",10833.3333,Standard
"Major depressive disorder, single episode, moderate",10195.0,Standard
"Major depressive disorder, single episode, severe without psychotic features",4356.0,Standard
"Major depressive disorder, single episode, unspecified",10229.0,Standard
"Major depressive disorder, recurrent, moderate",9037.3333,Standard
"Major depressive disorder, recurrent severe without psychotic features",16616.8462,Standard
"Major depressive disorder, recurrent, severe with psychotic symptoms",14741.5,Standard
"Encephalitis and encephalomyelitis, unspecified",39402.0,Standard
"Alzheimer's disease, unspecified",17934.6667,Standard
"Epilepsy, unspecified, not intractable, with status epilepticus",13052.5,Standard
"Epilepsy, unspecified, not intractable, without status epilepticus",11433.8333,Standard
Transient global amnesia,6164.0,Standard
"Transient cerebral ischemic attack, unspecified",15547.0,Standard
Myasthenia gravis without (acute) exacerbation,45961.0,Standard
Myasthenia gravis with (acute) exacerbation,50577.0,Standard
"Encephalopathy, unspecified",54255.0,Standard
Metabolic encephalopathy,4993.0,Standard
Essential (primary) hypertension,7966.5,Standard
Hypertensive heart disease with heart failure,22424.7917,Standard
"Hypertensive chronic kidney disease with stage 1 through stage 4 chronic kidney disease, or unspecified chronic kidney disease",10435.0,Standard
"Hypertensive heart and chronic kidney disease with heart failure and stage 1 through stage 4 chronic kidney disease, or unspecified chronic kidney disease",23800.4211,Standard
"Hypertensive heart and chronic kidney disease without heart failure, with stage 1 through stage 4 chronic kidney disease, or unspecified chronic kidney disease",21232.0,Standard
Hypertensive urgency,19492.25,Standard
"Hypertensive crisis, unspecified",12480.0,Standard
ST elevation (STEMI) myocardial infarction of unspecified site,12825.0,Standard
Non-ST elevation (NSTEMI) myocardial infarction,2699.0,Standard
Saddle embolus of pulmonary artery without acute cor pulmonale,15003.0,Standard
Other pulmonary embolism without acute cor pulmonale,17076.6,Standard
"Acute pericarditis, unspecified",16923.0,Standard
Supraventricular tachycardia,10703.0,Standard
Paroxysmal atrial fibrillation,25379.0,Standard
Chronic atrial fibrillation,15962.0,Standard
Unspecified atrial fibrillation,15830.0,Standard
Unspecified atrial flutter,17222.0,Standard
Acute systolic (congestive) heart failure,19924.0,Standard
Acute on chronic systolic (congestive) heart failure,22063.5,Standard
Acute combined systolic (congestive) and diastolic (congestive) heart failure,27704.0,Standard
Acute on chronic combined systolic (congestive) and diastolic (congestive) heart failure,30457.0,Standard
"Heart failure, unspecified",8885.2,Standard
"Nontraumatic intracerebral hemorrhage, unspecified",6687.0,Standard
Cerebral infarction due to unspecified occlusion or stenosis of right middle cerebral artery,22953.0,Standard
Cerebral infarction due to unspecified occlusion or stenosis of left middle cerebral artery,26316.0,Standard
Cerebral infarction due to unspecified occlusion or stenosis of right posterior cerebral artery,15591.0,Standard
Other cerebral infarction,18726.5,Standard
Other cerebral infarction,19023.0,Standard
"Cerebral infarction, unspecified",17661.6,Standard
Occlusion and stenosis of right middle cerebral artery,58422.0,Standard
Hypertensive encephalopathy,13878.0,Standard
Other specified noninfective disorders of lymphatic vessels and lymph nodes,15400.0,Standard
Orthostatic hypotension,17284.0,Standard
"Hypotension, unspecified",16452.0,Standard
Influenza due to identified novel influenza A virus with pneumonia,20525.5,Standard
Influenza due to other identified influenza virus with unspecified type of pneumonia,23780.0909,Standard
Influenza due to other identified influenza virus with the same other identified influenza virus pneumonia,14284.0,Standard
Influenza due to other identified influenza virus with other respiratory manifestations,19810.625,Standard
Influenza due to other identified influenza virus with gastrointestinal manifestations,12361.0,Standard
Influenza due to unidentified influenza virus with unspecified type of pneumonia,42060.0,Standard
Influenza due to unidentified influenza virus with specified pneumonia,30055.0,Standard
Influenza due to unidentified influenza virus with other respiratory manifestations,14067.5,Standard
"Viral pneumonia, unspecified",14282.0,Standard
Pneumonia due to Pseudomonas,21667.5,Standard
Unspecified bacterial pneumonia,9347.5,Standard
"Lobar pneumonia, unspecified organism",27530.0,Standard
"Pneumonia, unspecified organism",19614.5769,Standard
"Acute bronchitis, unspecified",27390.0,Standard
"Bronchitis, not specified as acute or chronic",9314.5,Standard
Chronic obstructive pulmonary disease with acute lower respiratory infection,21850.8333,Standard
Chronic obstructive pulmonary disease with (acute) exacerbation,21808.5238,Standard
Unspecified asthma with (acute) exacerbation,13944.5,Standard
Bronchiectasis with (acute) exacerbation,13759.0,Standard
"Bronchiectasis, uncomplicated",20939.0,Standard
Pneumonitis due to inhalation of food and vomit,15549.1429,Standard
"Pulmonary eosinophilia, not elsewhere classified",7882.0,Standard
Idiopathic pulmonary fibrosis,17595.0,Standard
Other pneumothorax,37944.0,Standard
"Acute respiratory failure, unspecified whether with hypoxia or hypercapnia",13792.5,Standard
Acute respiratory failure with hypoxia,14274.0,Standard
Acute respiratory failure with hypercapnia,51310.0,Standard
"Acute and chronic respiratory failure, unspecified whether with hypoxia or hypercapnia",14575.0,Standard
Acute and chronic respiratory failure with hypoxia,18334.0,Standard
Acute and chronic respiratory failure with hypercapnia,21210.3333,Standard
Other esophagitis,25197.0,Standard
Ulcer of esophagus with bleeding,41359.0,Standard
Chronic or unspecified gastric ulcer with hemorrhage,21807.5,Standard
Functional dyspepsia,9558.0,Standard
Acute appendicitis with generalized peritonitis,54088.5,Standard
"Acute appendicitis with perforation and localized peritonitis, with abscess",20836.0,Standard
Unspecified acute appendicitis,20408.0,Standard
"Unilateral inguinal hernia, with obstruction, without gangrene, not specified as recurrent",9800.0,Standard
"Umbilical hernia with obstruction, without gangrene",24089.0,Standard
Umbilical hernia without obstruction or gangrene,28535.0,Standard
"Incisional hernia with obstruction, without gangrene",3857.0,Standard
"Parastomal hernia with obstruction, without gangrene",12962.0,Standard
Parastomal hernia without obstruction or gangrene,4564.0,Standard
"Noninfective gastroenteritis and colitis, unspecified",2514.0,Standard
"Intestinal adhesions [bands], unspecified as to partial versus complete obstruction",19820.0,Standard
"Intestinal adhesions [bands], with partial obstruction",23428.0,Standard
"Unspecified intestinal obstruction, unspecified as to partial versus complete obstruction",14768.2,Standard
"Ileus, unspecified",24376.5,Standard
Diverticulitis of small intestine without perforation or abscess without bleeding,15930.0,Standard
Diverticulitis of large intestine with perforation and abscess without bleeding,23099.5,Standard
Diverticulosis of large intestine without perforation or abscess without bleeding,29244.0,Standard
Diverticulosis of large intestine without perforation or abscess with bleeding,14814.3333,Standard
Diverticulitis of large intestine without perforation or abscess without bleeding,32017.0,Standard
"Diverticulitis of intestine, part unspecified, without perforation or abscess without bleeding",11358.5,Standard
Other constipation,10050.0,Standard
Anal abscess,9460.0,Standard
Alcoholic cirrhosis of liver with ascites,18141.0,Standard
Alcoholic hepatic failure without coma,36124.0,Standard
Calculus of gallbladder with acute cholecystitis without obstruction,26059.6667,Standard
Calculus of bile duct with acute cholecystitis without obstruction,18566.0,Standard
Acute cholecystitis,14277.0,Standard
"Cholecystitis, unspecified",12151.0,Standard
Biliary acute pancreatitis without necrosis or infection,12276.0,Standard
Alcohol induced acute pancreatitis without necrosis or infection,11817.0,Standard
Drug induced acute pancreatitis without necrosis or infection,4330.0,Standard
"Acute pancreatitis without necrosis or infection, unspecified",11201.5,Standard
Melena,9583.0,Standard
"Gastrointestinal hemorrhage, unspecified",13123.3333,Standard
Gastrostomy malfunction,4304.0,Standard
Cutaneous abscess of chest wall,38890.0,Standard
Cellulitis of left upper limb,10664.0,Standard
Cellulitis of right lower limb,28413.25,Standard
Cellulitis of left lower limb,15960.6667,Standard
"Pruritus, unspecified",9401.0,Standard
"Idiopathic gout, right knee",15079.0,Standard
"Other specified crystal arthropathies, multiple sites",7460.0,Standard
Bilateral primary osteoarthritis of hip,9870.0,Standard
"Unilateral primary osteoarthritis, right hip",37064.0,Standard
"Unilateral primary osteoarthritis, left hip",35120.75,Standard
"Unilateral primary osteoarthritis, right knee",29544.8462,Standard
"Unilateral primary osteoarthritis, left knee",33056.4,Standard
Torticollis,12888.0,Standard
"Sacroiliitis, not elsewhere classified",27153.0,Standard
"Collapsed vertebra, not elsewhere classified, thoracic region, initial encounter for fracture",14968.0,Standard
"Intervertebral disc disorders with radiculopathy, lumbar region",16755.0,Standard
"Other intervertebral disc degeneration, lumbar region",23643.0,Standard
"Radiculopathy, thoracic region",16923.0,Standard
"Sciatica, right side",13829.0,Standard
"Trochanteric bursitis, right hip",4559.0,Standard
"Trochanteric bursitis, left hip",10193.0,Standard
"Other bursitis, not elsewhere classified, left hip",8477.0,Standard
Nontraumatic hematoma of soft tissue,9801.0,Standard
"Age-related osteoporosis with current pathological fracture, right femur, initial encounter for fracture",30645.75,Standard
"Age-related osteoporosis with current pathological fracture, right lower leg, initial encounter for fracture",18926.0,Standard
"Other osteoporosis with current pathological fracture, vertebra(e), initial encounter for fracture",29045.0,Standard
"Other osteomyelitis, ankle and foot",15017.0,Standard
Chondrocostal junction syndrome [Tietze],9225.0,Standard
Acute pyelonephritis,7451.0,Standard
"Tubulo-interstitial nephritis, not specified as acute or chronic",23856.5,Standard
"Acute kidney failure, unspecified",13862.0,Standard
Calculus of ureter,27203.0,Standard
Calculus in bladder,8709.0,Standard
Acute cystitis without hematuria,23125.0,Standard
"Urinary tract infection, site not specified",12440.7568,Standard
Fistula of vagina to large intestine,19531.0,Standard
"Bradycardia, unspecified",8692.0,Standard
Palpitations,12975.0,Standard
Shortness of breath,7260.5,Standard
Precordial pain,11254.0,Standard
Right lower quadrant pain,39585.0,Standard
Unspecified abdominal pain,12096.5,Standard
"Nausea with vomiting, unspecified",11894.0,Standard
Drug induced retention of urine,12751.0,Standard
"Retention of urine, unspecified",11260.0,Standard
Visual hallucinations,18636.0,Standard
"Fever, unspecified",17136.0,Standard
Weakness,20115.0,Standard
Other malaise,17817.0,Standard
Syncope and collapse,19933.0,Standard
Unspecified convulsions,20076.0,Standard
Hypovolemic shock,13620.0,Standard
"Enlarged lymph nodes, unspecified",14048.0,Standard
Generalized edema,16581.0,Standard
Systemic inflammatory response syndrome (SIRS) of non-infectious origin without acute organ dysfunction,19231.0,Standard
"Contusion of other part of head, initial encounter",17807.0,Standard
"Fracture of other specified skull and facial bones, left side, initial encounter for closed fracture",15755.0,Standard
"Unspecified displaced fracture of seventh cervical vertebra, initial encounter for closed fracture",9975.0,Standard
"Unspecified fracture of T11-T12 vertebra, initial encounter for closed fracture",30483.0,Standard
"Multiple fractures of ribs, right side, initial encounter for closed fracture",9565.5,Standard
"Multiple fractures of ribs, left side, initial encounter for closed fracture",8922.0,Standard
"Fracture of bony thorax, part unspecified, initial encounter for closed fracture",7051.0,Standard
"Traumatic pneumothorax, initial encounter",28739.5,Standard
"Contusion of lower back and pelvis, initial encounter",19907.0,Standard
"Wedge compression fracture of first lumbar vertebra, initial encounter for closed fracture",10021.0,Standard
"Unspecified fracture of first lumbar vertebra, initial encounter for closed fracture",44941.3333,Standard
"Unspecified fracture of second lumbar vertebra, initial encounter for closed fracture",37272.0,Standard
"Unspecified fracture of fifth lumbar vertebra, initial encounter for closed fracture",31577.0,Standard
"Unspecified fracture of sacrum, initial encounter for closed fracture",17135.5,Standard
"Other specified fracture of right pubis, initial encounter for closed fracture",9981.0,Standard
"Other specified fracture of left pubis, initial encounter for closed fracture",14279.0,Standard
"Fracture of unspecified parts of lumbosacral spine and pelvis, initial encounter for closed fracture",51509.0,Standard
"Unspecified displaced fracture of surgical neck of left humerus, initial encounter for closed fracture",13527.0,Standard
"Anterior dislocation of right humerus, initial encounter",29173.0,Standard
"Unspecified fracture of the lower end of right radius, initial encounter for closed fracture",9221.0,Standard
"Contusion of right hip, initial encounter",7808.0,Standard
"Fracture of unspecified part of neck of right femur, initial encounter for closed fracture",30513.0,Standard
"Fracture of unspecified part of neck of left femur, initial encounter for closed fracture",28081.375,Standard
"Unspecified intracapsular fracture of right femur, initial encounter for closed fracture",26515.75,Standard
"Unspecified intracapsular fracture of left femur, initial encounter for closed fracture",23192.0,Standard
"Displaced midcervical fracture of right femur, initial encounter for closed fracture",38545.0,Standard
"Displaced midcervical fracture of left femur, initial encounter for closed fracture",25781.0,Standard
"Nondisplaced midcervical fracture of right femur, initial encounter for closed fracture",16008.0,Standard
"Nondisplaced midcervical fracture of left femur, initial encounter for closed fracture",29229.0,Standard
"Displaced fracture of greater trochanter of left femur, initial encounter for closed fracture",6289.0,Standard
"Displaced intertrochanteric fracture of right femur, initial encounter for closed fracture",23720.375,Standard
"Displaced intertrochanteric fracture of left femur, initial encounter for closed fracture",28263.0,Standard
"Nondisplaced intertrochanteric fracture of right femur, initial encounter for closed fracture",34616.0,Standard
"Displaced supracondylar fracture without intracondylar extension of lower end of left femur, initial encounter for closed fracture",22991.0,Standard
"Contusion of right knee, initial encounter",5853.0,Standard
"Unspecified fracture of upper end of right tibia, initial encounter for closed fracture",13138.0,Standard
"Displaced bimalleolar fracture of right lower leg, initial encounter for closed fracture",23953.0,Standard
"Poisoning by benzodiazepines, intentional self-harm, initial encounter",4995.0,Standard
"Poisoning by calcium-channel blockers, intentional self-harm, initial encounter",5923.0,Standard
"Heat exhaustion, unspecified, initial encounter",7138.0,Standard
"Traumatic ischemia of muscle, initial encounter",13823.0,Standard
"Traumatic subcutaneous emphysema, initial encounter",22584.0,Standard
"Disruption of external operation (surgical) wound, not elsewhere classified, initial encounter",43603.0,Standard
"Infection following a procedure, superficial incisional surgical site, initial encounter",45972.0,Standard
"Infection and inflammatory reaction due to indwelling urethral catheter, initial encounter",14186.0,Standard
"Infection and inflammatory reaction due to other prosthetic device, implant and graft in urinary system, initial encounter",34134.0,Standard
"Exposure of other implanted mesh into organ or tissue, initial encounter",91630.0,Standard
Encounter for attention to colostomy,35554.0,Standard
Encounter for other orthopedic aftercare,50495.0,Standard
Encounter for surgical aftercare following surgery on the skin and subcutaneous tissue,36675.0,Standard
Encounter for other specified aftercare,16249.0,Standard
Procedure and treatment not carried out for other reasons,269.0,Standard
Malignant neoplasm of rectosigmoid junction,51952.0,Standard
"Leiomyoma of uterus, unspecified",40849.0,Standard
Acute posthemorrhagic anemia,47679.0,Standard
Type 1 diabetes mellitus with ketoacidosis without coma,16091.6667,Standard
Type 1 diabetes mellitus with hyperglycemia,20937.0,Standard
Type 2 diabetes mellitus with hyperosmolarity without nonketotic hyperglycemic-hyperosmolar coma (NKHHC),21160.0,Standard
Type 2 diabetes mellitus with ketoacidosis without coma,10867.0,Standard
Addisonian crisis,7842.0,Standard
Hypo-osmolality and hyponatremia,5480.0,Standard
Hyperkalemia,7969.0,Standard
Vascular dementia without behavioral disturbance,25509.0,Standard
Vascular dementia with behavioral disturbance,36186.0,Standard
"Alcohol abuse with intoxication, unspecified",10805.0,Standard
"Alcohol dependence, uncomplicated",6242.6667,Standard
Alcohol dependence with intoxication delirium,24072.0,Standard
"Alcohol dependence with intoxication, unspecified",14968.3333,Standard
"Alcohol dependence with withdrawal, uncomplicated",11171.0,Standard
Alcohol dependence with withdrawal delirium,57565.0,Standard
Alcohol dependence with alcohol-induced mood disorder,4567.0,Standard
Paranoid schizophrenia,7806.0,Standard
"Schizoaffective disorder, bipolar type",18216.6667,Standard
Unspecified psychosis not due to a substance or known physiological condition,14551.0,Standard
"Bipolar disorder, current episode manic without psychotic features, unspecified",5060.5,Standard
"Bipolar disorder, current episode manic severe with psychotic features",9134.3333,Standard
"Bipolar disorder, current episode depressed, mild or moderate severity, unspecified",10252.0,Standard
"Bipolar disorder, current episode depressed, severe, with psychotic features",8415.9167,Standard
Bipolar II disorder,10053.0,Standard
"Bipolar disorder, unspecified",6713.8,Standard
"Major depressive disorder, single episode, moderate",3374.0,Standard
"Major depressive disorder, single episode, severe with psychotic features",14667.0,Standard
"Major depressive disorder, single episode, unspecified",3838.0,Standard
"Major depressive disorder, recurrent severe without psychotic features",7425.5294,Standard
"Major depressive disorder, recurrent, severe with psychotic symptoms",11098.75,Standard
"Meningitis, unspecified",14042.0,Standard
Hypertensive heart disease with heart failure,19426.5,Standard
Unspecified atrial fibrillation,15389.0,Standard
Influenza due to identified novel influenza A virus with pneumonia,9693.0,Standard
"Pneumonia, unspecified organism",27298.75,Standard
Chronic obstructive pulmonary disease with (acute) exacerbation,16954.5,Standard
Pneumonitis due to inhalation of food and vomit,9666.0,Standard
Acute respiratory failure with hypoxia,16889.0,Standard
Acute and chronic respiratory failure with hypoxia,42785.0,Standard
Acute and chronic respiratory failure with hypercapnia,14750.0,Standard
Chronic or unspecified gastric ulcer with perforation,29510.0,Standard
Other gastritis without bleeding,47352.0,Standard
Acute appendicitis with generalized peritonitis,28626.0,Standard
Unspecified acute appendicitis,16234.0,Standard
"Incisional hernia with obstruction, without gangrene",87724.0,Standard
Diverticulitis of large intestine with perforation and abscess without bleeding,30409.0,Standard
Calculus of gallbladder with acute cholecystitis without obstruction,29600.0,Standard
Biliary acute pancreatitis without necrosis or infection,17584.0,Standard
Alcohol induced acute pancreatitis without necrosis or infection,19732.0,Standard
"Acute pancreatitis without necrosis or infection, unspecified",14091.3333,Standard
Cellulitis of right lower limb,24040.5,Standard
Cellulitis of left lower limb,5954.0,Standard
"Arthritis due to other bacteria, right hand",9095.0,Standard
"Unilateral primary osteoarthritis, right knee",37297.0,Standard
"Acute kidney failure, unspecified",16094.0,Standard
"Urinary tract infection, site not specified",26521.0,Standard
"Gestational [pregnancy-induced] hypertension without significant proteinuria, complicating childbirth",4304.0,Standard
"Mild to moderate pre-eclampsia, complicating childbirth",6416.0,Standard
"Unspecified pre-eclampsia, complicating childbirth",15053.0,Standard
"Gestational diabetes mellitus in pregnancy, unspecified control",8241.0,Standard
"Maternal care for breech presentation, not applicable or unspecified",12740.0,Standard
"Maternal care for high head at term, not applicable or unspecified",9231.0,Standard
"Maternal care for other malpresentation of fetus, not applicable or unspecified",8074.0,Standard
Maternal care for disproportion due to deformity of maternal pelvic bones,6938.0,Standard
Maternal care for low transverse scar from previous cesarean delivery,8674.0,Standard
Maternal care for unspecified type scar from previous cesarean delivery,6790.5,Standard
"Maternal care for excessive fetal growth, third trimester, not applicable or unspecified",17992.0,Standard
"Full-term premature rupture of membranes, onset of labor more than 24 hours following rupture",11688.0,Standard
Post-term pregnancy,5783.0,Standard
"Preterm labor third trimester with preterm delivery third trimester, not applicable or unspecified",3862.0,Standard
Failed medical induction of labor,7971.0,Standard
Precipitate labor,7451.0,Standard
Obstructed labor due to shoulder dystocia,4270.0,Standard
Attempted application of vacuum extractor and forceps,9871.0,Standard
"Labor and delivery complicated by prolapse of cord, not applicable or unspecified",7941.0,Standard
"Labor and delivery complicated by cord around neck, with compression, not applicable or unspecified",4935.0,Standard
"Labor and delivery complicated by cord around neck, without compression, not applicable or unspecified",4330.0,Standard
"Labor and delivery complicated by other cord complications, not applicable or unspecified",8659.0,Standard
First degree perineal laceration during delivery,4073.0,Standard
Second degree perineal laceration during delivery,6133.25,Standard
Obstetric high vaginal laceration alone,7040.0,Standard
Other specified trauma to perineum and vulva,2336.0,Standard
Third-stage hemorrhage,10459.0,Standard
Other immediate postpartum hemorrhage,5611.0,Standard
Abnormality in fetal heart rate and rhythm complicating labor and delivery,11165.0,Standard
Labor and delivery complicated by meconium in amniotic fluid,5290.0,Standard
Encounter for full-term uncomplicated delivery,5106.0,Standard
Anemia complicating childbirth,12801.0,Standard
Anemia complicating the puerperium,3807.0,Standard
"Smoking (tobacco) complicating pregnancy, third trimester",4775.0,Standard
Smoking (tobacco) complicating childbirth,2817.0,Standard
"Other mental disorders complicating pregnancy, third trimester",4964.0,Standard
"Fever, unspecified",16187.75,Standard
Bacteremia,8324.0,Standard
"Fracture of unspecified part of neck of right femur, initial encounter for closed fracture",30670.0,Standard
"Displaced midcervical fracture of left femur, initial encounter for closed fracture",4351.0,Standard
"Poisoning by 4-Aminophenol derivatives, intentional self-harm, initial encounter",9838.5,Standard
"Infection following a procedure, initial encounter",19956.0,Standard
"Single liveborn infant, delivered vaginally",2081.0,Standard
"Single liveborn infant, delivered by cesarean",2449.9167,Standard
"Sepsis, unspecified organism",17429.0,Standard
Alcohol dependence with withdrawal delirium,17808.0,Standard
"Bipolar disorder, unspecified",6629.0,Standard
"Pneumonia, unspecified organism",5123.0,Standard
Calculus of gallbladder with acute cholecystitis without obstruction,10807.0,Standard
"Other osteoporosis with current pathological fracture, vertebra(e), initial encounter for fracture",29523.0,Standard
Maternal care for low transverse scar from previous cesarean delivery,8072.0,Standard
Campylobacter enteritis,14813.0,Standard
"Enterocolitis due to Clostridium difficile, recurrent",8857.0,Standard
"Enterocolitis due to Clostridium difficile, not specified as recurrent",13782.0,Standard
"Bacterial foodborne intoxication, unspecified",11065.0,Standard
Sepsis due to anaerobes,28486.0,Standard
Sepsis due to Escherichia coli [E. coli],37898.5,Standard
Other specified sepsis,14145.0,Standard
"Sepsis, unspecified organism",29642.875,Standard
Malignant neoplasm of appendix,32270.0,Standard
Malignant neoplasm of unspecified site of unspecified female breast,23787.0,Standard
"Leiomyoma of uterus, unspecified",8995.0,Standard
Neoplasm of unspecified behavior of respiratory system,17803.0,Standard
"Iron deficiency anemia, unspecified",21741.0,Standard
Type 2 diabetes mellitus with other skin ulcer,6603.0,Standard
Type 2 diabetes mellitus with other skin complications,10040.0,Standard
Type 2 diabetes mellitus with other specified complication,20567.0,Standard
Other specified diabetes mellitus with ketoacidosis without coma,10635.5,Standard
Hypercalcemia,53882.0,Standard
Postconcussional syndrome,25802.0,Standard
"Alcohol abuse, uncomplicated",3532.5,Standard
"Alcohol dependence, uncomplicated",2410.0,Standard
"Alcohol dependence with intoxication, unspecified",6524.75,Standard
Alcohol dependence with withdrawal delirium,29487.0,Standard
"Alcohol use, unspecified with unspecified alcohol-induced disorder",2749.0,Standard
Unspecified psychosis not due to a substance or known physiological condition,9400.0,Standard
"Bipolar disorder, current episode manic severe with psychotic features",8091.25,Standard
"Bipolar disorder, current episode depressed, mild or moderate severity, unspecified",8168.0,Standard
"Bipolar disorder, current episode depressed, severe, with psychotic features",13868.6667,Standard
"Bipolar disorder, unspecified",7345.3333,Standard
"Major depressive disorder, single episode, unspecified",2659.6667,Standard
"Major depressive disorder, recurrent, moderate",7492.5,Standard
"Major depressive disorder, recurrent severe without psychotic features",9304.2222,Standard
"Major depressive disorder, recurrent, severe with psychotic symptoms",10987.2,Standard
"Major depressive disorder, recurrent, unspecified",5023.0,Standard
Panic disorder [episodic paroxysmal anxiety],6959.6667,Standard
"Obsessive-compulsive disorder, unspecified",8814.0,Standard
"Encephalopathy, unspecified",10306.0,Standard
"Hypertensive heart and chronic kidney disease with heart failure and stage 1 through stage 4 chronic kidney disease, or unspecified chronic kidney disease",9105.0,Standard
Other pulmonary embolism without acute cor pulmonale,15859.3333,Standard
Paroxysmal atrial fibrillation,6575.3333,Standard
Persistent atrial fibrillation,26052.0,Standard
Chronic atrial fibrillation,37832.0,Standard
Unspecified atrial fibrillation,13061.0,Standard
"Heart failure, unspecified",38594.0,Standard
Hypertensive encephalopathy,15883.0,Standard
Influenza due to other identified influenza virus with unspecified type of pneumonia,13535.0,Standard
"Pneumonia, unspecified organism",14893.0,Standard
Chronic obstructive pulmonary disease with (acute) exacerbation,20658.0,Standard
Pneumonitis due to inhalation of food and vomit,52860.0,Standard
Acute and chronic respiratory failure with hypercapnia,35989.0,Standard
"Esophagitis, unspecified",10789.0,Standard
Gastro-esophageal reflux disease without esophagitis,15900.0,Standard
Ulcer of esophagus without bleeding,29199.0,Standard
Barrett's esophagus without dysplasia,9806.0,Standard
Chronic or unspecified duodenal ulcer with hemorrhage,18781.0,Standard
"Gastritis, unspecified, with bleeding",12132.0,Standard
Other diseases of stomach and duodenum,7687.0,Standard
Acute appendicitis with generalized peritonitis,18353.0,Standard
Acute appendicitis with localized peritonitis,24921.0,Standard
Unspecified acute appendicitis,14182.0,Standard
"Unilateral inguinal hernia, with obstruction, without gangrene, not specified as recurrent",8078.0,Standard
Incisional hernia without obstruction or gangrene,14924.0,Standard
Diaphragmatic hernia without obstruction or gangrene,17199.0,Standard
Crohn's disease of small intestine without complications,10939.0,Standard
"Crohn's disease, unspecified, without complications",11323.0,Standard
"Ulcerative colitis, unspecified, without complications",11031.0,Standard
"Noninfective gastroenteritis and colitis, unspecified",15159.5,Standard
"Acute (reversible) ischemia of large intestine, extent unspecified",17272.0,Standard
"Intestinal adhesions [bands], with partial obstruction",44894.0,Standard
"Unspecified intestinal obstruction, unspecified as to partial versus complete obstruction",6172.0,Standard
Diverticulitis of large intestine with perforation and abscess without bleeding,18485.7143,Standard
Diverticulosis of large intestine without perforation or abscess without bleeding,30742.5,Standard
Diverticulitis of large intestine without perforation or abscess without bleeding,18714.0,Standard
Hemorrhage of anus and rectum,22120.0,Standard
Calculus of gallbladder with acute cholecystitis without obstruction,12594.0,Standard
Calculus of gallbladder with acute and chronic cholecystitis without obstruction,12976.0,Standard
Acute cholecystitis,12688.0,Standard
Alcohol induced acute pancreatitis without necrosis or infection,17282.6,Standard
"Acute pancreatitis without necrosis or infection, unspecified",12864.6,Standard
Other chronic pancreatitis,7256.0,Standard
Postprocedural hematoma of a digestive system organ or structure following a digestive system procedure,18570.0,Standard
Other postprocedural complications and disorders of digestive system,19773.0,Standard
"Gastrointestinal hemorrhage, unspecified",9713.0,Standard
Cutaneous abscess of buttock,9767.0,Standard
Cutaneous abscess of right lower limb,11546.0,Standard
Cellulitis of left lower limb,12813.5,Standard
Cellulitis of face,8892.0,Standard
"Urticaria, unspecified",3604.0,Standard
"Unilateral primary osteoarthritis, right hip",36140.0,Standard
"Unilateral primary osteoarthritis, left hip",34201.0,Standard
"Unilateral primary osteoarthritis, right knee",32282.6667,Standard
"Unilateral primary osteoarthritis, left knee",33654.75,Standard
"Olecranon bursitis, left elbow",8304.0,Standard
"Prepatellar bursitis, left knee",8312.0,Standard
"Tubulo-interstitial nephritis, not specified as acute or chronic",19684.0,Standard
"Urinary tract infection, site not specified",13128.0,Standard
"Gestational [pregnancy-induced] hypertension without significant proteinuria, third trimester",6524.0,Standard
"Severe pre-eclampsia, third trimester",7618.5,Standard
"Unspecified pre-eclampsia, complicating childbirth",11637.0,Standard
"Unspecified maternal hypertension, complicating childbirth",4592.0,Standard
"Gestational diabetes mellitus in childbirth, diet controlled",4536.6667,Standard
"Other specified pregnancy related conditions, third trimester",4975.0,Standard
"Maternal care for breech presentation, not applicable or unspecified",7176.3333,Standard
"Maternal care for transverse and oblique lie, not applicable or unspecified",11739.0,Standard
"Maternal care for high head at term, not applicable or unspecified",10991.0,Standard
"Maternal care for compound presentation, not applicable or unspecified",4397.0,Standard
"Maternal care for other malpresentation of fetus, not applicable or unspecified",7962.0,Standard
"Maternal care for malpresentation of fetus, unspecified, not applicable or unspecified",10318.0,Standard
"Maternal care for disproportion, unspecified",8282.0,Standard
Maternal care for low transverse scar from previous cesarean delivery,7524.6316,Standard
Maternal care for unspecified type scar from previous cesarean delivery,7786.3333,Standard
"Maternal care for intrauterine death, not applicable or unspecified",4334.0,Standard
"Maternal care for other known or suspected poor fetal growth, third trimester, not applicable or unspecified",3183.0,Standard
"Oligohydramnios, third trimester, not applicable or unspecified",9110.0,Standard
"Full-term premature rupture of membranes, onset of labor within 24 hours of rupture",10462.5,Standard
"Full-term premature rupture of membranes, unspecified as to length of time between rupture and onset of labor",8148.0,Standard
Post-term pregnancy,7154.4286,Standard
"Preterm labor third trimester with preterm delivery third trimester, not applicable or unspecified",2887.0,Standard
Failed medical induction of labor,10473.0,Standard
Secondary uterine inertia,10044.0,Standard
"Long labor, unspecified",10203.0,Standard
"Obstructed labor due to incomplete rotation of fetal head, not applicable or unspecified",6754.5,Standard
"Obstructed labor due to fetopelvic disproportion, unspecified",8008.0,Standard
"Labor and delivery complicated by other cord entanglement, with compression, not applicable or unspecified",3951.0,Standard
"Labor and delivery complicated by cord around neck, without compression, not applicable or unspecified",3547.0,Standard
"Labor and delivery complicated by other cord entanglement, without compression, not applicable or unspecified",4323.0,Standard
First degree perineal laceration during delivery,5440.0,Standard
Second degree perineal laceration during delivery,5681.0,Standard
"Third degree perineal laceration during delivery, unspecified",4513.0,Standard
Other specified trauma to perineum and vulva,3947.5,Standard
"Onset (spontaneous) of labor after 37 completed weeks of gestation but before 39 completed weeks gestation, with delivery by (planned) cesarean section",11328.0,Standard
Abnormality in fetal heart rate and rhythm complicating labor and delivery,5334.3333,Standard
Labor and delivery complicated by meconium in amniotic fluid,4853.5,Standard
Encounter for full-term uncomplicated delivery,4659.2,Standard
Infection of obstetric surgical wound,8474.0,Standard
Anemia complicating childbirth,5442.0,Standard
Anemia complicating the puerperium,5573.0,Standard
"Other diseases of the blood and blood-forming organs and certain disorders involving the immune mechanism complicating pregnancy, third trimester",4178.0,Standard
"Endocrine, nutritional and metabolic diseases complicating pregnancy, third trimester",3871.0,Standard
Smoking (tobacco) complicating childbirth,5277.0,Standard
Other mental disorders complicating childbirth,5308.5,Standard
Streptococcus B carrier state complicating childbirth,3879.0,Standard
Right lower quadrant pain,36142.0,Standard
"Nausea with vomiting, unspecified",9295.0,Standard
"Other intra-abdominal and pelvic swelling, mass and lump",13093.0,Standard
Other malaise,14556.0,Standard
"Traumatic pneumothorax, initial encounter",21564.0,Standard
"Puncture wound without foreign body of right great toe without damage to nail, initial encounter",20497.0,Standard
"Infection following a procedure, initial encounter",8523.0,Standard
"Single liveborn infant, delivered vaginally",1922.3548,Standard
"Single liveborn infant, delivered by cesarean",2609.0,Standard
"Single liveborn infant, born outside hospital",1895.5,Standard
Encounter for care and examination of mother immediately after delivery,2034.0,Standard
Encounter for palliative care,1767.0,Standard
Sepsis due to Escherichia coli [E. coli],8833.0,Standard
"Sepsis, unspecified organism",14758.0,Standard
Hepatitis A without hepatic coma,16214.0,Standard
Malignant neoplasm of cecum,33183.0,Standard
Secondary malignant neoplasm of liver and intrahepatic bile duct,22122.0,Standard
"Malignant (primary) neoplasm, unspecified",3709.0,Standard
Type 1 diabetes mellitus with ketoacidosis without coma,8666.0,Standard
Type 2 diabetes mellitus with other specified complication,6482.0,Standard
Dehydration,6194.0,Standard
"Alcohol dependence, uncomplicated",3732.0,Standard
Alcohol dependence with intoxication delirium,12382.0,Standard
"Alcohol use, unspecified with unspecified alcohol-induced disorder",13897.0,Standard
"Cocaine abuse, uncomplicated",4170.0,Standard
Unspecified psychosis not due to a substance or known physiological condition,13035.0,Standard
"Bipolar disorder, current episode depressed, mild or moderate severity, unspecified",6427.0,Standard
"Bipolar disorder, current episode depressed, severe, with psychotic features",6529.0,Standard
"Bipolar disorder, unspecified",7354.4,Standard
"Major depressive disorder, single episode, unspecified",3555.3333,Standard
"Major depressive disorder, recurrent, moderate",22047.0,Standard
"Major depressive disorder, recurrent severe without psychotic features",6477.7143,Standard
Panic disorder [episodic paroxysmal anxiety],1743.0,Standard
"Post-traumatic stress disorder, unspecified",5145.0,Standard
Hypertensive heart disease with heart failure,19718.0,Standard
Non-ST elevation (NSTEMI) myocardial infarction,44023.0,Standard
"Pneumonia, unspecified organism",12146.0,Standard
Pneumonitis due to inhalation of food and vomit,8887.0,Standard
"Noninfective gastroenteritis and colitis, unspecified",8080.0,Standard
Diverticulitis of large intestine with perforation and abscess without bleeding,7102.0,Standard
Hematemesis,14317.0,Standard
Cellulitis of left lower limb,3166.0,Standard
"Other infective (teno)synovitis, right hand",29147.0,Standard
"Acute kidney failure, unspecified",4350.0,Standard
Other specified abnormal uterine and vaginal bleeding,6184.0,Standard
"Maternal care for transverse and oblique lie, not applicable or unspecified",6093.0,Standard
"Maternal care for compound presentation, not applicable or unspecified",2868.5,Standard
"Maternal care for other malpresentation of fetus, not applicable or unspecified",2774.0,Standard
"Maternal care for disproportion, unspecified",7049.0,Standard
Maternal care for low transverse scar from previous cesarean delivery,5694.0,Standard
Maternal care for unspecified type scar from previous cesarean delivery,6852.0,Standard
"Maternal care for other known or suspected poor fetal growth, third trimester, not applicable or unspecified",1593.0,Standard
"Preterm premature rupture of membranes, unspecified as to length of time between rupture and onset of labor, third trimester",1632.0,Standard
"Premature separation of placenta, unspecified, third trimester",7544.0,Standard
Post-term pregnancy,5147.0,Standard
"Preterm labor second trimester with preterm delivery second trimester, not applicable or unspecified",2414.0,Standard
"Preterm labor third trimester with preterm delivery third trimester, not applicable or unspecified",2878.0,Standard
Precipitate labor,2283.2857,Standard
"Obstructed labor due to incomplete rotation of fetal head, not applicable or unspecified",5491.0,Standard
"Labor and delivery complicated by cord around neck, with compression, not applicable or unspecified",2502.0,Standard
"Labor and delivery complicated by other cord entanglement, with compression, not applicable or unspecified",3257.0,Standard
"Labor and delivery complicated by cord around neck, without compression, not applicable or unspecified",2612.3333,Standard
"Labor and delivery complicated by other cord entanglement, without compression, not applicable or unspecified",3206.0,Standard
First degree perineal laceration during delivery,3356.0,Standard
Second degree perineal laceration during delivery,3419.5,Standard
Obstetric high vaginal laceration alone,4799.5,Standard
Other immediate postpartum hemorrhage,5809.0,Standard
Delayed and secondary postpartum hemorrhage,4043.0,Standard
"Onset (spontaneous) of labor after 37 completed weeks of gestation but before 39 completed weeks gestation, with delivery by (planned) cesarean section",6527.0,Standard
Abnormality in fetal heart rate and rhythm complicating labor and delivery,3063.0,Standard
Labor and delivery complicated by meconium in amniotic fluid,3508.0,Standard
Encounter for full-term uncomplicated delivery,3858.75,Standard
Endometritis following delivery,17016.0,Standard
Other embolism in the puerperium,19600.0,Standard
Other maternal infectious and parasitic diseases complicating childbirth,1425.5,Standard
"Endocrine, nutritional and metabolic diseases complicating childbirth",3147.0,Standard
Streptococcus B carrier state complicating childbirth,2743.0,Standard
Fetal alcohol syndrome (dysmorphic),7308.0,Standard
"Fracture of unspecified part of neck of left femur, initial encounter for closed fracture",30060.0,Standard
"Displaced intertrochanteric fracture of left femur, initial encounter for closed fracture",37664.0,Standard
"Poisoning by amphetamines, intentional self-harm, initial encounter",4508.0,Standard
"Poisoning by unspecified drugs acting on muscles, intentional self-harm, initial encounter",9205.0,Standard
"Single liveborn infant, delivered vaginally",1595.1628,Standard
"Single liveborn infant, delivered by cesarean",2384.359,Standard
"Single liveborn infant, born outside hospital",610.0,Standard
Encounter for care and examination of mother immediately after delivery,1148.0,Standard
"Fracture of unspecified part of neck of left femur, initial encounter for closed fracture",34944.0,Standard
"Crushing injury of left ankle, initial encounter",34781.0,Standard
Degenerative nervous system disorders w MCC,85944.0,DRG
Degenerative nervous system disorders w/o MCC,22763.3333,DRG
Intracranial hemorrhage or cerebral infarction w MCC,36180.0,DRG
Intracranial hemorrhage or cerebral infarction w CC,17901.1538,DRG
Intracranial hemorrhage or cerebral infarction w/o CC/MCC,13788.3333,DRG
Nonspecific cva & precerebral occlusion w/o infarct w MCC,58422.0,DRG
Transient ischemia,15547.0,DRG
Nonspecific cerebrovascular disorders w MCC,54255.0,DRG
Nonspecific cerebrovascular disorders w CC,4993.0,DRG
Nonspecific cerebrovascular disorders w/o CC/MCC,6164.0,DRG
Cranial & peripheral nerve disorders w/o MCC,18012.0,DRG
Hypertensive encephalopathy w CC,13878.0,DRG
Non-bacterial infect of nervous sys exc viral meningitis w MCC,39402.0,DRG
Seizures w MCC,10618.5,DRG
Seizures w/o MCC,13363.8571,DRG
Other disorders of the eye w MCC,18636.0,DRG
Otitis media & URI w MCC,19008.0,DRG
Otitis media & URI w/o MCC,9127.0,DRG
Pulmonary embolism w MCC,26961.5,DRG
Pulmonary embolism w/o MCC,11615.75,DRG
Respiratory infections & inflammations w MCC,22274.0,DRG
Respiratory infections & inflammations w CC,18132.3333,DRG
Respiratory infections & inflammations w/o CC/MCC,13332.5,DRG
Respiratory neoplasms w MCC,7274.0,DRG
Respiratory neoplasms w CC,15969.0,DRG
Major chest trauma w CC,9216.75,DRG
Major chest trauma w/o CC/MCC,9030.0,DRG
Pulmonary edema & respiratory failure,20547.25,DRG
Chronic obstructive pulmonary disease w MCC,23175.7826,DRG
Chronic obstructive pulmonary disease w CC,13932.0,DRG
Chronic obstructive pulmonary disease w/o CC/MCC,16314.3333,DRG
Simple pneumonia & pleurisy w MCC,25790.3,DRG
Simple pneumonia & pleurisy w CC,20368.6667,DRG
Simple pneumonia & pleurisy w/o CC/MCC,10071.9333,DRG
Interstitial lung disease w MCC,17595.0,DRG
Interstitial lung disease w/o CC/MCC,7882.0,DRG
Pneumothorax w MCC,37380.5,DRG
Pneumothorax w CC,21623.0,DRG
Bronchitis & asthma w CC/MCC,14781.6,DRG
Respiratory signs & symptoms,7260.5,DRG
Other respiratory system diagnoses w/o MCC,20646.5,DRG
Respiratory system diagnosis w ventilator support <96 hours,11617.0,DRG
Other circulatory system O.R. procedures,13063.0,DRG
"Acute myocardial infarction, discharged alive w MCC",29326.0,DRG
"Acute myocardial infarction, discharged alive w CC",21083.0,DRG
"Acute myocardia infarction, discharged alive w/o CC/MCC",2699.0,DRG
Heart failure & shock w MCC,24571.4516,DRG
Heart failure & shock w CC,16722.25,DRG
Heart failure & shock w/o CC/MCC,14737.0909,DRG
Hypertension w MCC,25389.3333,DRG
Hypertension w/o MCC,10289.2,DRG
Cardiac arrhythmia & conduction disorders w MCC,26140.1429,DRG
Cardiac arrhythmia & conduction disorders w CC,16579.4,DRG
Cardiac arrhythmia & conduction disorders w/o CC/MCC,11291.2727,DRG
Syncope & collapse,19050.0,DRG
Chest pain,11254.0,DRG
Other circulatory system diagnoses w MCC,16452.0,DRG
Other circulatory system diagnoses w/o CC/MCC,16923.0,DRG
Major small & large bowel procedures w MCC,55575.0,DRG
Major small & large bowel procedures w CC,34672.0,DRG
Major small & large bowel procedures w/o CC/MCC,21814.0,DRG
Peritoneal adhesiolysis w CC,33556.0,DRG
Appendectomy w complicated principal diag w MCC,20836.0,DRG
Appendectomy w complicated principal diag w CC,74665.0,DRG
Appendectomy w complicated principal diag w/o CC/MCC,33512.0,DRG
Appendectomy w/o complicated principal diag w CC,24685.0,DRG
Appendectomy w/o complicated principal diag w/o CC/MCC,24471.5,DRG
Hernia procedures except inguinal & femoral w CC,12962.0,DRG
Other digestive system O.R. procedures w CC,4304.0,DRG
Major gastrointestinal disorders & peritoneal infections w CC,10222.25,DRG
Major gastrointestinal disorders & peritoneal infections w/o CC/MCC,14547.0,DRG
Digestive malignancy w CC,21147.0,DRG
G.I. hemorrhage w MCC,25432.0,DRG
G.I. hemorrhage w CC,14146.2857,DRG
G.I. hemorrhage w/o CC/MCC,8831.0,DRG
Complicated peptic ulcer w MCC,41359.0,DRG
G.I. obstruction w MCC,15060.5,DRG
G.I. obstruction w CC,12435.0,DRG
G.I. obstruction w/o CC/MCC,14005.0,DRG
"Esophagitis, gastroent & misc digest disorders w MCC",16148.5,DRG
"Esophagitis, gastroent & misc digest disorders w/o MCC",12092.2143,DRG
Other digestive system diagnoses w MCC,9800.0,DRG
Other digestive system diagnoses w CC,5960.3333,DRG
Laparoscopic cholecystectomy w/o c.d.e. w CC,19649.0,DRG
Laparoscopic cholecystectomy w/o c.d.e. w/o CC/MCC,19235.0,DRG
Cirrhosis & alcoholic hepatitis w CC,27132.5,DRG
Malignancy of hepatobiliary system or pancreas w/o CC/MCC,30965.0,DRG
Disorders of pancreas except malignancy w MCC,19574.0,DRG
Disorders of pancreas except malignancy w CC,7222.2,DRG
Disorders of pancreas except malignancy w/o CC/MCC,9924.25,DRG
"Disorders of liver except malig,cirr,alc hepa w CC",4073.0,DRG
Disorders of the biliary tract w CC,22001.0,DRG
Disorders of the biliary tract w/o CC/MCC,12151.0,DRG
Major joint replacement or reattachment of lower extremity w/o MCC,33120.0606,DRG
Hip & femur procedures except major joint w MCC,33704.6667,DRG
Hip & femur procedures except major joint w CC,24507.0,DRG
Hip & femur procedures except major joint w/o CC/MCC,25675.1111,DRG
Foot procedures w/o CC/MCC,15017.0,DRG
Other musculoskelet sys & conn tiss O.R. proc w MCC,26212.0,DRG
Other musculoskelet sys & conn tiss O.R. proc w CC,39180.1429,DRG
Fractures of hip & pelvis w MCC,23977.75,DRG
Fractures of hip & pelvis w/o MCC,13580.5,DRG
Pathological fractures & musculoskelet & conn tiss malig w MCC,18926.0,DRG
Pathological fractures & musculoskelet & conn tiss malig w/o CC/MCC,14968.0,DRG
Medical back problems w MCC,23164.0,DRG
Medical back problems w/o MCC,15810.4444,DRG
Bone diseases & arthropathies w MCC,15079.0,DRG
Bone diseases & arthropathies w/o MCC,9058.6667,DRG
Signs & symptoms of musculoskeletal system & conn tissue w/o MCC,9801.0,DRG
"Tendonitis, myositis & bursitis w MCC",8477.0,DRG
"Tendonitis, myositis & bursitis w/o MCC",7376.0,DRG
"Aftercare, musculoskeletal system & connective tissue w CC",50495.0,DRG
"Fx, sprn, strn & disl except femur, hip, pelvis & thigh w MCC",23953.0,DRG
"Fx, sprn, strn & disl except femur, hip, pelvis & thigh w/o MCC",16264.75,DRG
Other musculoskeletal sys & connective tissue diagnoses w CC,12209.6667,DRG
"Other skin, subcut tiss & breast proc w CC",38890.0,DRG
Major skin disorders w/o MCC,13494.0,DRG
Cellulitis w MCC,34021.0,DRG
Cellulitis w/o MCC,14752.25,DRG
"Trauma to the skin, subcut tiss & breast w MCC",17807.0,DRG
"Trauma to the skin, subcut tiss & breast w/o MCC",10344.0,DRG
Minor skin disorders w/o MCC,9401.0,DRG
"Amputat of lower limb for endocrine,nutrit,& metabol dis w CC",24164.0,DRG
"Skin grafts & wound debrid for endoc, nutrit & metab dis w CC",9372.0,DRG
Diabetes w MCC,14344.6667,DRG
Diabetes w CC,8095.25,DRG
Diabetes w/o CC/MCC,9382.5,DRG
Nutritional & misc metabolic disorders w MCC,12618.0,DRG
Nutritional & misc metabolic disorders w/o MCC,9079.0625,DRG
Other kidney & urinary tract procedures w MCC,91630.0,DRG
Renal failure w MCC,11142.5,DRG
Renal failure w CC,14160.5,DRG
Renal failure w/o CC/MCC,20119.0,DRG
Kidney & urinary tract infections w MCC,13910.4,DRG
Kidney & urinary tract infections w/o MCC,11475.1,DRG
Urinary stones w/o esw lithotripsy w/o MCC,17956.0,DRG
Kidney & urinary tract signs & symptoms w/o MCC,12005.5,DRG
Other kidney & urinary tract diagnoses w MCC,34134.0,DRG
Other kidney & urinary tract diagnoses w CC,14186.0,DRG
Major hematol/immun diag exc sickle cell crisis & coagul w MCC,4567.0,DRG
Red blood cell disorders w MCC,25309.6667,DRG
Red blood cell disorders w/o MCC,24560.125,DRG
Reticuloendothelial & immunity disorders w CC,14724.0,DRG
Infectious & parasitic diseases w O.R. procedure w MCC,59490.5,DRG
Infectious & parasitic diseases w O.R. procedure w CC,12356.0,DRG
Infectious & parasitic diseases w O.R. procedure w/o CC/MCC,16681.0,DRG
Postoperative or post-traumatic infections w O.R. proc w CC,45972.0,DRG
Fever of unknown origin,17136.0,DRG
Viral illness w/o MCC,16811.5,DRG
Septicemia w/o MV 96+ hours w MCC,27111.0606,DRG
Septicemia w/o MV 96+ hours w/o MCC,15839.3333,DRG
Depressive neuroses,10229.0,DRG
Organic disturbances & mental retardation,24909.0,DRG
Psychoses,12655.3111,DRG
Alcohol/drug abuse or dependence w/o rehabilitation therapy w MCC,14702.0,DRG
Alcohol/drug abuse or dependence w/o rehabilitation therapy w/o CC/MCC,9435.6667,DRG
Other O.R. procedures for injuries w MCC,43603.0,DRG
Poisoning & toxic effects of drugs w/o MCC,5459.0,DRG
"Other injury, poisoning & toxic effect diag w/o MCC",7138.0,DRG
Signs & symptoms w MCC,14729.5,DRG
Signs & symptoms w/o MCC,21435.5,DRG
Aftercare w CC/MCC,26462.0,DRG
Other factors influencing health status,269.0,DRG
"Limb reattachment, hip & femur proc for multiple significant tra",51109.5,DRG
Extensive O.R. procedure unrelated to principal diagnosis w MCC,36027.0,DRG
Extensive O.R. procedure unrelated to principal diagnosis w CC,41555.5,DRG
Non-extensive O.R. proc unrelated to principal diagnosis w/o CC/MCC,9558.0,DRG
Ungroupable,16554.625,DRG
Non-bacterial infect of nervous sys exc viral meningitis w MCC,14042.0,DRG
Respiratory infections & inflammations w MCC,9666.0,DRG
Pulmonary edema & respiratory failure,24808.0,DRG
Chronic obstructive pulmonary disease w MCC,19801.25,DRG
Chronic obstructive pulmonary disease w CC,11261.0,DRG
Simple pneumonia & pleurisy w MCC,31341.3333,DRG
Simple pneumonia & pleurisy w CC,12432.0,DRG
Heart failure & shock w MCC,24020.0,DRG
Heart failure & shock w CC,14833.0,DRG
Cardiac arrhythmia & conduction disorders w MCC,15389.0,DRG
Major small & large bowel procedures w MCC,29510.0,DRG
Major small & large bowel procedures w/o CC/MCC,38847.0,DRG
Rectal resection w CC,51952.0,DRG
Peritoneal adhesiolysis w/o CC/MCC,16234.0,DRG
Appendectomy w complicated principal diag w CC,28626.0,DRG
Hernia procedures except inguinal & femoral w MCC,87724.0,DRG
"Esophagitis, gastroent & misc digest disorders w/o MCC",34661.5,DRG
Laparoscopic cholecystectomy w/o c.d.e. w CC,23592.0,DRG
Disorders of pancreas except malignancy w CC,14091.3333,DRG
Disorders of pancreas except malignancy w/o CC/MCC,19732.0,DRG
Major joint replacement or reattachment of lower extremity w/o MCC,33983.5,DRG
"Hand or wrist proc, except major thumb or joint proc w CC/MCC",9095.0,DRG
Fractures of hip & pelvis w/o MCC,4351.0,DRG
Cellulitis w/o MCC,18011.6667,DRG
Diabetes w CC,17960.0,DRG
Diabetes w/o CC/MCC,16329.75,DRG
Nutritional & misc metabolic disorders w/o MCC,6724.5,DRG
Endocrine disorders w CC,7842.0,DRG
Renal failure w/o CC/MCC,16094.0,DRG
Kidney & urinary tract infections w/o MCC,26521.0,DRG
Uterine & adnexa proc for non-malignancy w CC/MCC,40849.0,DRG
Cesarean section w CC/MCC,7466.3333,DRG
Cesarean section w/o CC/MCC,8508.5,DRG
Vaginal delivery w sterilization &/or D&C,9266.5,DRG
Vaginal delivery w complicating diagnoses,5226.5,DRG
Vaginal delivery w/o complicating diagnoses,5117.0526,DRG
Cesarean Section with Sterilization w/o MCC/CC,10861.0,DRG
Cesarean Section without Sterilization w MCC,15669.0,DRG
Cesarean Section without Sterilization w CC,13191.0,DRG
Cesarean Section without Sterilization w/o MCC/CC,13062.5,DRG
"Neonates, died or transferred to another acute care facility",1297.5,DRG
Neonate w other significant problems,2638.3333,DRG
Normal newborn,2268.913,DRG
VAGINAL DELIVERY WITHOUT STERILIZATION/D&C WITH CC,8241.0,DRG
VAGINAL DELIVERY WITHOUT STERILIZATION/D&C WITHOUT CC/MCC,4619.6,DRG
Red blood cell disorders w/o MCC,47679.0,DRG
Postoperative or post-traumatic infections w O.R. proc w CC,19956.0,DRG
Fever of unknown origin,16187.75,DRG
Septicemia w/o MV 96+ hours w/o MCC,8324.0,DRG
Depressive neuroses,3838.0,DRG
Organic disturbances & mental retardation,29068.0,DRG
Psychoses,9143.8462,DRG
"Alcohol/drug abuse or dependence, left ama",22398.0,DRG
Alcohol/drug abuse or dependence w/o rehabilitation therapy w MCC,57565.0,DRG
Alcohol/drug abuse or dependence w/o rehabilitation therapy w/o CC/MCC,10205.5556,DRG
Poisoning & toxic effects of drugs w/o MCC,9838.5,DRG
Simple pneumonia & pleurisy w/o CC/MCC,5123.0,DRG
Laparoscopic cholecystectomy w/o c.d.e. w MCC,10807.0,DRG
Other musculoskelet sys & conn tiss O.R. proc w/o CC/MCC,29523.0,DRG
Cesarean section w CC/MCC,8072.0,DRG
Septicemia w/o MV 96+ hours w/o MCC,17429.0,DRG
Psychoses,6629.0,DRG
Alcohol/drug abuse or dependence w/o rehabilitation therapy w MCC,17808.0,DRG
Nonspecific cerebrovascular disorders w CC,10306.0,DRG
Hypertensive encephalopathy w CC,15883.0,DRG
Headaches w/o MCC,25802.0,DRG
Pulmonary embolism w/o MCC,15859.3333,DRG
Respiratory infections & inflammations w MCC,52860.0,DRG
Respiratory neoplasms w CC,17803.0,DRG
Pulmonary edema & respiratory failure,35989.0,DRG
Chronic obstructive pulmonary disease w MCC,22484.3333,DRG
Chronic obstructive pulmonary disease w CC,26307.0,DRG
Chronic obstructive pulmonary disease w/o CC/MCC,9530.0,DRG
Simple pneumonia & pleurisy w MCC,15442.75,DRG
Simple pneumonia & pleurisy w CC,13978.0,DRG
Simple pneumonia & pleurisy w/o CC/MCC,15402.0,DRG
Pneumothorax w CC,21564.0,DRG
Other circulatory system O.R. procedures,38594.0,DRG
Heart failure & shock w MCC,9105.0,DRG
Cardiac arrhythmia & conduction disorders w MCC,31942.0,DRG
Cardiac arrhythmia & conduction disorders w CC,11112.0,DRG
Cardiac arrhythmia & conduction disorders w/o CC/MCC,10473.3333,DRG
"Stomach, esophageal & duodenal proc w CC",20604.0,DRG
"Stomach, esophageal & duodenal proc w/o CC/MCC",13525.25,DRG
Major small & large bowel procedures w CC,35478.8333,DRG
Major small & large bowel procedures w/o CC/MCC,13093.0,DRG
Peritoneal adhesiolysis w CC,14924.0,DRG
Peritoneal adhesiolysis w/o CC/MCC,19100.0,DRG
Appendectomy w complicated principal diag w CC,22027.0,DRG
Appendectomy w complicated principal diag w/o CC/MCC,17573.0,DRG
Appendectomy w/o complicated principal diag w CC,36142.0,DRG
Appendectomy w/o complicated principal diag w/o CC/MCC,14182.0,DRG
Anal & stomal procedures w CC,7501.0,DRG
Anal & stomal procedures w/o CC/MCC,43102.0,DRG
Inguinal & femoral hernia procedures w/o CC/MCC,8078.0,DRG
Major gastrointestinal disorders & peritoneal infections w CC,8857.0,DRG
Major gastrointestinal disorders & peritoneal infections w/o CC/MCC,14125.6667,DRG
G.I. hemorrhage w MCC,22120.0,DRG
G.I. hemorrhage w CC,10922.5,DRG
G.I. hemorrhage w/o CC/MCC,18781.0,DRG
Complicated peptic ulcer w CC,29199.0,DRG
Inflammatory bowel disease w CC,12151.0,DRG
Inflammatory bowel disease w/o CC/MCC,10851.0,DRG
G.I. obstruction w CC,6172.0,DRG
"Esophagitis, gastroent & misc digest disorders w/o MCC",11949.8571,DRG
Other digestive system diagnoses w/o CC/MCC,18859.0,DRG
Laparoscopic cholecystectomy w/o c.d.e. w CC,12832.0,DRG
Laparoscopic cholecystectomy w/o c.d.e. w/o CC/MCC,18328.5,DRG
Disorders of pancreas except malignancy w MCC,20424.5,DRG
Disorders of pancreas except malignancy w CC,11884.6,DRG
Disorders of pancreas except malignancy w/o CC/MCC,11219.0,DRG
Major joint replacement or reattachment of lower extremity w/o MCC,33221.3333,DRG
Soft tissue procedures w CC,8308.0,DRG
Skin Debridement W CC,11546.0,DRG
Skin Debridement W/O MCC/CC,20497.0,DRG
"Other skin, subcut tiss & breast proc w/o CC/MCC",11461.0,DRG
Malignant breast disorders w CC,23787.0,DRG
Cellulitis w/o MCC,10648.0,DRG
Minor skin disorders w/o MCC,3604.0,DRG
"Skin grafts & wound debrid for endoc, nutrit & metab dis w/o CC/MCC",10040.0,DRG
Diabetes w CC,12502.3333,DRG
Diabetes w/o CC/MCC,10934.0,DRG
Nutritional & misc metabolic disorders w MCC,53882.0,DRG
Kidney & urinary tract infections w/o MCC,16406.0,DRG
Uterine & adnexa proc for non-malignancy w/o CC/MCC,8995.0,DRG
Cesarean section w CC/MCC,7994.0909,DRG
Cesarean section w/o CC/MCC,8566.64,DRG
Vaginal delivery w sterilization &/or D&C,6480.0,DRG
Postpartum & post abortion diagnoses w O.R. procedure,2034.0,DRG
Vaginal delivery w complicating diagnoses,5315.8571,DRG
Vaginal delivery w/o complicating diagnoses,4618.0541,DRG
Postpartum & post abortion diagnoses w/o O.R. procedure,8474.0,DRG
Cesarean Section with Sterilization w/o MCC/CC,10168.0,DRG
Cesarean Section without Sterilization w MCC,9063.0,DRG
Cesarean Section without Sterilization w/o MCC/CC,9421.8571,DRG
Prematurity w/o major problems,2242.0,DRG
Full term neonate w major problems,1545.0,DRG
Neonate w other significant problems,2899.0,DRG
Normal newborn,2088.8837,DRG
VAGINAL DELIVERY WITHOUT STERILIZATION/D&C WITH CC,5521.5,DRG
VAGINAL DELIVERY WITHOUT STERILIZATION/D&C WITHOUT CC/MCC,4708.8182,DRG
Red blood cell disorders w/o MCC,21741.0,DRG
Infectious & parasitic diseases w O.R. procedure w MCC,30260.0,DRG
Postoperative & post-traumatic infections w MCC,8523.0,DRG
Septicemia w/o MV 96+ hours w MCC,36751.75,DRG
Septicemia w/o MV 96+ hours w/o MCC,24674.0,DRG
Acute adjustment reaction & psychosocial dysfunction,6959.6667,DRG
Depressive neuroses,2659.6667,DRG
Neuroses except depressive,8814.0,DRG
Psychoses,9369.1026,DRG
"Alcohol/drug abuse or dependence, left ama",2410.0,DRG
Alcohol/drug abuse or dependence w/o rehabilitation therapy w MCC,29487.0,DRG
Alcohol/drug abuse or dependence w/o rehabilitation therapy w/o CC/MCC,4775.3333,DRG
Complications of treatment w/o CC/MCC,18570.0,DRG
Signs & symptoms w MCC,14556.0,DRG
Other factors influencing health status,1767.0,DRG
Ungroupable,16475.0,DRG
Respiratory infections & inflammations w CC,8887.0,DRG
Simple pneumonia & pleurisy w CC,12146.0,DRG
"Acute myocardial infarction, expired w MCC",44023.0,DRG
Heart failure & shock w MCC,19718.0,DRG
Major small & large bowel procedures w/o CC/MCC,33183.0,DRG
G.I. hemorrhage w CC,14317.0,DRG
"Esophagitis, gastroent & misc digest disorders w/o MCC",7428.0,DRG
Malignancy of hepatobiliary system or pancreas w CC,22122.0,DRG
"Disorders of liver except malig,cirr,alc hepa w MCC",21578.0,DRG
"Disorders of liver except malig,cirr,alc hepa w CC",10850.0,DRG
Major joint replacement or reattachment of lower extremity w/o MCC,30060.0,DRG
Hip & femur procedures except major joint w CC,37664.0,DRG
"Hand or wrist proc, except major thumb or joint proc w CC/MCC",29147.0,DRG
Cellulitis w/o MCC,3166.0,DRG
Diabetes w CC,6482.0,DRG
Diabetes w/o CC/MCC,8666.0,DRG
Nutritional & misc metabolic disorders w/o MCC,6194.0,DRG
Renal failure w CC,4350.0,DRG
Menstrual & other female reproductive system disorders w/o CC/MCC,6184.0,DRG
Cesarean section w CC/MCC,6527.0,DRG
Cesarean section w/o CC/MCC,6521.75,DRG
Vaginal delivery w O.R. proc except steril &/or D&C,5491.0,DRG
Postpartum & post abortion diagnoses w O.R. procedure,17016.0,DRG
Vaginal delivery w complicating diagnoses,3408.4286,DRG
Vaginal delivery w/o complicating diagnoses,3223.931,DRG
Postpartum & post abortion diagnoses w/o O.R. procedure,10374.0,DRG
Cesarean Section with Sterilization w/o MCC/CC,6688.0,DRG
Cesarean Section without Sterilization w/o MCC/CC,6081.0,DRG
"Neonates, died or transferred to another acute care facility",672.5,DRG
Prematurity w/o major problems,1727.0,DRG
Neonate w other significant problems,2936.0,DRG
Normal newborn,1845.8304,DRG
VAGINAL DELIVERY WITHOUT STERILIZATION/D&C WITH CC,2486.0,DRG
VAGINAL DELIVERY WITHOUT STERILIZATION/D&C WITHOUT CC/MCC,2946.9167,DRG
Other myeloprolif dis or poorly diff neopl diag w/o CC/MCC,3709.0,DRG
Septicemia w/o MV 96+ hours w MCC,11652.5,DRG
Septicemia w/o MV 96+ hours w/o MCC,14829.5,DRG
Acute adjustment reaction & psychosocial dysfunction,1743.0,DRG
Depressive neuroses,3555.3333,DRG
Neuroses except depressive,5145.0,DRG
Psychoses,8422.8824,DRG
Alcohol/drug abuse or dependence w/o rehabilitation therapy w/o CC/MCC,7582.6,DRG
Poisoning & toxic effects of drugs w/o MCC,6856.5,DRG
Major joint replacement or reattachment of lower extremity w MCC,34944.0,DRG
Extensive O.R. procedure unrelated to principal diagnosis w CC,34781.0,DRG
DEGENERATIVE NERVOUS SYSTEM DISORDERS EXC MULT SCLEROSIS,19487.25,DRG
DEGENERATIVE NERVOUS SYSTEM DISORDERS EXC MULT SCLEROSIS,22416.2857,DRG
DEGENERATIVE NERVOUS SYSTEM DISORDERS EXC MULT SCLEROSIS,62120.5,DRG
INTRACRANIAL HEMORRHAGE,6687.0,DRG
CVA & PRECEREBRAL OCCLUSION W INFARCT,15443.5,DRG
CVA & PRECEREBRAL OCCLUSION W INFARCT,18730.4167,DRG
CVA & PRECEREBRAL OCCLUSION W INFARCT,11741.0,DRG
CVA & PRECEREBRAL OCCLUSION W INFARCT,36180.0,DRG
NONSPECIFIC CVA & PRECEREBRAL OCCLUSION W/O INFARCT,58422.0,DRG
TRANSIENT ISCHEMIA,19070.0,DRG
TRANSIENT ISCHEMIA,12024.0,DRG
"PERIPHERAL, CRANIAL & AUTONOMIC NERVE DISORDERS",18012.0,DRG
NON-BACTERIAL INFECTIONS OF NERVOUS SYSTEM EXC VIRAL MENINGITIS,39402.0,DRG
ALTERATION IN CONSCIOUSNESS,6164.0,DRG
ALTERATION IN CONSCIOUSNESS,13878.0,DRG
ALTERATION IN CONSCIOUSNESS,29624.0,DRG
SEIZURE,11492.0,DRG
SEIZURE,14892.0,DRG
SEIZURE,12818.0,DRG
EYE INFECTIONS AND OTHER EYE DISORDERS,18636.0,DRG
INFECTIONS OF UPPER RESPIRATORY TRACT,6135.5,DRG
INFECTIONS OF UPPER RESPIRATORY TRACT,14991.5,DRG
INFECTIONS OF UPPER RESPIRATORY TRACT,25733.4,DRG
"OTHER EAR, NOSE, MOUTH,THROAT & CRANIAL/FACIAL DIAGNOSES",15755.0,DRG
CYSTIC FIBROSIS - PULMONARY DISEASE,12104.0,DRG
RESPIRATORY FAILURE,17997.8333,DRG
RESPIRATORY FAILURE,23096.6667,DRG
RESPIRATORY FAILURE,11617.0,DRG
PULMONARY EMBOLISM,12462.0,DRG
PULMONARY EMBOLISM,14265.25,DRG
PULMONARY EMBOLISM,30863.0,DRG
MAJOR CHEST & RESPIRATORY TRAUMA,8923.6667,DRG
MAJOR CHEST & RESPIRATORY TRAUMA,20662.0,DRG
MAJOR CHEST & RESPIRATORY TRAUMA,18647.6667,DRG
RESPIRATORY MALIGNANCY,15969.0,DRG
RESPIRATORY MALIGNANCY,7274.0,DRG
MAJOR RESPIRATORY INFECTIONS & INFLAMMATIONS,15658.0,DRG
MAJOR RESPIRATORY INFECTIONS & INFLAMMATIONS,23467.0,DRG
OTHER PNEUMONIA,10293.5,DRG
OTHER PNEUMONIA,14295.0476,DRG
OTHER PNEUMONIA,26776.6667,DRG
OTHER PNEUMONIA,18937.6667,DRG
CHRONIC OBSTRUCTIVE PULMONARY DISEASE,30292.0,DRG
CHRONIC OBSTRUCTIVE PULMONARY DISEASE,11953.5,DRG
CHRONIC OBSTRUCTIVE PULMONARY DISEASE,24190.9524,DRG
CHRONIC OBSTRUCTIVE PULMONARY DISEASE,13759.0,DRG
ASTHMA,13944.5,DRG
INTERSTITIAL & ALVEOLAR LUNG DISEASES,7882.0,DRG
INTERSTITIAL & ALVEOLAR LUNG DISEASES,17595.0,DRG
"OTHER RESPIRATORY DIAGNOSES EXCEPT SIGNS, SYMPTOMS & MINOR DIAGNOSE",22584.0,DRG
"OTHER RESPIRATORY DIAGNOSES EXCEPT SIGNS, SYMPTOMS & MINOR DIAGNOSE",35006.0,DRG
ACUTE BRONCHITIS AND RELATED SYMPTOMS,1451.0,DRG
ACUTE BRONCHITIS AND RELATED SYMPTOMS,10566.3333,DRG
ACUTE BRONCHITIS AND RELATED SYMPTOMS,27390.0,DRG
ACUTE MYOCARDIAL INFARCTION,2699.0,DRG
ACUTE MYOCARDIAL INFARCTION,12825.0,DRG
HEART FAILURE,3414.0,DRG
HEART FAILURE,18616.3158,DRG
HEART FAILURE,22357.6429,DRG
HEART FAILURE,33282.5,DRG
CARDIAC ARREST & SHOCK,13620.0,DRG
PERIPHERAL & OTHER VASCULAR DISORDERS,13063.0,DRG
ANGINA PECTORIS & CORONARY ATHEROSCLEROSIS,11254.0,DRG
HYPERTENSION,12480.0,DRG
HYPERTENSION,8275.3333,DRG
HYPERTENSION,23025.3333,DRG
HYPERTENSION,21232.0,DRG
CARDIAC ARRHYTHMIA & CONDUCTION DISORDERS,8511.5,DRG
CARDIAC ARRHYTHMIA & CONDUCTION DISORDERS,15025.0,DRG
CARDIAC ARRHYTHMIA & CONDUCTION DISORDERS,27324.0,DRG
CARDIAC ARRHYTHMIA & CONDUCTION DISORDERS,815.0,DRG
CHEST PAIN,9225.0,DRG
SYNCOPE & COLLAPSE,10691.0,DRG
SYNCOPE & COLLAPSE,11667.5,DRG
SYNCOPE & COLLAPSE,56939.0,DRG
OTHER CIRCULATORY SYSTEM DIAGNOSES,14713.5,DRG
OTHER CIRCULATORY SYSTEM DIAGNOSES,16923.0,DRG
OTHER SMALL & LARGE BOWEL PROCEDURES,24685.0,DRG
"HERNIA PROCEDURES EXCEPT INGUINAL, FEMORAL & UMBILICAL",33556.0,DRG
"HERNIA PROCEDURES EXCEPT INGUINAL, FEMORAL & UMBILICAL",12962.0,DRG
"INGUINAL, FEMORAL & UMBILICAL HERNIA PROCEDURES",28535.0,DRG
MAJOR SMALL BOWEL PROCEDURES,15930.0,DRG
MAJOR SMALL BOWEL PROCEDURES,61772.0,DRG
MAJOR SMALL BOWEL PROCEDURES,57052.5,DRG
MAJOR LARGE BOWEL PROCEDURES,44161.0,DRG
MAJOR LARGE BOWEL PROCEDURES,28827.0,DRG
MAJOR LARGE BOWEL PROCEDURES,42553.5,DRG
APPENDECTOMY WITH COMPLEX PRINCIPAL DIAGNOSIS,33512.0,DRG
APPENDECTOMY WITH COMPLEX PRINCIPAL DIAGNOSIS,47750.5,DRG
APPENDECTOMY WITHOUT COMPLEX PRINCIPAL DIAGNOSIS,20408.0,DRG
DIGESTIVE MALIGNANCY,21147.0,DRG
PEPTIC ULCER & GASTRITIS,21807.5,DRG
MAJOR ESOPHAGEAL DISORDERS,41359.0,DRG
OTHER ESOPHAGEAL DISORDERS,25197.0,DRG
DIVERTICULITIS & DIVERTICULOSIS,8004.0,DRG
DIVERTICULITIS & DIVERTICULOSIS,16983.8333,DRG
DIVERTICULITIS & DIVERTICULOSIS,13076.0,DRG
INTESTINAL OBSTRUCTION,16272.6667,DRG
INTESTINAL OBSTRUCTION,13901.0,DRG
INTESTINAL OBSTRUCTION,6693.0,DRG
MAJOR GASTROINTESTINAL & PERITONEAL INFECTIONS,14547.0,DRG
MAJOR GASTROINTESTINAL & PERITONEAL INFECTIONS,6366.0,DRG
MAJOR GASTROINTESTINAL & PERITONEAL INFECTIONS,14078.5,DRG
"OTHER GASTROENTERITIS, NAUSEA & VOMITING",4892.5,DRG
"OTHER GASTROENTERITIS, NAUSEA & VOMITING",14905.5,DRG
ABDOMINAL PAIN,3790.0,DRG
ABDOMINAL PAIN,20403.0,DRG
OTHER & UNSPECIFIED GASTROINTESTINAL HEMORRHAGE,12352.0,DRG
OTHER & UNSPECIFIED GASTROINTESTINAL HEMORRHAGE,10220.5,DRG
OTHER & UNSPECIFIED GASTROINTESTINAL HEMORRHAGE,15315.6667,DRG
OTHER DIGESTIVE SYSTEM DIAGNOSES,10050.0,DRG
OTHER DIGESTIVE SYSTEM DIAGNOSES,6866.0,DRG
OTHER DIGESTIVE SYSTEM DIAGNOSES,9800.0,DRG
CHOLECYSTECTOMY,18566.0,DRG
CHOLECYSTECTOMY,19617.2,DRG
ALCOHOLIC LIVER DISEASE,27132.5,DRG
MALIGNANCY OF HEPATOBILIARY SYSTEM & PANCREAS,30965.0,DRG
DISORDERS OF PANCREAS EXCEPT MALIGNANCY,10234.0,DRG
DISORDERS OF PANCREAS EXCEPT MALIGNANCY,7253.8333,DRG
DISORDERS OF PANCREAS EXCEPT MALIGNANCY,16988.3333,DRG
OTHER DISORDERS OF THE LIVER,4073.0,DRG
DISORDERS OF GALLBLADDER & BILIARY TRACT,12151.0,DRG
DISORDERS OF GALLBLADDER & BILIARY TRACT,22001.0,DRG
HIP JOINT REPLACEMENT,32837.2,DRG
HIP JOINT REPLACEMENT,37511.8333,DRG
KNEE JOINT REPLACEMENT,31825.9167,DRG
KNEE JOINT REPLACEMENT,31521.6,DRG
HIP & FEMUR FRACTURE REPAIR,26229.0,DRG
HIP & FEMUR FRACTURE REPAIR,25526.8,DRG
HIP & FEMUR FRACTURE REPAIR,25624.0,DRG
HIP & FEMUR FRACTURE REPAIR,49866.0,DRG
OTHER SIGNIFICANT HIP & FEMUR SURGERY,19545.0,DRG
OTHER SIGNIFICANT HIP & FEMUR SURGERY,16008.0,DRG
INTERVERTEBRAL DISC EXCISION & DECOMPRESSION,36667.0,DRG
FOOT & TOE PROCEDURES,15017.0,DRG
FOOT & TOE PROCEDURES,31910.0,DRG
FOOT & TOE PROCEDURES,16418.0,DRG
CERVICAL SPINAL FUSION & OTHER BACK/NECK PROC EXC DISC EXCIS/DECOMP,29045.0,DRG
CERVICAL SPINAL FUSION & OTHER BACK/NECK PROC EXC DISC EXCIS/DECOMP,37222.5,DRG
CERVICAL SPINAL FUSION & OTHER BACK/NECK PROC EXC DISC EXCIS/DECOMP,49204.0,DRG
FRACTURE OF FEMUR,3937.0,DRG
FRACTURE OF FEMUR,20218.0,DRG
FRACTURE OF FEMUR,17771.6667,DRG
FRACTURE OF PELVIS OR DISLOCATION OF HIP,9981.0,DRG
FRACTURE OF PELVIS OR DISLOCATION OF HIP,32894.0,DRG
"FRACTURES & DISLOCATIONS EXCEPT FEMUR, PELVIS & BACK",13138.0,DRG
"FRACTURES & DISLOCATIONS EXCEPT FEMUR, PELVIS & BACK",29173.0,DRG
"FRACTURES & DISLOCATIONS EXCEPT FEMUR, PELVIS & BACK",13891.3333,DRG
"FRACTURES & DISLOCATIONS EXCEPT FEMUR, PELVIS & BACK",23953.0,DRG
"OTHER BACK & NECK DISORDERS, FRACTURES & INJURIES",13092.1667,DRG
"OTHER BACK & NECK DISORDERS, FRACTURES & INJURIES",21921.3333,DRG
"OTHER BACK & NECK DISORDERS, FRACTURES & INJURIES",14386.6667,DRG
OTHER MUSCULOSKELETAL SYSTEM & CONNECTIVE TISSUE DIAGNOSES,8091.6667,DRG
OTHER MUSCULOSKELETAL SYSTEM & CONNECTIVE TISSUE DIAGNOSES,9490.3333,DRG
OTHER MUSCULOSKELETAL SYSTEM & CONNECTIVE TISSUE DIAGNOSES,12120.6667,DRG
"OTHER SKIN, SUBCUTANEOUS TISSUE & RELATED PROCEDURES",38890.0,DRG
SKIN ULCERS,4746.0,DRG
CELLULITIS & OTHER SKIN INFECTIONS,12343.5,DRG
CELLULITIS & OTHER SKIN INFECTIONS,14551.6667,DRG
CELLULITIS & OTHER SKIN INFECTIONS,23604.7143,DRG
"CONTUSION, OPEN WOUND & OTHER TRAUMA TO SKIN & SUBCUTANEOUS TISSUE",5853.0,DRG
"CONTUSION, OPEN WOUND & OTHER TRAUMA TO SKIN & SUBCUTANEOUS TISSUE",11841.0,DRG
"CONTUSION, OPEN WOUND & OTHER TRAUMA TO SKIN & SUBCUTANEOUS TISSUE",17807.0,DRG
"OTHER SKIN, SUBCUTANEOUS TISSUE & BREAST DISORDERS",9401.0,DRG
DIABETES,7207.0,DRG
DIABETES,11077.3333,DRG
DIABETES,12474.0,DRG
DIABETES,13738.0,DRG
HYPOVOLEMIA & RELATED ELECTROLYTE DISORDERS,7697.0,DRG
HYPOVOLEMIA & RELATED ELECTROLYTE DISORDERS,14071.0,DRG
HYPOVOLEMIA & RELATED ELECTROLYTE DISORDERS,12394.0,DRG
OTHER NON-HYPOVOLEMIC ELECTROLYTE DISORDERS,4675.0,DRG
OTHER NON-HYPOVOLEMIC ELECTROLYTE DISORDERS,9300.5,DRG
NON-HYPOVOLEMIC SODIUM DISORDERS,4261.6667,DRG
NON-HYPOVOLEMIC SODIUM DISORDERS,12623.2,DRG
"OTHER KIDNEY, URINARY TRACT & RELATED PROCEDURES",91630.0,DRG
KIDNEY & URINARY TRACT INFECTIONS,8663.1667,DRG
KIDNEY & URINARY TRACT INFECTIONS,11095.5,DRG
KIDNEY & URINARY TRACT INFECTIONS,14962.0,DRG
URINARY STONES & ACQUIRED UPPER URINARY TRACT OBSTRUCTION,8709.0,DRG
URINARY STONES & ACQUIRED UPPER URINARY TRACT OBSTRUCTION,27203.0,DRG
"MALFUNCTION, REACTION, COMPLIC OF GENITOURINARY DEVICE OR PROC",14186.0,DRG
"MALFUNCTION, REACTION, COMPLIC OF GENITOURINARY DEVICE OR PROC",34134.0,DRG
"OTHER KIDNEY & URINARY TRACT DIAGNOSES, SIGNS & SYMPTOMS",12005.5,DRG
ACUTE KIDNEY INJURY,16083.0,DRG
ACUTE KIDNEY INJURY,14865.0,DRG
ACUTE KIDNEY INJURY,11378.3333,DRG
CHRONIC KIDNEY DISEASE,10435.0,DRG
MAJOR HEMATOLOGIC/IMMUNOLOGIC DIAG EXC SICKLE CELL CRISIS & COAGUL,4567.0,DRG
OTHER ANEMIA & DISORDERS OF BLOOD & BLOOD-FORMING ORGANS,18753.5,DRG
OTHER ANEMIA & DISORDERS OF BLOOD & BLOOD-FORMING ORGANS,20953.6,DRG
OTHER ANEMIA & DISORDERS OF BLOOD & BLOOD-FORMING ORGANS,26597.1667,DRG
INFECTIOUS & PARASITIC DISEASES INCLUDING HIV W O.R. PROCEDURE,12356.0,DRG
INFECTIOUS & PARASITIC DISEASES INCLUDING HIV W O.R. PROCEDURE,59490.5,DRG
SEPTICEMIA & DISSEMINATED INFECTIONS,11289.0,DRG
SEPTICEMIA & DISSEMINATED INFECTIONS,16329.9412,DRG
SEPTICEMIA & DISSEMINATED INFECTIONS,21362.7083,DRG
SEPTICEMIA & DISSEMINATED INFECTIONS,33212.7143,DRG
"POST-OPERATIVE, POST-TRAUMATIC, OTHER DEVICE INFECTIONS",45972.0,DRG
FEVER,17136.0,DRG
VIRAL ILLNESS,16811.5,DRG
SCHIZOPHRENIA,9166.6,DRG
MAJOR DEPRESSIVE DISORDERS & OTHER/UNSPECIFIED PSYCHOSES,23452.0,DRG
MAJOR DEPRESSIVE DISORDERS & OTHER/UNSPECIFIED PSYCHOSES,12257.8889,DRG
MAJOR DEPRESSIVE DISORDERS & OTHER/UNSPECIFIED PSYCHOSES,10247.0,DRG
BIPOLAR DISORDERS,10745.75,DRG
BIPOLAR DISORDERS,11998.1538,DRG
DEPRESSION EXCEPT MAJOR DEPRESSIVE DISORDER,10229.0,DRG
ORGANIC MENTAL HEALTH DISTURBANCES,29342.5,DRG
ORGANIC MENTAL HEALTH DISTURBANCES,16042.0,DRG
OPIOID ABUSE & DEPENDENCE,6903.0,DRG
ALCOHOL ABUSE & DEPENDENCE,10702.0,DRG
ALCOHOL ABUSE & DEPENDENCE,14702.0,DRG
EXTENSIVE OR PROCEDURES FOR OTHER COMPLICATIONS OF TREATMENT,43603.0,DRG
"OTHER INJURY, POISONING & TOXIC EFFECT DIAGNOSES",7138.0,DRG
TOXIC EFFECTS OF NON-MEDICINAL SUBSTANCES,5923.0,DRG
OVERDOSE,4995.0,DRG
"SIGNS, SYMPTOMS & OTHER FACTORS INFLUENCING HEALTH STATUS",269.0,DRG
"SIGNS, SYMPTOMS & OTHER FACTORS INFLUENCING HEALTH STATUS",21435.5,DRG
"SIGNS, SYMPTOMS & OTHER FACTORS INFLUENCING HEALTH STATUS",14729.5,DRG
OTHER AFTERCARE & CONVALESCENCE,50495.0,DRG
OTHER AFTERCARE & CONVALESCENCE,26462.0,DRG
MUSCULOSKELETAL & OTHER PROCEDURES FOR MULTIPLE SIGNIFICANT TRAUMA,51109.5,DRG
EXTENSIVE PROCEDURE UNRELATED TO PRINCIPAL DIAGNOSIS,40773.0,DRG
EXTENSIVE PROCEDURE UNRELATED TO PRINCIPAL DIAGNOSIS,39182.5,DRG
MODERATELY EXTENSIVE PROCEDURE UNRELATED TO PRINCIPAL DIAGNOSIS,4304.0,DRG
NONEXTENSIVE PROCEDURE UNRELATED TO PRINCIPAL DIAGNOSIS,9558.0,DRG
UNGROUPABLE,16554.625,DRG
NON-BACTERIAL INFECTIONS OF NERVOUS SYSTEM EXC VIRAL MENINGITIS,14042.0,DRG
RESPIRATORY FAILURE,15819.5,DRG
RESPIRATORY FAILURE,42785.0,DRG
MAJOR RESPIRATORY INFECTIONS & INFLAMMATIONS,9666.0,DRG
OTHER PNEUMONIA,4601.0,DRG
OTHER PNEUMONIA,28571.75,DRG
CHRONIC OBSTRUCTIVE PULMONARY DISEASE,5925.0,DRG
CHRONIC OBSTRUCTIVE PULMONARY DISEASE,20381.5,DRG
CHRONIC OBSTRUCTIVE PULMONARY DISEASE,20252.0,DRG
CHRONIC OBSTRUCTIVE PULMONARY DISEASE,14535.0,DRG
HEART FAILURE,14833.0,DRG
HEART FAILURE,24020.0,DRG
CARDIAC ARRHYTHMIA & CONDUCTION DISORDERS,15389.0,DRG
OTHER SMALL & LARGE BOWEL PROCEDURES,29510.0,DRG
PERITONEAL ADHESIOLYSIS,16234.0,DRG
"HERNIA PROCEDURES EXCEPT INGUINAL, FEMORAL & UMBILICAL",87724.0,DRG
MAJOR LARGE BOWEL PROCEDURES,45399.5,DRG
APPENDECTOMY WITH COMPLEX PRINCIPAL DIAGNOSIS,28626.0,DRG
PEPTIC ULCER & GASTRITIS,47352.0,DRG
DIVERTICULITIS & DIVERTICULOSIS,21971.0,DRG
CHOLECYSTECTOMY,23592.0,DRG
DISORDERS OF PANCREAS EXCEPT MALIGNANCY,19732.0,DRG
DISORDERS OF PANCREAS EXCEPT MALIGNANCY,14091.3333,DRG
HIP JOINT REPLACEMENT,30670.0,DRG
KNEE JOINT REPLACEMENT,37297.0,DRG
HAND & WRIST PROCEDURES,9095.0,DRG
FRACTURE OF FEMUR,4351.0,DRG
CELLULITIS & OTHER SKIN INFECTIONS,18011.6667,DRG
DIABETES,20937.0,DRG
DIABETES,14785.5,DRG
DIABETES,21160.0,DRG
HYPOVOLEMIA & RELATED ELECTROLYTE DISORDERS,7969.0,DRG
OTHER ENDOCRINE DISORDERS,7842.0,DRG
NON-HYPOVOLEMIC SODIUM DISORDERS,5480.0,DRG
KIDNEY & URINARY TRACT INFECTIONS,26521.0,DRG
ACUTE KIDNEY INJURY,16094.0,DRG
UTERINE & ADNEXA PROCEDURES FOR LEIOMYOMA,40849.0,DRG
CESAREAN DELIVERY,10228.7273,DRG
CESAREAN DELIVERY,10136.8,DRG
CESAREAN DELIVERY,15669.0,DRG
VAGINAL DELIVERY W STERILIZATION &/OR D&C,8074.0,DRG
VAGINAL DELIVERY W STERILIZATION &/OR D&C,10459.0,DRG
VAGINAL DELIVERY,4923.25,DRG
VAGINAL DELIVERY,5951.5,DRG
VAGINAL DELIVERY,4842.0,DRG
"NEONATE, TRANSFERRED < 5 DAYS OLD, BORN HERE",1297.5,DRG
"NEONATE BWT 2000-2499G, NORMAL NEWBORN OR NEONATE W OTHER PROBLEM",2134.0,DRG
"NEONATE BWT 2000-2499G, NORMAL NEWBORN OR NEONATE W OTHER PROBLEM",2670.0,DRG
"NEONATE BIRTHWT >2499G, NORMAL NEWBORN OR NEONATE W OTHER PROBLEM",2256.2381,DRG
"NEONATE BIRTHWT >2499G, NORMAL NEWBORN OR NEONATE W OTHER PROBLEM",2638.3333,DRG
OTHER ANEMIA & DISORDERS OF BLOOD & BLOOD-FORMING ORGANS,47679.0,DRG
"POST-OP, POST-TRAUMA, OTHER DEVICE INFECTIONS W O.R. PROCEDURE",19956.0,DRG
FEVER,16187.75,DRG
OTHER INFECTIOUS & PARASITIC DISEASES,8324.0,DRG
SCHIZOPHRENIA,5019.0,DRG
SCHIZOPHRENIA,19145.6667,DRG
MAJOR DEPRESSIVE DISORDERS & OTHER/UNSPECIFIED PSYCHOSES,9209.8333,DRG
MAJOR DEPRESSIVE DISORDERS & OTHER/UNSPECIFIED PSYCHOSES,9770.9,DRG
BIPOLAR DISORDERS,6724.3333,DRG
BIPOLAR DISORDERS,8935.2143,DRG
DEPRESSION EXCEPT MAJOR DEPRESSIVE DISORDER,3838.0,DRG
ORGANIC MENTAL HEALTH DISTURBANCES,25509.0,DRG
ORGANIC MENTAL HEALTH DISTURBANCES,36186.0,DRG
"DRUG & ALCOHOL ABUSE OR DEPENDENCE, LEFT AGAINST MEDICAL ADVICE",22398.0,DRG
ALCOHOL ABUSE & DEPENDENCE,9990.6667,DRG
ALCOHOL ABUSE & DEPENDENCE,10313.0,DRG
ALCOHOL ABUSE & DEPENDENCE,57565.0,DRG
OVERDOSE,9838.5,DRG
OTHER PNEUMONIA,5123.0,DRG
CHOLECYSTECTOMY,10807.0,DRG
CERVICAL SPINAL FUSION & OTHER BACK/NECK PROC EXC DISC EXCIS/DECOMP,29523.0,DRG
CESAREAN DELIVERY,8072.0,DRG
SEPTICEMIA & DISSEMINATED INFECTIONS,17429.0,DRG
BIPOLAR DISORDERS,6629.0,DRG
ALCOHOL ABUSE & DEPENDENCE,17808.0,DRG
ALTERATION IN CONSCIOUSNESS,15883.0,DRG
ALTERATION IN CONSCIOUSNESS,10306.0,DRG
MIGRAINE & OTHER HEADACHES,25802.0,DRG
RESPIRATORY FAILURE,35989.0,DRG
PULMONARY EMBOLISM,7887.0,DRG
PULMONARY EMBOLISM,19845.5,DRG
MAJOR CHEST & RESPIRATORY TRAUMA,21564.0,DRG
MAJOR RESPIRATORY INFECTIONS & INFLAMMATIONS,52860.0,DRG
OTHER PNEUMONIA,15402.0,DRG
OTHER PNEUMONIA,13978.0,DRG
OTHER PNEUMONIA,14650.3333,DRG
OTHER PNEUMONIA,17820.0,DRG
CHRONIC OBSTRUCTIVE PULMONARY DISEASE,9530.0,DRG
CHRONIC OBSTRUCTIVE PULMONARY DISEASE,26307.0,DRG
CHRONIC OBSTRUCTIVE PULMONARY DISEASE,22484.3333,DRG
"OTHER RESPIRATORY DIAGNOSES EXCEPT SIGNS, SYMPTOMS & MINOR DIAGNOSE",17803.0,DRG
HEART FAILURE,9105.0,DRG
CARDIAC ARRHYTHMIA & CONDUCTION DISORDERS,10473.3333,DRG
CARDIAC ARRHYTHMIA & CONDUCTION DISORDERS,9894.0,DRG
CARDIAC ARRHYTHMIA & CONDUCTION DISORDERS,27028.6667,DRG
"MAJOR STOMACH, ESOPHAGEAL & DUODENAL PROCEDURES",15995.5,DRG
PERITONEAL ADHESIOLYSIS,19100.0,DRG
"HERNIA PROCEDURES EXCEPT INGUINAL, FEMORAL & UMBILICAL",14924.0,DRG
"INGUINAL, FEMORAL & UMBILICAL HERNIA PROCEDURES",8078.0,DRG
MAJOR SMALL BOWEL PROCEDURES,13093.0,DRG
MAJOR SMALL BOWEL PROCEDURES,44894.0,DRG
MAJOR LARGE BOWEL PROCEDURES,30462.6667,DRG
MAJOR LARGE BOWEL PROCEDURES,31641.3333,DRG
MAJOR LARGE BOWEL PROCEDURES,32270.0,DRG
GASTRIC FUNDOPLICATION,14238.0,DRG
APPENDECTOMY WITH COMPLEX PRINCIPAL DIAGNOSIS,17573.0,DRG
APPENDECTOMY WITH COMPLEX PRINCIPAL DIAGNOSIS,22027.0,DRG
APPENDECTOMY WITHOUT COMPLEX PRINCIPAL DIAGNOSIS,14182.0,DRG
APPENDECTOMY WITHOUT COMPLEX PRINCIPAL DIAGNOSIS,36142.0,DRG
PEPTIC ULCER & GASTRITIS,15456.5,DRG
OTHER ESOPHAGEAL DISORDERS,19994.0,DRG
DIVERTICULITIS & DIVERTICULOSIS,10813.4,DRG
DIVERTICULITIS & DIVERTICULOSIS,14692.0,DRG
INFLAMMATORY BOWEL DISEASE,9999.0,DRG
INFLAMMATORY BOWEL DISEASE,12779.0,DRG
GASTROINTESTINAL VASCULAR INSUFFICIENCY,17272.0,DRG
INTESTINAL OBSTRUCTION,6172.0,DRG
MAJOR GASTROINTESTINAL & PERITONEAL INFECTIONS,12416.5,DRG
MAJOR GASTROINTESTINAL & PERITONEAL INFECTIONS,13200.5,DRG
"OTHER GASTROENTERITIS, NAUSEA & VOMITING",11993.0,DRG
"OTHER GASTROENTERITIS, NAUSEA & VOMITING",13346.5,DRG
"MALFUNCTION, REACTION & COMPLICATION OF GI DEVICE OR PROCEDURE",20446.0,DRG
OTHER & UNSPECIFIED GASTROINTESTINAL HEMORRHAGE,9713.0,DRG
OTHER & UNSPECIFIED GASTROINTESTINAL HEMORRHAGE,22120.0,DRG
OTHER DIGESTIVE SYSTEM DIAGNOSES,7687.0,DRG
CHOLECYSTECTOMY,12594.0,DRG
CHOLECYSTECTOMY,12832.0,DRG
CHOLECYSTECTOMY,24063.0,DRG
DISORDERS OF PANCREAS EXCEPT MALIGNANCY,10819.75,DRG
DISORDERS OF PANCREAS EXCEPT MALIGNANCY,8831.0,DRG
DISORDERS OF PANCREAS EXCEPT MALIGNANCY,27663.0,DRG
HIP JOINT REPLACEMENT,35170.5,DRG
KNEE JOINT REPLACEMENT,31785.8,DRG
KNEE JOINT REPLACEMENT,33877.2,DRG
"SHOULDER, UPPER ARM & FOREARM PROCEDURES EXCEPT JOINT REPLACEMENT",8304.0,DRG
"TENDON, MUSCLE & OTHER SOFT TISSUE PROCEDURES",8312.0,DRG
"OSTEOMYELITIS, SEPTIC ARTHRITIS & OTHER MUSCULOSKELETAL INFECTIONS",20567.0,DRG
"OTHER SKIN, SUBCUTANEOUS TISSUE & RELATED PROCEDURES",11461.0,DRG
SKIN ULCERS,6603.0,DRG
MALIGNANT BREAST DISORDERS,23787.0,DRG
CELLULITIS & OTHER SKIN INFECTIONS,12782.0,DRG
CELLULITIS & OTHER SKIN INFECTIONS,9809.5,DRG
CELLULITIS & OTHER SKIN INFECTIONS,8955.0,DRG
"OTHER SKIN, SUBCUTANEOUS TISSUE & BREAST DISORDERS",3604.0,DRG
DIABETES,10040.0,DRG
DIABETES,10635.5,DRG
OTHER NON-HYPOVOLEMIC ELECTROLYTE DISORDERS,53882.0,DRG
KIDNEY & URINARY TRACT INFECTIONS,19684.0,DRG
KIDNEY & URINARY TRACT INFECTIONS,13128.0,DRG
UTERINE & ADNEXA PROCEDURES FOR LEIOMYOMA,8995.0,DRG
CESAREAN DELIVERY,8743.5952,DRG
CESAREAN DELIVERY,8426.3333,DRG
VAGINAL DELIVERY W STERILIZATION &/OR D&C,6480.0,DRG
VAGINAL DELIVERY W COMPLICATING PROCEDURES EXC STERILIZATION &/OR D,4311.5,DRG
VAGINAL DELIVERY W COMPLICATING PROCEDURES EXC STERILIZATION &/OR D,3570.0,DRG
"D&C, ASPIRATION CURETTAGE OR HYSTEROTOMY FOR OBSTETRIC DIAGNOSES",2471.0,DRG
OTHER O.R. PROC FOR OBSTETRIC DIAGNOSES EXCEPT DELIVERY DIAGNOSES,1597.0,DRG
VAGINAL DELIVERY,4845.2353,DRG
VAGINAL DELIVERY,4489.7,DRG
VAGINAL DELIVERY,7618.5,DRG
POSTPARTUM & POST ABORTION DIAGNOSES W/O PROCEDURE,8474.0,DRG
"NEONATE, TRANSFERRED < 5 DAYS OLD, BORN HERE",1545.0,DRG
NEONATE BWT 1500-1999G W OR W/O OTHER SIGNIFICANT CONDITION,2978.0,DRG
"NEONATE BWT 2000-2499G, NORMAL NEWBORN OR NEONATE W OTHER PROBLEM",3056.0,DRG
"NEONATE BIRTHWT >2499G, NORMAL NEWBORN OR NEONATE W OTHER PROBLEM",2141.8723,DRG
"NEONATE BIRTHWT >2499G, NORMAL NEWBORN OR NEONATE W OTHER PROBLEM",2099.0,DRG
OTHER ANEMIA & DISORDERS OF BLOOD & BLOOD-FORMING ORGANS,21741.0,DRG
INFECTIOUS & PARASITIC DISEASES INCLUDING HIV W O.R. PROCEDURE,32034.0,DRG
INFECTIOUS & PARASITIC DISEASES INCLUDING HIV W O.R. PROCEDURE,28486.0,DRG
SEPTICEMIA & DISSEMINATED INFECTIONS,37164.0,DRG
SEPTICEMIA & DISSEMINATED INFECTIONS,20897.0,DRG
SEPTICEMIA & DISSEMINATED INFECTIONS,36210.2,DRG
SEPTICEMIA & DISSEMINATED INFECTIONS,14145.0,DRG
"POST-OPERATIVE, POST-TRAUMATIC, OTHER DEVICE INFECTIONS",8523.0,DRG
MAJOR DEPRESSIVE DISORDERS & OTHER/UNSPECIFIED PSYCHOSES,8972.0455,DRG
MAJOR DEPRESSIVE DISORDERS & OTHER/UNSPECIFIED PSYCHOSES,10639.1667,DRG
BIPOLAR DISORDERS,7434.3333,DRG
BIPOLAR DISORDERS,10234.0,DRG
DEPRESSION EXCEPT MAJOR DEPRESSIVE DISORDER,2698.0,DRG
DEPRESSION EXCEPT MAJOR DEPRESSIVE DISORDER,2583.0,DRG
ADJUSTMENT DISORDERS & NEUROSES EXCEPT DEPRESSIVE DIAGNOSES,8814.0,DRG
ACUTE ANXIETY & DELIRIUM STATES,6959.6667,DRG
"DRUG & ALCOHOL ABUSE OR DEPENDENCE, LEFT AGAINST MEDICAL ADVICE",2410.0,DRG
OPIOID ABUSE & DEPENDENCE,2347.0,DRG
ALCOHOL ABUSE & DEPENDENCE,6253.0,DRG
ALCOHOL ABUSE & DEPENDENCE,4687.5,DRG
ALCOHOL ABUSE & DEPENDENCE,29487.0,DRG
OTHER COMPLICATIONS OF TREATMENT,18570.0,DRG
"SIGNS, SYMPTOMS & OTHER FACTORS INFLUENCING HEALTH STATUS",14556.0,DRG
OTHER AFTERCARE & CONVALESCENCE,1767.0,DRG
MODERATELY EXTENSIVE PROCEDURE UNRELATED TO PRINCIPAL DIAGNOSIS,38594.0,DRG
NONEXTENSIVE PROCEDURE UNRELATED TO PRINCIPAL DIAGNOSIS,20497.0,DRG
UNGROUPABLE,16475.0,DRG
MAJOR RESPIRATORY INFECTIONS & INFLAMMATIONS,8887.0,DRG
OTHER PNEUMONIA,12146.0,DRG
ACUTE MYOCARDIAL INFARCTION,44023.0,DRG
HEART FAILURE,19718.0,DRG
MAJOR LARGE BOWEL PROCEDURES,33183.0,DRG
DIVERTICULITIS & DIVERTICULOSIS,7102.0,DRG
"OTHER GASTROENTERITIS, NAUSEA & VOMITING",8080.0,DRG
OTHER & UNSPECIFIED GASTROINTESTINAL HEMORRHAGE,14317.0,DRG
MALIGNANCY OF HEPATOBILIARY SYSTEM & PANCREAS,22122.0,DRG
OTHER DISORDERS OF THE LIVER,10850.0,DRG
OTHER DISORDERS OF THE LIVER,21578.0,DRG
HIP JOINT REPLACEMENT,30060.0,DRG
HIP & FEMUR FRACTURE REPAIR,37664.0,DRG
HAND & WRIST PROCEDURES,29147.0,DRG
"OSTEOMYELITIS, SEPTIC ARTHRITIS & OTHER MUSCULOSKELETAL INFECTIONS",6482.0,DRG
CELLULITIS & OTHER SKIN INFECTIONS,3166.0,DRG
DIABETES,8666.0,DRG
HYPOVOLEMIA & RELATED ELECTROLYTE DISORDERS,6194.0,DRG
ACUTE KIDNEY INJURY,4350.0,DRG
MENSTRUAL & OTHER FEMALE REPRODUCTIVE SYSTEM DISORDERS,6184.0,DRG
CESAREAN DELIVERY,6318.0,DRG
CESAREAN DELIVERY,6527.0,DRG
VAGINAL DELIVERY,3172.0513,DRG
VAGINAL DELIVERY,3289.0833,DRG
POSTPARTUM & POST ABORTION DIAGNOSES W/O PROCEDURE,1148.0,DRG
POSTPARTUM & POST ABORTION DIAGNOSES W/O PROCEDURE,19600.0,DRG
"NEONATE BWT 2000-2499G, NORMAL NEWBORN OR NEONATE W OTHER PROBLEM",2127.6667,DRG
"NEONATE BIRTHWT >2499G, NORMAL NEWBORN OR NEONATE W OTHER PROBLEM",1836.4956,DRG
"NEONATE BIRTHWT >2499G, NORMAL NEWBORN OR NEONATE W OTHER PROBLEM",3249.0,DRG
LYMPHATIC & OTHER MALIGNANCIES & NEOPLASMS OF UNCERTAIN BEHAVIOR,3709.0,DRG
SEPTICEMIA & DISSEMINATED INFECTIONS,8833.0,DRG
SEPTICEMIA & DISSEMINATED INFECTIONS,16828.3333,DRG
SEPTICEMIA & DISSEMINATED INFECTIONS,11652.5,DRG
MAJOR DEPRESSIVE DISORDERS & OTHER/UNSPECIFIED PSYCHOSES,8063.1111,DRG
MAJOR DEPRESSIVE DISORDERS & OTHER/UNSPECIFIED PSYCHOSES,20893.0,DRG
BIPOLAR DISORDERS,7571.25,DRG
BIPOLAR DISORDERS,6481.0,DRG
DEPRESSION EXCEPT MAJOR DEPRESSIVE DISORDER,3713.5,DRG
DEPRESSION EXCEPT MAJOR DEPRESSIVE DISORDER,3239.0,DRG
ADJUSTMENT DISORDERS & NEUROSES EXCEPT DEPRESSIVE DIAGNOSES,5145.0,DRG
ACUTE ANXIETY & DELIRIUM STATES,1743.0,DRG
COCAINE ABUSE & DEPENDENCE,4170.0,DRG
ALCOHOL ABUSE & DEPENDENCE,7308.0,DRG
ALCOHOL ABUSE & DEPENDENCE,8435.75,DRG
POISONING OF MEDICINAL AGENTS,9205.0,DRG
OVERDOSE,4508.0,DRG
MODERATELY EXTENSIVE PROCEDURE UNRELATED TO PRINCIPAL DIAGNOSIS,17016.0,DRG
UNGROUPABLE,799.2,DRG
HIP JOINT REPLACEMENT,34944.0,DRG
"TENDON, MUSCLE & OTHER SOFT TISSUE PROCEDURES",34781.0,DRG
