Description,Charge,Category
"Enterocolitis due to Clostridium difficile, recurrent",35817.0,Standard
"Enterocolitis due to Clostridium difficile, not specified as recurrent",44052.8333,Standard
"Infectious gastroenteritis and colitis, unspecified",88742.0,Standard
Sepsis due to unspecified staphylococcus,55614.0,Standard
Sepsis due to anaerobes,19718.0,Standard
Sepsis due to Escherichia coli [E. coli],89042.3333,Standard
Sepsis due to Enterococcus,80573.0,Standard
Other specified sepsis,29963.0,Standard
"Sepsis, unspecified organism",57469.1429,Standard
Postherpetic trigeminal neuralgia,35416.0,Standard
Other postherpetic nervous system involvement,55480.0,Standard
Candidal esophagitis,32260.0,Standard
Malignant neoplasm of cecum,16640.0,Standard
Malignant neoplasm of ascending colon,122233.0,Standard
"Malignant neoplasm of colon, unspecified",42662.5,Standard
Malignant neoplasm of rectum,21758.0,Standard
"Malignant neoplasm of overlapping sites of rectum, anus and anal canal",77158.0,Standard
Malignant neoplasm of unspecified part of unspecified bronchus or lung,25469.0,Standard
"Malignant neoplasm of mediastinum, part unspecified",20077.0,Standard
Malignant neoplasm of prostate,54492.0,Standard
"Malignant neoplasm of right kidney, except renal pelvis",29199.0,Standard
"Malignant (primary) neoplasm, unspecified",51247.0,Standard
"Diffuse large B-cell lymphoma, lymph nodes of inguinal region and lower limb",77674.0,Standard
"Acute myeloblastic leukemia, not having achieved remission",41994.0,Standard
"Benign neoplasm of meninges, unspecified",66403.0,Standard
Neoplasm of uncertain behavior of other specified digestive organs,61733.0,Standard
"Myelodysplastic syndrome, unspecified",21134.0,Standard
Neoplasm of unspecified behavior of digestive system,51774.0,Standard
"Iron deficiency anemia, unspecified",36124.3333,Standard
Other sickle-cell disorders without crisis,35212.0,Standard
Acute posthemorrhagic anemia,60109.0,Standard
"Anemia, unspecified",15224.0,Standard
Hemorrhagic disorder due to extrinsic circulating anticoagulants,21777.0,Standard
Type 2 diabetes mellitus with hyperosmolarity without nonketotic hyperglycemic-hyperosmolar coma (NKHHC),26507.0,Standard
Type 2 diabetes mellitus with hyperosmolarity with coma,111301.0,Standard
Type 2 diabetes mellitus with ketoacidosis without coma,46193.5,Standard
Type 2 diabetes mellitus with diabetic autonomic (poly)neuropathy,39652.0,Standard
Type 2 diabetes mellitus with other skin ulcer,44678.0,Standard
Type 2 diabetes mellitus with hypoglycemia without coma,30605.0,Standard
Type 2 diabetes mellitus with hyperglycemia,24997.0,Standard
Type 2 diabetes mellitus with other specified complication,81569.0,Standard
Syndrome of inappropriate secretion of antidiuretic hormone,62852.0,Standard
Unspecified severe protein-calorie malnutrition,101346.0,Standard
"Disorder of urea cycle metabolism, unspecified",30971.0,Standard
Hypomagnesemia,55138.0,Standard
Organ-limited amyloidosis,108726.0,Standard
Dehydration,27295.25,Standard
Hypo-osmolality and hyponatremia,32244.0,Standard
Hypokalemia,17849.0,Standard
"Major depressive disorder, recurrent, moderate",20410.0,Standard
Parkinson's disease,42148.5,Standard
"Localization-related (focal) (partial) symptomatic epilepsy and epileptic syndromes with complex partial seizures, not intractable, without status epilepticus",43600.0,Standard
"Other generalized epilepsy and epileptic syndromes, not intractable, without status epilepticus",65798.0,Standard
"Lennox-Gastaut syndrome, intractable, without status epilepticus",16731.0,Standard
Vertebro-basilar artery syndrome,34045.0,Standard
"Transient cerebral ischemic attack, unspecified",30060.0,Standard
Toxic encephalopathy,19669.0,Standard
"Encephalopathy, unspecified",33861.0,Standard
Metabolic encephalopathy,68917.0,Standard
Other encephalopathy,32405.0,Standard
"Benign paroxysmal vertigo, unspecified ear",22126.0,Standard
Hypertensive heart disease with heart failure,49618.5,Standard
Hypertensive heart disease without heart failure,20819.0,Standard
"Hypertensive heart and chronic kidney disease with heart failure and stage 1 through stage 4 chronic kidney disease, or unspecified chronic kidney disease",50961.1579,Standard
"Hypertensive heart and chronic kidney disease with heart failure and with stage 5 chronic kidney disease, or end stage renal disease",45016.5,Standard
Hypertensive urgency,25431.0,Standard
"Hypertensive crisis, unspecified",32964.0,Standard
Non-ST elevation (NSTEMI) myocardial infarction,39860.1429,Standard
Myocardial infarction type 2,38388.0,Standard
Other pulmonary embolism without acute cor pulmonale,70960.0,Standard
Other secondary pulmonary hypertension,73022.0,Standard
"Atrioventricular block, first degree",13406.0,Standard
"Atrioventricular block, second degree",18716.0,Standard
Paroxysmal atrial fibrillation,27775.0,Standard
Chronic atrial fibrillation,41648.0,Standard
Unspecified atrial fibrillation,39027.4,Standard
Acute on chronic systolic (congestive) heart failure,53695.5,Standard
Cerebral infarction due to unspecified occlusion or stenosis of bilateral carotid arteries,68521.0,Standard
Cerebral infarction due to unspecified occlusion or stenosis of left middle cerebral artery,34223.0,Standard
"Cerebral infarction, unspecified",50310.1111,Standard
Hypertensive encephalopathy,37549.0,Standard
Acute embolism and thrombosis of unspecified deep veins of left lower extremity,27508.0,Standard
Varicose veins of unspecified lower extremity with ulcer other part of lower leg,51193.0,Standard
"Hypotension, unspecified",31056.0,Standard
Influenza due to identified novel influenza A virus with gastrointestinal manifestations,39819.0,Standard
Influenza due to other identified influenza virus with unspecified type of pneumonia,28725.0,Standard
Influenza due to other identified influenza virus with other respiratory manifestations,27412.0,Standard
Influenza due to other identified influenza virus with encephalopathy,37108.5,Standard
Influenza due to unidentified influenza virus with unspecified type of pneumonia,41754.0,Standard
Unspecified bacterial pneumonia,45019.0,Standard
"Lobar pneumonia, unspecified organism",63752.0,Standard
"Pneumonia, unspecified organism",47268.5833,Standard
"Acute bronchitis, unspecified",43005.0,Standard
"Bronchitis, not specified as acute or chronic",32862.0,Standard
Chronic obstructive pulmonary disease with acute lower respiratory infection,53368.0,Standard
Chronic obstructive pulmonary disease with (acute) exacerbation,38488.25,Standard
"Chronic obstructive pulmonary disease, unspecified",26247.0,Standard
Pneumonitis due to inhalation of food and vomit,75433.3,Standard
Other pneumothorax,45908.0,Standard
Acute respiratory failure with hypercapnia,74198.0,Standard
Acute and chronic respiratory failure with hypoxia,50217.0,Standard
Acute and chronic respiratory failure with hypercapnia,39009.5,Standard
"Respiratory failure, unspecified, unspecified whether with hypoxia or hypercapnia",8989.0,Standard
Gastro-esophageal reflux disease without esophagitis,17974.0,Standard
Chronic or unspecified gastric ulcer with hemorrhage,38719.0,Standard
Acute gastritis with bleeding,58124.0,Standard
Unspecified acute appendicitis,62037.0,Standard
"Unilateral inguinal hernia, with obstruction, without gangrene, not specified as recurrent",40872.0,Standard
"Umbilical hernia with obstruction, without gangrene",81051.0,Standard
Incisional hernia without obstruction or gangrene,99341.0,Standard
Ulcerative (chronic) pancolitis without complications,24137.0,Standard
"Noninfective gastroenteritis and colitis, unspecified",43304.6667,Standard
"Vascular disorder of intestine, unspecified",75871.0,Standard
"Intestinal adhesions [bands], unspecified as to partial versus complete obstruction",36752.0,Standard
"Intestinal adhesions [bands], with partial obstruction",160033.0,Standard
"Partial intestinal obstruction, unspecified as to cause",30481.7143,Standard
"Unspecified intestinal obstruction, unspecified as to partial versus complete obstruction",35531.6667,Standard
"Ileus, unspecified",48445.25,Standard
Diverticulosis of large intestine without perforation or abscess with bleeding,37473.0,Standard
Diverticulitis of large intestine without perforation or abscess without bleeding,42236.0,Standard
Diverticulitis of large intestine without perforation or abscess with bleeding,31319.0,Standard
"Diverticulosis of intestine, part unspecified, without perforation or abscess with bleeding",59370.0,Standard
"Diverticulitis of intestine, part unspecified, without perforation or abscess without bleeding",45107.0,Standard
Other constipation,53930.0,Standard
Hemorrhage of anus and rectum,34447.0,Standard
Alcoholic cirrhosis of liver with ascites,84282.0,Standard
"Hepatic failure, unspecified without coma",20296.0,Standard
Unspecified cirrhosis of liver,45876.0,Standard
Calculus of gallbladder with acute cholecystitis without obstruction,84865.0,Standard
Calculus of gallbladder with chronic cholecystitis without obstruction,58100.0,Standard
Calculus of gallbladder with acute and chronic cholecystitis without obstruction,70378.0,Standard
Calculus of gallbladder and bile duct with chronic cholecystitis without obstruction,81761.0,Standard
Calculus of gallbladder and bile duct with acute and chronic cholecystitis without obstruction,76481.0,Standard
Acute cholecystitis,67705.0,Standard
Drug induced acute pancreatitis without necrosis or infection,26004.0,Standard
Other acute pancreatitis without necrosis or infection,27664.0,Standard
"Acute pancreatitis without necrosis or infection, unspecified",41595.5,Standard
Melena,49117.5,Standard
"Gastrointestinal hemorrhage, unspecified",36537.25,Standard
Cutaneous abscess of abdominal wall,28327.0,Standard
Cellulitis of right finger,17646.0,Standard
Cellulitis of left upper limb,43314.0,Standard
Cellulitis of right lower limb,58429.0,Standard
Cellulitis of left lower limb,46842.8,Standard
Cellulitis of abdominal wall,34564.0,Standard
Cellulitis of groin,68841.0,Standard
"Staphylococcal arthritis, left wrist",49562.0,Standard
"Gout, unspecified",20825.0,Standard
Bilateral primary osteoarthritis of hip,145759.0,Standard
"Unilateral primary osteoarthritis, right hip",100877.5,Standard
"Unilateral primary osteoarthritis, left hip",118968.6,Standard
"Unilateral primary osteoarthritis, right knee",107505.5,Standard
"Unilateral primary osteoarthritis, left knee",115342.4,Standard
Other bilateral secondary osteoarthritis of knee,165303.0,Standard
"Primary osteoarthritis, right shoulder",134562.0,Standard
"Primary osteoarthritis, left shoulder",135502.0,Standard
"Unspecified osteoarthritis, unspecified site",41415.0,Standard
Pain in right hip,9461.0,Standard
"Intervertebral disc disorders with radiculopathy, lumbar region",15148.0,Standard
Rhabdomyolysis,26862.0,Standard
"Other infective bursitis, left elbow",48819.0,Standard
"Unspecified rotator cuff tear or rupture of right shoulder, not specified as traumatic",153118.5,Standard
"Periprosthetic fracture around internal prosthetic left hip joint, initial encounter",145647.0,Standard
Acute pyelonephritis,31987.0,Standard
Nonobstructive reflux-associated chronic pyelonephritis,34016.0,Standard
"Tubulo-interstitial nephritis, not specified as acute or chronic",75030.0,Standard
"Obstructive and reflux uropathy, unspecified",41557.5,Standard
"Acute kidney failure, unspecified",36892.5238,Standard
Other specified disorders of kidney and ureter,18835.0,Standard
Acute cystitis without hematuria,39308.5,Standard
Acute cystitis with hematuria,36077.0,Standard
"Cystitis, unspecified without hematuria",31012.1667,Standard
"Urinary tract infection, site not specified",34295.45,Standard
Benign prostatic hyperplasia with lower urinary tract symptoms,25687.0,Standard
Acute prostatitis,25521.0,Standard
"Gestational [pregnancy-induced] hypertension without significant proteinuria, complicating childbirth",18378.0,Standard
"Twin pregnancy, dichorionic/diamniotic, third trimester",36809.0,Standard
"Bradycardia, unspecified",71983.0,Standard
Hemoptysis,40597.0,Standard
Other chest pain,25679.0,Standard
"Chest pain, unspecified",17918.0,Standard
Hypoxemia,33517.0,Standard
Epigastric pain,66027.0,Standard
"Nausea with vomiting, unspecified",28884.0,Standard
"Dysphagia, unspecified",28825.0,Standard
"Diarrhea, unspecified",25481.0,Standard
Unsteadiness on feet,17952.0,Standard
"Ataxia, unspecified",43977.0,Standard
Dizziness and giddiness,15077.0,Standard
"Fever, unspecified",17893.5,Standard
Weakness,41492.0,Standard
Other malaise,16887.0,Standard
Age-related physical debility,27407.0,Standard
Syncope and collapse,38228.5,Standard
"Shock, unspecified",105022.0,Standard
"Traumatic hemorrhage of right cerebrum with loss of consciousness of any duration with death due to brain injury prior to regaining consciousness, initial encounter",11105.0,Standard
"Multiple fractures of ribs, left side, initial encounter for closed fracture",38019.0,Standard
"Unspecified fracture of fifth lumbar vertebra, initial encounter for closed fracture",23690.0,Standard
"Displaced fracture of posterior wall of right acetabulum, initial encounter for closed fracture",24826.0,Standard
"Other specified fracture of left pubis, initial encounter for closed fracture",29829.5,Standard
"Multiple fractures of pelvis with stable disruption of pelvic ring, initial encounter for closed fracture",72338.0,Standard
"Other displaced fracture of upper end of right humerus, initial encounter for closed fracture",27337.0,Standard
"Displaced spiral fracture of shaft of humerus, left arm, initial encounter for closed fracture",135248.0,Standard
"Other intraarticular fracture of lower end of left radius, initial encounter for closed fracture",65958.0,Standard
"Fracture of unspecified part of neck of right femur, initial encounter for closed fracture",59671.75,Standard
"Fracture of unspecified part of neck of left femur, initial encounter for closed fracture",129216.0,Standard
"Unspecified intracapsular fracture of right femur, initial encounter for closed fracture",89172.0,Standard
"Unspecified intracapsular fracture of left femur, initial encounter for closed fracture",96104.0,Standard
"Displaced intertrochanteric fracture of right femur, initial encounter for closed fracture",89530.5,Standard
"Displaced intertrochanteric fracture of left femur, initial encounter for closed fracture",100450.5,Standard
"Nondisplaced intertrochanteric fracture of right femur, initial encounter for closed fracture",99769.0,Standard
"Displaced fracture of lateral malleolus of right fibula, initial encounter for closed fracture",28895.0,Standard
"Displaced fracture of lateral malleolus of left fibula, initial encounter for closed fracture",60246.0,Standard
"Displaced trimalleolar fracture of right lower leg, initial encounter for closed fracture",58088.0,Standard
"Displaced trimalleolar fracture of left lower leg, initial encounter for closed fracture",91089.0,Standard
"Poisoning by insulin and oral hypoglycemic [antidiabetic] drugs, accidental (unintentional), initial encounter",37341.0,Standard
"Poisoning by benzodiazepines, accidental (unintentional), initial encounter",21243.0,Standard
"Poisoning by other antiepileptic and sedative-hypnotic drugs, intentional self-harm, initial encounter",15434.0,Standard
"Poisoning by unspecified drugs, medicaments and biological substances, accidental (unintentional), initial encounter",26008.0,Standard
"Traumatic ischemia of muscle, initial encounter",41807.3333,Standard
"Infection following a procedure, organ and space surgical site, initial encounter",52859.0,Standard
"Infection following a procedure, initial encounter",28797.0,Standard
"Infection and inflammatory reaction due to other cardiac and vascular devices, implants and grafts, initial encounter",56844.0,Standard
"Infection and inflammatory reaction due to cystostomy catheter, initial encounter",31577.0,Standard
"Infection and inflammatory reaction due to indwelling urethral catheter, initial encounter",77762.0,Standard
"Infection and inflammatory reaction due to other urinary catheter, initial encounter",69202.75,Standard
"Other mechanical complication of internal right knee prosthesis, initial encounter",70183.0,Standard
"Breakdown (mechanical) of other specified internal prosthetic devices, implants and grafts, initial encounter",21550.0,Standard
"Displacement of insulin pump, initial encounter",51888.0,Standard
"Infection of amputation stump, left upper extremity",40393.0,Standard
Encounter for surgical aftercare following surgery on the circulatory system,69440.0,Standard
"Enterocolitis due to Clostridium difficile, not specified as recurrent",28332.0,Standard
"Sepsis, unspecified organism",82545.2,Standard
"Malignant neoplasm of larynx, unspecified",30955.0,Standard
Acute posthemorrhagic anemia,18278.0,Standard
Hemorrhagic disorder due to extrinsic circulating anticoagulants,20865.0,Standard
Type 1 diabetes mellitus with ketoacidosis without coma,23828.0,Standard
Type 2 diabetes mellitus with ketoacidosis with coma,79744.0,Standard
Type 2 diabetes mellitus with foot ulcer,101592.0,Standard
Type 2 diabetes mellitus with other skin complications,22821.0,Standard
Type 2 diabetes mellitus with other specified complication,86356.0,Standard
Unspecified severe protein-calorie malnutrition,50909.0,Standard
Morbid (severe) obesity with alveolar hypoventilation,51443.0,Standard
Dehydration,13848.0,Standard
"Volume depletion, unspecified",37841.0,Standard
"Alcohol dependence with withdrawal, unspecified",29319.0,Standard
"Opioid dependence, uncomplicated",57581.0,Standard
"Hypertensive heart and chronic kidney disease with heart failure and stage 1 through stage 4 chronic kidney disease, or unspecified chronic kidney disease",115480.0,Standard
Hypertensive urgency,16276.0,Standard
Non-ST elevation (NSTEMI) myocardial infarction,100732.0,Standard
Unspecified atrial fibrillation,27924.0,Standard
Influenza due to other identified influenza virus with other respiratory manifestations,86438.0,Standard
Pneumonia due to Hemophilus influenzae,23427.0,Standard
"Bronchopneumonia, unspecified organism",36943.0,Standard
"Pneumonia, unspecified organism",41644.3333,Standard
Chronic obstructive pulmonary disease with (acute) exacerbation,14959.0,Standard
Unspecified asthma with (acute) exacerbation,8892.0,Standard
Acute and chronic respiratory failure with hypoxia,24952.0,Standard
Alcoholic gastritis without bleeding,66858.0,Standard
Unspecified acute appendicitis,57435.0,Standard
"Crohn's disease, unspecified, without complications",24886.0,Standard
"Noninfective gastroenteritis and colitis, unspecified",34161.0,Standard
"Unspecified intestinal obstruction, unspecified as to partial versus complete obstruction",24228.0,Standard
Diverticulitis of large intestine without perforation or abscess without bleeding,122763.0,Standard
Diverticulitis of large intestine without perforation or abscess with bleeding,36585.0,Standard
"Diverticulitis of intestine, part unspecified, without perforation or abscess without bleeding",28047.0,Standard
"Constipation, unspecified",23583.5,Standard
Alcoholic cirrhosis of liver with ascites,56805.0,Standard
Calculus of gallbladder with acute cholecystitis without obstruction,79070.0,Standard
Acute cholecystitis,16989.0,Standard
Chronic cholecystitis,60733.0,Standard
Biliary acute pancreatitis without necrosis or infection,70066.0,Standard
"Acute pancreatitis without necrosis or infection, unspecified",18641.0,Standard
Postprocedural partial intestinal obstruction,184552.0,Standard
Cutaneous abscess of groin,49913.0,Standard
Cellulitis of right lower limb,23995.0,Standard
Cellulitis of left lower limb,38128.0,Standard
Cellulitis of face,80657.0,Standard
"Gout, unspecified",81627.0,Standard
"Unilateral post-traumatic osteoarthritis, left hip",112562.0,Standard
"Unilateral primary osteoarthritis, right knee",135935.0,Standard
"Unilateral primary osteoarthritis, left knee",119661.0,Standard
"Unilateral post-traumatic osteoarthritis, right knee",127916.0,Standard
"Unilateral post-traumatic osteoarthritis, left knee",103802.0,Standard
"Other osteonecrosis, right femur",118070.0,Standard
"Acute kidney failure, unspecified",25138.0,Standard
Abscess of the breast and nipple,42245.0,Standard
"Pre-existing hypertension with pre-eclampsia, complicating childbirth",25687.0,Standard
"Gestational [pregnancy-induced] hypertension without significant proteinuria, complicating childbirth",15711.4,Standard
"Mild to moderate pre-eclampsia, complicating childbirth",24132.0,Standard
"Severe pre-eclampsia, third trimester",43553.0,Standard
Unspecified pre-existing diabetes mellitus in childbirth,18823.0,Standard
"Gestational diabetes mellitus in childbirth, diet controlled",23910.0,Standard
"Gestational diabetes mellitus in childbirth, unspecified control",44775.0,Standard
"Maternal care for breech presentation, not applicable or unspecified",37431.0,Standard
"Maternal care for other malpresentation of fetus, not applicable or unspecified",32116.0,Standard
Maternal care for low transverse scar from previous cesarean delivery,35566.4,Standard
"Maternal care for other known or suspected poor fetal growth, third trimester, not applicable or unspecified",21768.0,Standard
"Polyhydramnios, third trimester, not applicable or unspecified",32380.0,Standard
"Oligohydramnios, third trimester, not applicable or unspecified",34096.0,Standard
"Full-term premature rupture of membranes, onset of labor within 24 hours of rupture",51945.0,Standard
"Full-term premature rupture of membranes, unspecified as to length of time between rupture and onset of labor",31539.0,Standard
Post-term pregnancy,18944.0,Standard
"Preterm labor third trimester with preterm delivery third trimester, not applicable or unspecified",11511.0,Standard
Precipitate labor,29130.0,Standard
"Labor and delivery complicated by cord around neck, without compression, not applicable or unspecified",19307.0,Standard
"Labor and delivery complicated by other cord entanglement, without compression, not applicable or unspecified",12321.0,Standard
First degree perineal laceration during delivery,18206.5,Standard
Other specified complications of labor and delivery,18078.0,Standard
Abnormality in fetal heart rate and rhythm complicating labor and delivery,18468.5,Standard
Anemia complicating childbirth,15110.3333,Standard
Obesity complicating childbirth,14101.0,Standard
"Endocrine, nutritional and metabolic diseases complicating childbirth",16230.0,Standard
Drug use complicating childbirth,17317.0,Standard
Smoking (tobacco) complicating childbirth,35520.0,Standard
"Other mental disorders complicating pregnancy, third trimester",19357.0,Standard
Streptococcus B carrier state complicating childbirth,32303.0,Standard
"Neonatal jaundice, unspecified",1765.0,Standard
Dehydration of newborn,10644.0,Standard
"Fever, unspecified",56483.0,Standard
"Traumatic pneumothorax, initial encounter",25012.0,Standard
"Unspecified intracapsular fracture of left femur, initial encounter for closed fracture",69075.0,Standard
"Displaced trimalleolar fracture of left lower leg, initial encounter for closed fracture",45014.0,Standard
"Poisoning by selective serotonin reuptake inhibitors, intentional self-harm, initial encounter",9996.0,Standard
"Infection following a procedure, initial encounter",44686.0,Standard
"Infection of amputation stump, left lower extremity",75686.0,Standard
"Single liveborn infant, delivered vaginally",4164.8919,Standard
"Single liveborn infant, delivered by cesarean",3870.5455,Standard
"Twin liveborn infant, delivered vaginally",4329.6667,Standard
"Twin liveborn infant, delivered by cesarean",5551.3333,Standard
Non-ST elevation (NSTEMI) myocardial infarction,40349.0,Standard
Atherosclerotic heart disease of native coronary artery without angina pectoris,30896.0,Standard
"Pneumonia, unspecified organism",95157.0,Standard
Chronic obstructive pulmonary disease with acute lower respiratory infection,59857.0,Standard
Chronic obstructive pulmonary disease with (acute) exacerbation,40992.0,Standard
"Partial intestinal obstruction, unspecified as to cause",15138.0,Standard
Bilateral primary osteoarthritis of hip,122447.0,Standard
"Unilateral primary osteoarthritis, right hip",99474.6667,Standard
"Unilateral primary osteoarthritis, left hip",83539.0,Standard
Bilateral primary osteoarthritis of knee,102117.0,Standard
"Unilateral primary osteoarthritis, right knee",107235.3333,Standard
"Unilateral primary osteoarthritis, left knee",127409.0,Standard
Bilateral post-traumatic osteoarthritis of knee,178440.0,Standard
Abnormality in fetal heart rate and rhythm complicating labor and delivery,27337.0,Standard
"Single liveborn infant, delivered vaginally",3607.0,Standard
"Enterocolitis due to Clostridium difficile, not specified as recurrent",23825.0,Standard
Sepsis due to Methicillin resistant Staphylococcus aureus,60914.0,Standard
Sepsis due to Escherichia coli [E. coli],110115.0,Standard
"Sepsis, unspecified organism",40443.3333,Standard
Gonococcal female pelvic inflammatory disease,13699.0,Standard
Candidal sepsis,70925.0,Standard
"Malignant neoplasm of left kidney, except renal pelvis",116068.0,Standard
"Iron deficiency anemia, unspecified",27098.0,Standard
Other pancytopenia,43504.0,Standard
"Hypothyroidism, unspecified",26990.0,Standard
"Thyrotoxicosis, unspecified without thyrotoxic crisis or storm",38387.0,Standard
Type 1 diabetes mellitus with ketoacidosis without coma,32152.25,Standard
Type 2 diabetes mellitus with ketoacidosis without coma,23919.0,Standard
Type 2 diabetes mellitus with hyperglycemia,28290.0,Standard
Type 2 diabetes mellitus with other specified complication,45055.0,Standard
"Disorder of urea cycle metabolism, unspecified",45145.0,Standard
Dehydration,40448.0,Standard
Other chronic pain,50508.0,Standard
Metabolic encephalopathy,44255.0,Standard
"Labyrinthitis, unspecified ear",36154.0,Standard
Hypertensive heart disease with heart failure,52631.3333,Standard
Hypertensive heart disease without heart failure,38219.0,Standard
"Hypertensive heart and chronic kidney disease with heart failure and stage 1 through stage 4 chronic kidney disease, or unspecified chronic kidney disease",29184.0,Standard
Hypertensive emergency,82468.0,Standard
Non-ST elevation (NSTEMI) myocardial infarction,26081.0,Standard
Myocardial infarction type 2,28102.0,Standard
"Acute ischemic heart disease, unspecified",39687.0,Standard
Atherosclerotic heart disease of native coronary artery with unstable angina pectoris,23193.0,Standard
Other pulmonary embolism without acute cor pulmonale,28392.0,Standard
Unspecified atrial fibrillation,35286.25,Standard
Unspecified atrial flutter,21372.0,Standard
"Cerebral infarction, unspecified",46074.3333,Standard
Posterior reversible encephalopathy syndrome,103989.0,Standard
Aneurysm of renal artery,27916.0,Standard
"Arteritis, unspecified",29687.0,Standard
Acute embolism and thrombosis of left femoral vein,14900.0,Standard
Unspecified bacterial pneumonia,46786.0,Standard
"Lobar pneumonia, unspecified organism",19928.5,Standard
"Pneumonia, unspecified organism",44104.4,Standard
Chronic obstructive pulmonary disease with acute lower respiratory infection,74396.0,Standard
Chronic obstructive pulmonary disease with (acute) exacerbation,35666.625,Standard
Mild intermittent asthma with (acute) exacerbation,10916.0,Standard
Severe persistent asthma with (acute) exacerbation,27186.3333,Standard
Severe persistent asthma with status asthmaticus,51399.0,Standard
Unspecified asthma with (acute) exacerbation,20406.0,Standard
Pneumonitis due to inhalation of food and vomit,30386.0,Standard
Other pneumothorax,16393.0,Standard
Acute respiratory failure with hypoxia,49800.0,Standard
"Acute and chronic respiratory failure, unspecified whether with hypoxia or hypercapnia",21281.0,Standard
Gastro-esophageal laceration-hemorrhage syndrome,38373.0,Standard
Chronic or unspecified duodenal ulcer with hemorrhage,65747.0,Standard
Chronic or unspecified gastrojejunal ulcer with hemorrhage,41034.0,Standard
Unspecified chronic gastritis with bleeding,38453.0,Standard
Acute appendicitis with localized peritonitis,62899.0,Standard
"Acute appendicitis with localized peritonitis, without perforation or gangrene",64596.0,Standard
Unspecified acute appendicitis,53970.0,Standard
Crohn's disease of small intestine with intestinal obstruction,26145.0,Standard
Crohn's disease of large intestine without complications,34039.0,Standard
"Crohn's disease, unspecified, without complications",32962.0,Standard
"Crohn's disease, unspecified, with rectal bleeding",26515.0,Standard
"Noninfective gastroenteritis and colitis, unspecified",33385.0,Standard
Intussusception,139381.5,Standard
"Partial intestinal obstruction, unspecified as to cause",48706.0,Standard
"Unspecified intestinal obstruction, unspecified as to partial versus complete obstruction",27032.0,Standard
Diverticulitis of large intestine without perforation or abscess without bleeding,23573.0,Standard
"Diverticulitis of intestine, part unspecified, with perforation and abscess without bleeding",46063.0,Standard
"Diverticulitis of intestine, part unspecified, without perforation or abscess without bleeding",19496.0,Standard
Irritable bowel syndrome with diarrhea,39055.0,Standard
Calculus of gallbladder with acute and chronic cholecystitis without obstruction,76955.0,Standard
Alcohol induced acute pancreatitis without necrosis or infection,27667.0,Standard
"Acute pancreatitis without necrosis or infection, unspecified",35975.0,Standard
Other postprocedural complications and disorders of digestive system,22777.0,Standard
Melena,31781.0,Standard
"Gastrointestinal hemorrhage, unspecified",59825.0,Standard
Cutaneous abscess of neck,30413.0,Standard
Cutaneous abscess of buttock,11267.0,Standard
Cutaneous abscess of right upper limb,36789.0,Standard
Cellulitis of right lower limb,24104.0,Standard
Cellulitis of groin,44755.0,Standard
"Arthropathic psoriasis, unspecified",140931.0,Standard
Bilateral primary osteoarthritis of knee,92049.0,Standard
"Unilateral primary osteoarthritis, right knee",108683.0,Standard
"Unilateral primary osteoarthritis, left knee",176796.0,Standard
"Unilateral post-traumatic osteoarthritis, right knee",96076.0,Standard
"Primary osteoarthritis, left shoulder",145006.0,Standard
"Dorsalgia, unspecified",4108.0,Standard
Rhabdomyolysis,97067.3333,Standard
"Unspecified rotator cuff tear or rupture of left shoulder, not specified as traumatic",47031.0,Standard
"Pathological fracture in neoplastic disease, other specified site, initial encounter for fracture",28508.0,Standard
"Other acute osteomyelitis, left ankle and foot",41321.0,Standard
Idiopathic aseptic necrosis of right femur,105550.0,Standard
"Acute kidney failure, unspecified",15655.3333,Standard
"Hydrocele, unspecified",26612.0,Standard
"Other ovarian cyst, right side",64697.0,Standard
Hematometra,67819.0,Standard
Unspecified pre-existing hypertension complicating childbirth,32623.0,Standard
"Pre-existing hypertension with pre-eclampsia, complicating childbirth",34436.0,Standard
"Gestational [pregnancy-induced] hypertension without significant proteinuria, complicating childbirth",17348.3333,Standard
"Mild to moderate pre-eclampsia, complicating childbirth",28694.0,Standard
"Unspecified pre-eclampsia, complicating childbirth",46073.0,Standard
"Unspecified genitourinary tract infection in pregnancy, first trimester",30561.0,Standard
"Gestational diabetes mellitus in childbirth, insulin controlled",28505.0,Standard
"Gestational diabetes mellitus in childbirth, unspecified control",25834.5,Standard
"Other specified pregnancy related conditions, third trimester",4114.0,Standard
"Maternal care for breech presentation, not applicable or unspecified",35404.0,Standard
"Maternal care for high head at term, not applicable or unspecified",17088.0,Standard
Maternal care for low transverse scar from previous cesarean delivery,34611.0909,Standard
"Maternal care for intrauterine death, not applicable or unspecified",22029.0,Standard
"Maternal care for other known or suspected poor fetal growth, third trimester, not applicable or unspecified",34217.0,Standard
"Decreased fetal movements, third trimester, not applicable or unspecified",17764.0,Standard
"Polyhydramnios, third trimester, not applicable or unspecified",45505.0,Standard
Post-term pregnancy,26540.8,Standard
"Preterm labor third trimester with preterm delivery third trimester, not applicable or unspecified",34112.0,Standard
Precipitate labor,11126.0,Standard
"Labor and delivery complicated by cord around neck, without compression, not applicable or unspecified",14670.0,Standard
First degree perineal laceration during delivery,23907.6,Standard
Second degree perineal laceration during delivery,16305.0,Standard
Delayed and secondary postpartum hemorrhage,57078.0,Standard
Other infection during labor,46086.0,Standard
Abnormality in fetal heart rate and rhythm complicating labor and delivery,26541.3333,Standard
Encounter for full-term uncomplicated delivery,12497.5,Standard
Infection of kidney following delivery,37871.0,Standard
Anemia of the puerperium,14137.0,Standard
Nonpurulent mastitis associated with lactation,23529.0,Standard
Other viral diseases complicating childbirth,12954.0,Standard
Anemia complicating childbirth,14539.6667,Standard
Drug use complicating childbirth,23682.0,Standard
Smoking (tobacco) complicating childbirth,18368.0,Standard
Diseases of the circulatory system complicating childbirth,19402.0,Standard
Streptococcus B carrier state complicating childbirth,17562.0,Standard
"Neonatal jaundice, unspecified",3328.0,Standard
Shortness of breath,16120.0,Standard
Other chest pain,13347.0,Standard
"Unspecified fracture of right acetabulum, initial encounter for closed fracture",54137.0,Standard
"Other specified fracture of right pubis, initial encounter for closed fracture",16412.0,Standard
"Displaced intertrochanteric fracture of right femur, initial encounter for closed fracture",128225.0,Standard
"Displaced intertrochanteric fracture of left femur, initial encounter for closed fracture",83969.0,Standard
"Contusion of left lower leg, initial encounter",62254.0,Standard
"Poisoning by other opioids, accidental (unintentional), initial encounter",49913.0,Standard
"Disruption of external operation (surgical) wound, not elsewhere classified, initial encounter",26953.0,Standard
"Infection and inflammatory reaction due to other urinary stents, initial encounter",20994.0,Standard
"Infection and inflammatory reaction due to internal left knee prosthesis, initial encounter",47169.0,Standard
Encounter for examination and observation for unspecified reason,12280.0,Standard
"Single liveborn infant, delivered vaginally",3729.6207,Standard
"Single liveborn infant, delivered by cesarean",4105.6875,Standard
Encounter for attention to colostomy,76737.0,Standard
Encounter for palliative care,4312.0,Standard
"Sepsis due to streptococcus, group A",74750.0,Standard
"Sepsis, unspecified organism",16683.5,Standard
"Iron deficiency anemia, unspecified",15791.0,Standard
Type 1 diabetes mellitus with ketoacidosis without coma,30944.0,Standard
Type 2 diabetes mellitus with ketoacidosis without coma,40235.5,Standard
Type 2 diabetes mellitus with other skin complications,43964.0,Standard
Alcohol dependence with other alcohol-induced disorder,54215.0,Standard
Other seizures,181292.0,Standard
Paroxysmal atrial fibrillation,18372.0,Standard
"Cerebral infarction, unspecified",44312.0,Standard
"Pneumonia, unspecified organism",22420.0,Standard
"Duodenal ulcer, unspecified as acute or chronic, without hemorrhage or perforation",41233.0,Standard
Acute appendicitis with localized peritonitis,70901.0,Standard
Diverticulitis of large intestine with perforation and abscess without bleeding,92879.0,Standard
Diverticulitis of large intestine without perforation or abscess without bleeding,31153.0,Standard
Acute cholecystitis,36854.0,Standard
Acute cholecystitis with chronic cholecystitis,62856.0,Standard
Alcohol induced acute pancreatitis without necrosis or infection,50952.0,Standard
"Acute pancreatitis without necrosis or infection, unspecified",26301.0,Standard
Other complications of enterostomy,22016.0,Standard
Cellulitis of left lower limb,50732.0,Standard
"Gestational diabetes mellitus in childbirth, unspecified control",37051.0,Standard
"Labor and delivery complicated by cord around neck, without compression, not applicable or unspecified",18130.0,Standard
First degree perineal laceration during delivery,7980.0,Standard
"Infection following a procedure, initial encounter",53455.0,Standard
"Single liveborn infant, delivered vaginally",3999.0,Standard
"Single liveborn infant, delivered by cesarean",3780.0,Standard
"Sepsis, unspecified organism",33774.0,Standard
Type 1 diabetes mellitus with ketoacidosis without coma,19833.0,Standard
Non-ST elevation (NSTEMI) myocardial infarction,40852.0,Standard
Unspecified atrial fibrillation,13655.0,Standard
Unspecified atrial flutter,30220.0,Standard
"Unilateral primary osteoarthritis, left knee",134554.0,Standard
"Acute kidney failure, unspecified",21262.0,Standard
Calculus of ureter,16687.0,Standard
"Gestational [pregnancy-induced] hypertension without significant proteinuria, complicating childbirth",46818.0,Standard
"Unspecified pre-eclampsia, complicating childbirth",17975.0,Standard
"Other specified pregnancy related conditions, third trimester",40200.0,Standard
Maternal care for low transverse scar from previous cesarean delivery,32502.5,Standard
"Maternal care for other known or suspected poor fetal growth, third trimester, not applicable or unspecified",16463.0,Standard
"Oligohydramnios, third trimester, not applicable or unspecified",23986.5,Standard
"Preterm labor without delivery, third trimester",1994.0,Standard
"Labor and delivery complicated by cord around neck, without compression, not applicable or unspecified",34440.0,Standard
Second degree perineal laceration during delivery,15906.0,Standard
Abnormality in fetal heart rate and rhythm complicating labor and delivery,19523.3333,Standard
Anemia complicating childbirth,20473.0,Standard
Smoking (tobacco) complicating childbirth,21422.5,Standard
"Neonatal jaundice, unspecified",1600.0,Standard
"Unspecified fracture of lower end of right tibia, initial encounter for closed fracture",26102.0,Standard
"Single liveborn infant, delivered vaginally",3428.9375,Standard
"Single liveborn infant, delivered by cesarean",3670.0,Standard
Nervous system neoplasms w/o MCC,66403.0,DRG
Degenerative nervous system disorders w/o MCC,42148.5,DRG
Intracranial hemorrhage or cerebral infarction w MCC,58535.8,DRG
Intracranial hemorrhage or cerebral infarction w CC,43356.8,DRG
Intracranial hemorrhage or cerebral infarction w/o CC/MCC,46072.0,DRG
Transient ischemia,31388.3333,DRG
Nonspecific cerebrovascular disorders w MCC,50661.0,DRG
Nonspecific cerebrovascular disorders w CC,33861.0,DRG
Cranial & peripheral nerve disorders w MCC,55480.0,DRG
Cranial & peripheral nerve disorders w/o MCC,37534.0,DRG
Hypertensive encephalopathy w CC,37549.0,DRG
"Traumatic stupor & coma, coma >1 hr w/o CC/MCC",11105.0,DRG
Other disorders of nervous system w MCC,19669.0,DRG
Other disorders of nervous system w/o CC/MCC,26627.0,DRG
Seizures w/o MCC,42043.0,DRG
Dysequilibrium,18601.5,DRG
Pulmonary embolism w MCC,93510.0,DRG
Pulmonary embolism w/o MCC,48410.0,DRG
Respiratory infections & inflammations w MCC,76846.2222,DRG
Respiratory infections & inflammations w CC,62717.0,DRG
Respiratory neoplasms w MCC,25762.0,DRG
Respiratory neoplasms w CC,19491.0,DRG
Major chest trauma w/o CC/MCC,38019.0,DRG
Pulmonary edema & respiratory failure,40659.0,DRG
Chronic obstructive pulmonary disease w MCC,48971.9643,DRG
Chronic obstructive pulmonary disease w CC,34743.4667,DRG
Chronic obstructive pulmonary disease w/o CC/MCC,25561.8571,DRG
Simple pneumonia & pleurisy w MCC,46262.7,DRG
Simple pneumonia & pleurisy w CC,47189.7083,DRG
Simple pneumonia & pleurisy w/o CC/MCC,29335.0,DRG
Pneumothorax w MCC,45908.0,DRG
Bronchitis & asthma w CC/MCC,32862.0,DRG
Bronchitis & asthma w/o CC/MCC,43005.0,DRG
Respiratory signs & symptoms,40597.0,DRG
Other respiratory system diagnoses w/o MCC,33517.0,DRG
Respiratory system diagnosis w ventilator support <96 hours,29611.0,DRG
"Acute myocardial infarction, discharged alive w MCC",64477.0,DRG
"Acute myocardial infarction, discharged alive w CC",41919.7778,DRG
"Acute myocardia infarction, discharged alive w/o CC/MCC",28614.3333,DRG
Heart failure & shock w MCC,51519.5217,DRG
Heart failure & shock w CC,46958.8,DRG
Heart failure & shock w/o CC/MCC,30170.0,DRG
Peripheral vascular disorders w CC,39350.5,DRG
Hypertension w/o MCC,26404.6667,DRG
Cardiac arrhythmia & conduction disorders w MCC,58198.0,DRG
Cardiac arrhythmia & conduction disorders w CC,37782.5,DRG
Cardiac arrhythmia & conduction disorders w/o CC/MCC,20578.6,DRG
Syncope & collapse,38228.5,DRG
Chest pain,21022.4,DRG
Other circulatory system diagnoses w MCC,64933.0,DRG
Other circulatory system diagnoses w CC,31056.0,DRG
Major small & large bowel procedures w MCC,160033.0,DRG
Major small & large bowel procedures w/o CC/MCC,122233.0,DRG
Appendectomy w/o complicated principal diag w CC,62037.0,DRG
Inguinal & femoral hernia procedures w/o CC/MCC,40872.0,DRG
Hernia procedures except inguinal & femoral w MCC,99341.0,DRG
Hernia procedures except inguinal & femoral w CC,81051.0,DRG
Major esophageal disorders w CC,32260.0,DRG
Major gastrointestinal disorders & peritoneal infections w MCC,42029.0,DRG
Major gastrointestinal disorders & peritoneal infections w CC,41195.0,DRG
Major gastrointestinal disorders & peritoneal infections w/o CC/MCC,52130.0,DRG
Digestive malignancy w MCC,61733.0,DRG
Digestive malignancy w CC,42109.1667,DRG
G.I. hemorrhage w MCC,42463.0,DRG
G.I. hemorrhage w CC,45497.7,DRG
G.I. hemorrhage w/o CC/MCC,32883.0,DRG
Inflammatory bowel disease w CC,24137.0,DRG
G.I. obstruction w MCC,40890.0,DRG
G.I. obstruction w CC,40361.5,DRG
G.I. obstruction w/o CC/MCC,24935.75,DRG
"Esophagitis, gastroent & misc digest disorders w MCC",106611.0,DRG
"Esophagitis, gastroent & misc digest disorders w/o MCC",38039.5714,DRG
Other digestive system diagnoses w MCC,75871.0,DRG
Laparoscopic cholecystectomy w/o c.d.e. w MCC,84865.0,DRG
Laparoscopic cholecystectomy w/o c.d.e. w CC,72114.0,DRG
Laparoscopic cholecystectomy w/o c.d.e. w/o CC/MCC,70378.0,DRG
Hepatobiliary diagnostic procedures w CC,67705.0,DRG
Cirrhosis & alcoholic hepatitis w MCC,34516.0,DRG
Cirrhosis & alcoholic hepatitis w CC,62464.6667,DRG
Disorders of pancreas except malignancy w MCC,73604.0,DRG
Disorders of pancreas except malignancy w CC,37421.4,DRG
Disorders of pancreas except malignancy w/o CC/MCC,21265.0,DRG
"Disorders of liver except malig,cirr,alc hepa w CC",20296.0,DRG
Bilateral or multiple major joint procs of lower extremity w/o MCC,165303.0,DRG
Revision of hip or knee replacement w CC,107915.0,DRG
Major joint replacement or reattachment of lower extremity w/o MCC,116998.9259,DRG
Hip & femur procedures except major joint w MCC,135403.5,DRG
Hip & femur procedures except major joint w CC,85252.3,DRG
Hip & femur procedures except major joint w/o CC/MCC,80976.0,DRG
Major joint & limb reattachment proc of upper extremity w CC/MCC,142360.6,DRG
"Lower extrem & humer proc except hip,foot,femur w MCC",91089.0,DRG
"Lower extrem & humer proc except hip,foot,femur w CC",135248.0,DRG
"Lower extrem & humer proc except hip,foot,femur w/o CC/MCC",76999.0,DRG
Soft tissue procedures w CC,48819.0,DRG
"Shoulder,elbow or forearm proc,exc major joint proc w CC",65958.0,DRG
Fractures of hip & pelvis w/o MCC,35167.6,DRG
Connective tissue disorders w MCC,108726.0,DRG
Septic arthritis w CC,49562.0,DRG
Medical back problems w/o MCC,19419.0,DRG
Bone diseases & arthropathies w/o MCC,31120.0,DRG
Signs & symptoms of musculoskeletal system & conn tissue w/o MCC,9461.0,DRG
"Tendonitis, myositis & bursitis w/o MCC",26862.0,DRG
"Aftercare, musculoskeletal system & connective tissue w CC",11842.0,DRG
"Fx, sprn, strn & disl except femur, hip, pelvis & thigh w MCC",25659.5,DRG
"Fx, sprn, strn & disl except femur, hip, pelvis & thigh w/o MCC",27337.0,DRG
Other musculoskeletal sys & connective tissue diagnoses w MCC,48268.0,DRG
Other musculoskeletal sys & connective tissue diagnoses w CC,39182.3333,DRG
Cellulitis w MCC,51550.0,DRG
Cellulitis w/o MCC,44746.7273,DRG
"Amputat of lower limb for endocrine,nutrit,& metabol dis w CC",81569.0,DRG
Diabetes w MCC,36961.0,DRG
Diabetes w CC,34181.625,DRG
Diabetes w/o CC/MCC,74865.0,DRG
Nutritional & misc metabolic disorders w MCC,63020.5,DRG
Nutritional & misc metabolic disorders w/o MCC,29889.8,DRG
Inborn errors of metabolism,30971.0,DRG
Endocrine disorders w CC,62852.0,DRG
Renal failure w MCC,51176.6,DRG
Renal failure w CC,33894.0,DRG
Renal failure w/o CC/MCC,22172.0,DRG
Kidney & urinary tract neoplasms w CC,29199.0,DRG
Kidney & urinary tract infections w MCC,41156.3333,DRG
Kidney & urinary tract infections w/o MCC,33805.8519,DRG
Other kidney & urinary tract diagnoses w MCC,74775.0,DRG
Other kidney & urinary tract diagnoses w CC,36041.75,DRG
Other kidney & urinary tract diagnoses w/o CC/MCC,47820.0,DRG
Major male pelvic procedures w/o CC/MCC,54492.0,DRG
Benign prostatic hypertrophy w/o MCC,25687.0,DRG
Inflammation of the male reproductive system w/o MCC,25521.0,DRG
Vaginal delivery w/o complicating diagnoses,18378.0,DRG
Cesarean Section with Sterilization w/o MCC/CC,36809.0,DRG
Red blood cell disorders w MCC,38822.0,DRG
Red blood cell disorders w/o MCC,40429.8889,DRG
Coagulation disorders,21777.0,DRG
Lymphoma & non-acute leukemia w other O.R. proc w CC,77674.0,DRG
Acute leukemia w/o major O.R. procedure w MCC,41994.0,DRG
Other myeloprolif dis or poorly diff neopl diag w MCC,51247.0,DRG
Postoperative & post-traumatic infections w MCC,52859.0,DRG
Postoperative & post-traumatic infections w/o MCC,28797.0,DRG
Fever of unknown origin,17893.5,DRG
Viral illness w MCC,38012.0,DRG
Septicemia w/o MV 96+ hours w MCC,66796.6316,DRG
Septicemia w/o MV 96+ hours w/o MCC,43412.3333,DRG
Organic disturbances & mental retardation,27407.0,DRG
Psychoses,20410.0,DRG
Poisoning & toxic effects of drugs w/o MCC,25006.5,DRG
Complications of treatment w MCC,36719.0,DRG
Signs & symptoms w/o MCC,29189.5,DRG
Aftercare w/o CC/MCC,69440.0,DRG
Extensive O.R. procedure unrelated to principal diagnosis w MCC,74198.0,DRG
"Ear, nose, mouth & throat malignancy w MCC",30955.0,DRG
Pulmonary edema & respiratory failure,24952.0,DRG
Chronic obstructive pulmonary disease w CC,14959.0,DRG
Simple pneumonia & pleurisy w MCC,51001.0,DRG
Simple pneumonia & pleurisy w CC,65032.0,DRG
Simple pneumonia & pleurisy w/o CC/MCC,19837.5,DRG
Pneumothorax w/o CC/MCC,25012.0,DRG
Bronchitis & asthma w/o CC/MCC,8892.0,DRG
Other respiratory system diagnoses w MCC,51443.0,DRG
"Acute myocardial infarction, discharged alive w MCC",100732.0,DRG
Heart failure & shock w MCC,115480.0,DRG
Hypertension w/o MCC,16276.0,DRG
Cardiac arrhythmia & conduction disorders w/o CC/MCC,27924.0,DRG
Major small & large bowel procedures w CC,153657.5,DRG
Appendectomy w/o complicated principal diag w/o CC/MCC,57435.0,DRG
Major gastrointestinal disorders & peritoneal infections w CC,28332.0,DRG
G.I. hemorrhage w/o CC/MCC,36585.0,DRG
Inflammatory bowel disease w CC,24886.0,DRG
G.I. obstruction w/o CC/MCC,24228.0,DRG
"Esophagitis, gastroent & misc digest disorders w MCC",34161.0,DRG
"Esophagitis, gastroent & misc digest disorders w/o MCC",35518.0,DRG
Cholecystectomy except by laparoscope w/o c.d.e. w/o CC/MCC,79070.0,DRG
Laparoscopic cholecystectomy w/o c.d.e. w CC,60733.0,DRG
Laparoscopic cholecystectomy w/o c.d.e. w/o CC/MCC,70066.0,DRG
Cirrhosis & alcoholic hepatitis w CC,56805.0,DRG
Disorders of pancreas except malignancy w/o CC/MCC,18641.0,DRG
Disorders of the biliary tract w/o CC/MCC,16989.0,DRG
Major joint replacement or reattachment of lower extremity w/o MCC,119658.1429,DRG
Hip & femur procedures except major joint w CC,69075.0,DRG
Bone diseases & arthropathies w/o MCC,81627.0,DRG
"Fx, sprn, strn & disl except femur, hip, pelvis & thigh w/o MCC",45014.0,DRG
Other musculoskeletal sys & connective tissue diagnoses w CC,75686.0,DRG
Non-malignant breast disorders w CC/MCC,42245.0,DRG
Cellulitis w/o MCC,48173.25,DRG
"Amputat of lower limb for endocrine,nutrit,& metabol dis w CC",86356.0,DRG
"Amputat of lower limb for endocrine,nutrit,& metabol dis w/o CC/MCC",101592.0,DRG
Diabetes w MCC,79744.0,DRG
Diabetes w CC,22821.0,DRG
Diabetes w/o CC/MCC,23828.0,DRG
Nutritional & misc metabolic disorders w MCC,37841.0,DRG
Nutritional & misc metabolic disorders w/o MCC,32378.5,DRG
Renal failure w CC,25138.0,DRG
Cesarean section w CC/MCC,36463.8889,DRG
Cesarean section w/o CC/MCC,34923.0,DRG
Vaginal delivery w sterilization &/or D&C,45509.3333,DRG
Vaginal delivery w complicating diagnoses,16794.0,DRG
Vaginal delivery w/o complicating diagnoses,17982.9474,DRG
Cesarean Section without Sterilization w CC,35520.0,DRG
Cesarean Section without Sterilization w/o MCC/CC,8744.0,DRG
"Neonates, died or transferred to another acute care facility",3801.0,DRG
Prematurity w/o major problems,6748.0,DRG
Full term neonate w major problems,8553.0,DRG
Neonate w other significant problems,4558.4286,DRG
Normal newborn,3985.5455,DRG
Vaginal Delivery with Sterilization and/or D&C w/o MCC/CC,32303.0,DRG
VAGINAL DELIVERY WITHOUT STERILIZATION/D&C WITH CC,29018.5,DRG
VAGINAL DELIVERY WITHOUT STERILIZATION/D&C WITHOUT CC/MCC,18804.0,DRG
Red blood cell disorders w/o MCC,18278.0,DRG
Coagulation disorders,20865.0,DRG
Infectious & parasitic diseases w O.R. procedure w MCC,88465.0,DRG
Infectious & parasitic diseases w O.R. procedure w CC,162613.0,DRG
Postoperative or post-traumatic infections w O.R. proc w CC,44686.0,DRG
Fever of unknown origin,56483.0,DRG
Septicemia w/o MV 96+ hours w MCC,63569.5,DRG
Septicemia w/o MV 96+ hours w/o MCC,34509.0,DRG
Alcohol/drug abuse or dependence w/o rehabilitation therapy w/o CC/MCC,43450.0,DRG
Poisoning & toxic effects of drugs w/o MCC,9996.0,DRG
Chronic obstructive pulmonary disease w CC,50424.5,DRG
Simple pneumonia & pleurisy w MCC,95157.0,DRG
"Acute myocardia infarction, discharged alive w/o CC/MCC",40349.0,DRG
Atherosclerosis w/o MCC,30896.0,DRG
G.I. obstruction w CC,15138.0,DRG
Bilateral or multiple major joint procs of lower extremity w/o MCC,178440.0,DRG
Major joint replacement or reattachment of lower extremity w MCC,157272.0,DRG
Major joint replacement or reattachment of lower extremity w/o MCC,104608.75,DRG
Vaginal delivery w complicating diagnoses,27337.0,DRG
Normal newborn,3607.0,DRG
Intracranial hemorrhage or cerebral infarction w CC,57930.5,DRG
Intracranial hemorrhage or cerebral infarction w/o CC/MCC,22362.0,DRG
Nonspecific cerebrovascular disorders w CC,74122.0,DRG
Other disorders of nervous system w CC,50508.0,DRG
Dysequilibrium,36154.0,DRG
Pulmonary embolism w/o MCC,28392.0,DRG
Respiratory infections & inflammations w MCC,38558.0,DRG
Respiratory infections & inflammations w/o CC/MCC,22214.0,DRG
Pulmonary edema & respiratory failure,35540.5,DRG
Chronic obstructive pulmonary disease w MCC,44872.4286,DRG
Chronic obstructive pulmonary disease w CC,17152.0,DRG
Chronic obstructive pulmonary disease w/o CC/MCC,28470.0,DRG
Simple pneumonia & pleurisy w MCC,52623.0,DRG
Simple pneumonia & pleurisy w CC,29296.4,DRG
Simple pneumonia & pleurisy w/o CC/MCC,55437.0,DRG
Pneumothorax w/o CC/MCC,16393.0,DRG
Bronchitis & asthma w CC/MCC,33239.5,DRG
Bronchitis & asthma w/o CC/MCC,15661.0,DRG
Respiratory signs & symptoms,16120.0,DRG
"Acute myocardial infarction, discharged alive w MCC",51880.5,DRG
"Acute myocardial infarction, discharged alive w CC",25030.5,DRG
Heart failure & shock w MCC,38255.75,DRG
Heart failure & shock w CC,18865.0,DRG
Peripheral vascular disorders w CC,14900.0,DRG
Atherosclerosis w/o MCC,23193.0,DRG
Hypertension w/o MCC,60343.5,DRG
Cardiac arrhythmia & conduction disorders w MCC,46819.0,DRG
Cardiac arrhythmia & conduction disorders w CC,27703.5,DRG
Cardiac arrhythmia & conduction disorders w/o CC/MCC,22593.0,DRG
Angina pectoris,39687.0,DRG
Chest pain,13347.0,DRG
Major small & large bowel procedures w MCC,172499.0,DRG
Major small & large bowel procedures w CC,106264.0,DRG
Major small & large bowel procedures w/o CC/MCC,76737.0,DRG
Appendectomy w complicated principal diag w/o CC/MCC,62899.0,DRG
Appendectomy w/o complicated principal diag w/o CC/MCC,59283.0,DRG
Other digestive system O.R. procedures w/o CC/MCC,38453.0,DRG
Major esophageal disorders w CC,38373.0,DRG
Major gastrointestinal disorders & peritoneal infections w CC,23825.0,DRG
G.I. hemorrhage w MCC,31781.0,DRG
G.I. hemorrhage w CC,55535.3333,DRG
Inflammatory bowel disease w CC,29553.5,DRG
Inflammatory bowel disease w/o CC/MCC,30277.0,DRG
G.I. obstruction w CC,27032.0,DRG
G.I. obstruction w/o CC/MCC,48706.0,DRG
"Esophagitis, gastroent & misc digest disorders w/o MCC",31218.5714,DRG
Other digestive system diagnoses w/o CC/MCC,22777.0,DRG
Laparoscopic cholecystectomy w/o c.d.e. w/o CC/MCC,76955.0,DRG
Disorders of pancreas except malignancy w CC,54578.0,DRG
Disorders of pancreas except malignancy w/o CC/MCC,24235.3333,DRG
Bilateral or multiple major joint procs of lower extremity w/o MCC,212357.0,DRG
Major joint replacement or reattachment of lower extremity w/o MCC,108712.6667,DRG
Hip & femur procedures except major joint w CC,106097.0,DRG
Major joint & limb reattachment proc of upper extremity w CC/MCC,142968.5,DRG
Foot procedures w CC,41321.0,DRG
"Shoulder,elbow or forearm proc,exc major joint proc w/o CC/MCC",47031.0,DRG
Fractures of hip & pelvis w/o MCC,35274.5,DRG
Pathological fractures & musculoskelet & conn tiss malig w CC,28508.0,DRG
Connective tissue disorders w CC,29687.0,DRG
Medical back problems w/o MCC,4108.0,DRG
"Tendonitis, myositis & bursitis w/o MCC",97067.3333,DRG
"Aftercare, musculoskeletal system & connective tissue w MCC",47169.0,DRG
"Other skin, subcut tiss & breast proc w CC",30413.0,DRG
Cellulitis w/o MCC,29228.75,DRG
"Trauma to the skin, subcut tiss & breast w/o MCC",62254.0,DRG
Diabetes w MCC,30679.0,DRG
Diabetes w CC,32421.3333,DRG
Diabetes w/o CC/MCC,32643.3333,DRG
Nutritional & misc metabolic disorders w/o MCC,40448.0,DRG
Inborn errors of metabolism,45145.0,DRG
Endocrine disorders w CC,34618.5,DRG
Endocrine disorders w/o CC/MCC,34527.0,DRG
Kidney & ureter procedures for neoplasm w/o CC/MCC,116068.0,DRG
Renal failure w CC,14936.0,DRG
Renal failure w/o CC/MCC,17094.0,DRG
Other kidney & urinary tract diagnoses w MCC,27916.0,DRG
Other kidney & urinary tract diagnoses w CC,20994.0,DRG
Other male reproductive system diagnoses w CC/MCC,26612.0,DRG
Uterine & adnexa proc for non-malignancy w/o CC/MCC,67819.0,DRG
Other female reproductive system O.R. procedures w/o CC/MCC,64697.0,DRG
"Infections, female reproductive system w CC",13699.0,DRG
Cesarean section w CC/MCC,38313.5,DRG
Cesarean section w/o CC/MCC,35035.8571,DRG
Vaginal delivery w sterilization &/or D&C,38982.2,DRG
Postpartum & post abortion diagnoses w O.R. procedure,57078.0,DRG
Vaginal delivery w complicating diagnoses,24330.6667,DRG
Vaginal delivery w/o complicating diagnoses,17164.0952,DRG
Postpartum & post abortion diagnoses w/o O.R. procedure,30700.0,DRG
Other antepartum diagnoses w medical complications,4114.0,DRG
Cesarean Section with Sterilization w CC,31005.0,DRG
Cesarean Section with Sterilization w/o MCC/CC,33951.0,DRG
Cesarean Section without Sterilization w/o MCC/CC,37583.3333,DRG
"Neonates, died or transferred to another acute care facility",3388.3333,DRG
Full term neonate w major problems,3968.0,DRG
Neonate w other significant problems,4634.2,DRG
Normal newborn,3780.3784,DRG
VAGINAL DELIVERY WITHOUT STERILIZATION/D&C WITH CC,17322.3333,DRG
VAGINAL DELIVERY WITHOUT STERILIZATION/D&C WITHOUT CC/MCC,18860.875,DRG
Major hematol/immun diag exc sickle cell crisis & coagul w CC,43504.0,DRG
Red blood cell disorders w/o MCC,27098.0,DRG
Other Antepartum Diagnoses without O.R. Procedure w/o MCC/CC,30561.0,DRG
Infectious & parasitic diseases w O.R. procedure w/o CC/MCC,44423.0,DRG
Septicemia w/o MV 96+ hours w MCC,73323.0,DRG
Septicemia w/o MV 96+ hours w/o MCC,49446.0,DRG
Other O.R. procedures for injuries w/o CC/MCC,26953.0,DRG
Poisoning & toxic effects of drugs w MCC,49913.0,DRG
Other factors influencing health status,8296.0,DRG
Intracranial hemorrhage or cerebral infarction w CC,44312.0,DRG
Seizures w MCC,181292.0,DRG
Simple pneumonia & pleurisy w CC,22420.0,DRG
Cardiac arrhythmia & conduction disorders w/o CC/MCC,18372.0,DRG
Major small & large bowel procedures w CC,92879.0,DRG
Appendectomy w complicated principal diag w/o CC/MCC,70901.0,DRG
Uncomplicated peptic ulcer w/o MCC,41233.0,DRG
"Esophagitis, gastroent & misc digest disorders w/o MCC",31153.0,DRG
Other digestive system diagnoses w CC,22016.0,DRG
Laparoscopic cholecystectomy w/o c.d.e. w CC,62856.0,DRG
Disorders of pancreas except malignancy w CC,44789.25,DRG
Disorders of the biliary tract w CC,36854.0,DRG
Cellulitis w MCC,50732.0,DRG
Diabetes w MCC,47477.0,DRG
Diabetes w CC,32550.0,DRG
Diabetes w/o CC/MCC,43383.0,DRG
Vaginal delivery w sterilization &/or D&C,22515.5,DRG
Vaginal delivery w complicating diagnoses,18130.0,DRG
Normal newborn,3971.625,DRG
Red blood cell disorders w/o MCC,15791.0,DRG
Postoperative & post-traumatic infections w MCC,53455.0,DRG
Septicemia w/o MV 96+ hours w MCC,16683.5,DRG
Septicemia w/o MV 96+ hours w/o MCC,74750.0,DRG
Alcohol/drug abuse or dependence w/o rehabilitation therapy w/o CC/MCC,54215.0,DRG
"Acute myocardia infarction, discharged alive w/o CC/MCC",40852.0,DRG
Cardiac arrhythmia & conduction disorders w MCC,30220.0,DRG
Cardiac arrhythmia & conduction disorders w/o CC/MCC,13655.0,DRG
Major joint replacement or reattachment of lower extremity w/o MCC,134554.0,DRG
"Fx, sprn, strn & disl except femur, hip, pelvis & thigh w/o MCC",26102.0,DRG
Diabetes w CC,19833.0,DRG
Renal failure w CC,21262.0,DRG
Urinary stones w/o esw lithotripsy w/o MCC,16687.0,DRG
Cesarean section w/o CC/MCC,31468.0,DRG
Vaginal delivery w sterilization &/or D&C,37320.0,DRG
Vaginal delivery w complicating diagnoses,19062.25,DRG
Vaginal delivery w/o complicating diagnoses,20966.2857,DRG
Cesarean Section with Sterilization w/o MCC/CC,33537.0,DRG
"Neonates, died or transferred to another acute care facility",2221.0,DRG
Neonate w other significant problems,4032.5,DRG
Normal newborn,3323.1333,DRG
Vaginal Delivery with Sterilization and/or D&C w CC,46818.0,DRG
Other Antepartum Diagnoses without O.R. Procedure w MCC,1994.0,DRG
Septicemia w/o MV 96+ hours w/o MCC,33774.0,DRG
Extensive O.R. procedure unrelated to principal diagnosis w CC,17665.0,DRG
DEGENERATIVE NERVOUS SYSTEM DISORDERS EXC MULT SCLEROSIS,42148.5,DRG
CVA & PRECEREBRAL OCCLUSION W INFARCT,31902.5,DRG
CVA & PRECEREBRAL OCCLUSION W INFARCT,59900.6667,DRG
CVA & PRECEREBRAL OCCLUSION W INFARCT,68521.0,DRG
TRANSIENT ISCHEMIA,34045.0,DRG
TRANSIENT ISCHEMIA,30060.0,DRG
"PERIPHERAL, CRANIAL & AUTONOMIC NERVE DISORDERS",39652.0,DRG
NON-BACTERIAL INFECTIONS OF NERVOUS SYSTEM EXC VIRAL MENINGITIS,35416.0,DRG
NON-BACTERIAL INFECTIONS OF NERVOUS SYSTEM EXC VIRAL MENINGITIS,55480.0,DRG
ALTERATION IN CONSCIOUSNESS,37549.0,DRG
ALTERATION IN CONSCIOUSNESS,40815.6667,DRG
ALTERATION IN CONSCIOUSNESS,32405.0,DRG
SEIZURE,54699.0,DRG
SEIZURE,16731.0,DRG
HEAD TRAUMA W COMA >1 HR OR HEMORRHAGE,11105.0,DRG
OTHER DISORDERS OF NERVOUS SYSTEM,26627.0,DRG
OTHER DISORDERS OF NERVOUS SYSTEM,66403.0,DRG
VERTIGO & OTHER LABYRINTH DISORDERS,15077.0,DRG
VERTIGO & OTHER LABYRINTH DISORDERS,22126.0,DRG
INFECTIONS OF UPPER RESPIRATORY TRACT,25140.6667,DRG
INFECTIONS OF UPPER RESPIRATORY TRACT,29115.5,DRG
RESPIRATORY FAILURE,41165.8,DRG
RESPIRATORY FAILURE,50994.0,DRG
RESPIRATORY FAILURE,31065.0,DRG
PULMONARY EMBOLISM,48410.0,DRG
PULMONARY EMBOLISM,93510.0,DRG
MAJOR CHEST & RESPIRATORY TRAUMA,38019.0,DRG
RESPIRATORY MALIGNANCY,19491.0,DRG
RESPIRATORY MALIGNANCY,20077.0,DRG
RESPIRATORY MALIGNANCY,31447.0,DRG
MAJOR RESPIRATORY INFECTIONS & INFLAMMATIONS,80438.75,DRG
MAJOR RESPIRATORY INFECTIONS & INFLAMMATIONS,55411.5,DRG
OTHER PNEUMONIA,33565.5,DRG
OTHER PNEUMONIA,41028.8462,DRG
OTHER PNEUMONIA,52165.9333,DRG
OTHER PNEUMONIA,83488.0,DRG
CHRONIC OBSTRUCTIVE PULMONARY DISEASE,13776.0,DRG
CHRONIC OBSTRUCTIVE PULMONARY DISEASE,30880.625,DRG
CHRONIC OBSTRUCTIVE PULMONARY DISEASE,45845.6786,DRG
CHRONIC OBSTRUCTIVE PULMONARY DISEASE,51318.6667,DRG
"OTHER RESPIRATORY DIAGNOSES EXCEPT SIGNS, SYMPTOMS & MINOR DIAGNOSE",45908.0,DRG
"RESPIRATORY SIGNS, SYMPTOMS & MINOR DIAGNOSES",33517.0,DRG
ACUTE BRONCHITIS AND RELATED SYMPTOMS,37933.5,DRG
ACUTE BRONCHITIS AND RELATED SYMPTOMS,40597.0,DRG
ACUTE MYOCARDIAL INFARCTION,14919.0,DRG
ACUTE MYOCARDIAL INFARCTION,39457.6667,DRG
ACUTE MYOCARDIAL INFARCTION,45278.4,DRG
HEART FAILURE,45349.6667,DRG
HEART FAILURE,45608.6667,DRG
HEART FAILURE,98647.3333,DRG
CARDIAC ARREST & SHOCK,105022.0,DRG
PERIPHERAL & OTHER VASCULAR DISORDERS,27508.0,DRG
PERIPHERAL & OTHER VASCULAR DISORDERS,51193.0,DRG
ANGINA PECTORIS & CORONARY ATHEROSCLEROSIS,25679.0,DRG
ANGINA PECTORIS & CORONARY ATHEROSCLEROSIS,27642.0,DRG
HYPERTENSION,26891.5,DRG
HYPERTENSION,25431.0,DRG
CARDIAC ARRHYTHMIA & CONDUCTION DISORDERS,15882.5,DRG
CARDIAC ARRHYTHMIA & CONDUCTION DISORDERS,23709.3333,DRG
CARDIAC ARRHYTHMIA & CONDUCTION DISORDERS,45043.0,DRG
CARDIAC ARRHYTHMIA & CONDUCTION DISORDERS,64937.0,DRG
CHEST PAIN,11308.0,DRG
CHEST PAIN,14804.0,DRG
SYNCOPE & COLLAPSE,37671.0,DRG
SYNCOPE & COLLAPSE,31547.5,DRG
SYNCOPE & COLLAPSE,52148.0,DRG
"MALFUNCTION,REACTION,COMPLICATION OF CARDIAC/VASC DEVICE OR PROCEDU",56844.0,DRG
OTHER CIRCULATORY SYSTEM DIAGNOSES,31056.0,DRG
OTHER CIRCULATORY SYSTEM DIAGNOSES,73022.0,DRG
"HERNIA PROCEDURES EXCEPT INGUINAL, FEMORAL & UMBILICAL",90196.0,DRG
"INGUINAL, FEMORAL & UMBILICAL HERNIA PROCEDURES",40872.0,DRG
MAJOR SMALL BOWEL PROCEDURES,160033.0,DRG
MAJOR LARGE BOWEL PROCEDURES,122233.0,DRG
APPENDECTOMY WITHOUT COMPLEX PRINCIPAL DIAGNOSIS,62037.0,DRG
DIGESTIVE MALIGNANCY,59248.0,DRG
DIGESTIVE MALIGNANCY,27461.6667,DRG
PEPTIC ULCER & GASTRITIS,38719.0,DRG
PEPTIC ULCER & GASTRITIS,58124.0,DRG
MAJOR ESOPHAGEAL DISORDERS,32260.0,DRG
OTHER ESOPHAGEAL DISORDERS,17974.0,DRG
DIVERTICULITIS & DIVERTICULOSIS,31319.0,DRG
DIVERTICULITIS & DIVERTICULOSIS,49854.5,DRG
DIVERTICULITIS & DIVERTICULOSIS,47949.0,DRG
INFLAMMATORY BOWEL DISEASE,24137.0,DRG
GASTROINTESTINAL VASCULAR INSUFFICIENCY,75871.0,DRG
INTESTINAL OBSTRUCTION,24009.25,DRG
INTESTINAL OBSTRUCTION,36475.8,DRG
INTESTINAL OBSTRUCTION,44119.4286,DRG
MAJOR GASTROINTESTINAL & PERITONEAL INFECTIONS,52130.0,DRG
MAJOR GASTROINTESTINAL & PERITONEAL INFECTIONS,45079.0,DRG
MAJOR GASTROINTESTINAL & PERITONEAL INFECTIONS,40224.0,DRG
MAJOR GASTROINTESTINAL & PERITONEAL INFECTIONS,42029.0,DRG
"OTHER GASTROENTERITIS, NAUSEA & VOMITING",29901.0,DRG
"OTHER GASTROENTERITIS, NAUSEA & VOMITING",27420.6667,DRG
"OTHER GASTROENTERITIS, NAUSEA & VOMITING",44942.4,DRG
"OTHER GASTROENTERITIS, NAUSEA & VOMITING",149596.0,DRG
ABDOMINAL PAIN,66027.0,DRG
OTHER & UNSPECIFIED GASTROINTESTINAL HEMORRHAGE,34447.0,DRG
OTHER & UNSPECIFIED GASTROINTESTINAL HEMORRHAGE,29516.0,DRG
OTHER & UNSPECIFIED GASTROINTESTINAL HEMORRHAGE,43558.5,DRG
OTHER DIGESTIVE SYSTEM DIAGNOSES,51774.0,DRG
OTHER DIGESTIVE SYSTEM DIAGNOSES,48544.6,DRG
CHOLECYSTECTOMY,73906.0,DRG
CHOLECYSTECTOMY,75030.6667,DRG
CHOLECYSTECTOMY,71482.5,DRG
"OTHER HEPATOBILIARY, PANCREAS & ABDOMINAL PROCEDURES",67705.0,DRG
HEPATIC COMA & OTHER MAJOR ACUTE LIVER DISORDERS,13853.0,DRG
HEPATIC COMA & OTHER MAJOR ACUTE LIVER DISORDERS,26739.0,DRG
ALCOHOLIC LIVER DISEASE,84282.0,DRG
DISORDERS OF PANCREAS EXCEPT MALIGNANCY,26834.0,DRG
DISORDERS OF PANCREAS EXCEPT MALIGNANCY,35193.8,DRG
DISORDERS OF PANCREAS EXCEPT MALIGNANCY,73604.0,DRG
OTHER DISORDERS OF THE LIVER,51556.0,DRG
OTHER DISORDERS OF THE LIVER,34516.0,DRG
HIP JOINT REPLACEMENT,110605.6667,DRG
HIP JOINT REPLACEMENT,130482.6667,DRG
KNEE JOINT REPLACEMENT,103734.3333,DRG
KNEE JOINT REPLACEMENT,114737.0769,DRG
KNEE JOINT REPLACEMENT,115579.0,DRG
HIP & FEMUR FRACTURE REPAIR,79077.0,DRG
HIP & FEMUR FRACTURE REPAIR,87364.75,DRG
HIP & FEMUR FRACTURE REPAIR,107052.5,DRG
KNEE & LOWER LEG PROCEDURES EXCEPT FOOT,76999.0,DRG
KNEE & LOWER LEG PROCEDURES EXCEPT FOOT,91089.0,DRG
FOOT & TOE PROCEDURES,81569.0,DRG
"SHOULDER, UPPER ARM & FOREARM PROCEDURES EXCEPT JOINT REPLACEMENT",48819.0,DRG
"SHOULDER, UPPER ARM & FOREARM PROCEDURES EXCEPT JOINT REPLACEMENT",132184.2,DRG
"SHOULDER, UPPER ARM & FOREARM PROCEDURES EXCEPT JOINT REPLACEMENT",134562.0,DRG
SHOULDER & ELBOW JOINT REPLACEMENT,117526.0,DRG
FRACTURE OF FEMUR,19015.0,DRG
FRACTURE OF PELVIS OR DISLOCATION OF HIP,27596.0,DRG
FRACTURE OF PELVIS OR DISLOCATION OF HIP,48582.0,DRG
"FRACTURES & DISLOCATIONS EXCEPT FEMUR, PELVIS & BACK",27337.0,DRG
"FRACTURES & DISLOCATIONS EXCEPT FEMUR, PELVIS & BACK",25659.5,DRG
"OSTEOMYELITIS, SEPTIC ARTHRITIS & OTHER MUSCULOSKELETAL INFECTIONS",49562.0,DRG
CONNECTIVE TISSUE DISORDERS,108726.0,DRG
"OTHER BACK & NECK DISORDERS, FRACTURES & INJURIES",19419.0,DRG
"MALFUNCTION, REACTION, COMPLIC OF ORTHOPEDIC DEVICE OR PROCEDURE",40393.0,DRG
OTHER MUSCULOSKELETAL SYSTEM & CONNECTIVE TISSUE DIAGNOSES,9461.0,DRG
OTHER MUSCULOSKELETAL SYSTEM & CONNECTIVE TISSUE DIAGNOSES,34006.0,DRG
OTHER MUSCULOSKELETAL SYSTEM & CONNECTIVE TISSUE DIAGNOSES,39250.0,DRG
SKIN ULCERS,44678.0,DRG
CELLULITIS & OTHER SKIN INFECTIONS,17646.0,DRG
CELLULITIS & OTHER SKIN INFECTIONS,42790.8571,DRG
CELLULITIS & OTHER SKIN INFECTIONS,56645.5,DRG
DIABETES,19096.0,DRG
DIABETES,45562.0,DRG
DIABETES,42129.7778,DRG
"MALNUTRITION, FAILURE TO THRIVE & OTHER NUTRITIONAL DISORDERS",101346.0,DRG
HYPOVOLEMIA & RELATED ELECTROLYTE DISORDERS,32557.0,DRG
HYPOVOLEMIA & RELATED ELECTROLYTE DISORDERS,21146.3333,DRG
INBORN ERRORS OF METABOLISM,30971.0,DRG
OTHER NON-HYPOVOLEMIC ELECTROLYTE DISORDERS,36493.5,DRG
NON-HYPOVOLEMIC SODIUM DISORDERS,32244.0,DRG
NON-HYPOVOLEMIC SODIUM DISORDERS,62852.0,DRG
KIDNEY & URINARY TRACT MALIGNANCY,29199.0,DRG
KIDNEY & URINARY TRACT INFECTIONS,33111.8571,DRG
KIDNEY & URINARY TRACT INFECTIONS,38274.3529,DRG
KIDNEY & URINARY TRACT INFECTIONS,22733.0,DRG
"MALFUNCTION, REACTION, COMPLIC OF GENITOURINARY DEVICE OR PROC",39454.0,DRG
"MALFUNCTION, REACTION, COMPLIC OF GENITOURINARY DEVICE OR PROC",31577.0,DRG
"MALFUNCTION, REACTION, COMPLIC OF GENITOURINARY DEVICE OR PROC",104657.6667,DRG
"OTHER KIDNEY & URINARY TRACT DIAGNOSES, SIGNS & SYMPTOMS",33983.3333,DRG
ACUTE KIDNEY INJURY,31933.3333,DRG
ACUTE KIDNEY INJURY,38876.2,DRG
MAJOR MALE PELVIC PROCEDURES,54492.0,DRG
MALE REPRODUCTIVE SYSTEM DIAGNOSES EXCEPT MALIGNANCY,25521.0,DRG
MALE REPRODUCTIVE SYSTEM DIAGNOSES EXCEPT MALIGNANCY,26365.0,DRG
MALE REPRODUCTIVE SYSTEM DIAGNOSES EXCEPT MALIGNANCY,25009.0,DRG
CESAREAN DELIVERY,36809.0,DRG
VAGINAL DELIVERY,18378.0,DRG
COAGULATION & PLATELET DISORDERS,21777.0,DRG
OTHER ANEMIA & DISORDERS OF BLOOD & BLOOD-FORMING ORGANS,25218.0,DRG
OTHER ANEMIA & DISORDERS OF BLOOD & BLOOD-FORMING ORGANS,46991.3333,DRG
OTHER ANEMIA & DISORDERS OF BLOOD & BLOOD-FORMING ORGANS,66861.0,DRG
OTHER O.R. PROCEDURES FOR LYMPHATIC/HEMATOPOIETIC/OTHER NEOPLASMS,77674.0,DRG
ACUTE LEUKEMIA,41994.0,DRG
LYMPHATIC & OTHER MALIGNANCIES & NEOPLASMS OF UNCERTAIN BEHAVIOR,21134.0,DRG
LYMPHATIC & OTHER MALIGNANCIES & NEOPLASMS OF UNCERTAIN BEHAVIOR,51247.0,DRG
SEPTICEMIA & DISSEMINATED INFECTIONS,22293.5,DRG
SEPTICEMIA & DISSEMINATED INFECTIONS,49531.2,DRG
SEPTICEMIA & DISSEMINATED INFECTIONS,53415.1538,DRG
SEPTICEMIA & DISSEMINATED INFECTIONS,84150.875,DRG
"POST-OPERATIVE, POST-TRAUMATIC, OTHER DEVICE INFECTIONS",28797.0,DRG
"POST-OPERATIVE, POST-TRAUMATIC, OTHER DEVICE INFECTIONS",52859.0,DRG
FEVER,19822.0,DRG
FEVER,15965.0,DRG
VIRAL ILLNESS,38385.5,DRG
VIRAL ILLNESS,37265.0,DRG
MAJOR DEPRESSIVE DISORDERS & OTHER/UNSPECIFIED PSYCHOSES,20410.0,DRG
ORGANIC MENTAL HEALTH DISTURBANCES,27407.0,DRG
POISONING OF MEDICINAL AGENTS,23625.5,DRG
POISONING OF MEDICINAL AGENTS,37341.0,DRG
OTHER COMPLICATIONS OF TREATMENT,36719.0,DRG
OVERDOSE,15434.0,DRG
"SIGNS, SYMPTOMS & OTHER FACTORS INFLUENCING HEALTH STATUS",41492.0,DRG
"SIGNS, SYMPTOMS & OTHER FACTORS INFLUENCING HEALTH STATUS",16887.0,DRG
OTHER AFTERCARE & CONVALESCENCE,40641.0,DRG
MULTIPLE SIGNIFICANT TRAUMA W/O O.R. PROCEDURE,32063.0,DRG
"EAR, NOSE, MOUTH, THROAT, CRANIAL/FACIAL MALIGNANCIES",30955.0,DRG
INFECTIONS OF UPPER RESPIRATORY TRACT,86438.0,DRG
RESPIRATORY FAILURE,24952.0,DRG
MAJOR CHEST & RESPIRATORY TRAUMA,25012.0,DRG
MAJOR RESPIRATORY INFECTIONS & INFLAMMATIONS,23427.0,DRG
OTHER PNEUMONIA,16248.0,DRG
OTHER PNEUMONIA,43626.0,DRG
OTHER PNEUMONIA,36943.0,DRG
OTHER PNEUMONIA,65059.0,DRG
CHRONIC OBSTRUCTIVE PULMONARY DISEASE,14959.0,DRG
ASTHMA,8892.0,DRG
"OTHER RESPIRATORY DIAGNOSES EXCEPT SIGNS, SYMPTOMS & MINOR DIAGNOSE",51443.0,DRG
ACUTE MYOCARDIAL INFARCTION,100732.0,DRG
HEART FAILURE,115480.0,DRG
HYPERTENSION,16276.0,DRG
CARDIAC ARRHYTHMIA & CONDUCTION DISORDERS,27924.0,DRG
"HERNIA PROCEDURES EXCEPT INGUINAL, FEMORAL & UMBILICAL",122763.0,DRG
MAJOR SMALL BOWEL PROCEDURES,184552.0,DRG
APPENDECTOMY WITHOUT COMPLEX PRINCIPAL DIAGNOSIS,57435.0,DRG
PEPTIC ULCER & GASTRITIS,66858.0,DRG
DIVERTICULITIS & DIVERTICULOSIS,32316.0,DRG
INFLAMMATORY BOWEL DISEASE,24886.0,DRG
INTESTINAL OBSTRUCTION,24228.0,DRG
MAJOR GASTROINTESTINAL & PERITONEAL INFECTIONS,28332.0,DRG
"OTHER GASTROENTERITIS, NAUSEA & VOMITING",34161.0,DRG
OTHER DIGESTIVE SYSTEM DIAGNOSES,23583.5,DRG
CHOLECYSTECTOMY,79070.0,DRG
CHOLECYSTECTOMY,65399.5,DRG
ALCOHOLIC LIVER DISEASE,56805.0,DRG
DISORDERS OF PANCREAS EXCEPT MALIGNANCY,18641.0,DRG
DISORDERS OF GALLBLADDER & BILIARY TRACT,16989.0,DRG
HIP JOINT REPLACEMENT,118070.0,DRG
HIP JOINT REPLACEMENT,112562.0,DRG
KNEE JOINT REPLACEMENT,103802.0,DRG
KNEE JOINT REPLACEMENT,125793.25,DRG
AMPUTATION OF LOWER LIMB EXCEPT TOES,101592.0,DRG
AMPUTATION OF LOWER LIMB EXCEPT TOES,86356.0,DRG
HIP & FEMUR FRACTURE REPAIR,69075.0,DRG
"FRACTURES & DISLOCATIONS EXCEPT FEMUR, PELVIS & BACK",45014.0,DRG
"MALFUNCTION, REACTION, COMPLIC OF ORTHOPEDIC DEVICE OR PROCEDURE",75686.0,DRG
OTHER MUSCULOSKELETAL SYSTEM & CONNECTIVE TISSUE DIAGNOSES,81627.0,DRG
SKIN ULCERS,22821.0,DRG
CELLULITIS & OTHER SKIN INFECTIONS,48173.25,DRG
"OTHER SKIN, SUBCUTANEOUS TISSUE & BREAST DISORDERS",42245.0,DRG
DIABETES,23828.0,DRG
DIABETES,79744.0,DRG
"MALNUTRITION, FAILURE TO THRIVE & OTHER NUTRITIONAL DISORDERS",50909.0,DRG
HYPOVOLEMIA & RELATED ELECTROLYTE DISORDERS,10644.0,DRG
HYPOVOLEMIA & RELATED ELECTROLYTE DISORDERS,13848.0,DRG
HYPOVOLEMIA & RELATED ELECTROLYTE DISORDERS,37841.0,DRG
ACUTE KIDNEY INJURY,28045.0,DRG
ACUTE KIDNEY INJURY,22231.0,DRG
CESAREAN DELIVERY,30810.3333,DRG
CESAREAN DELIVERY,34329.6,DRG
CESAREAN DELIVERY,42887.5,DRG
VAGINAL DELIVERY W STERILIZATION &/OR D&C,41449.0,DRG
VAGINAL DELIVERY W STERILIZATION &/OR D&C,44484.0,DRG
VAGINAL DELIVERY,17125.375,DRG
VAGINAL DELIVERY,17499.8889,DRG
VAGINAL DELIVERY,28694.6667,DRG
"NEONATE, TRANSFERRED < 5 DAYS OLD, BORN HERE",2536.0,DRG
"NEONATE, TRANSFERRED < 5 DAYS OLD, BORN HERE",6532.0,DRG
"NEONATE BWT 2000-2499G, NORMAL NEWBORN OR NEONATE W OTHER PROBLEM",4373.8,DRG
NEONATE BIRTHWT >2499G W OTHER SIGNIFICANT CONDITION,4936.5,DRG
"NEONATE BIRTHWT >2499G, NORMAL NEWBORN OR NEONATE W OTHER PROBLEM",4112.3421,DRG
"NEONATE BIRTHWT >2499G, NORMAL NEWBORN OR NEONATE W OTHER PROBLEM",4682.0,DRG
COAGULATION & PLATELET DISORDERS,20865.0,DRG
OTHER ANEMIA & DISORDERS OF BLOOD & BLOOD-FORMING ORGANS,18278.0,DRG
INFECTIOUS & PARASITIC DISEASES INCLUDING HIV W O.R. PROCEDURE,125539.0,DRG
"POST-OP, POST-TRAUMA, OTHER DEVICE INFECTIONS W O.R. PROCEDURE",44686.0,DRG
SEPTICEMIA & DISSEMINATED INFECTIONS,34509.0,DRG
SEPTICEMIA & DISSEMINATED INFECTIONS,57967.0,DRG
SEPTICEMIA & DISSEMINATED INFECTIONS,69172.0,DRG
FEVER,56483.0,DRG
OPIOID ABUSE & DEPENDENCE,57581.0,DRG
ALCOHOL ABUSE & DEPENDENCE,29319.0,DRG
POISONING OF MEDICINAL AGENTS,9996.0,DRG
UNGROUPABLE,3247.3333,DRG
OTHER PNEUMONIA,95157.0,DRG
CHRONIC OBSTRUCTIVE PULMONARY DISEASE,40992.0,DRG
CHRONIC OBSTRUCTIVE PULMONARY DISEASE,59857.0,DRG
ACUTE MYOCARDIAL INFARCTION,40349.0,DRG
ANGINA PECTORIS & CORONARY ATHEROSCLEROSIS,30896.0,DRG
INTESTINAL OBSTRUCTION,15138.0,DRG
HIP JOINT REPLACEMENT,88381.5,DRG
HIP JOINT REPLACEMENT,109215.6667,DRG
KNEE JOINT REPLACEMENT,102117.0,DRG
KNEE JOINT REPLACEMENT,120850.1667,DRG
KNEE JOINT REPLACEMENT,157272.0,DRG
VAGINAL DELIVERY,27337.0,DRG
"NEONATE BIRTHWT >2499G, NORMAL NEWBORN OR NEONATE W OTHER PROBLEM",3607.0,DRG
CVA & PRECEREBRAL OCCLUSION W INFARCT,22362.0,DRG
CVA & PRECEREBRAL OCCLUSION W INFARCT,57930.5,DRG
ALTERATION IN CONSCIOUSNESS,74122.0,DRG
VERTIGO & OTHER LABYRINTH DISORDERS,36154.0,DRG
RESPIRATORY FAILURE,21281.0,DRG
RESPIRATORY FAILURE,49800.0,DRG
PULMONARY EMBOLISM,32174.0,DRG
PULMONARY EMBOLISM,24610.0,DRG
MAJOR RESPIRATORY INFECTIONS & INFLAMMATIONS,22214.0,DRG
MAJOR RESPIRATORY INFECTIONS & INFLAMMATIONS,38558.0,DRG
OTHER PNEUMONIA,55437.0,DRG
OTHER PNEUMONIA,29296.4,DRG
OTHER PNEUMONIA,52623.0,DRG
CHRONIC OBSTRUCTIVE PULMONARY DISEASE,22811.0,DRG
CHRONIC OBSTRUCTIVE PULMONARY DISEASE,33174.25,DRG
CHRONIC OBSTRUCTIVE PULMONARY DISEASE,60470.0,DRG
ASTHMA,15661.0,DRG
ASTHMA,28685.0,DRG
ASTHMA,26437.0,DRG
ASTHMA,51399.0,DRG
"OTHER RESPIRATORY DIAGNOSES EXCEPT SIGNS, SYMPTOMS & MINOR DIAGNOSE",16393.0,DRG
ACUTE BRONCHITIS AND RELATED SYMPTOMS,16120.0,DRG
ACUTE MYOCARDIAL INFARCTION,28102.0,DRG
ACUTE MYOCARDIAL INFARCTION,26081.0,DRG
HEART FAILURE,25896.0,DRG
HEART FAILURE,55919.3333,DRG
PERIPHERAL & OTHER VASCULAR DISORDERS,14900.0,DRG
ANGINA PECTORIS & CORONARY ATHEROSCLEROSIS,23193.0,DRG
ANGINA PECTORIS & CORONARY ATHEROSCLEROSIS,39687.0,DRG
HYPERTENSION,38219.0,DRG
HYPERTENSION,82468.0,DRG
CARDIAC ARRHYTHMIA & CONDUCTION DISORDERS,26522.3333,DRG
CARDIAC ARRHYTHMIA & CONDUCTION DISORDERS,28073.0,DRG
CHEST PAIN,13347.0,DRG
OTHER DIGESTIVE SYSTEM & ABDOMINAL PROCEDURES,38453.0,DRG
MAJOR SMALL BOWEL PROCEDURES,172499.0,DRG
MAJOR LARGE BOWEL PROCEDURES,76737.0,DRG
MAJOR LARGE BOWEL PROCEDURES,106264.0,DRG
APPENDECTOMY WITH COMPLEX PRINCIPAL DIAGNOSIS,62899.0,DRG
APPENDECTOMY WITHOUT COMPLEX PRINCIPAL DIAGNOSIS,59283.0,DRG
PEPTIC ULCER & GASTRITIS,41034.0,DRG
PEPTIC ULCER & GASTRITIS,65747.0,DRG
MAJOR ESOPHAGEAL DISORDERS,38373.0,DRG
DIVERTICULITIS & DIVERTICULOSIS,20158.0,DRG
DIVERTICULITIS & DIVERTICULOSIS,36194.5,DRG
INFLAMMATORY BOWEL DISEASE,34039.0,DRG
INFLAMMATORY BOWEL DISEASE,28540.6667,DRG
INTESTINAL OBSTRUCTION,27032.0,DRG
INTESTINAL OBSTRUCTION,48706.0,DRG
MAJOR GASTROINTESTINAL & PERITONEAL INFECTIONS,23825.0,DRG
"OTHER GASTROENTERITIS, NAUSEA & VOMITING",33385.0,DRG
"OTHER GASTROENTERITIS, NAUSEA & VOMITING",40448.0,DRG
"MALFUNCTION, REACTION & COMPLICATION OF GI DEVICE OR PROCEDURE",22777.0,DRG
OTHER & UNSPECIFIED GASTROINTESTINAL HEMORRHAGE,59825.0,DRG
OTHER DIGESTIVE SYSTEM DIAGNOSES,39055.0,DRG
OTHER DIGESTIVE SYSTEM DIAGNOSES,31781.0,DRG
CHOLECYSTECTOMY,76955.0,DRG
DISORDERS OF PANCREAS EXCEPT MALIGNANCY,24235.3333,DRG
DISORDERS OF PANCREAS EXCEPT MALIGNANCY,54578.0,DRG
HIP JOINT REPLACEMENT,105550.0,DRG
KNEE JOINT REPLACEMENT,127595.5,DRG
KNEE JOINT REPLACEMENT,125973.0,DRG
HIP & FEMUR FRACTURE REPAIR,83969.0,DRG
HIP & FEMUR FRACTURE REPAIR,128225.0,DRG
FOOT & TOE PROCEDURES,41321.0,DRG
"SHOULDER, UPPER ARM & FOREARM PROCEDURES EXCEPT JOINT REPLACEMENT",47031.0,DRG
SHOULDER & ELBOW JOINT REPLACEMENT,140931.0,DRG
SHOULDER & ELBOW JOINT REPLACEMENT,145006.0,DRG
FRACTURE OF PELVIS OR DISLOCATION OF HIP,16412.0,DRG
FRACTURE OF PELVIS OR DISLOCATION OF HIP,54137.0,DRG
"OSTEOMYELITIS, SEPTIC ARTHRITIS & OTHER MUSCULOSKELETAL INFECTIONS",45055.0,DRG
CONNECTIVE TISSUE DISORDERS,29687.0,DRG
"OTHER BACK & NECK DISORDERS, FRACTURES & INJURIES",4108.0,DRG
"OTHER BACK & NECK DISORDERS, FRACTURES & INJURIES",28508.0,DRG
"MALFUNCTION, REACTION, COMPLIC OF ORTHOPEDIC DEVICE OR PROCEDURE",47169.0,DRG
OTHER MUSCULOSKELETAL SYSTEM & CONNECTIVE TISSUE DIAGNOSES,97067.3333,DRG
SKIN GRAFT FOR SKIN & SUBCUTANEOUS TISSUE DIAGNOSES,62254.0,DRG
"OTHER SKIN, SUBCUTANEOUS TISSUE & RELATED PROCEDURES",30413.0,DRG
CELLULITIS & OTHER SKIN INFECTIONS,44755.0,DRG
CELLULITIS & OTHER SKIN INFECTIONS,24053.3333,DRG
DIABETES,30462.25,DRG
DIABETES,29484.5,DRG
INBORN ERRORS OF METABOLISM,45145.0,DRG
THYROID DISORDERS,38387.0,DRG
THYROID DISORDERS,26990.0,DRG
KIDNEY & URINARY TRACT PROCEDURES FOR MALIGNANCY,116068.0,DRG
"MALFUNCTION, REACTION, COMPLIC OF GENITOURINARY DEVICE OR PROC",20994.0,DRG
"OTHER KIDNEY & URINARY TRACT DIAGNOSES, SIGNS & SYMPTOMS",27916.0,DRG
ACUTE KIDNEY INJURY,15655.3333,DRG
MALE REPRODUCTIVE SYSTEM DIAGNOSES EXCEPT MALIGNANCY,26612.0,DRG
UTERINE & ADNEXA PROCEDURES FOR NON-MALIGNANCY EXCEPT LEIOMYOMA,67819.0,DRG
OTHER FEMALE REPRODUCTIVE SYSTEM & RELATED PROCEDURES,64697.0,DRG
FEMALE REPRODUCTIVE SYSTEM INFECTIONS,13699.0,DRG
CESAREAN DELIVERY,34816.6667,DRG
CESAREAN DELIVERY,35770.5,DRG
CESAREAN DELIVERY,48521.0,DRG
VAGINAL DELIVERY W STERILIZATION &/OR D&C,38982.2,DRG
VAGINAL DELIVERY W COMPLICATING PROCEDURES EXC STERILIZATION &/OR D,17598.5,DRG
"D&C, ASPIRATION CURETTAGE OR HYSTEROTOMY FOR OBSTETRIC DIAGNOSES",57078.0,DRG
VAGINAL DELIVERY,17451.4167,DRG
VAGINAL DELIVERY,20613.4545,DRG
VAGINAL DELIVERY,28505.0,DRG
POSTPARTUM & POST ABORTION DIAGNOSES W/O PROCEDURE,30700.0,DRG
OTHER ANTEPARTUM DIAGNOSES,4114.0,DRG
OTHER ANTEPARTUM DIAGNOSES,30561.0,DRG
"NEONATE, TRANSFERRED < 5 DAYS OLD, BORN HERE",2977.5,DRG
"NEONATE, TRANSFERRED < 5 DAYS OLD, BORN HERE",4210.0,DRG
"NEONATE BIRTHWT >2499G, NORMAL NEWBORN OR NEONATE W OTHER PROBLEM",3789.7838,DRG
"NEONATE BIRTHWT >2499G, NORMAL NEWBORN OR NEONATE W OTHER PROBLEM",4692.6,DRG
MAJOR HEMATOLOGIC/IMMUNOLOGIC DIAG EXC SICKLE CELL CRISIS & COAGUL,43504.0,DRG
OTHER ANEMIA & DISORDERS OF BLOOD & BLOOD-FORMING ORGANS,27098.0,DRG
SEPTICEMIA & DISSEMINATED INFECTIONS,41200.5,DRG
SEPTICEMIA & DISSEMINATED INFECTIONS,65919.5,DRG
SEPTICEMIA & DISSEMINATED INFECTIONS,74522.0,DRG
MODERATELY EXTENSIVE OR PROCEDURES FOR OTHER COMPLICATIONS OF TREAT,26953.0,DRG
POISONING OF MEDICINAL AGENTS,49913.0,DRG
"SIGNS, SYMPTOMS & OTHER FACTORS INFLUENCING HEALTH STATUS",12280.0,DRG
"SIGNS, SYMPTOMS & OTHER FACTORS INFLUENCING HEALTH STATUS",50508.0,DRG
OTHER AFTERCARE & CONVALESCENCE,4312.0,DRG
UNGROUPABLE,3328.0,DRG
CVA & PRECEREBRAL OCCLUSION W INFARCT,44312.0,DRG
SEIZURE,181292.0,DRG
OTHER PNEUMONIA,22420.0,DRG
CARDIAC ARRHYTHMIA & CONDUCTION DISORDERS,18372.0,DRG
MAJOR LARGE BOWEL PROCEDURES,92879.0,DRG
APPENDECTOMY WITH COMPLEX PRINCIPAL DIAGNOSIS,70901.0,DRG
PEPTIC ULCER & GASTRITIS,41233.0,DRG
DIVERTICULITIS & DIVERTICULOSIS,31153.0,DRG
"MALFUNCTION, REACTION & COMPLICATION OF GI DEVICE OR PROCEDURE",22016.0,DRG
CHOLECYSTECTOMY,62856.0,DRG
DISORDERS OF PANCREAS EXCEPT MALIGNANCY,29228.3333,DRG
DISORDERS OF PANCREAS EXCEPT MALIGNANCY,91472.0,DRG
DISORDERS OF GALLBLADDER & BILIARY TRACT,36854.0,DRG
SKIN GRAFT FOR SKIN & SUBCUTANEOUS TISSUE DIAGNOSES,53772.0,DRG
SKIN ULCERS,34156.0,DRG
CELLULITIS & OTHER SKIN INFECTIONS,50732.0,DRG
DIABETES,31969.0,DRG
DIABETES,47477.0,DRG
VAGINAL DELIVERY W STERILIZATION &/OR D&C,22515.5,DRG
VAGINAL DELIVERY,18130.0,DRG
"NEONATE BIRTHWT >2499G, NORMAL NEWBORN OR NEONATE W OTHER PROBLEM",3971.625,DRG
OTHER ANEMIA & DISORDERS OF BLOOD & BLOOD-FORMING ORGANS,15791.0,DRG
SEPTICEMIA & DISSEMINATED INFECTIONS,15668.0,DRG
SEPTICEMIA & DISSEMINATED INFECTIONS,46224.5,DRG
"POST-OPERATIVE, POST-TRAUMATIC, OTHER DEVICE INFECTIONS",53455.0,DRG
ALCOHOL ABUSE & DEPENDENCE,54215.0,DRG
ACUTE MYOCARDIAL INFARCTION,40852.0,DRG
CARDIAC ARRHYTHMIA & CONDUCTION DISORDERS,13655.0,DRG
CARDIAC ARRHYTHMIA & CONDUCTION DISORDERS,30220.0,DRG
KNEE JOINT REPLACEMENT,134554.0,DRG
"FRACTURES & DISLOCATIONS EXCEPT FEMUR, PELVIS & BACK",26102.0,DRG
DIABETES,19833.0,DRG
URINARY STONES & ACQUIRED UPPER URINARY TRACT OBSTRUCTION,11943.0,DRG
URINARY STONES & ACQUIRED UPPER URINARY TRACT OBSTRUCTION,21431.0,DRG
ACUTE KIDNEY INJURY,21262.0,DRG
CESAREAN DELIVERY,32502.5,DRG
VAGINAL DELIVERY W STERILIZATION &/OR D&C,40200.0,DRG
VAGINAL DELIVERY W STERILIZATION &/OR D&C,40629.0,DRG
VAGINAL DELIVERY,19953.0,DRG
VAGINAL DELIVERY,20708.5714,DRG
VAGINAL DELIVERY,15906.0,DRG
PRETERM LABOR,1994.0,DRG
"NEONATE, TRANSFERRED < 5 DAYS OLD, BORN HERE",2221.0,DRG
"NEONATE BWT 2000-2499G, NORMAL NEWBORN OR NEONATE W OTHER PROBLEM",3504.0,DRG
"NEONATE BWT 2000-2499G, NORMAL NEWBORN OR NEONATE W OTHER PROBLEM",2825.0,DRG
"NEONATE BIRTHWT >2499G, NORMAL NEWBORN OR NEONATE W OTHER PROBLEM",3310.2143,DRG
"NEONATE BIRTHWT >2499G, NORMAL NEWBORN OR NEONATE W OTHER PROBLEM",5240.0,DRG
SEPTICEMIA & DISSEMINATED INFECTIONS,33774.0,DRG
