Description,Charge,Category
"Enterocolitis due to Clostridium difficile, not specified as recurrent",19037.6,Standard
Cyclosporiasis,9460.0,Standard
"Viral intestinal infection, unspecified",16501.0,Standard
"Infectious gastroenteritis and colitis, unspecified",22813.0,Standard
"Sepsis due to streptococcus, group B",19506.0,Standard
Other streptococcal sepsis,24416.0,Standard
Sepsis due to Methicillin resistant Staphylococcus aureus,45678.6667,Standard
Sepsis due to Hemophilus influenzae,28172.0,Standard
"Gram-negative sepsis, unspecified",16963.0,Standard
Sepsis due to Escherichia coli [E. coli],19470.1818,Standard
Sepsis due to Pseudomonas,38848.0,Standard
Other specified sepsis,24375.0,Standard
"Sepsis, unspecified organism",21246.0877,Standard
Postherpetic geniculate ganglionitis,16751.0,Standard
Malignant neoplasm of cardia,193599.0,Standard
Malignant neoplasm of hepatic flexure,23262.0,Standard
Malignant neoplasm of splenic flexure,52467.0,Standard
Malignant neoplasm of rectum,282107.0,Standard
"Malignant neoplasm of unspecified kidney, except renal pelvis",9732.0,Standard
Malignant neoplasm of lateral wall of bladder,36933.0,Standard
Secondary malignant neoplasm of liver and intrahepatic bile duct,30751.0,Standard
"Iron deficiency anemia, unspecified",16719.6667,Standard
Other pancytopenia,13838.0,Standard
Acute posthemorrhagic anemia,17234.5,Standard
"Anemia, unspecified",10328.5,Standard
Type 1 diabetes mellitus with ketoacidosis without coma,24518.3333,Standard
Type 1 diabetes mellitus with other specified complication,28356.0,Standard
Type 2 diabetes mellitus with hyperosmolarity without nonketotic hyperglycemic-hyperosmolar coma (NKHHC),20316.0,Standard
Type 2 diabetes mellitus with hyperosmolarity with coma,38778.0,Standard
Type 2 diabetes mellitus with ketoacidosis without coma,23308.3333,Standard
Type 2 diabetes mellitus with diabetic autonomic (poly)neuropathy,32783.0,Standard
Type 2 diabetes mellitus with foot ulcer,14892.0,Standard
Type 2 diabetes mellitus with other skin complications,25253.0,Standard
Type 2 diabetes mellitus with hypoglycemia without coma,18592.5,Standard
Type 2 diabetes mellitus with hyperglycemia,14393.0,Standard
Type 2 diabetes mellitus with other specified complication,13509.3333,Standard
"Secondary hyperparathyroidism, not elsewhere classified",3792.0,Standard
Syndrome of inappropriate secretion of antidiuretic hormone,22095.0,Standard
Other adrenocortical insufficiency,20371.0,Standard
"Disorder of urea cycle metabolism, unspecified",8549.0,Standard
Dehydration,17176.0,Standard
Hyperosmolality and hypernatremia,17275.0,Standard
Hypo-osmolality and hyponatremia,13876.75,Standard
Acidosis,15543.0,Standard
Hypokalemia,5778.0,Standard
"Other disorders of plasma-protein metabolism, not elsewhere classified",22250.0,Standard
"Transient cerebral ischemic attack, unspecified",15673.0,Standard
Toxic encephalopathy,13186.0,Standard
"Encephalopathy, unspecified",15783.1667,Standard
Metabolic encephalopathy,19810.4,Standard
"Disorder of brain, unspecified",11972.0,Standard
Hypertensive heart disease with heart failure,16503.2941,Standard
Hypertensive chronic kidney disease with stage 5 chronic kidney disease or end stage renal disease,11938.0,Standard
"Hypertensive heart and chronic kidney disease with heart failure and stage 1 through stage 4 chronic kidney disease, or unspecified chronic kidney disease",13572.9333,Standard
Hypertensive emergency,24458.0,Standard
Non-ST elevation (NSTEMI) myocardial infarction,8001.3333,Standard
"Acute myocardial infarction, unspecified",10481.0,Standard
Myocardial infarction type 2,21590.5,Standard
Other pulmonary embolism without acute cor pulmonale,18528.1667,Standard
Supraventricular tachycardia,8487.0,Standard
Paroxysmal atrial fibrillation,13243.0,Standard
Chronic atrial fibrillation,22195.8,Standard
Unspecified atrial fibrillation,14748.2,Standard
Acute on chronic systolic (congestive) heart failure,16510.25,Standard
Acute diastolic (congestive) heart failure,30821.0,Standard
Acute on chronic diastolic (congestive) heart failure,18745.5,Standard
Acute combined systolic (congestive) and diastolic (congestive) heart failure,13097.0,Standard
Acute on chronic combined systolic (congestive) and diastolic (congestive) heart failure,21144.0,Standard
End stage heart failure,2486.0,Standard
"Heart failure, unspecified",13831.5,Standard
Nontraumatic intracerebral hemorrhage in cerebellum,5845.0,Standard
"Nontraumatic intracerebral hemorrhage, unspecified",5449.0,Standard
"Nontraumatic subdural hemorrhage, unspecified",8345.0,Standard
Cerebral infarction due to embolism of unspecified precerebral artery,22494.5,Standard
Cerebral infarction due to unspecified occlusion or stenosis of right carotid arteries,27426.0,Standard
Cerebral infarction due to unspecified occlusion or stenosis of left carotid arteries,35254.5,Standard
Cerebral infarction due to unspecified occlusion or stenosis of right middle cerebral artery,27009.0,Standard
Other cerebral infarction,24472.0,Standard
"Cerebral infarction, unspecified",18774.1176,Standard
Acute embolism and thrombosis of unspecified deep veins of right distal lower extremity,16986.0,Standard
"Hypotension, unspecified",21894.5,Standard
Influenza due to other identified influenza virus with other specified pneumonia,4346.0,Standard
Influenza due to unidentified influenza virus with unspecified type of pneumonia,18883.4286,Standard
Influenza due to unidentified influenza virus with specified pneumonia,22689.25,Standard
Influenza due to unidentified influenza virus with other respiratory manifestations,11815.7273,Standard
Influenza due to unidentified influenza virus with encephalopathy,11293.6667,Standard
Pneumonia due to Methicillin susceptible Staphylococcus aureus,37882.0,Standard
Pneumonia due to Methicillin resistant Staphylococcus aureus,9398.5,Standard
Pneumonia due to other Gram-negative bacteria,21986.0,Standard
Unspecified bacterial pneumonia,21126.8571,Standard
Pneumonia due to other specified infectious organisms,10052.0,Standard
"Lobar pneumonia, unspecified organism",18193.5,Standard
"Hypostatic pneumonia, unspecified organism",12333.0,Standard
"Pneumonia, unspecified organism",19586.9318,Standard
Acute bronchitis due to respiratory syncytial virus,18255.0,Standard
"Bronchitis, not specified as acute or chronic",10042.0,Standard
Chronic obstructive pulmonary disease with acute lower respiratory infection,19753.2353,Standard
Chronic obstructive pulmonary disease with (acute) exacerbation,19321.0488,Standard
Pneumonitis due to inhalation of food and vomit,19555.3333,Standard
Acute pulmonary edema,28636.0,Standard
"Pleural effusion, not elsewhere classified",15352.0,Standard
Other pneumothorax,16674.0,Standard
"Pneumothorax, unspecified",23097.0,Standard
Acute respiratory failure with hypoxia,12771.0,Standard
Acute respiratory failure with hypercapnia,11964.0,Standard
Acute and chronic respiratory failure with hypoxia,24947.2,Standard
Acute and chronic respiratory failure with hypercapnia,30221.0,Standard
Gastro-esophageal laceration-hemorrhage syndrome,15361.0,Standard
Chronic or unspecified gastric ulcer with hemorrhage,19915.0,Standard
Chronic or unspecified gastric ulcer with perforation,42542.0,Standard
Acute duodenal ulcer with hemorrhage,13200.0,Standard
Chronic or unspecified duodenal ulcer with hemorrhage,19372.0,Standard
Other gastritis with bleeding,11441.3333,Standard
Acute appendicitis with generalized peritonitis,29810.3333,Standard
Acute appendicitis with localized peritonitis,16248.0,Standard
Unspecified acute appendicitis,40523.0,Standard
"Noninfective gastroenteritis and colitis, unspecified",16935.5,Standard
Volvulus,72343.0,Standard
"Intestinal adhesions [bands], unspecified as to partial versus complete obstruction",100931.5,Standard
"Intestinal adhesions [bands], with partial obstruction",37630.0,Standard
"Partial intestinal obstruction, unspecified as to cause",21931.0,Standard
"Unspecified intestinal obstruction, unspecified as to partial versus complete obstruction",14298.0,Standard
Other partial intestinal obstruction,22265.0,Standard
"Ileus, unspecified",20870.1667,Standard
Diverticulitis of small intestine without perforation or abscess without bleeding,21392.0,Standard
Diverticulitis of large intestine with perforation and abscess without bleeding,16617.3333,Standard
Diverticulitis of large intestine without perforation or abscess without bleeding,6100.5,Standard
Diverticulitis of large intestine without perforation or abscess with bleeding,8161.0,Standard
Diverticulosis of both small and large intestine without perforation or abscess with bleeding,39228.0,Standard
"Diverticulosis of intestine, part unspecified, without perforation or abscess with bleeding",17199.0,Standard
"Constipation, unspecified",11687.0,Standard
Drug induced constipation,15028.0,Standard
Perforation of intestine (nontraumatic),46399.0,Standard
Other specified diseases of intestine,15759.0,Standard
Alcoholic cirrhosis of liver with ascites,33155.0,Standard
"Hepatic failure, unspecified without coma",14660.5,Standard
Unspecified cirrhosis of liver,29348.0,Standard
Calculus of gallbladder with acute cholecystitis without obstruction,17883.0,Standard
Calculus of gallbladder with chronic cholecystitis without obstruction,25136.0,Standard
Calculus of gallbladder without cholecystitis without obstruction,10050.0,Standard
Acute cholecystitis,20167.6,Standard
Biliary acute pancreatitis without necrosis or infection,23800.0,Standard
"Acute pancreatitis without necrosis or infection, unspecified",11136.25,Standard
Melena,18127.8182,Standard
"Gastrointestinal hemorrhage, unspecified",17635.0,Standard
Cutaneous abscess of left upper limb,11035.0,Standard
Cellulitis of right toe,22443.0,Standard
Cellulitis of left upper limb,27319.0,Standard
Cellulitis of right lower limb,6576.6667,Standard
Cellulitis of left lower limb,21666.0,Standard
Cellulitis of chest wall,2937.0,Standard
Bullous pemphigoid,12980.0,Standard
"Pressure ulcer of right upper back, stage 4",31853.0,Standard
"Other specific arthropathies, not elsewhere classified, right shoulder",34432.0,Standard
"Unilateral primary osteoarthritis, right hip",43140.2,Standard
"Unilateral primary osteoarthritis, left hip",39375.7143,Standard
"Unilateral primary osteoarthritis, right knee",36994.7143,Standard
"Unilateral primary osteoarthritis, left knee",37327.8182,Standard
"Primary osteoarthritis, right shoulder",39045.6667,Standard
"Primary osteoarthritis, left shoulder",37465.6,Standard
Pain in left hip,20866.0,Standard
Rhabdomyolysis,15703.5,Standard
"Other infective bursitis, left knee",24437.0,Standard
"Age-related osteoporosis with current pathological fracture, right femur, initial encounter for fracture",14389.0,Standard
"Age-related osteoporosis with current pathological fracture, vertebra(e), initial encounter for fracture",8818.0,Standard
Acute pyelonephritis,19398.5,Standard
"Acute kidney failure, unspecified",14313.0909,Standard
Calculus of ureter,29814.0,Standard
Acute cystitis without hematuria,11248.5,Standard
Acute cystitis with hematuria,19983.5,Standard
"Cystitis, unspecified without hematuria",18399.0,Standard
"Urinary tract infection, site not specified",16252.9412,Standard
Benign prostatic hyperplasia with lower urinary tract symptoms,17607.0,Standard
Fournier gangrene,4915.0,Standard
"Female pelvic inflammatory disease, unspecified",23018.0,Standard
Abscess of Bartholin's gland,39039.0,Standard
Incomplete uterovaginal prolapse,28398.0,Standard
"Unspecified ovarian cyst, right side",112579.0,Standard
"Unspecified ovarian cyst, left side",17565.0,Standard
Prolapse of vaginal vault after hysterectomy,23360.0,Standard
"Tachycardia, unspecified",3660.0,Standard
Hypoxemia,2655.0,Standard
Epigastric pain,18727.0,Standard
"Vomiting, unspecified",9531.0,Standard
"Nausea with vomiting, unspecified",11010.0,Standard
"Retention of urine, unspecified",43560.0,Standard
Drug induced fever,16660.0,Standard
Weakness,23132.0,Standard
Syncope and collapse,11148.0,Standard
Localized enlarged lymph nodes,21089.0,Standard
Localized edema,4221.0,Standard
"Hypothermia, not associated with low environmental temperature",8851.0,Standard
Bacteremia,43496.0,Standard
Abnormal coagulation profile,16392.0,Standard
Bacteriuria,14170.0,Standard
"Traumatic pneumothorax, initial encounter",15610.0,Standard
"Unspecified fracture of third lumbar vertebra, initial encounter for closed fracture",3428.0,Standard
"Fracture of superior rim of right pubis, initial encounter for closed fracture",10983.25,Standard
"Fracture of unspecified part of neck of left femur, initial encounter for closed fracture",38020.0,Standard
"Unspecified intracapsular fracture of right femur, initial encounter for closed fracture",39021.6667,Standard
"Unspecified intracapsular fracture of left femur, initial encounter for closed fracture",33682.2857,Standard
"Displaced intertrochanteric fracture of right femur, initial encounter for closed fracture",50176.0,Standard
"Displaced intertrochanteric fracture of left femur, initial encounter for closed fracture",33693.8333,Standard
"Other specified injury of muscle, fascia and tendon of the posterior muscle group at thigh level, right thigh, initial encounter",8131.0,Standard
"Unspecified fracture of upper end of left tibia, initial encounter for closed fracture",7030.0,Standard
"Other foreign object in respiratory tract, part unspecified causing other injury, initial encounter",6859.0,Standard
"Poisoning by other synthetic narcotics, accidental (unintentional), initial encounter",9245.0,Standard
"Traumatic ischemia of muscle, initial encounter",21623.0,Standard
"Bloodstream infection due to central venous catheter, initial encounter",24535.0,Standard
"Infection and inflammatory reaction due to internal left knee prosthesis, initial encounter",48877.0,Standard
Other complications of amputation stump,23891.0,Standard
Encounter for palliative care,7747.0,Standard
Sepsis due to Methicillin susceptible Staphylococcus aureus,57111.0,Standard
Sepsis due to Hemophilus influenzae,43797.0,Standard
"Sepsis, unspecified organism",23599.3333,Standard
"Anemia, unspecified",29187.0,Standard
Thyrotoxicosis with diffuse goiter without thyrotoxic crisis or storm,25365.0,Standard
"Alcohol dependence with withdrawal, unspecified",18667.0,Standard
"Encephalopathy, unspecified",17371.0,Standard
Paroxysmal atrial fibrillation,10009.0,Standard
Acute systolic (congestive) heart failure,20446.0,Standard
Acute on chronic systolic (congestive) heart failure,18211.5,Standard
Acute on chronic diastolic (congestive) heart failure,14446.0,Standard
Acute on chronic right heart failure,19177.0,Standard
"Cerebral infarction, unspecified",23044.0,Standard
Influenza due to unidentified influenza virus with encephalopathy,17267.0,Standard
Pneumonia due to Streptococcus pneumoniae,39139.0,Standard
Pneumonia due to Pseudomonas,36320.0,Standard
Unspecified bacterial pneumonia,28618.0,Standard
"Pneumonia, unspecified organism",17491.3333,Standard
Acute bronchitis due to respiratory syncytial virus,5191.0,Standard
Chronic obstructive pulmonary disease with (acute) exacerbation,23916.4444,Standard
Acute and chronic respiratory failure with hypoxia,12936.0,Standard
Chronic or unspecified gastric ulcer with perforation,37129.0,Standard
"Gastritis, unspecified, with bleeding",19922.0,Standard
Unspecified acute appendicitis,22594.0,Standard
"Incisional hernia with obstruction, without gangrene",23799.0,Standard
"Intestinal adhesions [bands], with partial obstruction",45456.0,Standard
"Partial intestinal obstruction, unspecified as to cause",10330.5,Standard
"Unspecified intestinal obstruction, unspecified as to partial versus complete obstruction",15598.0,Standard
Rectal prolapse,24658.0,Standard
Calculus of gallbladder with acute cholecystitis without obstruction,21443.0,Standard
Biliary acute pancreatitis without necrosis or infection,13884.0,Standard
Alcohol induced acute pancreatitis without necrosis or infection,23361.0,Standard
"Acute pancreatitis without necrosis or infection, unspecified",12611.0,Standard
Other chronic pancreatitis,11957.0,Standard
Melena,14126.0,Standard
Cellulitis of left upper limb,10537.0,Standard
Cellulitis of left lower limb,24248.0,Standard
Cellulitis of abdominal wall,25764.0,Standard
"Pressure ulcer of sacral region, stage 4",19733.0,Standard
"Unilateral primary osteoarthritis, left knee",27830.0,Standard
"Tubulo-interstitial nephritis, not specified as acute or chronic",17985.0,Standard
"Acute kidney failure, unspecified",18210.6667,Standard
Endometriosis of pelvic peritoneum,29368.0,Standard
"Endometriosis, unspecified",23300.0,Standard
Other specified abnormal uterine and vaginal bleeding,17353.0,Standard
"Abnormal uterine and vaginal bleeding, unspecified",24697.0,Standard
"Gestational proteinuria, complicating childbirth",8807.0,Standard
"Gestational [pregnancy-induced] hypertension without significant proteinuria, third trimester",8847.0,Standard
"Gestational [pregnancy-induced] hypertension without significant proteinuria, complicating childbirth",10391.3333,Standard
"Mild to moderate pre-eclampsia, complicating childbirth",20201.0,Standard
"Unspecified pre-eclampsia, complicating childbirth",19143.6667,Standard
"Gestational diabetes mellitus in childbirth, diet controlled",7493.0,Standard
"Maternal care for breech presentation, not applicable or unspecified",14474.8,Standard
"Maternal care for other malpresentation of fetus, not applicable or unspecified",10967.0,Standard
Maternal care for low transverse scar from previous cesarean delivery,15217.0,Standard
Maternal care for vertical scar from previous cesarean delivery,18886.0,Standard
Maternal care for unspecified type scar from previous cesarean delivery,12839.3333,Standard
"Maternal care for other abnormalities of pelvic organs, third trimester",18534.0,Standard
"Maternal care for other known or suspected poor fetal growth, third trimester, not applicable or unspecified",10373.0,Standard
"Maternal care for excessive fetal growth, third trimester, not applicable or unspecified",8623.0,Standard
"Premature separation of placenta, unspecified, second trimester",10570.0,Standard
Post-term pregnancy,9756.6,Standard
"Preterm labor without delivery, third trimester",8149.0,Standard
"Preterm labor third trimester with preterm delivery third trimester, not applicable or unspecified",15975.3333,Standard
"Obstructed labor due to incomplete rotation of fetal head, not applicable or unspecified",15798.0,Standard
"Obstructed labor due to fetopelvic disproportion, unspecified",17074.8333,Standard
Obstructed labor due to shoulder dystocia,10587.4286,Standard
"Labor and delivery complicated by cord around neck, without compression, not applicable or unspecified",10993.5,Standard
"Labor and delivery complicated by other cord complications, not applicable or unspecified",7589.0,Standard
First degree perineal laceration during delivery,8948.25,Standard
Second degree perineal laceration during delivery,9934.1667,Standard
Obstetric high vaginal laceration alone,10549.0,Standard
Maternal exhaustion complicating labor and delivery,11355.5,Standard
Other specified complications of labor and delivery,7088.0,Standard
Abnormality in fetal heart rate and rhythm complicating labor and delivery,15981.7273,Standard
Encounter for full-term uncomplicated delivery,8748.7857,Standard
Viral hepatitis complicating childbirth,10359.0,Standard
Anemia complicating childbirth,9755.0,Standard
Other diseases of the blood and blood-forming organs and certain disorders involving the immune mechanism complicating childbirth,10344.0,Standard
Drug use complicating childbirth,10064.0,Standard
Smoking (tobacco) complicating childbirth,8070.0,Standard
Streptococcus B carrier state complicating childbirth,8507.0,Standard
"Neonatal jaundice, unspecified",1584.0,Standard
Neonatal withdrawal symptoms from maternal use of drugs of addiction,13850.0,Standard
"Fever, unspecified",26401.0,Standard
"Unspecified intracapsular fracture of right femur, initial encounter for closed fracture",40013.0,Standard
"Displaced subtrochanteric fracture of left femur, initial encounter for closed fracture",43521.0,Standard
"Infection and inflammatory reaction due to indwelling urethral catheter, initial encounter",21191.0,Standard
"Encounter for supervision of other normal pregnancy, third trimester",9580.0,Standard
"Single liveborn infant, delivered vaginally",3498.0265,Standard
"Single liveborn infant, delivered by cesarean",5211.241,Standard
Encounter for attention to colostomy,42800.5,Standard
Other intestinal Escherichia coli infections,15220.0,Standard
"Enterocolitis due to Clostridium difficile, not specified as recurrent",19752.0,Standard
"Sepsis due to streptococcus, group B",21398.5,Standard
Sepsis due to Escherichia coli [E. coli],21135.0,Standard
"Sepsis, unspecified organism",32279.4,Standard
Legionnaires' disease,26855.0,Standard
"Viral meningitis, unspecified",19780.6667,Standard
"Acute viral hepatitis, unspecified",12051.0,Standard
Malignant neoplasm of cecum,35889.0,Standard
Malignant neoplasm of central portion of right female breast,12821.0,Standard
Benign neoplasm of cecum,31053.0,Standard
Submucous leiomyoma of uterus,35978.0,Standard
Acute posthemorrhagic anemia,12959.0,Standard
"Thrombocytopenia, unspecified",10126.0,Standard
Type 1 diabetes mellitus with ketoacidosis without coma,13291.25,Standard
Type 2 diabetes mellitus with ketoacidosis without coma,15446.0,Standard
Type 2 diabetes mellitus with foot ulcer,12073.0,Standard
Type 2 diabetes mellitus with hyperglycemia,10048.0,Standard
Type 2 diabetes mellitus with other specified complication,19646.8,Standard
Dehydration,9498.0,Standard
Hypo-osmolality and hyponatremia,25169.0,Standard
"Encephalopathy, unspecified",27452.5,Standard
Hypertensive heart disease with heart failure,17168.8,Standard
"Hypertensive heart and chronic kidney disease with heart failure and stage 1 through stage 4 chronic kidney disease, or unspecified chronic kidney disease",19093.6667,Standard
Non-ST elevation (NSTEMI) myocardial infarction,13967.0,Standard
Saddle embolus of pulmonary artery without acute cor pulmonale,24749.0,Standard
Other pulmonary embolism without acute cor pulmonale,30974.5,Standard
Paroxysmal atrial fibrillation,18169.6667,Standard
Chronic atrial fibrillation,8622.0,Standard
Unspecified atrial fibrillation,13665.8333,Standard
Unspecified atrial flutter,14564.0,Standard
"Heart failure, unspecified",22480.0,Standard
"Cerebral infarction, unspecified",17217.0,Standard
Postprocedural hypotension,6919.0,Standard
Influenza due to unidentified influenza virus with unspecified type of pneumonia,23521.5,Standard
Influenza due to unidentified influenza virus with other respiratory manifestations,15311.5,Standard
Influenza due to unidentified influenza virus with encephalopathy,27673.0,Standard
Pneumonia due to Methicillin resistant Staphylococcus aureus,41379.0,Standard
Pneumonia due to other Gram-negative bacteria,9378.0,Standard
Unspecified bacterial pneumonia,40758.0,Standard
"Pneumonia, unspecified organism",14096.6667,Standard
Chronic obstructive pulmonary disease with acute lower respiratory infection,20766.5,Standard
Chronic obstructive pulmonary disease with (acute) exacerbation,24864.0,Standard
Mild persistent asthma with (acute) exacerbation,12811.0,Standard
Unspecified asthma with (acute) exacerbation,12238.0,Standard
Pneumonitis due to inhalation of food and vomit,15632.0,Standard
Other pneumothorax,10071.0,Standard
Acute appendicitis with generalized peritonitis,91344.0,Standard
Acute appendicitis with localized peritonitis,37656.5,Standard
"Acute appendicitis with localized peritonitis and gangrene, without perforation",45527.6667,Standard
"Acute appendicitis with perforation and localized peritonitis, without abscess",49826.0,Standard
Unspecified acute appendicitis,16359.0,Standard
Crohn's disease of small intestine with intestinal obstruction,12813.0,Standard
Crohn's disease of small intestine with unspecified complications,8040.0,Standard
"Noninfective gastroenteritis and colitis, unspecified",14338.0,Standard
Volvulus,23340.5,Standard
Gallstone ileus,47674.0,Standard
"Intestinal adhesions [bands], unspecified as to partial versus complete obstruction",37244.6667,Standard
"Intestinal adhesions [bands], with partial obstruction",47566.6667,Standard
"Partial intestinal obstruction, unspecified as to cause",12115.4,Standard
"Unspecified intestinal obstruction, unspecified as to partial versus complete obstruction",9390.6667,Standard
Diverticulitis of large intestine with perforation and abscess without bleeding,22622.1111,Standard
Diverticulitis of large intestine with perforation and abscess with bleeding,16077.0,Standard
Diverticulosis of large intestine without perforation or abscess with bleeding,19284.0,Standard
Diverticulitis of large intestine without perforation or abscess without bleeding,28113.0,Standard
Rectal abscess,8098.0,Standard
Spontaneous bacterial peritonitis,24681.0,Standard
Calculus of gallbladder with acute cholecystitis without obstruction,24283.6667,Standard
Calculus of gallbladder and bile duct with acute cholecystitis with obstruction,9205.0,Standard
Idiopathic acute pancreatitis without necrosis or infection,16757.6667,Standard
Biliary acute pancreatitis without necrosis or infection,8529.0,Standard
Alcohol induced acute pancreatitis without necrosis or infection,29323.0,Standard
Drug induced acute pancreatitis without necrosis or infection,15717.0,Standard
Other acute pancreatitis without necrosis or infection,31326.0,Standard
"Acute pancreatitis without necrosis or infection, unspecified",15741.7143,Standard
"Postprocedural intestinal obstruction, unspecified as to partial versus complete",88665.0,Standard
Melena,19187.0,Standard
"Gastrointestinal hemorrhage, unspecified",14129.0,Standard
Cutaneous abscess of neck,18213.0,Standard
Cellulitis of right lower limb,8478.0,Standard
Cellulitis of left lower limb,12301.5,Standard
Periorbital cellulitis,12487.0,Standard
Cellulitis of groin,8258.0,Standard
Cellulitis of buttock,8803.0,Standard
"Unilateral primary osteoarthritis, right hip",35251.0,Standard
"Unilateral primary osteoarthritis, left hip",36273.0,Standard
"Unilateral primary osteoarthritis, right knee",35209.6,Standard
"Unilateral primary osteoarthritis, left knee",36657.2857,Standard
"Secondary osteoarthritis, left shoulder",35837.0,Standard
Rhabdomyolysis,14277.0,Standard
Hydronephrosis with renal and ureteral calculous obstruction,22774.0,Standard
"Acute kidney failure, unspecified",24963.0,Standard
Vesicointestinal fistula,50901.0,Standard
"Urinary tract infection, site not specified",17246.0,Standard
Inflammatory disorders of scrotum,27781.0,Standard
Chronic salpingitis,18725.0,Standard
Endometriosis of fallopian tube,17995.0,Standard
Endometriosis of pelvic peritoneum,23183.0,Standard
"Endometriosis, unspecified",22459.6667,Standard
"Cystocele, unspecified",31837.0,Standard
"Uterovaginal prolapse, unspecified",39200.0,Standard
"Unspecified ovarian cyst, right side",18209.6667,Standard
"Unspecified ovarian cyst, left side",13782.0,Standard
Endometrial intraepithelial neoplasia [EIN],19849.0,Standard
Excessive and frequent menstruation with regular cycle,24347.8571,Standard
Excessive and frequent menstruation with irregular cycle,15563.0,Standard
Other specified abnormal uterine and vaginal bleeding,20939.0,Standard
"Abnormal uterine and vaginal bleeding, unspecified",20346.0,Standard
Postmenopausal bleeding,25625.0,Standard
Postprocedural pelvic peritoneal adhesions,25282.0,Standard
"Supervision of elderly multigravida, third trimester",11427.0,Standard
Unspecified pre-existing hypertension complicating childbirth,15285.0,Standard
"Gestational [pregnancy-induced] hypertension without significant proteinuria, third trimester",10246.0,Standard
"Gestational [pregnancy-induced] hypertension without significant proteinuria, complicating childbirth",14396.7143,Standard
"Mild to moderate pre-eclampsia, third trimester",12300.0,Standard
"Mild to moderate pre-eclampsia, complicating childbirth",17115.5,Standard
"Unspecified maternal hypertension, complicating childbirth",11641.0,Standard
Hyperemesis gravidarum with metabolic disturbance,4566.0,Standard
"Gestational diabetes mellitus in pregnancy, controlled by oral hypoglycemic drugs",16500.0,Standard
"Gestational diabetes mellitus in childbirth, diet controlled",7376.0,Standard
Pruritic urticarial papules and plaques of pregnancy (PUPPP),10768.0,Standard
"Twin pregnancy, dichorionic/diamniotic, third trimester",18908.0,Standard
"Maternal care for breech presentation, not applicable or unspecified",14531.1667,Standard
"Maternal care for other malpresentation of fetus, not applicable or unspecified",19402.0,Standard
"Maternal care for disproportion, unspecified",15048.5,Standard
Maternal care for low transverse scar from previous cesarean delivery,15156.2553,Standard
Maternal care for unspecified type scar from previous cesarean delivery,12675.6452,Standard
Maternal care due to uterine scar from other previous surgery,21011.0,Standard
"Maternal care for cervical incompetence, third trimester",15675.0,Standard
"Maternal care for abnormality of vagina, third trimester",10570.0,Standard
"Maternal care for other (suspected) fetal abnormality and damage, not applicable or unspecified",26331.0,Standard
"Maternal care for intrauterine death, not applicable or unspecified",8656.6667,Standard
"Maternal care for known or suspected placental insufficiency, third trimester, not applicable or unspecified",10243.5,Standard
"Maternal care for other known or suspected poor fetal growth, third trimester, not applicable or unspecified",9933.3333,Standard
"Maternal care for excessive fetal growth, third trimester, not applicable or unspecified",13082.6,Standard
"Oligohydramnios, third trimester, not applicable or unspecified",13741.0,Standard
"Full-term premature rupture of membranes, unspecified as to length of time between rupture and onset of labor",10784.5,Standard
Post-term pregnancy,10256.95,Standard
"Preterm labor without delivery, third trimester",4291.0,Standard
"Preterm labor second trimester with preterm delivery second trimester, not applicable or unspecified",10425.5,Standard
"Preterm labor third trimester with preterm delivery third trimester, not applicable or unspecified",9915.0,Standard
Secondary uterine inertia,23603.0,Standard
Precipitate labor,6839.8,Standard
"Obstructed labor due to fetopelvic disproportion, unspecified",17346.5,Standard
"Obstructed labor due to maternal pelvic abnormality, unspecified",15135.5,Standard
Obstructed labor due to shoulder dystocia,10203.1667,Standard
"Labor and delivery complicated by cord around neck, with compression, not applicable or unspecified",25057.0,Standard
"Labor and delivery complicated by short cord, not applicable or unspecified",6529.0,Standard
"Labor and delivery complicated by cord around neck, without compression, not applicable or unspecified",10310.0833,Standard
"Labor and delivery complicated by other cord entanglement, without compression, not applicable or unspecified",7389.0,Standard
First degree perineal laceration during delivery,9164.8333,Standard
Second degree perineal laceration during delivery,8989.2069,Standard
"Third degree perineal laceration during delivery, unspecified",9619.0,Standard
Fourth degree perineal laceration during delivery,12110.0,Standard
"Perineal laceration during delivery, unspecified",10465.0,Standard
Obstetric high vaginal laceration alone,10363.0,Standard
Other specified trauma to perineum and vulva,9025.0,Standard
Maternal exhaustion complicating labor and delivery,10463.5,Standard
"Onset (spontaneous) of labor after 37 completed weeks of gestation but before 39 completed weeks gestation, with delivery by (planned) cesarean section",16293.0,Standard
Other specified complications of labor and delivery,23470.0,Standard
Abnormality in fetal heart rate and rhythm complicating labor and delivery,14562.0526,Standard
Labor and delivery complicated by meconium in amniotic fluid,9255.1667,Standard
Encounter for full-term uncomplicated delivery,8811.8889,Standard
Hemorrhoids in the puerperium,15688.0,Standard
"Other complications of the puerperium, not elsewhere classified",8478.0,Standard
Other infections with a predominantly sexual mode of transmission complicating childbirth,15676.0,Standard
Other diseases of the blood and blood-forming organs and certain disorders involving the immune mechanism complicating childbirth,9656.75,Standard
Obesity complicating childbirth,11109.0,Standard
"Endocrine, nutritional and metabolic diseases complicating childbirth",10128.0,Standard
Drug use complicating childbirth,10699.0,Standard
Smoking (tobacco) complicating childbirth,9719.0,Standard
Diseases of the nervous system complicating childbirth,16282.0,Standard
Streptococcus B carrier state complicating childbirth,9094.5,Standard
Neonatal jaundice from other specified causes,3490.0,Standard
"Neonatal jaundice, unspecified",2155.2,Standard
Pelvic and perineal pain,16200.6667,Standard
"Nausea with vomiting, unspecified",18603.0,Standard
"Fever, unspecified",20921.0,Standard
Syncope and collapse,12965.0,Standard
Unspecified convulsions,6643.0,Standard
Generalized edema,34824.0,Standard
Nonspecific elevation of levels of transaminase and lactic acid dehydrogenase [LDH],23356.0,Standard
Bacteremia,37787.0,Standard
"Multiple fractures of ribs, right side, initial encounter for closed fracture",27982.0,Standard
"Wedge compression fracture of second lumbar vertebra, initial encounter for closed fracture",43653.0,Standard
"Nondisplaced fracture of lesser trochanter of right femur, initial encounter for closed fracture",15148.0,Standard
"Poisoning by other opioids, accidental (unintentional), initial encounter",19621.0,Standard
"Poisoning by selective serotonin and norepinephrine reuptake inhibitors, intentional self-harm, initial encounter",14751.0,Standard
"Infection following a procedure, initial encounter",12187.0,Standard
"Infection and inflammatory reaction due to other internal prosthetic devices, implants and grafts, initial encounter",66619.0,Standard
"Encounter for supervision of other normal pregnancy, third trimester",7724.0,Standard
"Single liveborn infant, delivered vaginally",2916.8118,Standard
"Single liveborn infant, delivered by cesarean",4180.6071,Standard
"Twin liveborn infant, delivered by cesarean",5212.0,Standard
Encounter for attention to colostomy,44359.0,Standard
"Sepsis, unspecified organism",13074.0,Standard
"Hypothyroidism, unspecified",20067.0,Standard
"Cerebral infarction, unspecified",14963.0,Standard
Chronic obstructive pulmonary disease with (acute) exacerbation,18576.5,Standard
"Acute appendicitis with perforation and localized peritonitis, without abscess",26794.0,Standard
Calculus of gallbladder with acute cholecystitis without obstruction,25900.0,Standard
"Acute pancreatitis without necrosis or infection, unspecified",17098.0,Standard
Cellulitis of right finger,9797.0,Standard
Maternal care for low transverse scar from previous cesarean delivery,14571.0,Standard
"Labor and delivery complicated by cord around neck, without compression, not applicable or unspecified",6399.0,Standard
Second degree perineal laceration during delivery,6905.0,Standard
Other diseases of the blood and blood-forming organs and certain disorders involving the immune mechanism complicating childbirth,14713.0,Standard
"Neonatal jaundice, unspecified",2152.0,Standard
Shortness of breath,11266.0,Standard
"Single liveborn infant, delivered vaginally",3395.0,Standard
"Single liveborn infant, delivered by cesarean",4062.0,Standard
Alcohol dependence with withdrawal delirium,6498.0,Standard
Chronic obstructive pulmonary disease with (acute) exacerbation,9595.0,Standard
Acute appendicitis with generalized peritonitis,37077.0,Standard
"Ulcerative colitis, unspecified with rectal bleeding",7553.0,Standard
"Noninfective gastroenteritis and colitis, unspecified",10305.0,Standard
Biliary acute pancreatitis without necrosis or infection,24358.0,Standard
Alcohol induced acute pancreatitis without necrosis or infection,38021.0,Standard
"Gestational [pregnancy-induced] hypertension without significant proteinuria, complicating childbirth",10312.0,Standard
Liver and biliary tract disorders in childbirth,8421.0,Standard
"Maternal care for breech presentation, not applicable or unspecified",14425.0,Standard
"Maternal care for excessive fetal growth, third trimester, not applicable or unspecified",8113.0,Standard
Post-term pregnancy,10372.0,Standard
"Obstructed labor due to fetopelvic disproportion, unspecified",16700.0,Standard
"Third degree perineal laceration during delivery, unspecified",7926.0,Standard
Abnormality in fetal heart rate and rhythm complicating labor and delivery,16229.0,Standard
Endometritis following delivery,9174.0,Standard
"Poisoning by other opioids, intentional self-harm, initial encounter",19066.0,Standard
"Single liveborn infant, delivered vaginally",2578.5714,Standard
"Single liveborn infant, delivered by cesarean",3563.2,Standard
Intracranial hemorrhage or cerebral infarction w MCC,20757.2727,DRG
Intracranial hemorrhage or cerebral infarction w CC,20636.8333,DRG
Intracranial hemorrhage or cerebral infarction w/o CC/MCC,14308.0,DRG
Transient ischemia,15673.0,DRG
Nonspecific cerebrovascular disorders w MCC,22703.6667,DRG
Nonspecific cerebrovascular disorders w CC,13591.5455,DRG
Nonspecific cerebrovascular disorders w/o CC/MCC,14693.0,DRG
Cranial & peripheral nerve disorders w/o MCC,24767.0,DRG
Other disorders of nervous system w MCC,12075.0,DRG
Other disorders of nervous system w CC,15187.5,DRG
Other disorders of nervous system w/o CC/MCC,10294.0,DRG
Otitis media & URI w MCC,12108.2,DRG
Otitis media & URI w/o MCC,8891.0,DRG
Pulmonary embolism w MCC,35682.0,DRG
Pulmonary embolism w/o MCC,9951.25,DRG
Respiratory infections & inflammations w MCC,22811.4091,DRG
Respiratory infections & inflammations w CC,6246.0,DRG
Respiratory infections & inflammations w/o CC/MCC,14373.0,DRG
Pleural effusion w MCC,21071.0,DRG
Pleural effusion w CC,9633.0,DRG
Pulmonary edema & respiratory failure,17737.5833,DRG
Chronic obstructive pulmonary disease w MCC,20007.6222,DRG
Chronic obstructive pulmonary disease w CC,17873.0,DRG
Chronic obstructive pulmonary disease w/o CC/MCC,9520.0,DRG
Simple pneumonia & pleurisy w MCC,20941.5909,DRG
Simple pneumonia & pleurisy w CC,15981.8824,DRG
Simple pneumonia & pleurisy w/o CC/MCC,10715.0,DRG
Pneumothorax w MCC,23097.0,DRG
Pneumothorax w CC,15610.0,DRG
Pneumothorax w/o CC/MCC,16674.0,DRG
Bronchitis & asthma w CC/MCC,18255.0,DRG
Bronchitis & asthma w/o CC/MCC,10042.0,DRG
Other respiratory system diagnoses w MCC,2655.0,DRG
Other respiratory system diagnoses w/o MCC,6859.0,DRG
Respiratory system diagnosis w ventilator support 96+ hours,30221.0,DRG
Respiratory system diagnosis w ventilator support <96 hours,20713.0,DRG
Other vascular procedures w CC,24535.0,DRG
"Acute myocardial infarction, discharged alive w MCC",12089.8571,DRG
"Acute myocardial infarction, discharged alive w CC",7927.0,DRG
"Acute myocardia infarction, discharged alive w/o CC/MCC",10481.0,DRG
"Acute myocardial infarction, expired w MCC",8900.0,DRG
Heart failure & shock w MCC,17610.4286,DRG
Heart failure & shock w CC,13638.2727,DRG
Heart failure & shock w/o CC/MCC,7791.5,DRG
Peripheral vascular disorders w MCC,16986.0,DRG
Hypertension w MCC,24458.0,DRG
Cardiac arrhythmia & conduction disorders w MCC,25433.2857,DRG
Cardiac arrhythmia & conduction disorders w CC,13277.8,DRG
Cardiac arrhythmia & conduction disorders w/o CC/MCC,6571.5,DRG
Syncope & collapse,11148.0,DRG
Other circulatory system diagnoses w MCC,27515.0,DRG
Other circulatory system diagnoses w CC,16274.0,DRG
Major small & large bowel procedures w MCC,156105.5,DRG
Major small & large bowel procedures w CC,57442.5,DRG
Major small & large bowel procedures w/o CC/MCC,52467.0,DRG
Peritoneal adhesiolysis w CC,68588.0,DRG
Appendectomy w complicated principal diag w/o CC/MCC,25383.3333,DRG
Appendectomy w/o complicated principal diag w CC,40523.0,DRG
Major esophageal disorders w CC,15361.0,DRG
Major gastrointestinal disorders & peritoneal infections w MCC,29214.0,DRG
Major gastrointestinal disorders & peritoneal infections w CC,14050.3333,DRG
Major gastrointestinal disorders & peritoneal infections w/o CC/MCC,20937.3333,DRG
Digestive malignancy w CC,23262.0,DRG
G.I. hemorrhage w MCC,30461.0,DRG
G.I. hemorrhage w CC,16573.381,DRG
G.I. hemorrhage w/o CC/MCC,12015.5,DRG
G.I. obstruction w MCC,26608.4,DRG
G.I. obstruction w CC,19311.375,DRG
G.I. obstruction w/o CC/MCC,12182.75,DRG
"Esophagitis, gastroent & misc digest disorders w MCC",19675.5,DRG
"Esophagitis, gastroent & misc digest disorders w/o MCC",14569.625,DRG
Other digestive system diagnoses w/o CC/MCC,15759.0,DRG
Cholecystectomy except by laparoscope w/o c.d.e. w/o CC/MCC,30664.0,DRG
Laparoscopic cholecystectomy w/o c.d.e. w CC,24408.3333,DRG
Cirrhosis & alcoholic hepatitis w MCC,31251.5,DRG
Malignancy of hepatobiliary system or pancreas w CC,30751.0,DRG
Disorders of pancreas except malignancy w MCC,12804.0,DRG
Disorders of pancreas except malignancy w CC,10294.5,DRG
Disorders of pancreas except malignancy w/o CC/MCC,11152.0,DRG
"Disorders of liver except malig,cirr,alc hepa w CC",14660.5,DRG
Disorders of the biliary tract w MCC,10556.0,DRG
Disorders of the biliary tract w CC,17035.0,DRG
Disorders of the biliary tract w/o CC/MCC,15974.3333,DRG
Revision of hip or knee replacement w CC,42840.5,DRG
Major joint replacement or reattachment of lower extremity w MCC,49238.0,DRG
Major joint replacement or reattachment of lower extremity w/o MCC,37473.9756,DRG
Amputation for musculoskeletal sys & conn tissue dis w MCC,23891.0,DRG
Hip & femur procedures except major joint w MCC,38426.0,DRG
Hip & femur procedures except major joint w CC,38003.6667,DRG
Hip & femur procedures except major joint w/o CC/MCC,29120.0,DRG
Major joint & limb reattachment proc of upper extremity w CC/MCC,37655.2222,DRG
Fractures of hip & pelvis w MCC,39826.0,DRG
Fractures of hip & pelvis w/o MCC,10130.2,DRG
Pathological fractures & musculoskelet & conn tiss malig w CC,11603.5,DRG
Medical back problems w/o MCC,3428.0,DRG
Signs & symptoms of musculoskeletal system & conn tissue w/o MCC,20866.0,DRG
"Tendonitis, myositis & bursitis w MCC",20508.5,DRG
"Tendonitis, myositis & bursitis w/o MCC",14827.0,DRG
"Fx, sprn, strn & disl except femur, hip, pelvis & thigh w/o MCC",7030.0,DRG
Other musculoskeletal sys & connective tissue diagnoses w CC,21623.0,DRG
"Other skin, subcut tiss & breast proc w MCC",31853.0,DRG
"Other skin, subcut tiss & breast proc w CC",22443.0,DRG
Major skin disorders w/o MCC,12980.0,DRG
Cellulitis w MCC,28382.0,DRG
Cellulitis w/o MCC,7931.5,DRG
"Amputat of lower limb for endocrine,nutrit,& metabol dis w MCC",32547.0,DRG
"Skin grafts & wound debrid for endoc, nutrit & metab dis w CC",14892.0,DRG
Diabetes w MCC,25448.2,DRG
Diabetes w CC,15049.4286,DRG
Diabetes w/o CC/MCC,12709.5,DRG
Nutritional & misc metabolic disorders w MCC,16038.75,DRG
Nutritional & misc metabolic disorders w/o MCC,11781.0,DRG
Inborn errors of metabolism,8549.0,DRG
Endocrine disorders w MCC,25575.5,DRG
Endocrine disorders w CC,9463.0,DRG
Endocrine disorders w/o CC/MCC,20371.0,DRG
Kidney & ureter procedures for non-neoplasm w MCC,25452.0,DRG
Transurethral procedures w CC,36933.0,DRG
Renal failure w MCC,15563.7,DRG
Renal failure w CC,11613.75,DRG
Renal failure w/o CC/MCC,13206.75,DRG
Kidney & urinary tract neoplasms w CC,9732.0,DRG
Kidney & urinary tract infections w MCC,17400.5294,DRG
Kidney & urinary tract infections w/o MCC,14307.2857,DRG
Urinary stones w/o esw lithotripsy w/o MCC,29814.0,DRG
Kidney & urinary tract signs & symptoms w MCC,43560.0,DRG
Kidney & urinary tract signs & symptoms w/o MCC,14170.0,DRG
Transurethral prostatectomy w CC/MCC,17607.0,DRG
Inflammation of the male reproductive system w MCC,4915.0,DRG
Uterine & adnexa proc for non-malignancy w CC/MCC,112579.0,DRG
Uterine & adnexa proc for non-malignancy w/o CC/MCC,28398.0,DRG
"Vagina, cervix & vulva procedures w CC/MCC",39039.0,DRG
Female reproductive system reconstructive procedures,23360.0,DRG
"Infections, female reproductive system w CC",23018.0,DRG
Menstrual & other female reproductive system disorders w CC/MCC,17565.0,DRG
Other O.R. proc of the blood & blood forming organs w/o CC/MCC,21089.0,DRG
Major hematol/immun diag exc sickle cell crisis & coagul w/o CC/MCC,13838.0,DRG
Red blood cell disorders w MCC,17092.6667,DRG
Red blood cell disorders w/o MCC,13501.75,DRG
Other myeloprolif dis or poorly diff neopl diag w CC,22250.0,DRG
Infectious & parasitic diseases w O.R. procedure w MCC,25440.0,DRG
Fever of unknown origin,16660.0,DRG
Viral illness w MCC,9588.5,DRG
Viral illness w/o MCC,14704.0,DRG
Septicemia w/o MV 96+ hours w MCC,23289.6557,DRG
Septicemia w/o MV 96+ hours w/o MCC,20632.3529,DRG
Traumatic injury w/o MCC,8131.0,DRG
Poisoning & toxic effects of drugs w/o MCC,9245.0,DRG
Signs & symptoms w MCC,16191.75,DRG
Signs & symptoms w/o MCC,4221.0,DRG
Other factors influencing health status,7747.0,DRG
Non-extensive O.R. proc unrelated to principal diagnosis w CC,40066.0,DRG
Intracranial hemorrhage or cerebral infarction w CC,23044.0,DRG
Nonspecific cerebrovascular disorders w CC,17371.0,DRG
Respiratory infections & inflammations w MCC,36320.0,DRG
Pulmonary edema & respiratory failure,12936.0,DRG
Chronic obstructive pulmonary disease w MCC,24759.4286,DRG
Chronic obstructive pulmonary disease w CC,22087.0,DRG
Simple pneumonia & pleurisy w MCC,26643.5,DRG
Simple pneumonia & pleurisy w CC,13657.0,DRG
Bronchitis & asthma w CC/MCC,5191.0,DRG
Respiratory system diagnosis w ventilator support <96 hours,19845.0,DRG
Heart failure & shock w MCC,18098.4,DRG
Cardiac arrhythmia & conduction disorders w CC,10009.0,DRG
"Stomach, esophageal & duodenal proc w MCC",37129.0,DRG
Major small & large bowel procedures w CC,24658.0,DRG
Peritoneal adhesiolysis w MCC,48534.0,DRG
Peritoneal adhesiolysis w CC,45456.0,DRG
Appendectomy w/o complicated principal diag w/o CC/MCC,22594.0,DRG
Minor small & large bowel procedures w/o CC/MCC,37067.0,DRG
Hernia procedures except inguinal & femoral w/o CC/MCC,23799.0,DRG
G.I. hemorrhage w CC,17024.0,DRG
G.I. obstruction w CC,12761.0,DRG
G.I. obstruction w/o CC/MCC,10737.0,DRG
Disorders of pancreas except malignancy w MCC,41832.0,DRG
Disorders of pancreas except malignancy w CC,14169.75,DRG
Disorders of pancreas except malignancy w/o CC/MCC,16692.5,DRG
Disorders of the biliary tract w/o CC/MCC,21443.0,DRG
Major joint replacement or reattachment of lower extremity w/o MCC,33921.5,DRG
Hip & femur procedures except major joint w/o CC/MCC,43521.0,DRG
Skin Debridement W MCC,19733.0,DRG
Cellulitis w MCC,18150.5,DRG
Cellulitis w/o MCC,24248.0,DRG
Endocrine disorders w MCC,25365.0,DRG
Renal failure w MCC,22020.5,DRG
Renal failure w CC,10591.0,DRG
Kidney & urinary tract infections w/o MCC,17985.0,DRG
Other kidney & urinary tract diagnoses w CC,21191.0,DRG
Uterine & adnexa proc for non-malignancy w CC/MCC,23360.5,DRG
Uterine & adnexa proc for non-malignancy w/o CC/MCC,23649.25,DRG
Cesarean section w CC/MCC,17853.6429,DRG
Cesarean section w/o CC/MCC,14653.8667,DRG
Vaginal delivery w sterilization &/or D&C,15211.5,DRG
Vaginal delivery w O.R. proc except steril &/or D&C,11781.0,DRG
Vaginal delivery w complicating diagnoses,10872.3333,DRG
Vaginal delivery w/o complicating diagnoses,9351.0377,DRG
Cesarean Section with Sterilization w CC,18459.0,DRG
Cesarean Section with Sterilization w/o MCC/CC,17163.3333,DRG
Cesarean Section without Sterilization w CC,17058.25,DRG
Cesarean Section without Sterilization w/o MCC/CC,16787.5556,DRG
"Neonates, died or transferred to another acute care facility",5869.5385,DRG
Prematurity w major problems,12549.5,DRG
Prematurity w/o major problems,5272.5,DRG
Full term neonate w major problems,10137.4,DRG
Neonate w other significant problems,4771.0698,DRG
Normal newborn,3177.5081,DRG
Vaginal Delivery with Sterilization and/or D&C w CC,17713.0,DRG
Vaginal Delivery with Sterilization and/or D&C w/o MCC/CC,15230.0,DRG
VAGINAL DELIVERY WITHOUT STERILIZATION/D&C WITH MCC,10694.0,DRG
VAGINAL DELIVERY WITHOUT STERILIZATION/D&C WITH CC,10391.5,DRG
VAGINAL DELIVERY WITHOUT STERILIZATION/D&C WITHOUT CC/MCC,9440.4118,DRG
Red blood cell disorders w MCC,29187.0,DRG
Other Antepartum Diagnoses without O.R. Procedure w MCC,8149.0,DRG
Other Antepartum Diagnoses without O.R. Procedure w/o MCC/CC,,DRG
Fever of unknown origin,26401.0,DRG
Viral illness w MCC,17267.0,DRG
Septicemia w/o MV 96+ hours w MCC,31045.3333,DRG
Septicemia w/o MV 96+ hours w/o MCC,28116.0,DRG
Alcohol/drug abuse or dependence w/o rehabilitation therapy w MCC,18667.0,DRG
Other factors influencing health status,9580.0,DRG
Intracranial hemorrhage or cerebral infarction w CC,17217.0,DRG
Nonspecific cerebrovascular disorders w MCC,33446.0,DRG
Nonspecific cerebrovascular disorders w CC,21459.0,DRG
Viral meningitis w CC/MCC,19780.6667,DRG
Seizures w MCC,6643.0,DRG
Otitis media & URI w MCC,23103.0,DRG
Otitis media & URI w/o MCC,7520.0,DRG
Pulmonary embolism w MCC,30974.5,DRG
Pulmonary embolism w/o MCC,24749.0,DRG
Respiratory infections & inflammations w MCC,34117.0,DRG
Respiratory infections & inflammations w CC,15632.0,DRG
Respiratory infections & inflammations w/o CC/MCC,9378.0,DRG
Major chest trauma w CC,27982.0,DRG
Chronic obstructive pulmonary disease w MCC,24689.625,DRG
Chronic obstructive pulmonary disease w CC,21464.0,DRG
Simple pneumonia & pleurisy w MCC,23810.0,DRG
Simple pneumonia & pleurisy w CC,19847.6667,DRG
Simple pneumonia & pleurisy w/o CC/MCC,5675.0,DRG
Pneumothorax w/o CC/MCC,10071.0,DRG
Bronchitis & asthma w CC/MCC,12238.0,DRG
Bronchitis & asthma w/o CC/MCC,12811.0,DRG
"Acute myocardial infarction, discharged alive w MCC",13967.0,DRG
Heart failure & shock w MCC,21353.5,DRG
Heart failure & shock w CC,13799.5,DRG
Heart failure & shock w/o CC/MCC,9885.0,DRG
Cardiac arrhythmia & conduction disorders w MCC,23674.5,DRG
Cardiac arrhythmia & conduction disorders w CC,13376.6667,DRG
Cardiac arrhythmia & conduction disorders w/o CC/MCC,12035.1667,DRG
Syncope & collapse,9942.0,DRG
Major small & large bowel procedures w MCC,63616.5,DRG
Major small & large bowel procedures w CC,58351.5,DRG
Major small & large bowel procedures w/o CC/MCC,25911.3333,DRG
Peritoneal adhesiolysis w MCC,91303.0,DRG
Peritoneal adhesiolysis w CC,71581.6667,DRG
Peritoneal adhesiolysis w/o CC/MCC,35547.75,DRG
Appendectomy w complicated principal diag w CC,38365.0,DRG
Appendectomy w complicated principal diag w/o CC/MCC,29087.5,DRG
Appendectomy w/o complicated principal diag w/o CC/MCC,21721.0,DRG
Minor small & large bowel procedures w CC,27886.0,DRG
Other digestive system O.R. procedures w/o CC/MCC,20529.0,DRG
Major gastrointestinal disorders & peritoneal infections w MCC,24681.0,DRG
Major gastrointestinal disorders & peritoneal infections w CC,23973.3333,DRG
G.I. hemorrhage w CC,17533.3333,DRG
G.I. hemorrhage w/o CC/MCC,16077.0,DRG
Inflammatory bowel disease w CC,10426.5,DRG
G.I. obstruction w CC,11936.0,DRG
G.I. obstruction w/o CC/MCC,10583.3333,DRG
"Esophagitis, gastroent & misc digest disorders w/o MCC",14938.5455,DRG
Cholecystectomy except by laparoscope w/o c.d.e. w CC,31480.0,DRG
Laparoscopic cholecystectomy w/o c.d.e. w/o CC/MCC,22536.6667,DRG
Disorders of pancreas except malignancy w MCC,14584.0,DRG
Disorders of pancreas except malignancy w CC,23570.5714,DRG
Disorders of pancreas except malignancy w/o CC/MCC,13420.1667,DRG
"Disorders of liver except malig,cirr,alc hepa w/o CC/MCC",12051.0,DRG
Disorders of the biliary tract w/o CC/MCC,12168.5,DRG
Major joint replacement or reattachment of lower extremity w MCC,42057.0,DRG
Major joint replacement or reattachment of lower extremity w/o MCC,34664.7647,DRG
Major joint & limb reattachment proc of upper extremity w CC/MCC,35837.0,DRG
Fractures of hip & pelvis w/o MCC,15148.0,DRG
Medical back problems w MCC,43653.0,DRG
"Tendonitis, myositis & bursitis w/o MCC",14277.0,DRG
"Other skin, subcut tiss & breast proc w/o CC/MCC",12821.0,DRG
Cellulitis w/o MCC,11548.8571,DRG
"Other endocrine, nutrit & metab O.R. proc w CC",29106.0,DRG
Diabetes w MCC,12073.0,DRG
Diabetes w CC,13931.3,DRG
Diabetes w/o CC/MCC,14800.0,DRG
Nutritional & misc metabolic disorders w/o MCC,17333.5,DRG
Major bladder procedures w MCC,50901.0,DRG
Kidney & ureter procedures for non-neoplasm w CC,22774.0,DRG
Renal failure w MCC,32561.0,DRG
Renal failure w CC,17365.0,DRG
Kidney & urinary tract infections w MCC,22694.0,DRG
Kidney & urinary tract infections w/o MCC,6350.0,DRG
Inflammation of the male reproductive system w/o MCC,27781.0,DRG
Uterine & adnexa proc for non-malignancy w CC/MCC,26341.75,DRG
Uterine & adnexa proc for non-malignancy w/o CC/MCC,22669.1429,DRG
Menstrual & other female reproductive system disorders w/o CC/MCC,7828.0,DRG
Cesarean section w CC/MCC,14713.7317,DRG
Cesarean section w/o CC/MCC,14860.6154,DRG
Vaginal delivery w sterilization &/or D&C,13356.8,DRG
Vaginal delivery w O.R. proc except steril &/or D&C,9296.5,DRG
Postpartum & post abortion diagnoses w O.R. procedure,12083.0,DRG
Vaginal delivery w complicating diagnoses,10234.5,DRG
Vaginal delivery w/o complicating diagnoses,9317.9868,DRG
Postpartum & post abortion diagnoses w/o O.R. procedure,8646.0,DRG
Threatened abortion,4291.0,DRG
Other antepartum diagnoses w medical complications,4566.0,DRG
Cesarean Section with Sterilization w CC,15452.0,DRG
Cesarean Section with Sterilization w/o MCC/CC,16444.75,DRG
Cesarean Section without Sterilization w MCC,21011.0,DRG
Cesarean Section without Sterilization w CC,20531.6,DRG
Cesarean Section without Sterilization w/o MCC/CC,17949.9444,DRG
"Neonates, died or transferred to another acute care facility",5911.2,DRG
"Extreme immaturity or respiratory distress syndrome, neonate",6316.0,DRG
Prematurity w major problems,9348.5,DRG
Prematurity w/o major problems,3584.8333,DRG
Full term neonate w major problems,5805.0,DRG
Neonate w other significant problems,4018.5932,DRG
Normal newborn,3047.0896,DRG
VAGINAL DELIVERY WITHOUT STERILIZATION/D&C WITH MCC,8936.0,DRG
VAGINAL DELIVERY WITHOUT STERILIZATION/D&C WITH CC,10219.5,DRG
VAGINAL DELIVERY WITHOUT STERILIZATION/D&C WITHOUT CC/MCC,9660.0,DRG
Red blood cell disorders w/o MCC,12959.0,DRG
Coagulation disorders,10126.0,DRG
Postoperative & post-traumatic infections w MCC,12187.0,DRG
Fever of unknown origin,20921.0,DRG
Viral illness w/o MCC,27673.0,DRG
Septicemia w/o MV 96+ hours w MCC,38241.75,DRG
Septicemia w/o MV 96+ hours w/o MCC,22029.8,DRG
Other O.R. procedures for injuries w MCC,66619.0,DRG
Poisoning & toxic effects of drugs w/o MCC,17186.0,DRG
Signs & symptoms w MCC,34824.0,DRG
Signs & symptoms w/o MCC,23356.0,DRG
Other factors influencing health status,7724.0,DRG
Extensive O.R. procedure unrelated to principal diagnosis w CC,26293.0,DRG
Intracranial hemorrhage or cerebral infarction w/o CC/MCC,14963.0,DRG
Chronic obstructive pulmonary disease w MCC,18576.5,DRG
Respiratory signs & symptoms,11266.0,DRG
Appendectomy w complicated principal diag w CC,30045.0,DRG
Appendectomy w complicated principal diag w/o CC/MCC,23543.0,DRG
Laparoscopic cholecystectomy w/o c.d.e. w/o CC/MCC,25900.0,DRG
Disorders of pancreas except malignancy w MCC,17098.0,DRG
Cellulitis w/o MCC,9797.0,DRG
Endocrine disorders w MCC,20067.0,DRG
Cesarean section w/o CC/MCC,14571.0,DRG
Vaginal delivery w/o complicating diagnoses,6652.0,DRG
"Neonates, died or transferred to another acute care facility",7678.5,DRG
Full term neonate w major problems,4749.0,DRG
Neonate w other significant problems,3451.3333,DRG
Normal newborn,2516.4444,DRG
Septicemia w/o MV 96+ hours w MCC,13074.0,DRG
Principal diagnosis invalid as discharge diagnosis,14713.0,DRG
Chronic obstructive pulmonary disease w CC,9595.0,DRG
Appendectomy w complicated principal diag w/o CC/MCC,37077.0,DRG
Inflammatory bowel disease w CC,7553.0,DRG
"Esophagitis, gastroent & misc digest disorders w/o MCC",10305.0,DRG
Laparoscopic cholecystectomy w/o c.d.e. w/o CC/MCC,24358.0,DRG
Disorders of pancreas except malignancy w MCC,38021.0,DRG
Cesarean section w CC/MCC,8421.0,DRG
Cesarean section w/o CC/MCC,15784.6667,DRG
Vaginal delivery w complicating diagnoses,10372.0,DRG
Vaginal delivery w/o complicating diagnoses,8783.6667,DRG
Postpartum & post abortion diagnoses w/o O.R. procedure,9174.0,DRG
Full term neonate w major problems,4339.0,DRG
Neonate w other significant problems,2776.6,DRG
Normal newborn,2940.6667,DRG
Alcohol/drug abuse or dependence w/o rehabilitation therapy w/o CC/MCC,6498.0,DRG
Poisoning & toxic effects of drugs w MCC,19066.0,DRG
INTRACRANIAL HEMORRHAGE,5845.0,DRG
INTRACRANIAL HEMORRHAGE,8345.0,DRG
INTRACRANIAL HEMORRHAGE,5449.0,DRG
CVA & PRECEREBRAL OCCLUSION W INFARCT,3266.0,DRG
CVA & PRECEREBRAL OCCLUSION W INFARCT,19508.9286,DRG
CVA & PRECEREBRAL OCCLUSION W INFARCT,23724.5714,DRG
CVA & PRECEREBRAL OCCLUSION W INFARCT,35551.0,DRG
TRANSIENT ISCHEMIA,14981.0,DRG
TRANSIENT ISCHEMIA,18441.0,DRG
"PERIPHERAL, CRANIAL & AUTONOMIC NERVE DISORDERS",32783.0,DRG
NON-BACTERIAL INFECTIONS OF NERVOUS SYSTEM EXC VIRAL MENINGITIS,16751.0,DRG
ALTERATION IN CONSCIOUSNESS,14268.4706,DRG
ALTERATION IN CONSCIOUSNESS,24657.5,DRG
OTHER DISORDERS OF NERVOUS SYSTEM,11972.0,DRG
INFECTIONS OF UPPER RESPIRATORY TRACT,8891.0,DRG
INFECTIONS OF UPPER RESPIRATORY TRACT,12108.2,DRG
RESPIRATORY SYSTEM DIAGNOSIS W VENTILATOR SUPPORT 96+ HOURS,30221.0,DRG
RESPIRATORY FAILURE,11623.6667,DRG
RESPIRATORY FAILURE,19157.6667,DRG
RESPIRATORY FAILURE,20900.6667,DRG
PULMONARY EMBOLISM,9514.3333,DRG
PULMONARY EMBOLISM,11262.0,DRG
PULMONARY EMBOLISM,23160.0,DRG
PULMONARY EMBOLISM,48204.0,DRG
MAJOR CHEST & RESPIRATORY TRAUMA,15610.0,DRG
MAJOR RESPIRATORY INFECTIONS & INFLAMMATIONS,7727.0,DRG
MAJOR RESPIRATORY INFECTIONS & INFLAMMATIONS,14373.0,DRG
MAJOR RESPIRATORY INFECTIONS & INFLAMMATIONS,19120.5455,DRG
MAJOR RESPIRATORY INFECTIONS & INFLAMMATIONS,25267.0,DRG
OTHER PNEUMONIA,11145.0,DRG
OTHER PNEUMONIA,13673.9091,DRG
OTHER PNEUMONIA,16327.6486,DRG
OTHER PNEUMONIA,30456.3529,DRG
CHRONIC OBSTRUCTIVE PULMONARY DISEASE,9520.0,DRG
CHRONIC OBSTRUCTIVE PULMONARY DISEASE,19354.4286,DRG
CHRONIC OBSTRUCTIVE PULMONARY DISEASE,17707.5833,DRG
CHRONIC OBSTRUCTIVE PULMONARY DISEASE,22237.0526,DRG
"OTHER RESPIRATORY DIAGNOSES EXCEPT SIGNS, SYMPTOMS & MINOR DIAGNOSE",16674.0,DRG
"OTHER RESPIRATORY DIAGNOSES EXCEPT SIGNS, SYMPTOMS & MINOR DIAGNOSE",13196.3333,DRG
"OTHER RESPIRATORY DIAGNOSES EXCEPT SIGNS, SYMPTOMS & MINOR DIAGNOSE",21071.0,DRG
"RESPIRATORY SIGNS, SYMPTOMS & MINOR DIAGNOSES",2655.0,DRG
"RESPIRATORY SIGNS, SYMPTOMS & MINOR DIAGNOSES",18255.0,DRG
ACUTE BRONCHITIS AND RELATED SYMPTOMS,10042.0,DRG
ACUTE MYOCARDIAL INFARCTION,10156.3333,DRG
ACUTE MYOCARDIAL INFARCTION,8270.3333,DRG
ACUTE MYOCARDIAL INFARCTION,15463.3333,DRG
HEART FAILURE,4263.0,DRG
HEART FAILURE,10894.7857,DRG
HEART FAILURE,18027.1538,DRG
HEART FAILURE,21137.3,DRG
PERIPHERAL & OTHER VASCULAR DISORDERS,16986.0,DRG
HYPERTENSION,24458.0,DRG
CARDIAC ARRHYTHMIA & CONDUCTION DISORDERS,7754.75,DRG
CARDIAC ARRHYTHMIA & CONDUCTION DISORDERS,10257.0,DRG
CARDIAC ARRHYTHMIA & CONDUCTION DISORDERS,15891.25,DRG
CARDIAC ARRHYTHMIA & CONDUCTION DISORDERS,31931.25,DRG
SYNCOPE & COLLAPSE,14674.0,DRG
SYNCOPE & COLLAPSE,7622.0,DRG
OTHER CIRCULATORY SYSTEM DIAGNOSES,16274.0,DRG
OTHER CIRCULATORY SYSTEM DIAGNOSES,27515.0,DRG
OTHER SMALL & LARGE BOWEL PROCEDURES,27839.0,DRG
OTHER SMALL & LARGE BOWEL PROCEDURES,42542.0,DRG
PERITONEAL ADHESIOLYSIS,37630.0,DRG
PERITONEAL ADHESIOLYSIS,99546.0,DRG
MAJOR SMALL BOWEL PROCEDURES,46399.0,DRG
MAJOR SMALL BOWEL PROCEDURES,147958.0,DRG
MAJOR LARGE BOWEL PROCEDURES,62405.0,DRG
MAJOR LARGE BOWEL PROCEDURES,282107.0,DRG
APPENDECTOMY WITH COMPLEX PRINCIPAL DIAGNOSIS,24155.5,DRG
APPENDECTOMY WITHOUT COMPLEX PRINCIPAL DIAGNOSIS,40523.0,DRG
DIGESTIVE MALIGNANCY,23262.0,DRG
PEPTIC ULCER & GASTRITIS,15898.0,DRG
PEPTIC ULCER & GASTRITIS,19372.0,DRG
MAJOR ESOPHAGEAL DISORDERS,15361.0,DRG
DIVERTICULITIS & DIVERTICULOSIS,13178.25,DRG
DIVERTICULITIS & DIVERTICULOSIS,17636.8333,DRG
DIVERTICULITIS & DIVERTICULOSIS,19675.5,DRG
INTESTINAL OBSTRUCTION,15791.0,DRG
INTESTINAL OBSTRUCTION,15727.0,DRG
INTESTINAL OBSTRUCTION,27179.1667,DRG
MAJOR GASTROINTESTINAL & PERITONEAL INFECTIONS,16641.5,DRG
MAJOR GASTROINTESTINAL & PERITONEAL INFECTIONS,19583.0,DRG
MAJOR GASTROINTESTINAL & PERITONEAL INFECTIONS,12931.0,DRG
MAJOR GASTROINTESTINAL & PERITONEAL INFECTIONS,29214.0,DRG
"OTHER GASTROENTERITIS, NAUSEA & VOMITING",15345.5,DRG
"OTHER GASTROENTERITIS, NAUSEA & VOMITING",16172.0,DRG
ABDOMINAL PAIN,18727.0,DRG
OTHER & UNSPECIFIED GASTROINTESTINAL HEMORRHAGE,10814.0,DRG
OTHER & UNSPECIFIED GASTROINTESTINAL HEMORRHAGE,31277.0,DRG
OTHER DIGESTIVE SYSTEM DIAGNOSES,13357.5,DRG
OTHER DIGESTIVE SYSTEM DIAGNOSES,13475.8333,DRG
OTHER DIGESTIVE SYSTEM DIAGNOSES,22385.0,DRG
CHOLECYSTECTOMY,30664.0,DRG
CHOLECYSTECTOMY,24712.5,DRG
CHOLECYSTECTOMY,23800.0,DRG
HEPATIC COMA & OTHER MAJOR ACUTE LIVER DISORDERS,10642.0,DRG
HEPATIC COMA & OTHER MAJOR ACUTE LIVER DISORDERS,16000.0,DRG
ALCOHOLIC LIVER DISEASE,33155.0,DRG
MALIGNANCY OF HEPATOBILIARY SYSTEM & PANCREAS,30751.0,DRG
DISORDERS OF PANCREAS EXCEPT MALIGNANCY,11152.0,DRG
DISORDERS OF PANCREAS EXCEPT MALIGNANCY,10294.5,DRG
DISORDERS OF PANCREAS EXCEPT MALIGNANCY,12804.0,DRG
OTHER DISORDERS OF THE LIVER,29348.0,DRG
DISORDERS OF GALLBLADDER & BILIARY TRACT,15974.3333,DRG
DISORDERS OF GALLBLADDER & BILIARY TRACT,17035.0,DRG
DISORDERS OF GALLBLADDER & BILIARY TRACT,10556.0,DRG
HIP JOINT REPLACEMENT,34394.6154,DRG
HIP JOINT REPLACEMENT,48151.1667,DRG
HIP JOINT REPLACEMENT,56382.0,DRG
KNEE JOINT REPLACEMENT,34723.25,DRG
KNEE JOINT REPLACEMENT,38867.9444,DRG
AMPUTATION OF LOWER LIMB EXCEPT TOES,23891.0,DRG
HIP & FEMUR FRACTURE REPAIR,32741.0,DRG
HIP & FEMUR FRACTURE REPAIR,31406.0,DRG
HIP & FEMUR FRACTURE REPAIR,41484.75,DRG
"SHOULDER, UPPER ARM & FOREARM PROCEDURES EXCEPT JOINT REPLACEMENT",34432.0,DRG
SHOULDER & ELBOW JOINT REPLACEMENT,38058.125,DRG
FRACTURE OF FEMUR,14389.0,DRG
FRACTURE OF FEMUR,6718.0,DRG
FRACTURE OF FEMUR,39826.0,DRG
FRACTURE OF PELVIS OR DISLOCATION OF HIP,5359.0,DRG
FRACTURE OF PELVIS OR DISLOCATION OF HIP,12858.0,DRG
"FRACTURES & DISLOCATIONS EXCEPT FEMUR, PELVIS & BACK",7030.0,DRG
"OSTEOMYELITIS, SEPTIC ARTHRITIS & OTHER MUSCULOSKELETAL INFECTIONS",12865.0,DRG
"OSTEOMYELITIS, SEPTIC ARTHRITIS & OTHER MUSCULOSKELETAL INFECTIONS",20830.0,DRG
"OSTEOMYELITIS, SEPTIC ARTHRITIS & OTHER MUSCULOSKELETAL INFECTIONS",14359.0,DRG
"OTHER BACK & NECK DISORDERS, FRACTURES & INJURIES",3428.0,DRG
"OTHER BACK & NECK DISORDERS, FRACTURES & INJURIES",8818.0,DRG
OTHER MUSCULOSKELETAL SYSTEM & CONNECTIVE TISSUE DIAGNOSES,20866.0,DRG
OTHER MUSCULOSKELETAL SYSTEM & CONNECTIVE TISSUE DIAGNOSES,17119.6,DRG
"OTHER SKIN, SUBCUTANEOUS TISSUE & RELATED PROCEDURES",27148.0,DRG
SKIN ULCERS,10440.0,DRG
MAJOR SKIN DISORDERS,12980.0,DRG
CELLULITIS & OTHER SKIN INFECTIONS,2470.0,DRG
CELLULITIS & OTHER SKIN INFECTIONS,9286.3333,DRG
CELLULITIS & OTHER SKIN INFECTIONS,18506.0,DRG
"OTHER PROCEDURES FOR ENDOCRINE, NUTRITIONAL & METABOLIC DISORDERS",32547.0,DRG
DIABETES,12709.5,DRG
DIABETES,18048.0,DRG
DIABETES,23732.3333,DRG
DIABETES,26936.6667,DRG
HYPOVOLEMIA & RELATED ELECTROLYTE DISORDERS,10660.5,DRG
HYPOVOLEMIA & RELATED ELECTROLYTE DISORDERS,17176.0,DRG
INBORN ERRORS OF METABOLISM,8549.0,DRG
OTHER ENDOCRINE DISORDERS,12081.5,DRG
NON-HYPOVOLEMIC SODIUM DISORDERS,11448.0,DRG
NON-HYPOVOLEMIC SODIUM DISORDERS,17072.0,DRG
NON-HYPOVOLEMIC SODIUM DISORDERS,21129.5,DRG
KIDNEY & URINARY TRACT MALIGNANCY,36933.0,DRG
KIDNEY & URINARY TRACT MALIGNANCY,9732.0,DRG
KIDNEY & URINARY TRACT INFECTIONS,13176.0,DRG
KIDNEY & URINARY TRACT INFECTIONS,12980.4444,DRG
KIDNEY & URINARY TRACT INFECTIONS,18882.1667,DRG
KIDNEY & URINARY TRACT INFECTIONS,27192.0,DRG
URINARY STONES & ACQUIRED UPPER URINARY TRACT OBSTRUCTION,29814.0,DRG
"OTHER KIDNEY & URINARY TRACT DIAGNOSES, SIGNS & SYMPTOMS",43560.0,DRG
ACUTE KIDNEY INJURY,9788.0,DRG
ACUTE KIDNEY INJURY,13355.8,DRG
ACUTE KIDNEY INJURY,14739.7692,DRG
ACUTE KIDNEY INJURY,15568.0,DRG
CHRONIC KIDNEY DISEASE,11938.0,DRG
TRANSURETHRAL PROSTATECTOMY,17607.0,DRG
MALE REPRODUCTIVE SYSTEM DIAGNOSES EXCEPT MALIGNANCY,4915.0,DRG
UTERINE & ADNEXA PROCEDURES FOR NON-MALIGNANCY EXCEPT LEIOMYOMA,28398.0,DRG
UTERINE & ADNEXA PROCEDURES FOR NON-MALIGNANCY EXCEPT LEIOMYOMA,112579.0,DRG
FEMALE REPRODUCTIVE SYSTEM RECONSTRUCTIVE PROCEDURES,23360.0,DRG
OTHER FEMALE REPRODUCTIVE SYSTEM & RELATED PROCEDURES,39039.0,DRG
FEMALE REPRODUCTIVE SYSTEM INFECTIONS,23018.0,DRG
MENSTRUAL & OTHER FEMALE REPRODUCTIVE SYSTEM DISORDERS,17565.0,DRG
OTHER PROCEDURES OF BLOOD & BLOOD-FORMING ORGANS,21089.0,DRG
MAJOR HEMATOLOGIC/IMMUNOLOGIC DIAG EXC SICKLE CELL CRISIS & COAGUL,13838.0,DRG
OTHER ANEMIA & DISORDERS OF BLOOD & BLOOD-FORMING ORGANS,12385.0,DRG
OTHER ANEMIA & DISORDERS OF BLOOD & BLOOD-FORMING ORGANS,18581.6667,DRG
LYMPHATIC & OTHER MALIGNANCIES & NEOPLASMS OF UNCERTAIN BEHAVIOR,22250.0,DRG
INFECTIOUS & PARASITIC DISEASES INCLUDING HIV W O.R. PROCEDURE,25440.0,DRG
"POST-OP, POST-TRAUMA, OTHER DEVICE INFECTIONS W O.R. PROCEDURE",24535.0,DRG
SEPTICEMIA & DISSEMINATED INFECTIONS,17749.0,DRG
SEPTICEMIA & DISSEMINATED INFECTIONS,16818.2727,DRG
SEPTICEMIA & DISSEMINATED INFECTIONS,20743.6829,DRG
SEPTICEMIA & DISSEMINATED INFECTIONS,28111.75,DRG
FEVER,16660.0,DRG
VIRAL ILLNESS,12231.0,DRG
VIRAL ILLNESS,9419.0,DRG
OTHER INFECTIOUS & PARASITIC DISEASES,43496.0,DRG
POISONING OF MEDICINAL AGENTS,9245.0,DRG
"SIGNS, SYMPTOMS & OTHER FACTORS INFLUENCING HEALTH STATUS",10331.3333,DRG
"SIGNS, SYMPTOMS & OTHER FACTORS INFLUENCING HEALTH STATUS",18997.0,DRG
OTHER AFTERCARE & CONVALESCENCE,7747.0,DRG
MODERATELY EXTENSIVE PROCEDURE UNRELATED TO PRINCIPAL DIAGNOSIS,40066.0,DRG
CVA & PRECEREBRAL OCCLUSION W INFARCT,23044.0,DRG
ALTERATION IN CONSCIOUSNESS,17371.0,DRG
RESPIRATORY FAILURE,12936.0,DRG
MAJOR RESPIRATORY INFECTIONS & INFLAMMATIONS,36320.0,DRG
OTHER PNEUMONIA,13657.0,DRG
OTHER PNEUMONIA,25155.0,DRG
OTHER PNEUMONIA,27139.6667,DRG
CHRONIC OBSTRUCTIVE PULMONARY DISEASE,21141.3333,DRG
CHRONIC OBSTRUCTIVE PULMONARY DISEASE,29466.6667,DRG
"RESPIRATORY SIGNS, SYMPTOMS & MINOR DIAGNOSES",5191.0,DRG
HEART FAILURE,18098.4,DRG
CARDIAC ARRHYTHMIA & CONDUCTION DISORDERS,10009.0,DRG
"OTHER STOMACH, ESOPHAGEAL & DUODENAL PROCEDURES",37129.0,DRG
OTHER SMALL & LARGE BOWEL PROCEDURES,37067.0,DRG
OTHER SMALL & LARGE BOWEL PROCEDURES,48534.0,DRG
PERITONEAL ADHESIOLYSIS,45456.0,DRG
"HERNIA PROCEDURES EXCEPT INGUINAL, FEMORAL & UMBILICAL",23799.0,DRG
MAJOR LARGE BOWEL PROCEDURES,24658.0,DRG
APPENDECTOMY WITHOUT COMPLEX PRINCIPAL DIAGNOSIS,22594.0,DRG
PEPTIC ULCER & GASTRITIS,19922.0,DRG
INTESTINAL OBSTRUCTION,10737.0,DRG
INTESTINAL OBSTRUCTION,12761.0,DRG
OTHER DIGESTIVE SYSTEM DIAGNOSES,14126.0,DRG
DISORDERS OF PANCREAS EXCEPT MALIGNANCY,15114.0,DRG
DISORDERS OF PANCREAS EXCEPT MALIGNANCY,16055.5,DRG
DISORDERS OF PANCREAS EXCEPT MALIGNANCY,27221.5,DRG
DISORDERS OF GALLBLADDER & BILIARY TRACT,21443.0,DRG
HIP JOINT REPLACEMENT,40013.0,DRG
KNEE JOINT REPLACEMENT,27830.0,DRG
HIP & FEMUR FRACTURE REPAIR,43521.0,DRG
SKIN GRAFT FOR SKIN & SUBCUTANEOUS TISSUE DIAGNOSES,19733.0,DRG
CELLULITIS & OTHER SKIN INFECTIONS,24248.0,DRG
CELLULITIS & OTHER SKIN INFECTIONS,18150.5,DRG
THYROID DISORDERS,25365.0,DRG
KIDNEY & URINARY TRACT INFECTIONS,17985.0,DRG
"MALFUNCTION, REACTION, COMPLIC OF GENITOURINARY DEVICE OR PROC",21191.0,DRG
ACUTE KIDNEY INJURY,17033.5,DRG
ACUTE KIDNEY INJURY,20565.0,DRG
UTERINE & ADNEXA PROCEDURES FOR NON-MALIGNANCY EXCEPT LEIOMYOMA,22390.0,DRG
UTERINE & ADNEXA PROCEDURES FOR NON-MALIGNANCY EXCEPT LEIOMYOMA,29368.0,DRG
CESAREAN DELIVERY,15298.6923,DRG
CESAREAN DELIVERY,20176.4,DRG
VAGINAL DELIVERY W STERILIZATION &/OR D&C,15217.6667,DRG
VAGINAL DELIVERY W STERILIZATION &/OR D&C,17713.0,DRG
VAGINAL DELIVERY W COMPLICATING PROCEDURES EXC STERILIZATION &/OR D,9006.0,DRG
VAGINAL DELIVERY,9310.0536,DRG
VAGINAL DELIVERY,10087.1667,DRG
VAGINAL DELIVERY,10014.5,DRG
PRETERM LABOR,8149.0,DRG
OTHER ANTEPARTUM DIAGNOSES,,DRG
"NEONATE, TRANSFERRED < 5 DAYS OLD, BORN HERE",3804.4,DRG
"NEONATE, TRANSFERRED < 5 DAYS OLD, BORN HERE",5091.6667,DRG
NEONATE BWT 1500-1999G W OR W/O OTHER SIGNIFICANT CONDITION,6396.5,DRG
NEONATE BWT 2000-2499G W OTHER SIGNIFICANT CONDITION,19725.25,DRG
"NEONATE BWT 2000-2499G, NORMAL NEWBORN OR NEONATE W OTHER PROBLEM",3139.7143,DRG
"NEONATE BWT 2000-2499G, NORMAL NEWBORN OR NEONATE W OTHER PROBLEM",4319.0,DRG
"NEONATE BWT 2000-2499G, NORMAL NEWBORN OR NEONATE W OTHER PROBLEM",12209.5,DRG
NEONATE BIRTHWT >2499G W MAJOR ANOMALY,4692.0,DRG
NEONATE BIRTHWT >2499G W OTHER SIGNIFICANT CONDITION,10703.6667,DRG
NEONATE BIRTHWT >2499G W OTHER SIGNIFICANT CONDITION,8131.5,DRG
"NEONATE BIRTHWT >2499G, NORMAL NEWBORN OR NEONATE W OTHER PROBLEM",3301.2955,DRG
"NEONATE BIRTHWT >2499G, NORMAL NEWBORN OR NEONATE W OTHER PROBLEM",5066.5385,DRG
"NEONATE BIRTHWT >2499G, NORMAL NEWBORN OR NEONATE W OTHER PROBLEM",7772.1667,DRG
OTHER ANEMIA & DISORDERS OF BLOOD & BLOOD-FORMING ORGANS,29187.0,DRG
SEPTICEMIA & DISSEMINATED INFECTIONS,27620.0,DRG
SEPTICEMIA & DISSEMINATED INFECTIONS,20247.0,DRG
SEPTICEMIA & DISSEMINATED INFECTIONS,38535.75,DRG
FEVER,26401.0,DRG
VIRAL ILLNESS,17267.0,DRG
ALCOHOL ABUSE & DEPENDENCE,18667.0,DRG
"SIGNS, SYMPTOMS & OTHER FACTORS INFLUENCING HEALTH STATUS",9580.0,DRG
UNGROUPABLE,5172.75,DRG
CVA & PRECEREBRAL OCCLUSION W INFARCT,17217.0,DRG
VIRAL MENINGITIS,19670.5,DRG
VIRAL MENINGITIS,20001.0,DRG
ALTERATION IN CONSCIOUSNESS,21459.0,DRG
ALTERATION IN CONSCIOUSNESS,33446.0,DRG
SEIZURE,6643.0,DRG
INFECTIONS OF UPPER RESPIRATORY TRACT,7520.0,DRG
INFECTIONS OF UPPER RESPIRATORY TRACT,23103.0,DRG
PULMONARY EMBOLISM,24749.0,DRG
PULMONARY EMBOLISM,30974.5,DRG
MAJOR CHEST & RESPIRATORY TRAUMA,27982.0,DRG
MAJOR RESPIRATORY INFECTIONS & INFLAMMATIONS,9378.0,DRG
MAJOR RESPIRATORY INFECTIONS & INFLAMMATIONS,15632.0,DRG
MAJOR RESPIRATORY INFECTIONS & INFLAMMATIONS,41379.0,DRG
MAJOR RESPIRATORY INFECTIONS & INFLAMMATIONS,26855.0,DRG
OTHER PNEUMONIA,5675.0,DRG
OTHER PNEUMONIA,15665.6,DRG
OTHER PNEUMONIA,29459.3333,DRG
CHRONIC OBSTRUCTIVE PULMONARY DISEASE,21115.25,DRG
CHRONIC OBSTRUCTIVE PULMONARY DISEASE,22366.75,DRG
CHRONIC OBSTRUCTIVE PULMONARY DISEASE,33258.5,DRG
ASTHMA,12811.0,DRG
ASTHMA,12238.0,DRG
"OTHER RESPIRATORY DIAGNOSES EXCEPT SIGNS, SYMPTOMS & MINOR DIAGNOSE",10071.0,DRG
ACUTE MYOCARDIAL INFARCTION,13967.0,DRG
HEART FAILURE,12960.0,DRG
HEART FAILURE,14103.75,DRG
HEART FAILURE,22243.5,DRG
HEART FAILURE,25871.5,DRG
CARDIAC ARRHYTHMIA & CONDUCTION DISORDERS,12604.4,DRG
CARDIAC ARRHYTHMIA & CONDUCTION DISORDERS,16429.6,DRG
CARDIAC ARRHYTHMIA & CONDUCTION DISORDERS,14520.0,DRG
SYNCOPE & COLLAPSE,12965.0,DRG
OTHER CIRCULATORY SYSTEM DIAGNOSES,6919.0,DRG
OTHER SMALL & LARGE BOWEL PROCEDURES,18259.6667,DRG
OTHER SMALL & LARGE BOWEL PROCEDURES,43019.5,DRG
PERITONEAL ADHESIOLYSIS,36951.0,DRG
PERITONEAL ADHESIOLYSIS,38732.0,DRG
PERITONEAL ADHESIOLYSIS,87234.3333,DRG
OTHER DIGESTIVE SYSTEM & ABDOMINAL PROCEDURES,20529.0,DRG
MAJOR SMALL BOWEL PROCEDURES,66512.0,DRG
MAJOR SMALL BOWEL PROCEDURES,91344.0,DRG
MAJOR LARGE BOWEL PROCEDURES,31053.0,DRG
MAJOR LARGE BOWEL PROCEDURES,50191.0,DRG
MAJOR LARGE BOWEL PROCEDURES,35889.0,DRG
APPENDECTOMY WITH COMPLEX PRINCIPAL DIAGNOSIS,26744.75,DRG
APPENDECTOMY WITHOUT COMPLEX PRINCIPAL DIAGNOSIS,16359.0,DRG
DIVERTICULITIS & DIVERTICULOSIS,16854.625,DRG
DIVERTICULITIS & DIVERTICULOSIS,15927.0,DRG
INFLAMMATORY BOWEL DISEASE,12813.0,DRG
INFLAMMATORY BOWEL DISEASE,8040.0,DRG
INTESTINAL OBSTRUCTION,10790.625,DRG
INTESTINAL OBSTRUCTION,12983.0,DRG
MAJOR GASTROINTESTINAL & PERITONEAL INFECTIONS,15220.0,DRG
MAJOR GASTROINTESTINAL & PERITONEAL INFECTIONS,28350.0,DRG
MAJOR GASTROINTESTINAL & PERITONEAL INFECTIONS,24681.0,DRG
"OTHER GASTROENTERITIS, NAUSEA & VOMITING",14338.0,DRG
"OTHER GASTROENTERITIS, NAUSEA & VOMITING",18603.0,DRG
ABDOMINAL PAIN,53.0,DRG
OTHER & UNSPECIFIED GASTROINTESTINAL HEMORRHAGE,14129.0,DRG
OTHER DIGESTIVE SYSTEM DIAGNOSES,19187.0,DRG
CHOLECYSTECTOMY,22536.6667,DRG
CHOLECYSTECTOMY,31480.0,DRG
DISORDERS OF PANCREAS EXCEPT MALIGNANCY,13420.1667,DRG
DISORDERS OF PANCREAS EXCEPT MALIGNANCY,23570.5714,DRG
DISORDERS OF PANCREAS EXCEPT MALIGNANCY,14584.0,DRG
OTHER DISORDERS OF THE LIVER,12051.0,DRG
DISORDERS OF GALLBLADDER & BILIARY TRACT,15132.0,DRG
DISORDERS OF GALLBLADDER & BILIARY TRACT,9205.0,DRG
HIP JOINT REPLACEMENT,30375.0,DRG
HIP JOINT REPLACEMENT,38200.0,DRG
KNEE JOINT REPLACEMENT,32896.1667,DRG
KNEE JOINT REPLACEMENT,35643.625,DRG
KNEE JOINT REPLACEMENT,42057.0,DRG
KNEE & LOWER LEG PROCEDURES EXCEPT FOOT,24566.0,DRG
"TENDON, MUSCLE & OTHER SOFT TISSUE PROCEDURES",29106.0,DRG
SHOULDER & ELBOW JOINT REPLACEMENT,35837.0,DRG
FRACTURE OF FEMUR,15148.0,DRG
"OSTEOMYELITIS, SEPTIC ARTHRITIS & OTHER MUSCULOSKELETAL INFECTIONS",11921.0,DRG
"OSTEOMYELITIS, SEPTIC ARTHRITIS & OTHER MUSCULOSKELETAL INFECTIONS",14268.0,DRG
"OSTEOMYELITIS, SEPTIC ARTHRITIS & OTHER MUSCULOSKELETAL INFECTIONS",18373.0,DRG
"OTHER BACK & NECK DISORDERS, FRACTURES & INJURIES",43653.0,DRG
OTHER MUSCULOSKELETAL SYSTEM & CONNECTIVE TISSUE DIAGNOSES,14277.0,DRG
MASTECTOMY PROCEDURES,12821.0,DRG
SKIN ULCERS,12073.0,DRG
CELLULITIS & OTHER SKIN INFECTIONS,9741.0,DRG
CELLULITIS & OTHER SKIN INFECTIONS,12904.75,DRG
DIABETES,10048.0,DRG
DIABETES,14108.8333,DRG
DIABETES,14850.0,DRG
HYPOVOLEMIA & RELATED ELECTROLYTE DISORDERS,9498.0,DRG
NON-HYPOVOLEMIC SODIUM DISORDERS,25169.0,DRG
MAJOR BLADDER PROCEDURES,50901.0,DRG
KIDNEY & URINARY TRACT PROCEDURES FOR NONMALIGNANCY,22774.0,DRG
KIDNEY & URINARY TRACT INFECTIONS,6350.0,DRG
KIDNEY & URINARY TRACT INFECTIONS,22694.0,DRG
ACUTE KIDNEY INJURY,17365.0,DRG
ACUTE KIDNEY INJURY,32561.0,DRG
MALE REPRODUCTIVE SYSTEM DIAGNOSES EXCEPT MALIGNANCY,27781.0,DRG
UTERINE & ADNEXA PROCEDURES FOR NON-MALIGNANCY EXCEPT LEIOMYOMA,22185.8182,DRG
UTERINE & ADNEXA PROCEDURES FOR NON-MALIGNANCY EXCEPT LEIOMYOMA,28676.5,DRG
UTERINE & ADNEXA PROCEDURES FOR LEIOMYOMA,35978.0,DRG
MENSTRUAL & OTHER FEMALE REPRODUCTIVE SYSTEM DISORDERS,7828.0,DRG
CESAREAN DELIVERY,15281.3468,DRG
CESAREAN DELIVERY,16834.0909,DRG
CESAREAN DELIVERY,12576.5,DRG
VAGINAL DELIVERY W STERILIZATION &/OR D&C,11240.6667,DRG
VAGINAL DELIVERY W STERILIZATION &/OR D&C,16531.0,DRG
VAGINAL DELIVERY W COMPLICATING PROCEDURES EXC STERILIZATION &/OR D,9619.0,DRG
VAGINAL DELIVERY W COMPLICATING PROCEDURES EXC STERILIZATION &/OR D,12347.0,DRG
VAGINAL DELIVERY,9154.5319,DRG
VAGINAL DELIVERY,10061.7727,DRG
PRETERM LABOR,4291.0,DRG
OTHER ANTEPARTUM DIAGNOSES,4566.0,DRG
"NEONATE, TRANSFERRED < 5 DAYS OLD, BORN HERE",4614.0,DRG
"NEONATE, TRANSFERRED < 5 DAYS OLD, BORN HERE",7232.0,DRG
NEONATE BIRTHWT 1000-1249G W OR W/O OTHER SIGNIFICANT CONDITION,3573.0,DRG
"NEONATE BWT 2000-2499G, NORMAL NEWBORN OR NEONATE W OTHER PROBLEM",3221.95,DRG
"NEONATE BWT 2000-2499G, NORMAL NEWBORN OR NEONATE W OTHER PROBLEM",5672.6667,DRG
"NEONATE, BIRTHWT >2499G W RESP DIST SYND/OTH MAJ RESP COND",12042.3333,DRG
NEONATE BIRTHWT >2499G W OTHER SIGNIFICANT CONDITION,4387.0,DRG
"NEONATE BIRTHWT >2499G, NORMAL NEWBORN OR NEONATE W OTHER PROBLEM",3101.576,DRG
"NEONATE BIRTHWT >2499G, NORMAL NEWBORN OR NEONATE W OTHER PROBLEM",3895.3043,DRG
"NEONATE BIRTHWT >2499G, NORMAL NEWBORN OR NEONATE W OTHER PROBLEM",5868.0,DRG
COAGULATION & PLATELET DISORDERS,10126.0,DRG
OTHER ANEMIA & DISORDERS OF BLOOD & BLOOD-FORMING ORGANS,12959.0,DRG
"POST-OP, POST-TRAUMA, OTHER DEVICE INFECTIONS W O.R. PROCEDURE",66619.0,DRG
SEPTICEMIA & DISSEMINATED INFECTIONS,21135.0,DRG
SEPTICEMIA & DISSEMINATED INFECTIONS,19422.3333,DRG
SEPTICEMIA & DISSEMINATED INFECTIONS,36481.75,DRG
"POST-OPERATIVE, POST-TRAUMATIC, OTHER DEVICE INFECTIONS",12187.0,DRG
FEVER,20921.0,DRG
VIRAL ILLNESS,27673.0,DRG
OTHER INFECTIOUS & PARASITIC DISEASES,37787.0,DRG
POISONING OF MEDICINAL AGENTS,14751.0,DRG
POISONING OF MEDICINAL AGENTS,19621.0,DRG
"SIGNS, SYMPTOMS & OTHER FACTORS INFLUENCING HEALTH STATUS",7724.0,DRG
"SIGNS, SYMPTOMS & OTHER FACTORS INFLUENCING HEALTH STATUS",23356.0,DRG
"SIGNS, SYMPTOMS & OTHER FACTORS INFLUENCING HEALTH STATUS",34824.0,DRG
MODERATELY EXTENSIVE PROCEDURE UNRELATED TO PRINCIPAL DIAGNOSIS,28020.0,DRG
NONEXTENSIVE PROCEDURE UNRELATED TO PRINCIPAL DIAGNOSIS,15688.0,DRG
NONEXTENSIVE PROCEDURE UNRELATED TO PRINCIPAL DIAGNOSIS,8478.0,DRG
UNGROUPABLE,2377.6667,DRG
CVA & PRECEREBRAL OCCLUSION W INFARCT,14963.0,DRG
CHRONIC OBSTRUCTIVE PULMONARY DISEASE,16972.0,DRG
CHRONIC OBSTRUCTIVE PULMONARY DISEASE,20181.0,DRG
ACUTE BRONCHITIS AND RELATED SYMPTOMS,11266.0,DRG
APPENDECTOMY WITH COMPLEX PRINCIPAL DIAGNOSIS,23543.0,DRG
APPENDECTOMY WITH COMPLEX PRINCIPAL DIAGNOSIS,30045.0,DRG
CHOLECYSTECTOMY,25900.0,DRG
DISORDERS OF PANCREAS EXCEPT MALIGNANCY,17098.0,DRG
CELLULITIS & OTHER SKIN INFECTIONS,9797.0,DRG
THYROID DISORDERS,20067.0,DRG
CESAREAN DELIVERY,14571.0,DRG
VAGINAL DELIVERY W STERILIZATION &/OR D&C,14713.0,DRG
VAGINAL DELIVERY,6652.0,DRG
"NEONATE, TRANSFERRED < 5 DAYS OLD, BORN HERE",8756.0,DRG
"NEONATE BIRTHWT >2499G, NORMAL NEWBORN OR NEONATE W OTHER PROBLEM",2869.8,DRG
"NEONATE BIRTHWT >2499G, NORMAL NEWBORN OR NEONATE W OTHER PROBLEM",4749.0,DRG
SEPTICEMIA & DISSEMINATED INFECTIONS,13074.0,DRG
UNGROUPABLE,3635.0,DRG
CHRONIC OBSTRUCTIVE PULMONARY DISEASE,9595.0,DRG
APPENDECTOMY WITH COMPLEX PRINCIPAL DIAGNOSIS,37077.0,DRG
INFLAMMATORY BOWEL DISEASE,7553.0,DRG
"OTHER GASTROENTERITIS, NAUSEA & VOMITING",10305.0,DRG
CHOLECYSTECTOMY,24358.0,DRG
DISORDERS OF PANCREAS EXCEPT MALIGNANCY,38021.0,DRG
CESAREAN DELIVERY,15784.6667,DRG
CESAREAN DELIVERY,8421.0,DRG
VAGINAL DELIVERY W COMPLICATING PROCEDURES EXC STERILIZATION &/OR D,7926.0,DRG
VAGINAL DELIVERY,9212.5,DRG
VAGINAL DELIVERY,10372.0,DRG
POSTPARTUM & POST ABORTION DIAGNOSES W/O PROCEDURE,9174.0,DRG
"NEONATE BWT 2000-2499G, NORMAL NEWBORN OR NEONATE W OTHER PROBLEM",2863.0,DRG
"NEONATE BWT 2000-2499G, NORMAL NEWBORN OR NEONATE W OTHER PROBLEM",3085.0,DRG
NEONATE BIRTHWT >2499G W MAJOR ANOMALY,2547.0,DRG
"NEONATE BIRTHWT >2499G, NORMAL NEWBORN OR NEONATE W OTHER PROBLEM",3063.5,DRG
OPIOID ABUSE & DEPENDENCE,6498.0,DRG
OVERDOSE,19066.0,DRG
