Description,Charge,Category
Malignant neoplasm of cecum,23874.0,Standard
Malignant neoplasm of prostate,32744.0,Standard
"Malignant neoplasm of right kidney, except renal pelvis",25775.25,Standard
"Malignant neoplasm of left kidney, except renal pelvis",26632.5,Standard
Malignant neoplasm of right ureter,34381.0,Standard
Malignant neoplasm of lateral wall of bladder,45285.0,Standard
Secondary malignant neoplasm of retroperitoneum and peritoneum,13766.0,Standard
Benign neoplasm of ascending colon,27214.0,Standard
Benign neoplasm of transverse colon,22285.0,Standard
Benign neoplasm of left ovary,26896.0,Standard
"Unilateral femoral hernia, with obstruction, without gangrene, not specified as recurrent",23503.0,Standard
"Parastomal hernia with obstruction, without gangrene",23224.0,Standard
"Intestinal adhesions [bands], unspecified as to partial versus complete obstruction",16988.0,Standard
Diverticulitis of large intestine with perforation and abscess without bleeding,33865.0,Standard
"Unilateral primary osteoarthritis, right hip",39372.0,Standard
Bilateral primary osteoarthritis of knee,40533.0,Standard
"Unilateral primary osteoarthritis, right knee",40863.0,Standard
"Unilateral primary osteoarthritis, left knee",38546.8889,Standard
"Unilateral post-traumatic osteoarthritis, left knee",45136.0,Standard
"Primary osteoarthritis, right shoulder",49925.625,Standard
"Primary osteoarthritis, left shoulder",47238.3333,Standard
"Primary osteoarthritis, right ankle and foot",72882.0,Standard
"Post-traumatic osteoarthritis, right ankle and foot",76270.0,Standard
"Hallux rigidus, right foot",20239.0,Standard
"Spinal stenosis, cervical region",108598.5,Standard
"Spinal stenosis, lumbar region without neurogenic claudication",55619.0,Standard
"Complete rotator cuff tear or rupture of right shoulder, not specified as traumatic",49100.0,Standard
"Other specified disorders of bone, lower leg",15380.0,Standard
Pseudarthrosis after fusion or arthrodesis,97515.0,Standard
Atrophy of kidney (terminal),15057.0,Standard
"Cyst of kidney, acquired",18576.0,Standard
"Uterovaginal prolapse, unspecified",30671.0,Standard
Prolapse of vaginal vault after hysterectomy,27645.0,Standard
Congenital occlusion of ureteropelvic junction,22053.0,Standard
"Dislocation of other internal joint prosthesis, initial encounter",54884.0,Standard
"Displacement of internal fixation device of vertebrae, initial encounter",103103.0,Standard
Gastrointestinal stromal tumor of stomach,24690.0,Standard
Malignant neoplasm of overlapping sites of right female breast,25640.0,Standard
"Malignant neoplasm of right kidney, except renal pelvis",18105.0,Standard
"Malignant neoplasm of left kidney, except renal pelvis",29658.5,Standard
Benign neoplasm of cecum,26064.0,Standard
Morbid (severe) obesity due to excess calories,31483.7692,Standard
Other specified diseases of biliary tract,14100.0,Standard
"Other specified rheumatoid arthritis, left knee",40378.0,Standard
"Unilateral primary osteoarthritis, right hip",40520.0,Standard
"Unilateral primary osteoarthritis, left hip",43853.0,Standard
Bilateral primary osteoarthritis of knee,58206.5,Standard
"Unilateral primary osteoarthritis, right knee",43613.0,Standard
"Unilateral primary osteoarthritis, left knee",51571.5,Standard
"Primary osteoarthritis, right shoulder",53443.0,Standard
"Spondylolisthesis, lumbar region",95952.0,Standard
"Spinal stenosis, cervical region",52015.5,Standard
"Other secondary osteonecrosis, right femur",40186.0,Standard
"Postlaminectomy syndrome, not elsewhere classified",111366.0,Standard
Hydronephrosis with ureteropelvic junction obstruction,19243.0,Standard
Atrophy of kidney (terminal),28905.0,Standard
Encounter for attention to colostomy,34505.0,Standard
Morbid (severe) obesity due to excess calories,34242.0,Standard
Malignant neoplasm of cecum,25898.0,Standard
Malignant neoplasm of appendix,29940.0,Standard
Malignant neoplasm of overlapping sites of colon,34877.0,Standard
Malignant neoplasm of endometrium,29354.0,Standard
Malignant neoplasm of prostate,29893.8,Standard
"Malignant neoplasm of right kidney, except renal pelvis",27119.7778,Standard
"Malignant neoplasm of left kidney, except renal pelvis",25587.75,Standard
Malignant neoplasm of lateral wall of bladder,9769.0,Standard
Malignant neoplasm of overlapping sites of bladder,50428.0,Standard
Malignant carcinoid tumor of the appendix,26965.0,Standard
Benign neoplasm of cecum,26311.0,Standard
Benign neoplasm of appendix,29510.0,Standard
Benign neoplasm of ascending colon,27980.0,Standard
Benign neoplasm of right kidney,14970.0,Standard
Benign neoplasm of left kidney,22959.0,Standard
Type 2 diabetes mellitus with other specified complication,11818.0,Standard
Type 2 diabetes mellitus without complications,36033.0,Standard
Morbid (severe) obesity due to excess calories,33819.1429,Standard
"Incisional hernia with obstruction, without gangrene",29260.0,Standard
Incisional hernia without obstruction or gangrene,21363.0,Standard
"Other and unspecified ventral hernia with obstruction, without gangrene",15481.0,Standard
Volvulus,14583.0,Standard
Diverticulitis of large intestine without perforation or abscess without bleeding,31959.5,Standard
Other specified diseases of gallbladder,12613.0,Standard
Other complications of gastric band procedure,40657.0,Standard
Other complications of other bariatric procedure,30623.0,Standard
Bilateral primary osteoarthritis of hip,35440.75,Standard
"Unilateral primary osteoarthritis, right hip",38738.5,Standard
"Unilateral primary osteoarthritis, left hip",40161.8889,Standard
Bilateral primary osteoarthritis of knee,41244.64,Standard
"Unilateral primary osteoarthritis, right knee",38954.08,Standard
"Unilateral primary osteoarthritis, left knee",38380.8684,Standard
"Unilateral post-traumatic osteoarthritis, right knee",41459.0,Standard
"Unilateral post-traumatic osteoarthritis, left knee",35993.0,Standard
"Primary osteoarthritis, right shoulder",48108.6667,Standard
"Primary osteoarthritis, left shoulder",38365.0,Standard
"Hallux rigidus, left foot",15304.0,Standard
Other internal derangements of right knee,34370.0,Standard
"Other spondylosis with myelopathy, cervical region",116940.0,Standard
"Spinal stenosis, cervical region",105795.0,Standard
"Spinal stenosis, lumbar region without neurogenic claudication",123134.0,Standard
"Cervical disc disorder with radiculopathy, high cervical region",48684.0,Standard
"Complete rotator cuff tear or rupture of right shoulder, not specified as traumatic",61943.0,Standard
Idiopathic aseptic necrosis of right femur,42851.0,Standard
Idiopathic aseptic necrosis of left femur,39160.0,Standard
Hydronephrosis with renal and ureteral calculous obstruction,25141.0,Standard
Crossing vessel and stricture of ureter without hydronephrosis,12583.0,Standard
Atrophy of kidney (terminal),25250.6,Standard
"Urinary tract infection, site not specified",31469.0,Standard
Benign prostatic hyperplasia with lower urinary tract symptoms,17890.0,Standard
Endometriosis of pelvic peritoneum,25308.0,Standard
Other specified conditions associated with female genital organs and menstrual cycle,25825.0,Standard
"Other injury of ureter, initial encounter",28287.0,Standard
"Mechanical loosening of internal right knee prosthetic joint, initial encounter",38054.0,Standard
Encounter for prophylactic removal of breast,34589.0,Standard
Encounter for attention to ileostomy,,Standard
Encounter for attention to colostomy,20363.5,Standard
Malignant neoplasm of cecum,24856.0,Standard
Malignant neoplasm of left ovary,36448.0,Standard
Malignant neoplasm of prostate,15348.0,Standard
"Malignant neoplasm of right kidney, except renal pelvis",24015.5,Standard
"Malignant neoplasm of left kidney, except renal pelvis",33053.5,Standard
Malignant neoplasm of overlapping sites of bladder,13559.0,Standard
"Malignant neoplasm of bladder, unspecified",43831.0,Standard
Subserosal leiomyoma of uterus,23422.0,Standard
Neoplasm of uncertain behavior of stomach,26822.0,Standard
Type 2 diabetes mellitus with foot ulcer,10415.0,Standard
Morbid (severe) obesity due to excess calories,42554.5,Standard
"Incisional hernia with obstruction, without gangrene",35189.0,Standard
Incisional hernia without obstruction or gangrene,15667.0,Standard
Diaphragmatic hernia without obstruction or gangrene,34964.0,Standard
Diverticulitis of large intestine without perforation or abscess without bleeding,33653.0,Standard
Bilateral primary osteoarthritis of hip,42581.0,Standard
"Unilateral primary osteoarthritis, right hip",41552.0,Standard
"Unilateral primary osteoarthritis, left hip",39813.6667,Standard
Bilateral primary osteoarthritis of knee,40152.6,Standard
"Unilateral primary osteoarthritis, right knee",32234.2857,Standard
"Unilateral primary osteoarthritis, left knee",36395.7143,Standard
"Primary osteoarthritis, right shoulder",48419.8,Standard
"Primary osteoarthritis, left shoulder",46920.8,Standard
"Complete rotator cuff tear or rupture of left shoulder, not specified as traumatic",48641.0,Standard
"Other secondary osteonecrosis, left femur",39551.0,Standard
"Cystocele, midline",18918.0,Standard
Other retention of urine,35800.0,Standard
"Instability of internal left knee prosthesis, initial encounter",31787.0,Standard
"Dislocation of other internal joint prosthesis, initial encounter",56323.0,Standard
Major small & large bowel procedures w CC,26689.0,DRG
Major small & large bowel procedures w/o CC/MCC,28075.0,DRG
Peritoneal adhesiolysis w CC,23224.0,DRG
Inguinal & femoral hernia procedures w CC,23503.0,DRG
Other digestive system O.R. procedures w CC,13766.0,DRG
Digestive malignancy w CC,21584.0,DRG
G.I. obstruction w CC,16988.0,DRG
Combined anterior/posterior spinal fusion w/o CC/MCC,55619.0,DRG
Spinal fusion except cervical w/o MCC,100309.0,DRG
Major joint replacement or reattachment of lower extremity w MCC,74576.0,DRG
Major joint replacement or reattachment of lower extremity w/o MCC,39811.4348,DRG
Cervical spinal fusion w CC,112649.0,DRG
Cervical spinal fusion w/o CC/MCC,104548.0,DRG
Major joint & limb reattachment proc of upper extremity w CC/MCC,50068.3077,DRG
Knee procedures w/o pdx of infection w CC/MCC,15380.0,DRG
Foot procedures w CC,20239.0,DRG
"Tendonitis, myositis & bursitis w/o MCC",49100.0,DRG
Major bladder procedures w CC,45285.0,DRG
Kidney & ureter procedures for neoplasm w CC,27920.0,DRG
Kidney & ureter procedures for neoplasm w/o CC/MCC,26981.4,DRG
Kidney & ureter procedures for non-neoplasm w CC,18555.0,DRG
Kidney & ureter procedures for non-neoplasm w/o CC/MCC,18576.0,DRG
Major male pelvic procedures w/o CC/MCC,32744.0,DRG
Uterine & adnexa proc for non-malignancy w/o CC/MCC,28783.5,DRG
"Vagina, cervix & vulva procedures w CC/MCC",27645.0,DRG
Major small & large bowel procedures w CC,26064.0,DRG
Major small & large bowel procedures w/o CC/MCC,34505.0,DRG
Cholecystectomy except by laparoscope w/o c.d.e. w/o CC/MCC,14100.0,DRG
Combined anterior/posterior spinal fusion w CC,95952.0,DRG
Combined anterior/posterior spinal fusion w/o CC/MCC,111366.0,DRG
Bilateral or multiple major joint procs of lower extremity w/o MCC,65353.0,DRG
Major joint replacement or reattachment of lower extremity w/o MCC,45344.125,DRG
Cervical spinal fusion w CC,47842.0,DRG
Cervical spinal fusion w/o CC/MCC,56189.0,DRG
Major joint & limb reattachment proc of upper extremity w CC/MCC,53443.0,DRG
"Other skin, subcut tiss & breast proc w CC",25640.0,DRG
O.R. procedures for obesity w CC,33310.0,DRG
O.R. procedures for obesity w/o CC/MCC,31331.5833,DRG
Kidney & ureter procedures for neoplasm w CC,36828.0,DRG
Kidney & ureter procedures for neoplasm w/o CC/MCC,20297.0,DRG
Kidney & ureter procedures for non-neoplasm w CC,24074.0,DRG
Extensive O.R. procedure unrelated to principal diagnosis w/o CC,24690.0,DRG
O.R. procedures for obesity w/o CC/MCC,34242.0,DRG
"Stomach, esophageal & duodenal proc w MCC",40657.0,DRG
"Stomach, esophageal & duodenal proc w CC",22603.0,DRG
Major small & large bowel procedures w CC,29718.25,DRG
Major small & large bowel procedures w/o CC/MCC,27471.8,DRG
Peritoneal adhesiolysis w/o CC/MCC,15018.0,DRG
Hernia procedures except inguinal & femoral w CC,21363.0,DRG
Hernia procedures except inguinal & femoral w/o CC/MCC,29260.0,DRG
Other digestive system diagnoses w/o CC/MCC,15481.0,DRG
Cholecystectomy except by laparoscope w/o c.d.e. w/o CC/MCC,12613.0,DRG
Spinal fusion except cervical w/o MCC,123134.0,DRG
Bilateral or multiple major joint procs of lower extremity w/o MCC,71029.0,DRG
"Wnd debrid & skn grft exc hand, for musculo-conn tiss dis w/o CC",38054.0,DRG
Revision of hip or knee replacement w CC,34370.0,DRG
Major joint replacement or reattachment of lower extremity w/o MCC,39232.2403,DRG
Cervical spinal fusion w CC,77089.0,DRG
Cervical spinal fusion w/o CC/MCC,111518.0,DRG
Major joint & limb reattachment proc of upper extremity w CC/MCC,50100.3333,DRG
Bone diseases & arthropathies w/o MCC,34876.5556,DRG
Other musculoskeletal sys & connective tissue diagnoses w/o CC/MCC,15304.0,DRG
Skin graft &/or debrid exc for skin ulcer or cellulitis w/o CC/MCC,34589.0,DRG
O.R. procedures for obesity w/o CC/MCC,33788.0,DRG
"Skin grafts & wound debrid for endoc, nutrit & metab dis w CC",11818.0,DRG
Major bladder procedures w CC,40948.5,DRG
Kidney & ureter procedures for neoplasm w CC,23157.8571,DRG
Kidney & ureter procedures for neoplasm w/o CC/MCC,26021.3333,DRG
Kidney & ureter procedures for non-neoplasm w CC,26047.25,DRG
Kidney & ureter procedures for non-neoplasm w/o CC/MCC,25164.0,DRG
Kidney & urinary tract neoplasms w CC,33062.5,DRG
Kidney & urinary tract neoplasms w/o CC/MCC,9769.0,DRG
Kidney & urinary tract infections w/o MCC,12583.0,DRG
Major male pelvic procedures w CC/MCC,30317.0,DRG
Major male pelvic procedures w/o CC/MCC,28132.4,DRG
Transurethral prostatectomy w/o CC/MCC,14270.0,DRG
"Uterine,adnexa proc for non-ovarian/adnexal malig w/o CC/MCC",29354.0,DRG
Uterine & adnexa proc for non-malignancy w CC/MCC,25308.0,DRG
Uterine & adnexa proc for non-malignancy w/o CC/MCC,25825.0,DRG
Extensive O.R. procedure unrelated to principal diagnosis w CC,34877.0,DRG
Extensive O.R. procedure unrelated to principal diagnosis w/o CC,35019.5,DRG
"Stomach, esophageal & duodenal proc w/o CC/MCC",34964.0,DRG
Major small & large bowel procedures w CC,33653.0,DRG
Major small & large bowel procedures w/o CC/MCC,24856.0,DRG
Peritoneal adhesiolysis w CC,35189.0,DRG
Hernia procedures except inguinal & femoral w CC,26822.0,DRG
Other digestive system diagnoses w/o CC/MCC,15667.0,DRG
Major joint replacement or reattachment of lower extremity w/o MCC,37826.1111,DRG
Major joint & limb reattachment proc of upper extremity w CC/MCC,49076.1538,DRG
Bone diseases & arthropathies w/o MCC,34585.3333,DRG
"Aftercare, musculoskeletal system & connective tissue w/o CC/MCC",31787.0,DRG
O.R. procedures for obesity w/o CC/MCC,42554.5,DRG
"Other endocrine, nutrit & metab O.R. proc w CC",10415.0,DRG
Major bladder procedures w/o CC/MCC,43831.0,DRG
Kidney & ureter procedures for neoplasm w CC,24015.5,DRG
Kidney & ureter procedures for neoplasm w/o CC/MCC,33053.5,DRG
Prostatectomy w/o CC/MCC,35800.0,DRG
Transurethral procedures w CC,13559.0,DRG
"Malignancy, male reproductive system w CC",15348.0,DRG
Uterine & adnexa proc for ovarian or adnexal malignancy w CC,36448.0,DRG
Uterine & adnexa proc for non-malignancy w/o CC/MCC,23422.0,DRG
"Vagina, cervix & vulva procedures w/o CC/MCC",18918.0,DRG
"HERNIA PROCEDURES EXCEPT INGUINAL, FEMORAL & UMBILICAL",23224.0,DRG
"INGUINAL, FEMORAL & UMBILICAL HERNIA PROCEDURES",23503.0,DRG
OTHER DIGESTIVE SYSTEM & ABDOMINAL PROCEDURES,13766.0,DRG
MAJOR SMALL BOWEL PROCEDURES,33865.0,DRG
MAJOR LARGE BOWEL PROCEDURES,24224.5,DRG
MAJOR LARGE BOWEL PROCEDURES,27214.0,DRG
DIGESTIVE MALIGNANCY,21584.0,DRG
INTESTINAL OBSTRUCTION,16988.0,DRG
HIP JOINT REPLACEMENT,36188.0,DRG
HIP JOINT REPLACEMENT,42556.0,DRG
KNEE JOINT REPLACEMENT,39328.3,DRG
KNEE JOINT REPLACEMENT,39772.125,DRG
KNEE JOINT REPLACEMENT,46715.0,DRG
DORSAL & LUMBAR FUSION PROC EXCEPT FOR CURVATURE OF BACK,55619.0,DRG
DORSAL & LUMBAR FUSION PROC EXCEPT FOR CURVATURE OF BACK,103103.0,DRG
KNEE & LOWER LEG PROCEDURES EXCEPT FOOT,54844.0,DRG
FOOT & TOE PROCEDURES,20239.0,DRG
"SHOULDER, UPPER ARM & FOREARM PROCEDURES EXCEPT JOINT REPLACEMENT",49074.8333,DRG
CERVICAL SPINAL FUSION & OTHER BACK/NECK PROC EXC DISC EXCIS/DECOMP,104548.0,DRG
CERVICAL SPINAL FUSION & OTHER BACK/NECK PROC EXC DISC EXCIS/DECOMP,112649.0,DRG
SHOULDER & ELBOW JOINT REPLACEMENT,53896.0,DRG
SHOULDER & ELBOW JOINT REPLACEMENT,46951.6667,DRG
OTHER MUSCULOSKELETAL SYSTEM & CONNECTIVE TISSUE DIAGNOSES,49100.0,DRG
MAJOR BLADDER PROCEDURES,45285.0,DRG
KIDNEY & URINARY TRACT PROCEDURES FOR MALIGNANCY,27500.5,DRG
KIDNEY & URINARY TRACT PROCEDURES FOR MALIGNANCY,26915.0,DRG
KIDNEY & URINARY TRACT PROCEDURES FOR NONMALIGNANCY,20314.5,DRG
KIDNEY & URINARY TRACT PROCEDURES FOR NONMALIGNANCY,15057.0,DRG
MAJOR MALE PELVIC PROCEDURES,32744.0,DRG
UTERINE & ADNEXA PROCEDURES FOR NON-MALIGNANCY EXCEPT LEIOMYOMA,26896.0,DRG
UTERINE & ADNEXA PROCEDURES FOR NON-MALIGNANCY EXCEPT LEIOMYOMA,30671.0,DRG
OTHER FEMALE REPRODUCTIVE SYSTEM & RELATED PROCEDURES,27645.0,DRG
"PROCEDURE W DIAG OF REHAB, AFTERCARE OR OTH CONTACT W HEALTH SERVIC",97515.0,DRG
OTHER SMALL & LARGE BOWEL PROCEDURES,34505.0,DRG
MAJOR SMALL BOWEL PROCEDURES,26064.0,DRG
CHOLECYSTECTOMY,14100.0,DRG
HIP JOINT REPLACEMENT,40520.0,DRG
HIP JOINT REPLACEMENT,42019.5,DRG
KNEE JOINT REPLACEMENT,49532.5,DRG
KNEE JOINT REPLACEMENT,51120.5,DRG
DORSAL & LUMBAR FUSION PROC EXCEPT FOR CURVATURE OF BACK,103659.0,DRG
"SHOULDER, UPPER ARM & FOREARM PROCEDURES EXCEPT JOINT REPLACEMENT",53443.0,DRG
CERVICAL SPINAL FUSION & OTHER BACK/NECK PROC EXC DISC EXCIS/DECOMP,56189.0,DRG
CERVICAL SPINAL FUSION & OTHER BACK/NECK PROC EXC DISC EXCIS/DECOMP,47842.0,DRG
MASTECTOMY PROCEDURES,25640.0,DRG
PROCEDURES FOR OBESITY,31347.5455,DRG
PROCEDURES FOR OBESITY,32233.0,DRG
KIDNEY & URINARY TRACT PROCEDURES FOR MALIGNANCY,22489.0,DRG
KIDNEY & URINARY TRACT PROCEDURES FOR MALIGNANCY,27466.5,DRG
KIDNEY & URINARY TRACT PROCEDURES FOR NONMALIGNANCY,24074.0,DRG
EXTENSIVE PROCEDURE UNRELATED TO PRINCIPAL DIAGNOSIS,24690.0,DRG
PROCEDURES FOR OBESITY,34242.0,DRG
"MAJOR STOMACH, ESOPHAGEAL & DUODENAL PROCEDURES",30623.0,DRG
"OTHER STOMACH, ESOPHAGEAL & DUODENAL PROCEDURES",14583.0,DRG
"OTHER STOMACH, ESOPHAGEAL & DUODENAL PROCEDURES",40657.0,DRG
OTHER SMALL & LARGE BOWEL PROCEDURES,25709.0,DRG
PERITONEAL ADHESIOLYSIS,15018.0,DRG
"HERNIA PROCEDURES EXCEPT INGUINAL, FEMORAL & UMBILICAL",29260.0,DRG
"HERNIA PROCEDURES EXCEPT INGUINAL, FEMORAL & UMBILICAL",21363.0,DRG
MAJOR SMALL BOWEL PROCEDURES,25898.0,DRG
MAJOR SMALL BOWEL PROCEDURES,28077.0,DRG
MAJOR SMALL BOWEL PROCEDURES,29510.0,DRG
MAJOR LARGE BOWEL PROCEDURES,28585.0,DRG
MAJOR LARGE BOWEL PROCEDURES,33714.0,DRG
OTHER DIGESTIVE SYSTEM DIAGNOSES,15481.0,DRG
CHOLECYSTECTOMY,12613.0,DRG
HIP JOINT REPLACEMENT,37937.8462,DRG
HIP JOINT REPLACEMENT,40194.7,DRG
KNEE JOINT REPLACEMENT,39860.1918,DRG
KNEE JOINT REPLACEMENT,38051.9,DRG
DORSAL & LUMBAR FUSION PROC EXCEPT FOR CURVATURE OF BACK,123134.0,DRG
FOOT & TOE PROCEDURES,11818.0,DRG
"SHOULDER, UPPER ARM & FOREARM PROCEDURES EXCEPT JOINT REPLACEMENT",48543.6,DRG
CERVICAL SPINAL FUSION & OTHER BACK/NECK PROC EXC DISC EXCIS/DECOMP,106096.0,DRG
CERVICAL SPINAL FUSION & OTHER BACK/NECK PROC EXC DISC EXCIS/DECOMP,90372.6667,DRG
SHOULDER & ELBOW JOINT REPLACEMENT,52859.3333,DRG
SHOULDER & ELBOW JOINT REPLACEMENT,49607.0,DRG
OTHER MUSCULOSKELETAL SYSTEM & CONNECTIVE TISSUE DIAGNOSES,34432.6667,DRG
SKIN GRAFT FOR SKIN & SUBCUTANEOUS TISSUE DIAGNOSES,34589.0,DRG
PROCEDURES FOR OBESITY,34593.0,DRG
PROCEDURES FOR OBESITY,32178.0,DRG
MAJOR BLADDER PROCEDURES,31469.0,DRG
MAJOR BLADDER PROCEDURES,50428.0,DRG
KIDNEY & URINARY TRACT PROCEDURES FOR MALIGNANCY,25152.4,DRG
KIDNEY & URINARY TRACT PROCEDURES FOR MALIGNANCY,25757.0,DRG
KIDNEY & URINARY TRACT PROCEDURES FOR NONMALIGNANCY,25719.6,DRG
KIDNEY & URINARY TRACT PROCEDURES FOR NONMALIGNANCY,24680.6667,DRG
KIDNEY & URINARY TRACT PROCEDURES FOR NONMALIGNANCY,14970.0,DRG
KIDNEY & URINARY TRACT MALIGNANCY,9769.0,DRG
KIDNEY & URINARY TRACT MALIGNANCY,33062.5,DRG
"OTHER KIDNEY & URINARY TRACT DIAGNOSES, SIGNS & SYMPTOMS",12583.0,DRG
MAJOR MALE PELVIC PROCEDURES,28132.4,DRG
MAJOR MALE PELVIC PROCEDURES,30317.0,DRG
TRANSURETHRAL PROSTATECTOMY,14270.0,DRG
UTERINE & ADNEXA PROCEDURES FOR NON-OVARIAN & NON-ADNEXAL MALIG,29354.0,DRG
UTERINE & ADNEXA PROCEDURES FOR NON-MALIGNANCY EXCEPT LEIOMYOMA,25566.5,DRG
EXTENSIVE PROCEDURE UNRELATED TO PRINCIPAL DIAGNOSIS,36033.0,DRG
EXTENSIVE PROCEDURE UNRELATED TO PRINCIPAL DIAGNOSIS,34006.0,DRG
MODERATELY EXTENSIVE PROCEDURE UNRELATED TO PRINCIPAL DIAGNOSIS,34877.0,DRG
"MAJOR STOMACH, ESOPHAGEAL & DUODENAL PROCEDURES",34964.0,DRG
"HERNIA PROCEDURES EXCEPT INGUINAL, FEMORAL & UMBILICAL",31005.5,DRG
MAJOR LARGE BOWEL PROCEDURES,24856.0,DRG
MAJOR LARGE BOWEL PROCEDURES,33653.0,DRG
OTHER DIGESTIVE SYSTEM DIAGNOSES,15667.0,DRG
HIP JOINT REPLACEMENT,40661.3333,DRG
HIP JOINT REPLACEMENT,40380.3333,DRG
KNEE JOINT REPLACEMENT,38381.9,DRG
KNEE JOINT REPLACEMENT,36411.8333,DRG
FOOT & TOE PROCEDURES,10415.0,DRG
"SHOULDER, UPPER ARM & FOREARM PROCEDURES EXCEPT JOINT REPLACEMENT",49955.4545,DRG
SHOULDER & ELBOW JOINT REPLACEMENT,44240.0,DRG
"MALFUNCTION, REACTION, COMPLIC OF ORTHOPEDIC DEVICE OR PROCEDURE",31787.0,DRG
OTHER MUSCULOSKELETAL SYSTEM & CONNECTIVE TISSUE DIAGNOSES,30587.5,DRG
PROCEDURES FOR OBESITY,43934.0,DRG
PROCEDURES FOR OBESITY,41175.0,DRG
MAJOR BLADDER PROCEDURES,43831.0,DRG
KIDNEY & URINARY TRACT PROCEDURES FOR MALIGNANCY,28534.5,DRG
URETHRAL & TRANSURETHRAL PROCEDURES,13559.0,DRG
"MALIGNANCY, MALE REPRODUCTIVE SYSTEM",15348.0,DRG
UTERINE & ADNEXA PROCEDURES FOR OVARIAN & ADNEXAL MALIGNANCY,36448.0,DRG
FEMALE REPRODUCTIVE SYSTEM RECONSTRUCTIVE PROCEDURES,18918.0,DRG
UTERINE & ADNEXA PROCEDURES FOR LEIOMYOMA,23422.0,DRG
NONEXTENSIVE PROCEDURE UNRELATED TO PRINCIPAL DIAGNOSIS,35800.0,DRG
