Description,Charge,Category
"Enterocolitis due to Clostridium difficile, not specified as recurrent",147175.0,Standard
Sepsis due to Methicillin susceptible Staphylococcus aureus,84661.0,Standard
Sepsis due to Methicillin resistant Staphylococcus aureus,94876.5,Standard
Sepsis due to Escherichia coli [E. coli],136818.0,Standard
Sepsis due to Enterococcus,56431.0,Standard
"Sepsis, unspecified organism",74422.5,Standard
Herpesviral encephalitis,40320.0,Standard
Zoster encephalitis,29685.0,Standard
Unspecified mycosis,82664.0,Standard
Malignant neoplasm of specified parts of peritoneum,149228.0,Standard
Myxedema coma,213914.0,Standard
Type 1 diabetes mellitus with diabetic autonomic (poly)neuropathy,158246.0,Standard
Type 2 diabetes mellitus with diabetic peripheral angiopathy with gangrene,89991.0,Standard
Type 2 diabetes mellitus with other specified complication,84540.0,Standard
Unspecified severe protein-calorie malnutrition,89798.5,Standard
"Other epilepsy, not intractable, with status epilepticus",62596.0,Standard
"Epilepsy, unspecified, not intractable, without status epilepticus",75031.0,Standard
"Encephalopathy, unspecified",76945.0,Standard
Other encephalopathy,24349.0,Standard
Hypertensive heart disease with heart failure,53523.5,Standard
"Hypertensive heart and chronic kidney disease with heart failure and stage 1 through stage 4 chronic kidney disease, or unspecified chronic kidney disease",95547.3333,Standard
"Hypertensive heart and chronic kidney disease with heart failure and with stage 5 chronic kidney disease, or end stage renal disease",76069.0,Standard
Acute and subacute infective endocarditis,95767.0,Standard
Chronic atrial fibrillation,285696.0,Standard
Unspecified atrial fibrillation,14529.0,Standard
Acute on chronic systolic (congestive) heart failure,4454.0,Standard
Biventricular heart failure,12509.0,Standard
"Nontraumatic intracerebral hemorrhage in hemisphere, subcortical",58926.0,Standard
"Cerebral infarction, unspecified",117473.0,Standard
Other sequelae of nontraumatic intracerebral hemorrhage,61893.0,Standard
Hemiplegia and hemiparesis following cerebral infarction affecting right dominant side,125320.0,Standard
Hemiplegia and hemiparesis following cerebral infarction affecting left non-dominant side,201280.0,Standard
Other sequelae of cerebral infarction,123500.0,Standard
Venous insufficiency (chronic) (peripheral),121088.0,Standard
Orthostatic hypotension,8709.0,Standard
Postprocedural cerebrovascular infarction following cardiac surgery,82560.0,Standard
Influenza due to other identified influenza virus with the same other identified influenza virus pneumonia,109631.0,Standard
Pneumonia due to Methicillin resistant Staphylococcus aureus,48233.0,Standard
Pneumonia due to Escherichia coli,52160.0,Standard
"Pneumonia, unspecified organism",184699.3333,Standard
"Acute bronchitis, unspecified",58202.0,Standard
Chronic obstructive pulmonary disease with (acute) exacerbation,73458.6667,Standard
"Chronic obstructive pulmonary disease, unspecified",101846.0,Standard
Pneumonitis due to inhalation of food and vomit,78591.5,Standard
Acute postprocedural respiratory failure,127948.25,Standard
Acute and chronic postprocedural respiratory failure,326504.4286,Standard
"Acute respiratory failure, unspecified whether with hypoxia or hypercapnia",122724.125,Standard
Acute respiratory failure with hypoxia,93550.8333,Standard
Chronic respiratory failure with hypoxia,321905.0,Standard
"Acute and chronic respiratory failure, unspecified whether with hypoxia or hypercapnia",196810.9143,Standard
Acute and chronic respiratory failure with hypoxia,176339.3065,Standard
Acute and chronic respiratory failure with hypercapnia,146958.76,Standard
"Unspecified intestinal obstruction, unspecified as to partial versus complete obstruction",135233.0,Standard
Diverticulitis of large intestine with perforation and abscess without bleeding,32980.0,Standard
Other peritonitis,485745.0,Standard
Unspecified cirrhosis of liver,68446.0,Standard
Calculus of gallbladder with acute cholecystitis without obstruction,74677.0,Standard
Acute cholecystitis,67903.0,Standard
Other cholangitis,82999.0,Standard
Cutaneous abscess of left foot,36684.0,Standard
Cellulitis of right lower limb,264023.0,Standard
Cellulitis of left lower limb,81962.0,Standard
Cellulitis of unspecified part of limb,79361.0,Standard
Cellulitis of face,59287.0,Standard
Cellulitis of back [any part except buttock],110707.0,Standard
"Pressure ulcer of right elbow, stage 4",80525.0,Standard
"Pressure ulcer of sacral region, stage 4",165923.0,Standard
"Pressure ulcer of right buttock, stage 4",268886.0,Standard
"Pressure ulcer of left buttock, stage 4",69000.0,Standard
Calcinosis cutis,103670.0,Standard
Inflammatory conditions of jaws,20136.0,Standard
"Discitis, unspecified, thoracic region",116136.0,Standard
Necrotizing fasciitis,188661.5,Standard
"Other osteomyelitis, thigh",131863.0,Standard
"Tubulo-interstitial nephritis, not specified as acute or chronic",84664.0,Standard
Acute kidney failure with tubular necrosis,94563.5,Standard
"Acute kidney failure, unspecified",92440.4,Standard
"Urinary tract infection, site not specified",96602.6667,Standard
Fournier gangrene,72769.0,Standard
Unspecified abnormalities of breathing,20176.0,Standard
Bacteremia,86633.0,Standard
"Fracture of symphysis of mandible, initial encounter for closed fracture",25905.0,Standard
"Unspecified focal traumatic brain injury with loss of consciousness of unspecified duration, initial encounter",57559.0,Standard
"Traumatic subdural hemorrhage with loss of consciousness of unspecified duration, initial encounter",65907.5,Standard
"Traumatic subarachnoid hemorrhage without loss of consciousness, initial encounter",12934.0,Standard
"Traumatic subarachnoid hemorrhage with loss of consciousness of unspecified duration, initial encounter",33612.0,Standard
"Stable burst fracture of third thoracic vertebra, initial encounter for closed fracture",363120.0,Standard
"Unspecified fracture of T9-T10 vertebra, initial encounter for closed fracture",82820.0,Standard
"Fracture of one rib, right side, initial encounter for closed fracture",68937.0,Standard
"Displaced intertrochanteric fracture of right femur, initial encounter for closed fracture",91137.0,Standard
"Superficial foreign body, right lower leg, subsequent encounter",36552.0,Standard
"Frostbite with tissue necrosis of left toe(s), initial encounter",83593.0,Standard
"Adverse effect of other drugs, medicaments and biological substances, initial encounter",40777.0,Standard
"Bloodstream infection due to central venous catheter, initial encounter",155224.0,Standard
"Other infection due to central venous catheter, initial encounter",496794.0,Standard
"Disruption of wound, unspecified, initial encounter",168063.0,Standard
"Disruption of external operation (surgical) wound, not elsewhere classified, initial encounter",62924.0,Standard
"Infection following a procedure, initial encounter",108515.0,Standard
"Persistent postprocedural fistula, initial encounter",342090.0,Standard
"Infection and inflammatory reaction due to cardiac valve prosthesis, initial encounter",306487.0,Standard
"Infection and inflammatory reaction due to other cardiac and vascular devices, implants and grafts, initial encounter",130754.7143,Standard
"Infection and inflammatory reaction due to internal right hip prosthesis, initial encounter",97464.0,Standard
"Infection and inflammatory reaction due to other internal joint prosthesis, initial encounter",83651.0,Standard
"Infection and inflammatory reaction due to other internal orthopedic prosthetic devices, implants and grafts, initial encounter",119535.0,Standard
"Infection and inflammatory reaction due to other internal prosthetic devices, implants and grafts, initial encounter",155951.0,Standard
"Infection of amputation stump, right lower extremity",173309.0,Standard
"Infection of amputation stump, left lower extremity",104020.0,Standard
"Necrosis of amputation stump, left lower extremity",41175.0,Standard
Encounter for orthopedic aftercare following surgical amputation,63080.5,Standard
Aftercare following surgery for neoplasm,90099.5,Standard
Encounter for surgical aftercare following surgery on the circulatory system,75506.1667,Standard
Encounter for surgical aftercare following surgery on the digestive system,110472.0,Standard
Sepsis due to Methicillin susceptible Staphylococcus aureus,23236.0,Standard
Sepsis due to Methicillin resistant Staphylococcus aureus,57249.5,Standard
"Malignant neoplasm of vulva, unspecified",21762.0,Standard
Unspecified severe protein-calorie malnutrition,63055.0,Standard
Unspecified protein-calorie malnutrition,137564.0,Standard
"Bacterial meningoencephalitis and meningomyelitis, not elsewhere classified",11496.0,Standard
"Anoxic brain damage, not elsewhere classified",54717.0,Standard
"Hypertensive heart and chronic kidney disease with heart failure and with stage 5 chronic kidney disease, or end stage renal disease",145353.0,Standard
Acute and subacute infective endocarditis,60308.5833,Standard
Hemiplegia and hemiparesis following nontraumatic intracerebral hemorrhage affecting left non-dominant side,64842.0,Standard
Other sequelae of nontraumatic intracerebral hemorrhage,42550.0,Standard
Abscess of lung without pneumonia,105515.0,Standard
"Acute respiratory failure, unspecified whether with hypoxia or hypercapnia",54940.0,Standard
Acute respiratory failure with hypoxia,59844.25,Standard
Acute respiratory failure with hypercapnia,63233.0,Standard
"Acute and chronic respiratory failure, unspecified whether with hypoxia or hypercapnia",232062.0,Standard
Acute and chronic respiratory failure with hypoxia,188583.1429,Standard
Acute and chronic respiratory failure with hypercapnia,205889.5,Standard
"Acute (reversible) ischemia of small intestine, extent unspecified",4911.0,Standard
Fistula of intestine,61213.0,Standard
Alcoholic cirrhosis of liver with ascites,43184.0,Standard
"Postsurgical malabsorption, not elsewhere classified",202058.0,Standard
Other postprocedural complications and disorders of digestive system,323088.0,Standard
Cutaneous abscess of buttock,49460.0,Standard
Cutaneous abscess of left hand,23944.0,Standard
"Pressure ulcer of sacral region, stage 4",245611.0,Standard
"Osteomyelitis of vertebra, thoracolumbar region",169724.0,Standard
"Osteomyelitis of vertebra, sacral and sacrococcygeal region",175258.0,Standard
"Discitis, unspecified, lumbar region",75808.0,Standard
"Other osteomyelitis, ankle and foot",132299.0,Standard
"Acute kidney failure, unspecified",112175.4286,Standard
Fournier gangrene,54022.0,Standard
Acute vaginitis,73675.0,Standard
Fistula of vagina to large intestine,33157.0,Standard
"Unspecified open wound, right thigh, initial encounter",332682.0,Standard
"Infection following a procedure, organ and space surgical site, initial encounter",100069.0,Standard
"Infection following a procedure, initial encounter",566385.6667,Standard
"Infection and inflammatory reaction due to other cardiac and vascular devices, implants and grafts, initial encounter",184740.0,Standard
"Infection and inflammatory reaction due to internal fixation device of spine, initial encounter",132800.0,Standard
"Infection and inflammatory reaction due to other internal orthopedic prosthetic devices, implants and grafts, initial encounter",105919.0,Standard
"Infection of amputation stump, left lower extremity",101203.0,Standard
Encounter for surgical aftercare following surgery on the circulatory system,254423.0,Standard
Encounter for surgical aftercare following surgery on the digestive system,101699.0,Standard
Tuberculosis of lung,12512.0,Standard
Sepsis due to Methicillin susceptible Staphylococcus aureus,59594.0,Standard
Sepsis due to Escherichia coli [E. coli],26396.0,Standard
"Sepsis, unspecified organism",81430.0,Standard
Herpesviral encephalitis,60548.0,Standard
Candidal sepsis,12270.0,Standard
"Malignant neoplasm of cerebrum, except lobes and ventricles",78170.0,Standard
Malignant neoplasm of parietal lobe,17751.0,Standard
Type 1 diabetes mellitus with hyperglycemia,11646.0,Standard
Type 2 diabetes mellitus with other specified complication,157384.6667,Standard
Primary adrenocortical insufficiency,52356.0,Standard
Staphylococcal meningitis,195483.0,Standard
"Extradural and subdural abscess, unspecified",79664.0,Standard
Myasthenia gravis without (acute) exacerbation,77989.0,Standard
Myasthenia gravis with (acute) exacerbation,189000.0,Standard
"Encephalopathy, unspecified",110232.0,Standard
Hypertensive heart disease with heart failure,50525.0,Standard
"Disease of pericardium, unspecified",26371.0,Standard
Hemiplegia and hemiparesis following cerebral infarction affecting right dominant side,25054.0,Standard
Postprocedural cerebrovascular infarction following cardiac surgery,27652.0,Standard
"Pneumonia, unspecified organism",54165.0,Standard
Chronic obstructive pulmonary disease with (acute) exacerbation,53218.0,Standard
"Pleural effusion, not elsewhere classified",69767.0,Standard
Acute postprocedural respiratory failure,107520.0,Standard
Acute and chronic postprocedural respiratory failure,269546.5,Standard
"Other postprocedural complications and disorders of respiratory system, not elsewhere classified",11320.0,Standard
"Acute respiratory failure, unspecified whether with hypoxia or hypercapnia",127546.5,Standard
Acute respiratory failure with hypoxia,164649.0,Standard
Chronic respiratory failure with hypoxia,220700.0,Standard
"Acute and chronic respiratory failure, unspecified whether with hypoxia or hypercapnia",77825.1667,Standard
Acute and chronic respiratory failure with hypoxia,178352.7391,Standard
Acute and chronic respiratory failure with hypercapnia,102092.0,Standard
Alcoholic cirrhosis of liver without ascites,10927.0,Standard
Alcoholic hepatic failure without coma,42694.0,Standard
Pyoderma gangrenosum,118786.0,Standard
"Pressure ulcer of sacral region, stage 4",107024.0,Standard
Calcinosis cutis,250721.0,Standard
"Osteomyelitis of vertebra, thoracic region",48521.0,Standard
Acute kidney failure with tubular necrosis,197465.0,Standard
"Acute kidney failure, unspecified",94022.6667,Standard
Fournier gangrene,27789.0,Standard
Fistula of vagina to large intestine,128128.0,Standard
"Traumatic subarachnoid hemorrhage without loss of consciousness, initial encounter",44864.0,Standard
"Traumatic subarachnoid hemorrhage with loss of consciousness of unspecified duration, initial encounter",60130.5,Standard
"Other specified fracture of right pubis, initial encounter for closed fracture",91313.0,Standard
"Fracture of unspecified parts of lumbosacral spine and pelvis, initial encounter for closed fracture",17590.0,Standard
"Displaced segmental fracture of shaft of right tibia, initial encounter for closed fracture",92012.0,Standard
"Other infection due to central venous catheter, initial encounter",40222.0,Standard
"Disruption of external operation (surgical) wound, not elsewhere classified, initial encounter",40465.0,Standard
"Infection following a procedure, other surgical site, initial encounter",36033.0,Standard
"Infection following a procedure, initial encounter",75776.3333,Standard
"Persistent postprocedural fistula, initial encounter",77266.0,Standard
Encounter for orthopedic aftercare following surgical amputation,118320.0,Standard
Encounter for aftercare following bone marrow transplant,14079.0,Standard
Acute respiratory failure with hypoxia,96653.0,Standard
"Trach w MV 96+ hrs or PDX exc face, mouth & neck w/o maj O.R.",541495.7778,DRG
Degenerative nervous system disorders w MCC,127543.25,DRG
Degenerative nervous system disorders w/o MCC,125320.0,DRG
Intracranial hemorrhage or cerebral infarction w MCC,117473.0,DRG
Intracranial hemorrhage or cerebral infarction w CC,58926.0,DRG
Nonspecific cerebrovascular disorders w CC,24349.0,DRG
Cranial & peripheral nerve disorders w MCC,93965.5,DRG
Nontraumatic stupor & coma w MCC,213914.0,DRG
"Traumatic stupor & coma, coma >1 hr w MCC",65907.5,DRG
"Traumatic stupor & coma, coma <1 hr w CC",12934.0,DRG
Other disorders of nervous system w MCC,82560.0,DRG
Non-bacterial infect of nervous sys exc viral meningitis w CC,40320.0,DRG
Seizures w MCC,68813.5,DRG
Dental & Oral Diseases w MCC,20136.0,DRG
Other resp system O.R. procedures w MCC,299237.4,DRG
Respiratory infections & inflammations w MCC,64394.0,DRG
Pulmonary edema & respiratory failure,105051.403,DRG
Chronic obstructive pulmonary disease w MCC,73308.0,DRG
Chronic obstructive pulmonary disease w CC,87803.0,DRG
Simple pneumonia & pleurisy w MCC,88711.5,DRG
Simple pneumonia & pleurisy w CC,57139.0,DRG
Bronchitis & asthma w CC/MCC,58202.0,DRG
Respiratory signs & symptoms,20176.0,DRG
Respiratory system diagnosis w ventilator support 96+ hours,261042.1077,DRG
Respiratory system diagnosis w ventilator support <96 hours,96970.6111,DRG
Other vascular procedures w MCC,163194.5,DRG
"Acute myocardial infarction, expired w MCC",176924.0,DRG
Acute & subacute endocarditis w MCC,14610.0,DRG
Heart failure & shock w MCC,76039.3333,DRG
Heart failure & shock w CC,30227.3333,DRG
Heart failure & shock w/o CC/MCC,46850.0,DRG
Peripheral vascular disorders w MCC,105539.5,DRG
Cardiac arrhythmia & conduction disorders w MCC,285696.0,DRG
Cardiac arrhythmia & conduction disorders w CC,14529.0,DRG
Syncope & collapse,8709.0,DRG
Other circulatory system diagnoses w MCC,219252.5714,DRG
Other circulatory system diagnoses w CC,12631.0,DRG
Major gastrointestinal disorders & peritoneal infections w MCC,485745.0,DRG
Major gastrointestinal disorders & peritoneal infections w CC,147175.0,DRG
Digestive malignancy w MCC,149228.0,DRG
G.I. obstruction w MCC,135233.0,DRG
"Esophagitis, gastroent & misc digest disorders w/o MCC",32980.0,DRG
Cirrhosis & alcoholic hepatitis w MCC,68446.0,DRG
Disorders of the biliary tract w MCC,75193.0,DRG
"Wnd debrid & skn grft exc hand, for musculo-conn tiss dis w MCC",173309.0,DRG
"Wnd debrid & skn grft exc hand, for musculo-conn tiss dis w CC",138855.0,DRG
Osteomyelitis w MCC,131863.0,DRG
Medical back problems w/o MCC,116136.0,DRG
"Tendonitis, myositis & bursitis w MCC",238468.0,DRG
"Aftercare, musculoskeletal system & connective tissue w MCC",83372.2,DRG
"Aftercare, musculoskeletal system & connective tissue w CC",69687.25,DRG
Other musculoskeletal sys & connective tissue diagnoses w MCC,72597.5,DRG
"Other skin, subcut tiss & breast proc w MCC",266454.5,DRG
Skin ulcers w MCC,123224.0,DRG
Skin ulcers w CC,69000.0,DRG
Cellulitis w MCC,64323.5,DRG
Cellulitis w/o MCC,110707.0,DRG
Minor skin disorders w MCC,103670.0,DRG
Diabetes w MCC,91886.0,DRG
Diabetes w CC,77194.0,DRG
Nutritional & misc metabolic disorders w MCC,89798.5,DRG
Other kidney & urinary tract procedures w MCC,93690.0,DRG
Other kidney & urinary tract procedures w CC,112743.5,DRG
Renal failure w MCC,110712.4,DRG
Renal failure w CC,62261.7778,DRG
Kidney & urinary tract infections w MCC,93618.0,DRG
Inflammation of the male reproductive system w/o MCC,72769.0,DRG
Postoperative or post-traumatic infections w O.R. proc w CC,183363.0,DRG
Postoperative & post-traumatic infections w MCC,91818.25,DRG
Postoperative & post-traumatic infections w/o MCC,100454.0,DRG
Other infectious & parasitic diseases diagnoses w MCC,100309.0,DRG
Other infectious & parasitic diseases diagnoses w CC,65019.0,DRG
Septicemia w/o MV 96+ hours w MCC,94807.1111,DRG
Septicemia w/o MV 96+ hours w/o MCC,89972.0,DRG
Poisoning & toxic effects of drugs w MCC,40777.0,DRG
Complications of treatment w MCC,235534.6667,DRG
"Other injury, poisoning & toxic effect diag w MCC",83593.0,DRG
O.R. proc w diagnoses of other contact w health services w MCC,146371.0,DRG
Aftercare w CC/MCC,77741.7857,DRG
Aftercare w/o CC/MCC,6765.0,DRG
Extensive O.R. procedure unrelated to principal diagnosis w MCC,213609.4,DRG
Non-extensive O.R. proc unrelated to principal diagnosis w MCC,76945.0,DRG
"Trach w MV 96+ hrs or PDX exc face, mouth & neck w/o maj O.R.",669911.0,DRG
Degenerative nervous system disorders w MCC,64842.0,DRG
Degenerative nervous system disorders w/o MCC,42550.0,DRG
Other disorders of nervous system w MCC,54717.0,DRG
Bacterial & tuberculous infections of nervous system w/o CC/MCC,11496.0,DRG
Other resp system O.R. procedures w MCC,355389.0,DRG
Pulmonary edema & respiratory failure,138153.6154,DRG
Respiratory system diagnosis w ventilator support 96+ hours,179396.4167,DRG
Respiratory system diagnosis w ventilator support <96 hours,90478.0,DRG
Acute & subacute endocarditis w MCC,60099.9091,DRG
Acute & subacute endocarditis w CC,62604.0,DRG
Heart failure & shock w MCC,145353.0,DRG
Other circulatory system diagnoses w MCC,184740.0,DRG
Other digestive system O.R. procedures w MCC,323088.0,DRG
"Esophagitis, gastroent & misc digest disorders w MCC",202058.0,DRG
Other digestive system diagnoses w MCC,33093.6667,DRG
Cirrhosis & alcoholic hepatitis w CC,43184.0,DRG
Osteomyelitis w MCC,159093.6667,DRG
Medical back problems w/o MCC,75808.0,DRG
"Aftercare, musculoskeletal system & connective tissue w MCC",132800.0,DRG
"Aftercare, musculoskeletal system & connective tissue w CC",105919.0,DRG
Other musculoskeletal sys & connective tissue diagnoses w MCC,101203.0,DRG
"Other skin, subcut tiss & breast proc w MCC",105291.0,DRG
Skin ulcers w MCC,315771.0,DRG
Cellulitis w MCC,49460.0,DRG
Cellulitis w/o MCC,23944.0,DRG
"Trauma to the skin, subcut tiss & breast w MCC",332682.0,DRG
Nutritional & misc metabolic disorders w MCC,100309.5,DRG
Renal failure w MCC,155977.0,DRG
Renal failure w CC,68088.3333,DRG
Renal failure w/o CC/MCC,113032.0,DRG
Inflammation of the male reproductive system w/o MCC,54022.0,DRG
"Malignancy, female reproductive system w CC",21762.0,DRG
"Infections, female reproductive system w MCC",73675.0,DRG
Postoperative & post-traumatic infections w MCC,449806.5,DRG
Septicemia w/o MV 96+ hours w MCC,57249.5,DRG
Septicemia w/o MV 96+ hours w/o MCC,23236.0,DRG
O.R. proc w diagnoses of other contact w health services w MCC,254423.0,DRG
Aftercare w CC/MCC,101699.0,DRG
"Trach w MV 96+ hrs or PDX exc face, mouth & neck w/o maj O.R.",133140.0,DRG
Nervous system neoplasms w MCC,47960.5,DRG
Degenerative nervous system disorders w MCC,133494.5,DRG
Degenerative nervous system disorders w/o MCC,25054.0,DRG
Nonspecific cerebrovascular disorders w MCC,110232.0,DRG
"Traumatic stupor & coma, coma >1 hr w MCC",60803.0,DRG
"Traumatic stupor & coma, coma <1 hr w MCC",44864.0,DRG
Other disorders of nervous system w MCC,27652.0,DRG
Bacterial & tuberculous infections of nervous system w MCC,137573.5,DRG
Non-bacterial infect of nervous sys exc viral meningitis w MCC,60548.0,DRG
Other resp system O.R. procedures w MCC,233209.0,DRG
Respiratory infections & inflammations w/o CC/MCC,12512.0,DRG
Pleural effusion w MCC,69767.0,DRG
Pulmonary edema & respiratory failure,95910.25,DRG
Chronic obstructive pulmonary disease w MCC,53218.0,DRG
Simple pneumonia & pleurisy w MCC,54165.0,DRG
Other respiratory system diagnoses w MCC,11320.0,DRG
Respiratory system diagnosis w ventilator support 96+ hours,251711.8,DRG
Respiratory system diagnosis w ventilator support <96 hours,70379.0,DRG
Heart failure & shock w/o CC/MCC,50525.0,DRG
Other circulatory system diagnoses w MCC,40222.0,DRG
Other circulatory system diagnoses w CC,26371.0,DRG
Other digestive system diagnoses w MCC,128128.0,DRG
Cirrhosis & alcoholic hepatitis w MCC,26810.5,DRG
"Lower extrem & humer proc except hip,foot,femur w MCC",92012.0,DRG
Osteomyelitis w MCC,48521.0,DRG
"Aftercare, musculoskeletal system & connective tissue w MCC",118320.0,DRG
"Aftercare, musculoskeletal system & connective tissue w CC",54451.5,DRG
Skin ulcers w MCC,107024.0,DRG
Cellulitis w/o MCC,118786.0,DRG
Minor skin disorders w MCC,250721.0,DRG
"Other endocrine, nutrit & metab O.R. proc w MCC",249228.0,DRG
Diabetes w MCC,68316.5,DRG
Diabetes w CC,97939.0,DRG
Endocrine disorders w MCC,52356.0,DRG
Other kidney & urinary tract procedures w CC,67533.0,DRG
Renal failure w MCC,137333.3333,DRG
Inflammation of the male reproductive system w MCC,27789.0,DRG
Postoperative & post-traumatic infections w MCC,66469.3333,DRG
Postoperative & post-traumatic infections w/o MCC,63954.0,DRG
Septicemia w/o MV 96+ hours w MCC,44922.5,DRG
Other O.R. procedures for injuries w CC,40465.0,DRG
Complications of treatment w CC,77266.0,DRG
Aftercare w CC/MCC,14079.0,DRG
Other multiple significant trauma w CC,59458.0,DRG
Extensive O.R. procedure unrelated to principal diagnosis w MCC,170806.5,DRG
Respiratory system diagnosis w ventilator support <96 hours,96653.0,DRG
TRACHEOSTOMY W MV 96+ HOURS W/O EXTENSIVE PROCEDURE,188237.0,DRG
TRACHEOSTOMY W MV 96+ HOURS W/O EXTENSIVE PROCEDURE,585653.125,DRG
INTRACRANIAL HEMORRHAGE,58926.0,DRG
CVA & PRECEREBRAL OCCLUSION W INFARCT,117473.0,DRG
"PERIPHERAL, CRANIAL & AUTONOMIC NERVE DISORDERS",158246.0,DRG
NON-BACTERIAL INFECTIONS OF NERVOUS SYSTEM EXC VIRAL MENINGITIS,29685.0,DRG
NON-BACTERIAL INFECTIONS OF NERVOUS SYSTEM EXC VIRAL MENINGITIS,40320.0,DRG
ALTERATION IN CONSCIOUSNESS,24349.0,DRG
ALTERATION IN CONSCIOUSNESS,76945.0,DRG
SEIZURE,68813.5,DRG
HEAD TRAUMA W COMA >1 HR OR HEMORRHAGE,12934.0,DRG
HEAD TRAUMA W COMA >1 HR OR HEMORRHAGE,65907.5,DRG
OTHER DISORDERS OF NERVOUS SYSTEM,125320.0,DRG
OTHER DISORDERS OF NERVOUS SYSTEM,107867.0,DRG
OTHER DISORDERS OF NERVOUS SYSTEM,161265.0,DRG
ANOXIC & OTHER SEVERE BRAIN DAMAGE,213914.0,DRG
INFECTIONS OF UPPER RESPIRATORY TRACT,109631.0,DRG
"OTHER EAR, NOSE, MOUTH,THROAT & CRANIAL/FACIAL DIAGNOSES",20136.0,DRG
RESPIRATORY SYSTEM DIAGNOSIS W VENTILATOR SUPPORT 96+ HOURS,109564.0,DRG
RESPIRATORY SYSTEM DIAGNOSIS W VENTILATOR SUPPORT 96+ HOURS,237942.0,DRG
RESPIRATORY SYSTEM DIAGNOSIS W VENTILATOR SUPPORT 96+ HOURS,273779.6207,DRG
RESPIRATORY FAILURE,60094.6,DRG
RESPIRATORY FAILURE,102454.1429,DRG
RESPIRATORY FAILURE,108442.8052,DRG
MAJOR RESPIRATORY INFECTIONS & INFLAMMATIONS,64394.0,DRG
OTHER PNEUMONIA,57139.0,DRG
OTHER PNEUMONIA,67792.0,DRG
CHRONIC OBSTRUCTIVE PULMONARY DISEASE,92484.0,DRG
CHRONIC OBSTRUCTIVE PULMONARY DISEASE,44770.0,DRG
"RESPIRATORY SIGNS, SYMPTOMS & MINOR DIAGNOSES",20176.0,DRG
ACUTE BRONCHITIS AND RELATED SYMPTOMS,58202.0,DRG
OTHER PERIPHERAL VASCULAR PROCEDURES,209896.0,DRG
ACUTE & SUBACUTE ENDOCARDITIS,95767.0,DRG
HEART FAILURE,46850.0,DRG
HEART FAILURE,44168.5,DRG
HEART FAILURE,93969.0,DRG
PERIPHERAL & OTHER VASCULAR DISORDERS,89991.0,DRG
PERIPHERAL & OTHER VASCULAR DISORDERS,121088.0,DRG
CARDIAC ARRHYTHMIA & CONDUCTION DISORDERS,14529.0,DRG
CARDIAC ARRHYTHMIA & CONDUCTION DISORDERS,285696.0,DRG
SYNCOPE & COLLAPSE,8709.0,DRG
"MALFUNCTION,REACTION,COMPLICATION OF CARDIAC/VASC DEVICE OR PROCEDU",306487.0,DRG
"MALFUNCTION,REACTION,COMPLICATION OF CARDIAC/VASC DEVICE OR PROCEDU",12631.0,DRG
"MALFUNCTION,REACTION,COMPLICATION OF CARDIAC/VASC DEVICE OR PROCEDU",104172.5,DRG
DIGESTIVE MALIGNANCY,149228.0,DRG
DIVERTICULITIS & DIVERTICULOSIS,32980.0,DRG
INTESTINAL OBSTRUCTION,135233.0,DRG
MAJOR GASTROINTESTINAL & PERITONEAL INFECTIONS,147175.0,DRG
MAJOR GASTROINTESTINAL & PERITONEAL INFECTIONS,485745.0,DRG
OTHER DISORDERS OF THE LIVER,68446.0,DRG
DISORDERS OF GALLBLADDER & BILIARY TRACT,71290.0,DRG
DISORDERS OF GALLBLADDER & BILIARY TRACT,82999.0,DRG
"TENDON, MUSCLE & OTHER SOFT TISSUE PROCEDURES",173309.0,DRG
"OSTEOMYELITIS, SEPTIC ARTHRITIS & OTHER MUSCULOSKELETAL INFECTIONS",108024.5,DRG
"OSTEOMYELITIS, SEPTIC ARTHRITIS & OTHER MUSCULOSKELETAL INFECTIONS",185165.5,DRG
"OTHER BACK & NECK DISORDERS, FRACTURES & INJURIES",116136.0,DRG
"MALFUNCTION, REACTION, COMPLIC OF ORTHOPEDIC DEVICE OR PROCEDURE",83651.0,DRG
"MALFUNCTION, REACTION, COMPLIC OF ORTHOPEDIC DEVICE OR PROCEDURE",41175.0,DRG
"MALFUNCTION, REACTION, COMPLIC OF ORTHOPEDIC DEVICE OR PROCEDURE",107006.3333,DRG
"OTHER SKIN, SUBCUTANEOUS TISSUE & RELATED PROCEDURES",268886.0,DRG
SKIN ULCERS,69000.0,DRG
SKIN ULCERS,91886.0,DRG
SKIN ULCERS,123224.0,DRG
CELLULITIS & OTHER SKIN INFECTIONS,84997.0,DRG
CELLULITIS & OTHER SKIN INFECTIONS,115507.5,DRG
"OTHER SKIN, SUBCUTANEOUS TISSUE & BREAST DISORDERS",103670.0,DRG
"MALNUTRITION, FAILURE TO THRIVE & OTHER NUTRITIONAL DISORDERS",89798.5,DRG
KIDNEY & URINARY TRACT INFECTIONS,79758.0,DRG
KIDNEY & URINARY TRACT INFECTIONS,107478.0,DRG
"MALFUNCTION, REACTION, COMPLIC OF GENITOURINARY DEVICE OR PROC",116493.0,DRG
"MALFUNCTION, REACTION, COMPLIC OF GENITOURINARY DEVICE OR PROC",139998.0,DRG
"MALFUNCTION, REACTION, COMPLIC OF GENITOURINARY DEVICE OR PROC",227920.0,DRG
ACUTE KIDNEY INJURY,66515.5,DRG
ACUTE KIDNEY INJURY,72960.5,DRG
ACUTE KIDNEY INJURY,127148.2727,DRG
MALE REPRODUCTIVE SYSTEM DIAGNOSES EXCEPT MALIGNANCY,72769.0,DRG
SEPTICEMIA & DISSEMINATED INFECTIONS,84661.0,DRG
SEPTICEMIA & DISSEMINATED INFECTIONS,83010.0,DRG
SEPTICEMIA & DISSEMINATED INFECTIONS,121284.6667,DRG
"POST-OPERATIVE, POST-TRAUMATIC, OTHER DEVICE INFECTIONS",208826.2,DRG
"POST-OPERATIVE, POST-TRAUMATIC, OTHER DEVICE INFECTIONS",103732.0,DRG
OTHER INFECTIOUS & PARASITIC DISEASES,86633.0,DRG
OTHER INFECTIOUS & PARASITIC DISEASES,82664.0,DRG
POISONING OF MEDICINAL AGENTS,40777.0,DRG
OTHER COMPLICATIONS OF TREATMENT,115493.5,DRG
OTHER COMPLICATIONS OF TREATMENT,342090.0,DRG
"OTHER INJURY, POISONING & TOXIC EFFECT DIAGNOSES",83593.0,DRG
"PROCEDURE W DIAG OF REHAB, AFTERCARE OR OTH CONTACT W HEALTH SERVIC",153154.5,DRG
"PROCEDURE W DIAG OF REHAB, AFTERCARE OR OTH CONTACT W HEALTH SERVIC",247962.0,DRG
OTHER AFTERCARE & CONVALESCENCE,6765.0,DRG
OTHER AFTERCARE & CONVALESCENCE,44416.0,DRG
OTHER AFTERCARE & CONVALESCENCE,76898.7,DRG
OTHER AFTERCARE & CONVALESCENCE,74438.0,DRG
MODERATELY EXTENSIVE PROCEDURE UNRELATED TO PRINCIPAL DIAGNOSIS,159994.5,DRG
MODERATELY EXTENSIVE PROCEDURE UNRELATED TO PRINCIPAL DIAGNOSIS,203012.6667,DRG
TRACHEOSTOMY W MV 96+ HOURS W/O EXTENSIVE PROCEDURE,669911.0,DRG
BACTERIAL & TUBERCULOUS INFECTIONS OF NERVOUS SYSTEM,11496.0,DRG
OTHER DISORDERS OF NERVOUS SYSTEM,42550.0,DRG
OTHER DISORDERS OF NERVOUS SYSTEM,64842.0,DRG
ANOXIC & OTHER SEVERE BRAIN DAMAGE,54717.0,DRG
RESPIRATORY SYSTEM DIAGNOSIS W VENTILATOR SUPPORT 96+ HOURS,266842.6667,DRG
RESPIRATORY SYSTEM DIAGNOSIS W VENTILATOR SUPPORT 96+ HOURS,170761.8,DRG
RESPIRATORY FAILURE,58853.5,DRG
RESPIRATORY FAILURE,225314.75,DRG
RESPIRATORY FAILURE,111171.4,DRG
ACUTE & SUBACUTE ENDOCARDITIS,65006.0,DRG
ACUTE & SUBACUTE ENDOCARDITIS,73820.3333,DRG
ACUTE & SUBACUTE ENDOCARDITIS,54654.5,DRG
HEART FAILURE,145353.0,DRG
"MALFUNCTION,REACTION,COMPLICATION OF CARDIAC/VASC DEVICE OR PROCEDU",184740.0,DRG
GASTROINTESTINAL VASCULAR INSUFFICIENCY,4911.0,DRG
"MALFUNCTION, REACTION & COMPLICATION OF GI DEVICE OR PROCEDURE",323088.0,DRG
OTHER DIGESTIVE SYSTEM DIAGNOSES,61213.0,DRG
OTHER DIGESTIVE SYSTEM DIAGNOSES,202058.0,DRG
OTHER DIGESTIVE SYSTEM DIAGNOSES,33157.0,DRG
ALCOHOLIC LIVER DISEASE,43184.0,DRG
"OSTEOMYELITIS, SEPTIC ARTHRITIS & OTHER MUSCULOSKELETAL INFECTIONS",159093.6667,DRG
"OTHER BACK & NECK DISORDERS, FRACTURES & INJURIES",75808.0,DRG
"MALFUNCTION, REACTION, COMPLIC OF ORTHOPEDIC DEVICE OR PROCEDURE",105919.0,DRG
"MALFUNCTION, REACTION, COMPLIC OF ORTHOPEDIC DEVICE OR PROCEDURE",117001.5,DRG
SKIN ULCERS,197973.0,DRG
SKIN ULCERS,269430.0,DRG
CELLULITIS & OTHER SKIN INFECTIONS,23944.0,DRG
CELLULITIS & OTHER SKIN INFECTIONS,49460.0,DRG
"CONTUSION, OPEN WOUND & OTHER TRAUMA TO SKIN & SUBCUTANEOUS TISSUE",332682.0,DRG
"MALNUTRITION, FAILURE TO THRIVE & OTHER NUTRITIONAL DISORDERS",63055.0,DRG
"MALNUTRITION, FAILURE TO THRIVE & OTHER NUTRITIONAL DISORDERS",137564.0,DRG
ACUTE KIDNEY INJURY,95858.0,DRG
ACUTE KIDNEY INJURY,109810.0,DRG
ACUTE KIDNEY INJURY,125065.0,DRG
MALE REPRODUCTIVE SYSTEM DIAGNOSES EXCEPT MALIGNANCY,88502.0,DRG
MALE REPRODUCTIVE SYSTEM DIAGNOSES EXCEPT MALIGNANCY,19542.0,DRG
FEMALE REPRODUCTIVE SYSTEM MALIGNANCY,21762.0,DRG
FEMALE REPRODUCTIVE SYSTEM INFECTIONS,73675.0,DRG
SEPTICEMIA & DISSEMINATED INFECTIONS,23236.0,DRG
SEPTICEMIA & DISSEMINATED INFECTIONS,57249.5,DRG
"POST-OPERATIVE, POST-TRAUMATIC, OTHER DEVICE INFECTIONS",105214.0,DRG
"POST-OPERATIVE, POST-TRAUMATIC, OTHER DEVICE INFECTIONS",794399.0,DRG
OTHER AFTERCARE & CONVALESCENCE,101699.0,DRG
OTHER AFTERCARE & CONVALESCENCE,254423.0,DRG
TRACHEOSTOMY W MV 96+ HOURS W/O EXTENSIVE PROCEDURE,133140.0,DRG
NERVOUS SYSTEM MALIGNANCY,47960.5,DRG
DEGENERATIVE NERVOUS SYSTEM DISORDERS EXC MULT SCLEROSIS,133494.5,DRG
BACTERIAL & TUBERCULOUS INFECTIONS OF NERVOUS SYSTEM,79664.0,DRG
BACTERIAL & TUBERCULOUS INFECTIONS OF NERVOUS SYSTEM,195483.0,DRG
NON-BACTERIAL INFECTIONS OF NERVOUS SYSTEM EXC VIRAL MENINGITIS,60548.0,DRG
ALTERATION IN CONSCIOUSNESS,110232.0,DRG
HEAD TRAUMA W COMA >1 HR OR HEMORRHAGE,60803.0,DRG
HEAD TRAUMA W COMA >1 HR OR HEMORRHAGE,44864.0,DRG
OTHER DISORDERS OF NERVOUS SYSTEM,26353.0,DRG
RESPIRATORY SYSTEM DIAGNOSIS W VENTILATOR SUPPORT 96+ HOURS,156158.8571,DRG
RESPIRATORY SYSTEM DIAGNOSIS W VENTILATOR SUPPORT 96+ HOURS,335320.625,DRG
RESPIRATORY FAILURE,38683.0,DRG
RESPIRATORY FAILURE,96208.3333,DRG
RESPIRATORY FAILURE,101429.2727,DRG
MAJOR RESPIRATORY INFECTIONS & INFLAMMATIONS,12512.0,DRG
OTHER PNEUMONIA,54165.0,DRG
CHRONIC OBSTRUCTIVE PULMONARY DISEASE,53218.0,DRG
"OTHER RESPIRATORY DIAGNOSES EXCEPT SIGNS, SYMPTOMS & MINOR DIAGNOSE",69767.0,DRG
"OTHER RESPIRATORY DIAGNOSES EXCEPT SIGNS, SYMPTOMS & MINOR DIAGNOSE",11320.0,DRG
HEART FAILURE,50525.0,DRG
OTHER CIRCULATORY SYSTEM DIAGNOSES,26371.0,DRG
OTHER DIGESTIVE SYSTEM DIAGNOSES,128128.0,DRG
ALCOHOLIC LIVER DISEASE,10927.0,DRG
ALCOHOLIC LIVER DISEASE,42694.0,DRG
KNEE & LOWER LEG PROCEDURES EXCEPT FOOT,92012.0,DRG
KNEE & LOWER LEG PROCEDURES EXCEPT FOOT,249228.0,DRG
"OSTEOMYELITIS, SEPTIC ARTHRITIS & OTHER MUSCULOSKELETAL INFECTIONS",97939.0,DRG
"OSTEOMYELITIS, SEPTIC ARTHRITIS & OTHER MUSCULOSKELETAL INFECTIONS",86754.0,DRG
SKIN ULCERS,107024.0,DRG
CELLULITIS & OTHER SKIN INFECTIONS,118786.0,DRG
"OTHER SKIN, SUBCUTANEOUS TISSUE & BREAST DISORDERS",250721.0,DRG
DIABETES,11646.0,DRG
OTHER ENDOCRINE DISORDERS,52356.0,DRG
ACUTE KIDNEY INJURY,110159.3333,DRG
ACUTE KIDNEY INJURY,149055.0,DRG
MALE REPRODUCTIVE SYSTEM DIAGNOSES EXCEPT MALIGNANCY,27789.0,DRG
SEPTICEMIA & DISSEMINATED INFECTIONS,42995.0,DRG
SEPTICEMIA & DISSEMINATED INFECTIONS,46850.0,DRG
"POST-OPERATIVE, POST-TRAUMATIC, OTHER DEVICE INFECTIONS",54135.3333,DRG
"POST-OPERATIVE, POST-TRAUMATIC, OTHER DEVICE INFECTIONS",70589.0,DRG
MODERATELY EXTENSIVE OR PROCEDURES FOR OTHER COMPLICATIONS OF TREAT,40465.0,DRG
OTHER COMPLICATIONS OF TREATMENT,77266.0,DRG
OTHER AFTERCARE & CONVALESCENCE,15834.5,DRG
OTHER AFTERCARE & CONVALESCENCE,104816.5,DRG
MULTIPLE SIGNIFICANT TRAUMA W/O O.R. PROCEDURE,59458.0,DRG
MODERATELY EXTENSIVE PROCEDURE UNRELATED TO PRINCIPAL DIAGNOSIS,191607.3333,DRG
RESPIRATORY FAILURE,96653.0,DRG
