Description,Charge,Category
Vascular dementia with behavioral disturbance,3947.7,Standard
Dementia in other diseases classified elsewhere with behavioral disturbance,452.0,Standard
Unspecified dementia without behavioral disturbance,9137.0,Standard
Unspecified dementia with behavioral disturbance,1762.0,Standard
Delirium due to known physiological condition,2345.75,Standard
Catatonic disorder due to known physiological condition,3801.5,Standard
Psychotic disorder with delusions due to known physiological condition,4595.2222,Standard
"Mood disorder due to known physiological condition, unspecified",1419.0,Standard
Anxiety disorder due to known physiological condition,3438.6667,Standard
Other specified mental disorders due to known physiological condition,3545.0,Standard
"Alcohol dependence, uncomplicated",731.5,Standard
"Alcohol dependence with withdrawal, unspecified",6975.4,Standard
"Other stimulant dependence with stimulant-induced psychotic disorder, unspecified",111.0,Standard
Catatonic schizophrenia,1893.0,Standard
Residual schizophrenia,121.0,Standard
"Schizophrenia, unspecified",908.5,Standard
Brief psychotic disorder,44.0,Standard
"Schizoaffective disorder, bipolar type",4963.2222,Standard
"Schizoaffective disorder, depressive type",967.3333,Standard
"Schizoaffective disorder, unspecified",1961.0,Standard
Unspecified psychosis not due to a substance or known physiological condition,1640.5517,Standard
"Bipolar disorder, current episode manic without psychotic features, unspecified",3340.0,Standard
"Bipolar disorder, current episode manic without psychotic features, severe",7030.0,Standard
"Bipolar disorder, current episode manic severe with psychotic features",4648.8333,Standard
"Bipolar disorder, current episode depressed, severe, without psychotic features",2319.7143,Standard
"Bipolar disorder, current episode depressed, severe, with psychotic features",6852.3333,Standard
"Bipolar disorder, current episode mixed, unspecified",7488.0,Standard
"Bipolar disorder, current episode mixed, severe, without psychotic features",1399.5,Standard
Bipolar II disorder,18662.0,Standard
"Bipolar disorder, unspecified",2935.52,Standard
"Major depressive disorder, single episode, severe without psychotic features",652.0,Standard
"Major depressive disorder, single episode, severe with psychotic features",7186.0,Standard
"Major depressive disorder, single episode, unspecified",1382.4615,Standard
"Major depressive disorder, recurrent severe without psychotic features",1752.7471,Standard
"Major depressive disorder, recurrent, severe with psychotic symptoms",1954.4545,Standard
"Major depressive disorder, recurrent, unspecified",344.0,Standard
Generalized anxiety disorder,500.3333,Standard
"Anxiety disorder, unspecified",6988.0,Standard
Acute stress reaction,2387.0,Standard
"Post-traumatic stress disorder, unspecified",129.0,Standard
Adjustment disorder with depressed mood,375.0,Standard
Borderline personality disorder,1267.5,Standard
Intermittent explosive disorder,490.25,Standard
"Impulse disorder, unspecified",966.0,Standard
Other frontotemporal dementia,3078.0,Standard
Unspecified symptoms and signs involving cognitive functions and awareness,821.0,Standard
Vascular dementia with behavioral disturbance,3219.0,Standard
Psychotic disorder with delusions due to known physiological condition,2980.0,Standard
"Alcohol dependence, uncomplicated",10022.2,Standard
"Alcohol dependence with withdrawal, uncomplicated",29544.0,Standard
Alcohol dependence with withdrawal delirium,16340.0,Standard
"Alcohol dependence with withdrawal, unspecified",8668.8315,Standard
"Opioid dependence, uncomplicated",9374.5,Standard
Opioid dependence with withdrawal,68.0,Standard
"Cannabis dependence, uncomplicated",102.5,Standard
"Sedative, hypnotic or anxiolytic dependence with withdrawal, unspecified",11413.2,Standard
"Other stimulant dependence, uncomplicated",432.5,Standard
Other stimulant dependence with withdrawal,8.0,Standard
"Other stimulant dependence with stimulant-induced psychotic disorder, unspecified",1928.8333,Standard
Other stimulant dependence with unspecified stimulant-induced disorder,573.0,Standard
Paranoid schizophrenia,272.0,Standard
"Schizophrenia, unspecified",2027.0833,Standard
Brief psychotic disorder,414.625,Standard
"Schizoaffective disorder, bipolar type",1136.9524,Standard
"Schizoaffective disorder, depressive type",3242.75,Standard
"Schizoaffective disorder, unspecified",1093.25,Standard
Unspecified psychosis not due to a substance or known physiological condition,1104.0735,Standard
"Bipolar disorder, current episode hypomanic",173.0,Standard
"Bipolar disorder, current episode manic without psychotic features, severe",724.4,Standard
"Bipolar disorder, current episode manic severe with psychotic features",1868.7778,Standard
"Bipolar disorder, current episode depressed, severe, without psychotic features",1015.1818,Standard
"Bipolar disorder, current episode depressed, severe, with psychotic features",568.0,Standard
"Bipolar disorder, current episode mixed, unspecified",1298.0,Standard
"Bipolar disorder, current episode mixed, severe, without psychotic features",1463.25,Standard
"Bipolar disorder, current episode mixed, severe, with psychotic features",479.0,Standard
Bipolar II disorder,168.5,Standard
"Bipolar disorder, unspecified",1115.5088,Standard
"Major depressive disorder, single episode, moderate",449.0,Standard
"Major depressive disorder, single episode, severe without psychotic features",299.4,Standard
"Major depressive disorder, single episode, unspecified",762.163,Standard
"Major depressive disorder, recurrent severe without psychotic features",572.1678,Standard
"Major depressive disorder, recurrent, severe with psychotic symptoms",350.75,Standard
"Major depressive disorder, recurrent, unspecified",602.5,Standard
Dysthymic disorder,912.0,Standard
Disruptive mood dysregulation disorder,349.5,Standard
Unspecified mood [affective] disorder,388.0,Standard
Generalized anxiety disorder,,Standard
"Anxiety disorder, unspecified",785.0,Standard
"Obsessive-compulsive disorder, unspecified",341.5,Standard
"Post-traumatic stress disorder, unspecified",522.5,Standard
Adjustment disorder with depressed mood,6.0,Standard
Depersonalization-derealization syndrome,149.0,Standard
Bulimia nervosa,12.0,Standard
Borderline personality disorder,651.0,Standard
"Personality disorder, unspecified",425.0,Standard
Intermittent explosive disorder,3244.0,Standard
"Impulse disorder, unspecified",62.0,Standard
Autistic disorder,1863.3333,Standard
Oppositional defiant disorder,167.6667,Standard
Other conduct disorders,93.0,Standard
Other specified behavioral and emotional disorders with onset usually occurring in childhood and adolescence,492.0,Standard
"Mental disorder, not otherwise specified",591.0,Standard
"Alcohol dependence with withdrawal, unspecified",11478.0,Standard
"Schizophrenia, unspecified",2842.0,Standard
"Major depressive disorder, single episode, unspecified",635.0,Standard
Vascular dementia with behavioral disturbance,1989.75,Standard
Dementia in other diseases classified elsewhere with behavioral disturbance,1116.5,Standard
Unspecified dementia with behavioral disturbance,5924.5,Standard
Delirium due to known physiological condition,1303.25,Standard
Psychotic disorder with delusions due to known physiological condition,3962.0,Standard
Mood disorder due to known physiological condition with manic features,1402.5,Standard
Other specified mental disorders due to known physiological condition,1024.0,Standard
"Alcohol dependence, uncomplicated",8625.0,Standard
Alcohol dependence with withdrawal delirium,13751.0,Standard
"Alcohol dependence with withdrawal, unspecified",8204.5942,Standard
"Opioid dependence, uncomplicated",4635.0,Standard
Opioid dependence with withdrawal,10956.5,Standard
"Sedative, hypnotic or anxiolytic dependence, uncomplicated",422.0,Standard
"Sedative, hypnotic or anxiolytic dependence with withdrawal, unspecified",42.0,Standard
Cocaine dependence with withdrawal,435.0,Standard
"Other stimulant dependence, in remission",727.0,Standard
Other stimulant dependence with intoxication with perceptual disturbance,26.0,Standard
Other stimulant dependence with withdrawal,374.0,Standard
"Other psychoactive substance dependence with psychoactive substance-induced psychotic disorder, unspecified",255.0,Standard
"Other psychoactive substance use, unspecified with unspecified psychoactive substance-induced disorder",962.0,Standard
Schizophreniform disorder,1058.0,Standard
"Schizophrenia, unspecified",1689.15,Standard
Brief psychotic disorder,463.5556,Standard
"Schizoaffective disorder, bipolar type",2100.2,Standard
"Schizoaffective disorder, depressive type",1298.0,Standard
"Schizoaffective disorder, unspecified",279.5,Standard
Unspecified psychosis not due to a substance or known physiological condition,1446.7636,Standard
"Bipolar disorder, current episode manic without psychotic features, unspecified",1256.5,Standard
"Bipolar disorder, current episode manic without psychotic features, moderate",33.0,Standard
"Bipolar disorder, current episode manic without psychotic features, severe",1713.7273,Standard
"Bipolar disorder, current episode manic severe with psychotic features",1479.1667,Standard
"Bipolar disorder, current episode depressed, mild or moderate severity, unspecified",1062.0,Standard
"Bipolar disorder, current episode depressed, severe, without psychotic features",1494.4643,Standard
"Bipolar disorder, current episode depressed, severe, with psychotic features",7273.0,Standard
"Bipolar disorder, current episode mixed, unspecified",2677.5,Standard
"Bipolar disorder, current episode mixed, severe, without psychotic features",1151.75,Standard
Bipolar II disorder,1025.6667,Standard
"Bipolar disorder, unspecified",1160.284,Standard
"Major depressive disorder, single episode, mild",1874.0,Standard
"Major depressive disorder, single episode, severe without psychotic features",262.4545,Standard
"Major depressive disorder, single episode, severe with psychotic features",2643.0,Standard
"Major depressive disorder, single episode, unspecified",565.2333,Standard
"Major depressive disorder, recurrent, moderate",1768.2,Standard
"Major depressive disorder, recurrent severe without psychotic features",552.97,Standard
"Major depressive disorder, recurrent, severe with psychotic symptoms",1346.4783,Standard
Disruptive mood dysregulation disorder,345.5862,Standard
Unspecified mood [affective] disorder,747.6667,Standard
"Social phobia, unspecified",18.0,Standard
Panic disorder [episodic paroxysmal anxiety],31.0,Standard
Generalized anxiety disorder,1458.0,Standard
"Anxiety disorder, unspecified",176.7778,Standard
"Obsessive-compulsive disorder, unspecified",1369.0,Standard
"Post-traumatic stress disorder, unspecified",178.375,Standard
Adjustment disorder with depressed mood,385.0,Standard
Adjustment disorder with mixed disturbance of emotions and conduct,3530.0,Standard
"Dissociative and conversion disorder, unspecified",19.0,Standard
"Anorexia nervosa, unspecified",710.0,Standard
Borderline personality disorder,556.25,Standard
Intermittent explosive disorder,289.8,Standard
Autistic disorder,4461.0,Standard
"Attention-deficit hyperactivity disorder, combined type",65.0,Standard
"Conduct disorder, adolescent-onset type",356.0,Standard
Oppositional defiant disorder,180.0,Standard
Parkinson's disease,1903.0,Standard
"Alzheimer's disease, unspecified",1789.0,Standard
"Cerebral infarction, unspecified",1025.0,Standard
"Chronic kidney disease, stage 3 (moderate)",1283.0,Standard
Unspecified symptoms and signs involving cognitive functions and awareness,2196.5,Standard
"Alcohol dependence, uncomplicated",701.0,Standard
"Alcohol dependence with withdrawal, unspecified",8223.35,Standard
"Sedative, hypnotic or anxiolytic dependence, uncomplicated",562.0,Standard
"Sedative, hypnotic or anxiolytic dependence with withdrawal, uncomplicated",,Standard
"Other stimulant dependence, uncomplicated",418.5,Standard
Other stimulant dependence with intoxication with perceptual disturbance,8.0,Standard
"Other stimulant dependence with intoxication, unspecified",347.0,Standard
Other stimulant dependence with withdrawal,503.0,Standard
Paranoid schizophrenia,37.0,Standard
"Schizophrenia, unspecified",948.6,Standard
Brief psychotic disorder,87.5,Standard
"Schizoaffective disorder, bipolar type",10715.0,Standard
Unspecified psychosis not due to a substance or known physiological condition,839.6061,Standard
"Bipolar disorder, current episode hypomanic",357.0,Standard
"Bipolar disorder, current episode manic without psychotic features, severe",257.0,Standard
"Bipolar disorder, current episode manic severe with psychotic features",677.5,Standard
"Bipolar disorder, current episode depressed, severe, without psychotic features",1473.0,Standard
"Bipolar disorder, current episode mixed, severe, without psychotic features",489.0,Standard
Bipolar II disorder,598.5,Standard
"Bipolar disorder, unspecified",649.5,Standard
"Major depressive disorder, single episode, severe without psychotic features",260.3333,Standard
"Major depressive disorder, single episode, unspecified",308.5263,Standard
"Major depressive disorder, recurrent severe without psychotic features",714.2105,Standard
"Major depressive disorder, recurrent, unspecified",12.0,Standard
Disruptive mood dysregulation disorder,480.0,Standard
"Anxiety disorder, unspecified",79.0,Standard
"Adjustment disorder, unspecified",53.0,Standard
Adjustment disorder with depressed mood,,Standard
Borderline personality disorder,1642.0,Standard
"Attention-deficit hyperactivity disorder, combined type",205.0,Standard
"Major depressive disorder, recurrent severe without psychotic features",324.0,Standard
Degenerative nervous system disorders w MCC,3078.0,DRG
Acute adjustment reaction & psychosocial dysfunction,2251.0,DRG
Depressive neuroses,1310.5,DRG
Neuroses except depressive,129.0,DRG
Disorders of personality & impulse control,749.3333,DRG
Organic disturbances & mental retardation,3476.1026,DRG
Psychoses,2233.6484,DRG
Behavioral & developmental disorders,966.0,DRG
Alcohol/drug abuse or dependence w/o rehabilitation therapy w/o CC/MCC,5486.7692,DRG
Signs & symptoms w/o MCC,821.0,DRG
Ungroupable,,DRG
Acute adjustment reaction & psychosocial dysfunction,712.25,DRG
Depressive neuroses,755.7128,DRG
Neuroses except depressive,455.6364,DRG
Disorders of personality & impulse control,1242.75,DRG
Organic disturbances & mental retardation,2501.3333,DRG
Psychoses,818.3812,DRG
Behavioral & developmental disorders,191.6667,DRG
Other mental disorder diagnoses,12.0,DRG
"Alcohol/drug abuse or dependence, left ama",4933.0,DRG
Alcohol/drug abuse or dependence w rehabilitation therapy,29544.0,DRG
Alcohol/drug abuse or dependence w/o rehabilitation therapy w MCC,10571.0,DRG
Alcohol/drug abuse or dependence w/o rehabilitation therapy w/o CC/MCC,7913.4957,DRG
Depressive neuroses,635.0,DRG
Psychoses,2842.0,DRG
Alcohol/drug abuse or dependence w/o rehabilitation therapy w/o CC/MCC,11478.0,DRG
Degenerative nervous system disorders w/o MCC,1846.0,DRG
Intracranial hemorrhage or cerebral infarction w CC,1025.0,DRG
Renal failure w/o CC/MCC,1283.0,DRG
Acute adjustment reaction & psychosocial dysfunction,623.7778,DRG
Depressive neuroses,563.7438,DRG
Neuroses except depressive,576.7273,DRG
Disorders of personality & impulse control,438.4,DRG
Organic disturbances & mental retardation,2847.7333,DRG
Psychoses,808.6991,DRG
Behavioral & developmental disorders,227.4,DRG
"Alcohol/drug abuse or dependence, left ama",4684.5,DRG
Alcohol/drug abuse or dependence w/o rehabilitation therapy w MCC,5666.0,DRG
Alcohol/drug abuse or dependence w/o rehabilitation therapy w/o CC/MCC,7577.1222,DRG
Signs & symptoms w/o MCC,2196.5,DRG
Acute adjustment reaction & psychosocial dysfunction,79.0,DRG
Depressive neuroses,308.5263,DRG
Neuroses except depressive,53.0,DRG
Disorders of personality & impulse control,1642.0,DRG
Psychoses,779.9521,DRG
Behavioral & developmental disorders,205.0,DRG
Alcohol/drug abuse or dependence w/o rehabilitation therapy w/o CC/MCC,6004.5,DRG
Psychoses,324.0,DRG
DEGENERATIVE NERVOUS SYSTEM DISORDERS EXC MULT SCLEROSIS,726.0,DRG
DEGENERATIVE NERVOUS SYSTEM DISORDERS EXC MULT SCLEROSIS,1123.0,DRG
DEGENERATIVE NERVOUS SYSTEM DISORDERS EXC MULT SCLEROSIS,3078.0,DRG
SCHIZOPHRENIA,1073.0323,DRG
SCHIZOPHRENIA,5747.1429,DRG
MAJOR DEPRESSIVE DISORDERS & OTHER/UNSPECIFIED PSYCHOSES,1201.7556,DRG
MAJOR DEPRESSIVE DISORDERS & OTHER/UNSPECIFIED PSYCHOSES,1823.2571,DRG
MAJOR DEPRESSIVE DISORDERS & OTHER/UNSPECIFIED PSYCHOSES,2936.7143,DRG
MAJOR DEPRESSIVE DISORDERS & OTHER/UNSPECIFIED PSYCHOSES,3091.8,DRG
DISORDERS OF PERSONALITY & IMPULSE CONTROL,1267.5,DRG
BIPOLAR DISORDERS,3255.5652,DRG
BIPOLAR DISORDERS,2473.9444,DRG
BIPOLAR DISORDERS,12535.3333,DRG
BIPOLAR DISORDERS,6793.3333,DRG
DEPRESSION EXCEPT MAJOR DEPRESSIVE DISORDER,1074.6667,DRG
DEPRESSION EXCEPT MAJOR DEPRESSIVE DISORDER,1487.375,DRG
ADJUSTMENT DISORDERS & NEUROSES EXCEPT DEPRESSIVE DIAGNOSES,129.0,DRG
ACUTE ANXIETY & DELIRIUM STATES,3173.75,DRG
ACUTE ANXIETY & DELIRIUM STATES,1225.0,DRG
ACUTE ANXIETY & DELIRIUM STATES,1944.5,DRG
ORGANIC MENTAL HEALTH DISTURBANCES,2951.3333,DRG
ORGANIC MENTAL HEALTH DISTURBANCES,3621.3636,DRG
ORGANIC MENTAL HEALTH DISTURBANCES,3113.0,DRG
ORGANIC MENTAL HEALTH DISTURBANCES,7760.0,DRG
BEHAVIORAL DISORDERS,328.0,DRG
BEHAVIORAL DISORDERS,649.75,DRG
OPIOID ABUSE & DEPENDENCE,12205.0,DRG
ALCOHOL ABUSE & DEPENDENCE,2523.8,DRG
ALCOHOL ABUSE & DEPENDENCE,7732.1667,DRG
OTHER DRUG ABUSE & DEPENDENCE,111.0,DRG
"SIGNS, SYMPTOMS & OTHER FACTORS INFLUENCING HEALTH STATUS",821.0,DRG
UNGROUPABLE,,DRG
SCHIZOPHRENIA,1783.8519,DRG
SCHIZOPHRENIA,1992.6,DRG
SCHIZOPHRENIA,1221.0,DRG
MAJOR DEPRESSIVE DISORDERS & OTHER/UNSPECIFIED PSYCHOSES,554.4752,DRG
MAJOR DEPRESSIVE DISORDERS & OTHER/UNSPECIFIED PSYCHOSES,789.9421,DRG
MAJOR DEPRESSIVE DISORDERS & OTHER/UNSPECIFIED PSYCHOSES,1976.4,DRG
DISORDERS OF PERSONALITY & IMPULSE CONTROL,425.0,DRG
DISORDERS OF PERSONALITY & IMPULSE CONTROL,651.0,DRG
BIPOLAR DISORDERS,866.3765,DRG
BIPOLAR DISORDERS,778.5738,DRG
BIPOLAR DISORDERS,908.3333,DRG
DEPRESSION EXCEPT MAJOR DEPRESSIVE DISORDER,762.8103,DRG
DEPRESSION EXCEPT MAJOR DEPRESSIVE DISORDER,744.2778,DRG
ADJUSTMENT DISORDERS & NEUROSES EXCEPT DEPRESSIVE DIAGNOSES,810.3333,DRG
ADJUSTMENT DISORDERS & NEUROSES EXCEPT DEPRESSIVE DIAGNOSES,322.625,DRG
ACUTE ANXIETY & DELIRIUM STATES,689.1667,DRG
ACUTE ANXIETY & DELIRIUM STATES,781.5,DRG
ORGANIC MENTAL HEALTH DISTURBANCES,1068.5,DRG
ORGANIC MENTAL HEALTH DISTURBANCES,3217.75,DRG
BEHAVIORAL DISORDERS,1698.0,DRG
BEHAVIORAL DISORDERS,126.5,DRG
EATING DISORDERS,12.0,DRG
OTHER MENTAL HEALTH DISORDERS,492.0,DRG
"DRUG & ALCOHOL ABUSE OR DEPENDENCE, LEFT AGAINST MEDICAL ADVICE",4933.0,DRG
ALCOHOL & DRUG DEPENDENCE W REHAB OR REHAB/DETOX THERAPY,29544.0,DRG
OPIOID ABUSE & DEPENDENCE,10158.4,DRG
OPIOID ABUSE & DEPENDENCE,7355.3333,DRG
OPIOID ABUSE & DEPENDENCE,16340.0,DRG
COCAINE ABUSE & DEPENDENCE,6423.875,DRG
ALCOHOL ABUSE & DEPENDENCE,8622.8788,DRG
ALCOHOL ABUSE & DEPENDENCE,9267.3611,DRG
ALCOHOL ABUSE & DEPENDENCE,12722.0,DRG
OTHER DRUG ABUSE & DEPENDENCE,249.2,DRG
OTHER DRUG ABUSE & DEPENDENCE,461.0,DRG
SCHIZOPHRENIA,2842.0,DRG
DEPRESSION EXCEPT MAJOR DEPRESSIVE DISORDER,635.0,DRG
ALCOHOL ABUSE & DEPENDENCE,11478.0,DRG
DEGENERATIVE NERVOUS SYSTEM DISORDERS EXC MULT SCLEROSIS,978.0,DRG
DEGENERATIVE NERVOUS SYSTEM DISORDERS EXC MULT SCLEROSIS,4259.3333,DRG
CVA & PRECEREBRAL OCCLUSION W INFARCT,1025.0,DRG
CHRONIC KIDNEY DISEASE,1283.0,DRG
SCHIZOPHRENIA,1441.25,DRG
SCHIZOPHRENIA,2317.8333,DRG
MAJOR DEPRESSIVE DISORDERS & OTHER/UNSPECIFIED PSYCHOSES,612.6175,DRG
MAJOR DEPRESSIVE DISORDERS & OTHER/UNSPECIFIED PSYCHOSES,695.4969,DRG
MAJOR DEPRESSIVE DISORDERS & OTHER/UNSPECIFIED PSYCHOSES,1200.2667,DRG
MAJOR DEPRESSIVE DISORDERS & OTHER/UNSPECIFIED PSYCHOSES,1808.5,DRG
DISORDERS OF PERSONALITY & IMPULSE CONTROL,556.25,DRG
BIPOLAR DISORDERS,907.2566,DRG
BIPOLAR DISORDERS,1232.0952,DRG
BIPOLAR DISORDERS,1023.25,DRG
BIPOLAR DISORDERS,9232.0,DRG
DEPRESSION EXCEPT MAJOR DEPRESSIVE DISORDER,339.4886,DRG
DEPRESSION EXCEPT MAJOR DEPRESSIVE DISORDER,1161.7576,DRG
ADJUSTMENT DISORDERS & NEUROSES EXCEPT DEPRESSIVE DIAGNOSES,591.25,DRG
ADJUSTMENT DISORDERS & NEUROSES EXCEPT DEPRESSIVE DIAGNOSES,538.0,DRG
ACUTE ANXIETY & DELIRIUM STATES,558.7333,DRG
ACUTE ANXIETY & DELIRIUM STATES,949.0,DRG
ORGANIC MENTAL HEALTH DISTURBANCES,3174.4,DRG
ORGANIC MENTAL HEALTH DISTURBANCES,2257.4286,DRG
BEHAVIORAL DISORDERS,243.8571,DRG
BEHAVIORAL DISORDERS,293.0,DRG
EATING DISORDERS,710.0,DRG
"DRUG & ALCOHOL ABUSE OR DEPENDENCE, LEFT AGAINST MEDICAL ADVICE",4535.0,DRG
"DRUG & ALCOHOL ABUSE OR DEPENDENCE, LEFT AGAINST MEDICAL ADVICE",4834.0,DRG
OPIOID ABUSE & DEPENDENCE,5452.0,DRG
OPIOID ABUSE & DEPENDENCE,8847.2222,DRG
COCAINE ABUSE & DEPENDENCE,3601.0,DRG
ALCOHOL ABUSE & DEPENDENCE,8117.3429,DRG
ALCOHOL ABUSE & DEPENDENCE,8582.2059,DRG
ALCOHOL ABUSE & DEPENDENCE,5666.0,DRG
OTHER DRUG ABUSE & DEPENDENCE,418.8,DRG
OTHER DRUG ABUSE & DEPENDENCE,720.0,DRG
OTHER DRUG ABUSE & DEPENDENCE,42.0,DRG
"SIGNS, SYMPTOMS & OTHER FACTORS INFLUENCING HEALTH STATUS",2196.5,DRG
SCHIZOPHRENIA,2213.5714,DRG
MAJOR DEPRESSIVE DISORDERS & OTHER/UNSPECIFIED PSYCHOSES,652.2561,DRG
MAJOR DEPRESSIVE DISORDERS & OTHER/UNSPECIFIED PSYCHOSES,867.1176,DRG
DISORDERS OF PERSONALITY & IMPULSE CONTROL,1642.0,DRG
BIPOLAR DISORDERS,676.8667,DRG
BIPOLAR DISORDERS,657.25,DRG
DEPRESSION EXCEPT MAJOR DEPRESSIVE DISORDER,251.1538,DRG
DEPRESSION EXCEPT MAJOR DEPRESSIVE DISORDER,432.8333,DRG
ADJUSTMENT DISORDERS & NEUROSES EXCEPT DEPRESSIVE DIAGNOSES,53.0,DRG
ACUTE ANXIETY & DELIRIUM STATES,79.0,DRG
BEHAVIORAL DISORDERS,205.0,DRG
OPIOID ABUSE & DEPENDENCE,425.0,DRG
OPIOID ABUSE & DEPENDENCE,8267.6,DRG
COCAINE ABUSE & DEPENDENCE,9163.0,DRG
ALCOHOL ABUSE & DEPENDENCE,6487.2143,DRG
ALCOHOL ABUSE & DEPENDENCE,6379.25,DRG
OTHER DRUG ABUSE & DEPENDENCE,218.5,DRG
MAJOR DEPRESSIVE DISORDERS & OTHER/UNSPECIFIED PSYCHOSES,324.0,DRG
