Description,Charge,Category
Level 2 Upper GI Procedures,934.3630434782609,DRG
 SIMPLE PNEUMONIA & PLEURISY W MCC,7213.357142899999,Standard
 SIMPLE PNEUMONIA & PLEURISY W CC,5651.1764706,Standard
 HEART FAILURE & SHOCK W MCC,7393.7272727,Standard
" ""ESOPHAGITIS, GASTROENT & MISC DIGEST DISORDERS W/O MCC""",4864.0,Standard
 MAJOR HIP AND KNEE JOINT REPLACEMENT OR REATTACHMENT OF LOWER EXTREM,12151.181818000001,Standard
 CELLULITIS W/O MCC,5335.5882353,Standard
" ""MISC DISORDERS OF NUTRITION,METABOLISM,FLUIDS/ELECTROLYTES W/O MCC""",4687.0909091,Standard
 RENAL FAILURE W CC,5397.3076923,Standard
 SEPTICEMIA OR SEVERE SEPSIS W/O MV >96 HOURS W MCC,10200.962963,Standard
 SEPTICEMIA OR SEVERE SEPSIS W/O MV >96 HOURS W/O MCC,6099.8181818,Standard
Comprehensive Observation Services,1516.91339534883,DRG
Level 1 Laparoscopy and Related Services,2948.51823529411,DRG
 CHRONIC OBSTRUCTIVE PULMONARY DISEASE W MCC,6393.8181818,Standard
Level 2 Excision/ Biopsy/ Incision and Drainage,823.745,DRG
 PULMONARY EDEMA & RESPIRATORY FAILURE,7443.5714286,Standard
