Description,Charge,Category
 SEIZURES W/O MCC,5119.5454545,Standard
 SEIZURES W MCC,9247.2777778,Standard
Level 2 ICD and Similar Procedures,21428.597999999998,DRG
Level 1 Endovascular Procedures,1514.79411764706,DRG
 CELLULITIS W/O MCC,5153.9767442,Standard
 O.R. PROCEDURES FOR OBESITY W/O CC/MCC,9452.8333333,Standard
 CARDIAC ARRHYTHMIA & CONDUCTION DISORDERS W MCC,7224.4117647,Standard
 DIABETES W MCC,7197.2272727,Standard
 MAJOR CHEST PROCEDURES W MCC,25119.6,Standard
 OTHER RESP SYSTEM O.R. PROCEDURES W MCC,18691.789474,Standard
 OTHER DISORDERS OF NERVOUS SYSTEM W CC,5706.75,Standard
 OTHER DISORDERS OF NERVOUS SYSTEM W MCC,7909.3333333,Standard
 INTRACRANIAL HEMORRHAGE OR CEREBRAL INFARCTION W/O CC/MCC,4485.96,Standard
 NONSPECIFIC CEREBROVASCULAR DISORDERS W MCC,8956.64,Standard
Level 1 Laparoscopy and Related Services,2852.9368852459,DRG
Abdominal/Peritoneal/Biliary and Related Procedures,1911.4065217391299,DRG
Level 3 Lower GI Procedures,1517.78555555555,DRG
Level 3 Upper GI Procedures,1745.76774193548,DRG
" TRACH W MV >96 HRS OR PDX EXC FACE, MOUTH & NECK W/O MAJ O.R.",83445.727273,Standard
  CRANIOTOMY W MAJOR DEVICE IMPLANT OR ACUTE COMPLEX CNS PDX W MCC OR,31086.1,Standard
 CRANIO W MAJOR DEV IMPL/ACUTE COMPLEX CNS PDX W/O MCC,20120.142857,Standard
 NONSPECIFIC CEREBROVASCULAR DISORDERS W CC,5818.8648649,Standard
 EXTRACRANIAL PROCEDURES W/O CC/MCC,6707.7272727,Standard
 DEGENERATIVE NERVOUS SYSTEM DISORDERS W/O MCC,6690.0,Standard
" ""ISCHEMIC STROKE, PRECEREBRAL OCCLUSION OR TRANSIENT ISCHEMIA W THRO",11301.875,Standard
 INTRACRANIAL HEMORRHAGE OR CEREBRAL INFARCTION W MCC,9990.6168224,Standard
 INTRACRANIAL HEMORRHAGE OR CEREBRAL INFARCTION W CC OR TPA IN 24 HRS,6028.1028037,Standard
 PULMONARY EMBOLISM W MCC,8034.8421053,Standard
 TRANSIENT ISCHEMIA W/O THROMBOLYTIC,4659.7058824,Standard
Level 2 Upper GI Procedures,926.475445544553,DRG
 NERVOUS SYSTEM NEOPLASMS W MCC,7386.4545455,Standard
 RESPIRATORY INFECTIONS & INFLAMMATIONS W MCC,10666.40625,Standard
 CHRONIC OBSTRUCTIVE PULMONARY DISEASE W MCC,7126.78,Standard
 PULMONARY EDEMA & RESPIRATORY FAILURE,7154.607142899999,Standard
 MEDICAL BACK PROBLEMS W/O MCC,5294.9166667,Standard
 MEDICAL BACK PROBLEMS W MCC,8580.5,Standard
 MAJOR JOINT/LIMB REATTACHMENT PROCEDURE OF UPPER EXTREMITIES,14113.125,Standard
 PERCUTANEOUS CARDIOVASCULAR PROCEDURES W DRUG,23856.615385,Standard
 PERC CARDIOVASC PROC W DRUG,12699.016393,Standard
 OTHER VASCULAR PROCEDURES W MCC,20745.769231000002,Standard
Level 2 Excision/ Biopsy/ Incision and Drainage,874.153430232558,DRG
Level 3 Excision/ Biopsy/ Incision and Drainage,1447.22684210526,DRG
Level 1 Breast/Lymphatic Surgery and Related Procedures,1717.9263999999898,DRG
Level 2 Breast/Lymphatic Surgery and Related Procedures,3155.19703703703,DRG
Level 2 Musculoskeletal Procedures,885.85,DRG
Level 3 Musculoskeletal Procedures,1731.3131818181798,DRG
Level 4 Musculoskeletal Procedures,3539.9715384615297,DRG
Level 5 Musculoskeletal Procedures,6991.2223076923,DRG
Level 3 Airway Endoscopy,868.165,DRG
Level 4 Airway Endoscopy,1715.2688235294102,DRG
Level 5 ENT Procedures,2743.38833333333,DRG
 SKIN DEBRIDEMENT W MCC,14008.5,Standard
" ""OTHER SKIN, SUBCUT TISS & BREAST PROC W MCC""",14724.454544999999,Standard
 CELLULITIS W MCC,8074.0833333,Standard
 KIDNEY & URINARY TRACT INFECTIONS W/O MCC,4734.5833333,Standard
Level 2 Endovascular Procedures,3181.7042857142796,DRG
 CHRONIC OBSTRUCTIVE PULMONARY DISEASE W CC,5331.72,Standard
 SIMPLE PNEUMONIA & PLEURISY W MCC,7743.202127699999,Standard
Level 3 Pacemaker and Similar Procedures,6572.600512820511,DRG
Level 3 Electrophysiologic Procedures,12621.6763636363,DRG
Level 2 Electrophysiologic Procedures,3482.67428571428,DRG
Level 3 Endovascular Procedures,7031.1253846153795,DRG
 DIABETES W CC,5055.2,Standard
 RESPIRATORY NEOPLASMS W MCC,9635.5714286,Standard
" MISC DISORDERS OF NUTRITION,METABOLISM,FLUIDS/ELECTROLYTES W MCC",6690.206896600001,Standard
 BRONCHITIS & ASTHMA W CC/MCC,5504.125,Standard
 RESPIRATORY SYSTEM DIAGNOSIS W VENTILATOR SUPPORT >96 HOURS,27134.615385,Standard
 RESPIRATORY SYSTEM DIAGNOSIS W VENTILATOR SUPPORT <=96 HOURS,12677.704545,Standard
" ""MISC DISORDERS OF NUTRITION,METABOLISM,FLUIDS/ELECTROLYTES W/O MCC""",4643.952381,Standard
Level 2 Laparoscopy and Related Services,4730.92116883117,DRG
 RENAL FAILURE W MCC,8381.85,Standard
 RENAL FAILURE W CC,5485.2307692,Standard
 KIDNEY & URINARY TRACT INFECTIONS W MCC,6621.857142899999,Standard
 SIMPLE PNEUMONIA & PLEURISY W CC,5533.8214286,Standard
Level 3 Urology and Related Services,1078.2894117647,DRG
 CARDIAC ARRHYTHMIA & CONDUCTION DISORDERS W CC,4688.7560976,Standard
 CORONARY BYPASS W CARDIAC CATH W/O MCC,26961.533333,Standard
 HYPERTENSION W MCC,6398.0625,Standard
 PERIPHERAL VASCULAR DISORDERS W MCC,7942.363636399999,Standard
 HEART FAILURE & SHOCK W CC,5566.8888889,Standard
 HEART FAILURE & SHOCK W MCC,8323.184000000001,Standard
" CIRCULATORY DISORDERS EXCEPT AMI, W CARD CATH W/O MCC",6982.65,Standard
" ""CIRCULATORY DISORDERS EXCEPT AMI, W CARD CATH W MCC""",13027.375,Standard
" ACUTE MYOCARDIAL INFARCTION, DISCHARGED ALIVE W CC",5598.904761899999,Standard
" ""ACUTE MYOCARDIAL INFARCTION, DISCHARGED ALIVE W MCC""",9061.6129032,Standard
 MAJOR HIP AND KNEE JOINT REPLACEMENT OR REATTACHMENT OF LOWER EXTREM,15888.428571,Standard
 SEPTICEMIA OR SEVERE SEPSIS W/O MV >96 HOURS W/O MCC,6399.2682927000005,Standard
Comprehensive Observation Services,1510.82435897435,DRG
Level 7 Radiation Therapy,4738.0451162790705,DRG
"Level 3 Extraocular, Repair, and Plastic Eye Procedures",1140.875,DRG
Level 3 Neurostimulator and Related Procedures,13742.91,DRG
Level 1 Nerve Procedures,982.542142857142,DRG
Level 5 Gynecologic Procedures,2488.08764705882,DRG
 EXTENSIVE O.R. PROCEDURE UNRELATED TO PRINCIPAL DIAGNOSIS W MCC,21526.56,Standard
 OTHER CIRCULATORY SYSTEM O.R. PROCEDURES,19366.5,Standard
 POISONING & TOXIC EFFECTS OF DRUGS W MCC,7652.692307699999,Standard
 OTHER VASCULAR PROCEDURES W/O CC/MCC,9900.785714299998,Standard
 SPINAL FUSION EXCEPT CERVICAL W/O MCC,22551.142857,Standard
 OTHER DIGESTIVE SYSTEM DIAGNOSES W CC,5784.0714286,Standard
 MAJOR SMALL & LARGE BOWEL PROCEDURES W/O CC/MCC,9423.3103448,Standard
 MAJOR SMALL & LARGE BOWEL PROCEDURES W CC,12522.896552,Standard
 MAJOR SMALL & LARGE BOWEL PROCEDURES W MCC,25896.545455,Standard
" STOMACH, ESOPHAGEAL & DUODENAL PROC W MCC",24634.466666999997,Standard
 OTHER KIDNEY & URINARY TRACT DIAGNOSES W MCC,8727.9333333,Standard
 OTHER KIDNEY & URINARY TRACT DIAGNOSES W CC,6119.6666667,Standard
 RED BLOOD CELL DISORDERS W/O MCC,5517.5,Standard
 INFECTIOUS & PARASITIC DISEASES W O.R. PROCEDURE W MCC,28074.736842000002,Standard
 CIRRHOSIS & ALCOHOLIC HEPATITIS W MCC,9982.2307692,Standard
 OTHER CIRCULATORY SYSTEM DIAGNOSES W MCC,10742.942857,Standard
 G.I. HEMORRHAGE W MCC,10462.675676,Standard
 G.I. HEMORRHAGE W CC,5881.0892857,Standard
 G.I. HEMORRHAGE W/O CC/MCC,4062.0833333000005,Standard
 G.I. OBSTRUCTION W CC,6227.4736842,Standard
 G.I. OBSTRUCTION W/O CC/MCC,4065.2307692,Standard
" ESOPHAGITIS, GASTROENT & MISC DIGEST DISORDERS W MCC",7172.0,Standard
" ""ESOPHAGITIS, GASTROENT & MISC DIGEST DISORDERS W/O MCC""",4818.1020408,Standard
 OTHER DIGESTIVE SYSTEM DIAGNOSES W MCC,9358.0833333,Standard
 CHEST PAIN,4355.782608699999,Standard
Level 4 Gynecologic Procedures,1429.3795833333302,DRG
 SEPTICEMIA OR SEVERE SEPSIS W/O MV >96 HOURS W MCC,10091.63913,Standard
 HIP & FEMUR PROCEDURES EXCEPT MAJOR JOINT W/O CC/MCC,9218.2941176,Standard
 MAJOR HIP AND KNEE JOINT REPLACEMENT OR REATTACHMENT OF LOWER EXTREM,11788.145833,Standard
 CORONARY BYPASS W/O CARDIAC CATH W/O MCC,20414.727273,Standard
Level 6 Urology and Related Services,4978.11357142857,DRG
Level 5 Urology and Related Services,2381.07793103448,DRG
Level 4 Urology and Related Services,1748.8420270270199,DRG
 HIP & FEMUR PROCEDURES EXCEPT MAJOR JOINT W CC,11035.961538,Standard
 SYNCOPE & COLLAPSE,4870.483871,Standard
 CARDIAC ARRHYTHMIA & CONDUCTION DISORDERS W/O CC/MCC,3719.7837838,Standard
