Description,Charge,Category
 HEART FAILURE & SHOCK W MCC,8424.166666699999,Standard
 KIDNEY & URINARY TRACT INFECTIONS W/O MCC,5572.0,Standard
 SEPTICEMIA OR SEVERE SEPSIS W/O MV >96 HOURS W MCC,11490.689655,Standard
 SIMPLE PNEUMONIA & PLEURISY W CC,6244.0714286,Standard
 SIMPLE PNEUMONIA & PLEURISY W MCC,8960.2307692,Standard
Comprehensive Observation Services,1508.89566666666,DRG
 PULMONARY EDEMA & RESPIRATORY FAILURE,8060.44,Standard
Level 1 Laparoscopy and Related Services,2943.223125,DRG
Level 2 Excision/ Biopsy/ Incision and Drainage,650.173333333333,DRG
 CHRONIC OBSTRUCTIVE PULMONARY DISEASE W MCC,7282.76,Standard
