Description,Charge,Category
 HEART FAILURE & SHOCK W MCC,7650.4545455,Standard
Level 3 Musculoskeletal Procedures,1717.00727272727,DRG
Level 1 Intraocular Procedures,1214.13494117646,DRG
Comprehensive Observation Services,1529.87338235294,DRG
 SIMPLE PNEUMONIA & PLEURISY W CC,5344.3333333,Standard
 KIDNEY & URINARY TRACT INFECTIONS W/O MCC,4698.125,Standard
" ""MISC DISORDERS OF NUTRITION,METABOLISM,FLUIDS/ELECTROLYTES W/O MCC""",4456.25,Standard
 CHRONIC OBSTRUCTIVE PULMONARY DISEASE W MCC,6480.875,Standard
