Description,Charge,Category
 KIDNEY & URINARY TRACT INFECTIONS W/O MCC,5212.85,Standard
 MAJOR HIP AND KNEE JOINT REPLACEMENT OR REATTACHMENT OF LOWER EXTREM,12629.074627,Standard
" ""ESOPHAGITIS, GASTROENT & MISC DIGEST DISORDERS W/O MCC""",5124.6153846,Standard
Comprehensive Observation Services,1691.4394462540602,DRG
Level 1 Nerve Procedures,909.178775510203,DRG
Level 1 Laparoscopy and Related Services,3269.3399999999897,DRG
Abdominal/Peritoneal/Biliary and Related Procedures,2120.34999999999,DRG
Level 2 Upper GI Procedures,1002.5099999999901,DRG
Level 1 Endovascular Procedures,1773.52,DRG
" CIRCULATORY DISORDERS EXCEPT AMI, W CARD CATH W/O MCC",7428.692307699999,Standard
" ""ACUTE MYOCARDIAL INFARCTION, DISCHARGED ALIVE W MCC""",9323.5384615,Standard
Level 4 Musculoskeletal Procedures,3820.208,DRG
Level 3 Musculoskeletal Procedures,1837.73723076923,DRG
Level 2 Musculoskeletal Procedures,981.1279411764699,DRG
Level 3 Excision/ Biopsy/ Incision and Drainage,1593.70352941176,DRG
Level 2 Excision/ Biopsy/ Incision and Drainage,961.8024489795899,DRG
 SIMPLE PNEUMONIA & PLEURISY W MCC,8323.2,Standard
 CHRONIC OBSTRUCTIVE PULMONARY DISEASE W MCC,7102.2758621,Standard
 PULMONARY EDEMA & RESPIRATORY FAILURE,8584.566666699999,Standard
 SEPTICEMIA OR SEVERE SEPSIS W/O MV >96 HOURS W MCC,10876.540541,Standard
 RESPIRATORY SYSTEM DIAGNOSIS W VENTILATOR SUPPORT <=96 HOURS,12543.588235,Standard
 SIMPLE PNEUMONIA & PLEURISY W CC,5962.0,Standard
 CELLULITIS W/O MCC,5624.0,Standard
 RENAL FAILURE W CC,5709.5,Standard
Level 1 Intraocular Procedures,1325.354,DRG
 KIDNEY & URINARY TRACT INFECTIONS W MCC,6710.533333300001,Standard
