Description,Charge,Category
 OTHER KIDNEY & URINARY TRACT DIAGNOSES W CC,6786.5714286,Standard
Level 2 Excision/ Biopsy/ Incision and Drainage,960.328913043475,DRG
 INFECTIOUS & PARASITIC DISEASES W O.R. PROCEDURE W MCC,28660.52,Standard
 RED BLOOD CELL DISORDERS W/O MCC,5651.9375,Standard
" ACUTE MYOCARDIAL INFARCTION, DISCHARGED ALIVE W CC",6462.255319100001,Standard
 OTHER KIDNEY & URINARY TRACT DIAGNOSES W MCC,9918.1212121,Standard
 KIDNEY & URINARY TRACT INFECTIONS W MCC,6747.8833333,Standard
 MEDICAL BACK PROBLEMS W/O MCC,5721.777777800001,Standard
 BONE DISEASES & ARTHROPATHIES W/O MCC,4868.0714286,Standard
" ""TENDONITIS, MYOSITIS & BURSITIS W/O MCC""",5172.0,Standard
" FX, SPRN, STRN & DISL EXCEPT FEMUR, HIP, PELVIS & THIGH W/O MCC",5480.8846154,Standard
 CELLULITIS W/O MCC,5737.068965500001,Standard
" ""AMPUTAT OF LOWER LIMB FOR ENDOCRINE,NUTRIT,& METABOL DIS W CC""",13095.125,Standard
 KIDNEY & URINARY TRACT INFECTIONS W/O MCC,5241.7483871,Standard
 O.R. PROCEDURES FOR OBESITY W/O CC/MCC,11438.473684,Standard
 DIABETES W CC,5592.851851899999,Standard
" MISC DISORDERS OF NUTRITION,METABOLISM,FLUIDS/ELECTROLYTES W MCC",7411.8611111,Standard
" ""MISC DISORDERS OF NUTRITION,METABOLISM,FLUIDS/ELECTROLYTES W/O MCC""",5042.8163265,Standard
 RENAL FAILURE W MCC,9224.759259299999,Standard
 RENAL FAILURE W CC,6025.733333300001,Standard
 RENAL FAILURE W/O CC/MCC,4276.2352941,Standard
 DIABETES W MCC,8674.3,Standard
 FRACTURES OF HIP & PELVIS W/O MCC,4860.8181818,Standard
Level 3 Excision/ Biopsy/ Incision and Drainage,1591.2666666666598,DRG
Level 2 Breast/Lymphatic Surgery and Related Procedures,3304.4597142857106,DRG
 EXTENSIVE O.R. PROCEDURE UNRELATED TO PRINCIPAL DIAGNOSIS W MCC,25556.809524,Standard
Level 3 Pacemaker and Similar Procedures,7408.97,DRG
Level 2 ICD and Similar Procedures,26875.95,DRG
Level 2 Upper GI Procedures,949.071052631578,DRG
Level 3 Upper GI Procedures,1998.19,DRG
Abdominal/Peritoneal/Biliary and Related Procedures,2114.81043478261,DRG
 SIGNS & SYMPTOMS W/O MCC,5170.7272727,Standard
Level 1 Laparoscopy and Related Services,3197.84350515464,DRG
Level 3 Urology and Related Services,1203.5681707317,DRG
Level 4 Urology and Related Services,1907.22688679245,DRG
Level 5 Urology and Related Services,2553.27101265822,DRG
Level 4 Gynecologic Procedures,1576.54285714285,DRG
Level 1 Nerve Procedures,1082.7784615384599,DRG
Comprehensive Observation Services,1663.61812461824,DRG
Level 2 Laparoscopy and Related Services,5601.97,DRG
Level 1 Breast/Lymphatic Surgery and Related Procedures,1833.9969230769198,DRG
 POISONING & TOXIC EFFECTS OF DRUGS W/O MCC,4854.0,Standard
 ORGANIC DISTURBANCES & INTELLECTUAL DISABILITY,7106.9230769,Standard
Level 2 Musculoskeletal Procedures,917.294687499999,DRG
Level 3 Musculoskeletal Procedures,1793.4336666666602,DRG
Level 4 Musculoskeletal Procedures,3938.6875438596503,DRG
Level 5 Musculoskeletal Procedures,7173.68615384614,DRG
Level 3 Airway Endoscopy,843.59625,DRG
Level 4 Airway Endoscopy,1819.16318181818,DRG
 POISONING & TOXIC EFFECTS OF DRUGS W MCC,8976.692307700001,Standard
Level 1 Endovascular Procedures,1707.1243866170998,DRG
Level 3 Endovascular Procedures,7593.515757575741,DRG
Level 4 Endovascular Procedures,11786.212941176398,DRG
 INFECTIOUS & PARASITIC DISEASES W O.R. PROCEDURE W CC,14357.588235,Standard
 SEPTICEMIA OR SEVERE SEPSIS W MV >96 HOURS OR PERIPHERAL EXTRACORPOR,36486.0,Standard
 SEPTICEMIA OR SEVERE SEPSIS W/O MV >96 HOURS W MCC,11304.335,Standard
 SEPTICEMIA OR SEVERE SEPSIS W/O MV >96 HOURS W/O MCC,6944.142857100001,Standard
Level 2 Endovascular Procedures,3600.7902777777704,DRG
 MAJOR JOINT/LIMB REATTACHMENT PROCEDURE OF UPPER EXTREMITIES,14984.75,Standard
 HIP & FEMUR PROCEDURES EXCEPT MAJOR JOINT W/O CC/MCC,10335.5,Standard
 HIP & FEMUR PROCEDURES EXCEPT MAJOR JOINT W CC,12339.531915000001,Standard
 HEART FAILURE & SHOCK W CC,6149.7272727,Standard
 HEART FAILURE & SHOCK W/O CC/MCC,4642.625,Standard
 PERIPHERAL VASCULAR DISORDERS W CC,6517.625,Standard
 ATHEROSCLEROSIS W/O MCC,4340.642857100001,Standard
 HYPERTENSION W/O MCC,4951.3793103,Standard
 CARDIAC ARRHYTHMIA & CONDUCTION DISORDERS W MCC,7353.8372093,Standard
 HEART FAILURE & SHOCK W MCC,9071.8930481,Standard
 CARDIAC ARRHYTHMIA & CONDUCTION DISORDERS W CC,5519.1612903000005,Standard
 SYNCOPE & COLLAPSE,5427.8235294,Standard
 CHEST PAIN,4686.6111111,Standard
 OTHER CIRCULATORY SYSTEM DIAGNOSES W MCC,12653.176470999999,Standard
 OTHER CIRCULATORY SYSTEM DIAGNOSES W CC,6655.7,Standard
" STOMACH, ESOPHAGEAL & DUODENAL PROC W/O CC/MCC",9887.6666667,Standard
 MAJOR SMALL & LARGE BOWEL PROCEDURES W MCC,29963.888888999998,Standard
 CHRONIC OBSTRUCTIVE PULMONARY DISEASE W CC,5955.3625,Standard
 MAJOR SMALL & LARGE BOWEL PROCEDURES W CC,15481.862068999999,Standard
" CIRCULATORY DISORDERS EXCEPT AMI, W CARD CATH W/O MCC",8559.5882353,Standard
 SIMPLE PNEUMONIA & PLEURISY W MCC,8624.8924051,Standard
" ""ACUTE MYOCARDIAL INFARCTION, DISCHARGED ALIVE W MCC""",9823.525,Standard
 OTHER MAJOR CARDIOVASCULAR PROCEDURES W CC,20481.142857,Standard
 OTHER VASCULAR PROCEDURES W/O CC/MCC,12820.5,Standard
 OTHER VASCULAR PROCEDURES W CC,16440.59375,Standard
 OTHER VASCULAR PROCEDURES W MCC,20269.828571000002,Standard
 PERC CARDIOVASC PROC W NON,13503.090909,Standard
 CHRONIC OBSTRUCTIVE PULMONARY DISEASE W/O CC/MCC,5146.1944444,Standard
 PERC CARDIOVASC PROC W DRUG,13249.803279,Standard
" ""CIRCULATORY DISORDERS EXCEPT AMI, W CARD CATH W MCC""",15125.03125,Standard
 PERMANENT CARDIAC PACEMAKER IMPLANT W CC,15766.166667,Standard
 RESPIRATORY SYSTEM DIAGNOSIS W VENTILATOR SUPPORT <=96 HOURS,14426.514286000001,Standard
 BRONCHITIS & ASTHMA W CC/MCC,5996.2272727,Standard
 SIMPLE PNEUMONIA & PLEURISY W/O CC/MCC,4729.0454545,Standard
 SIMPLE PNEUMONIA & PLEURISY W CC,6142.3144654,Standard
 PERCUTANEOUS CARDIOVASCULAR PROCEDURES W DRUG,21705.64,Standard
 MAJOR SMALL & LARGE BOWEL PROCEDURES W/O CC/MCC,11455.0,Standard
 CHRONIC OBSTRUCTIVE PULMONARY DISEASE W MCC,7353.9830508000005,Standard
 PULMONARY EDEMA & RESPIRATORY FAILURE,8064.3793103,Standard
 G.I. HEMORRHAGE W MCC,10317.323529000001,Standard
 G.I. HEMORRHAGE W CC,6198.574712600001,Standard
 COMPLICATED PEPTIC ULCER W CC,6915.8181818,Standard
 G.I. OBSTRUCTION W MCC,9147.9285714,Standard
 G.I. OBSTRUCTION W CC,5813.857142899999,Standard
" ESOPHAGITIS, GASTROENT & MISC DIGEST DISORDERS W MCC",8263.181818199999,Standard
 EXTRACRANIAL PROCEDURES W/O CC/MCC,8346.148148100001,Standard
" ""ESOPHAGITIS, GASTROENT & MISC DIGEST DISORDERS W/O MCC""",5022.26,Standard
 LAPAROSCOPIC CHOLECYSTECTOMY W/O C.D.E. W CC,10286.266667,Standard
 DISORDERS OF PANCREAS EXCEPT MALIGNANCY W CC,5771.8333333,Standard
 DISORDERS OF PANCREAS EXCEPT MALIGNANCY W/O CC/MCC,4451.0,Standard
 DISORDERS OF THE BILIARY TRACT W CC,6575.75,Standard
 MAJOR HIP AND KNEE JOINT REPLACEMENT OR REATTACHMENT OF LOWER EXTREM,14932.416938,Standard
 HIP & FEMUR PROCEDURES EXCEPT MAJOR JOINT W MCC,17186.5,Standard
 OTHER DIGESTIVE SYSTEM DIAGNOSES W CC,6397.1875,Standard
 DEGENERATIVE NERVOUS SYSTEM DISORDERS W/O MCC,7414.363636399999,Standard
 INTRACRANIAL HEMORRHAGE OR CEREBRAL INFARCTION W MCC,10334.741935,Standard
 INTRACRANIAL HEMORRHAGE OR CEREBRAL INFARCTION W CC OR TPA IN 24 HRS,6869.180555600001,Standard
 PLEURAL EFFUSION W MCC,9546.5,Standard
 RESPIRATORY INFECTIONS & INFLAMMATIONS W CC,7846.7272727,Standard
 RESPIRATORY INFECTIONS & INFLAMMATIONS W MCC,11226.404762,Standard
 PULMONARY EMBOLISM W/O MCC,5790.9583333,Standard
 PULMONARY EMBOLISM W MCC,9787.076923100001,Standard
 OTHER RESP SYSTEM O.R. PROCEDURES W CC,11335.833333,Standard
 OTHER RESP SYSTEM O.R. PROCEDURES W MCC,21122.6,Standard
 MAJOR CHEST PROCEDURES W/O CC/MCC,11267.727273,Standard
 MAJOR CHEST PROCEDURES W CC,15647.555556,Standard
 MAJOR CHEST PROCEDURES W MCC,29695.133332999998,Standard
 SEIZURES W/O MCC,5401.478260899999,Standard
 SEIZURES W MCC,10196.769231,Standard
 OTHER DISORDERS OF NERVOUS SYSTEM W CC,5732.636363600001,Standard
 TRANSIENT ISCHEMIA W/O THROMBOLYTIC,5537.5,Standard
 INTRACRANIAL HEMORRHAGE OR CEREBRAL INFARCTION W/O CC/MCC,4911.6111111,Standard
" ""ACUTE MYOCARDIAL INFARCTION, DISCHARGED ALIVE W/O CC/MCC""",6058.9696969999995,Standard
 CARDIAC ARRHYTHMIA & CONDUCTION DISORDERS W/O CC/MCC,4276.3666667,Standard
