Description,Charge,Category
Level 4 ENT Procedures,1429.54484848484,DRG
 MAJOR GASTROINTESTINAL DISORDERS & PERITONEAL INFECTIONS W CC,7736.0,Standard
 G.I. HEMORRHAGE W MCC,11587.238806,Standard
 G.I. HEMORRHAGE W CC,7207.7087378999995,Standard
Level 5 Airway Endoscopy,2822.5244117647,DRG
 G.I. HEMORRHAGE W/O CC/MCC,5183.722222199999,Standard
 G.I. OBSTRUCTION W MCC,9987.6363636,Standard
 G.I. OBSTRUCTION W CC,6560.6190476,Standard
 G.I. OBSTRUCTION W/O CC/MCC,4772.9090909,Standard
" ESOPHAGITIS, GASTROENT & MISC DIGEST DISORDERS W MCC",8608.631578899998,Standard
" ""ESOPHAGITIS, GASTROENT & MISC DIGEST DISORDERS W/O MCC""",6001.975609800001,Standard
 OTHER DIGESTIVE SYSTEM DIAGNOSES W MCC,11525.470588,Standard
 OTHER DIGESTIVE SYSTEM DIAGNOSES W CC,6972.142857100001,Standard
" PANCREAS, LIVER & SHUNT PROCEDURES W CC",18412.470588,Standard
 LAPAROSCOPIC CHOLECYSTECTOMY W/O C.D.E. W CC,11058.5625,Standard
 CIRRHOSIS & ALCOHOLIC HEPATITIS W CC,7508.6666667,Standard
 MALIGNANCY OF HEPATOBILIARY SYSTEM OR PANCREAS W MCC,11715.083333,Standard
 DISORDERS OF PANCREAS EXCEPT MALIGNANCY W CC,6957.1052632,Standard
 MAJOR GASTROINTESTINAL DISORDERS & PERITONEAL INFECTIONS W MCC,12180.0,Standard
 MAJOR SMALL & LARGE BOWEL PROCEDURES W/O CC/MCC,11119.724138,Standard
 MAJOR SMALL & LARGE BOWEL PROCEDURES W CC,15539.59375,Standard
 MAJOR SMALL & LARGE BOWEL PROCEDURES W MCC,30602.0625,Standard
 CRANIOTOMY & ENDOVASCULAR INTRACRANIAL PROCEDURES W CC,20584.235294,Standard
 CRANIOTOMY & ENDOVASCULAR INTRACRANIAL PROCEDURES W/O CC/MCC,15040.095238,Standard
 CAROTID ARTERY STENT PROCEDURE W/O CC/MCC,11407.181818000001,Standard
 EXTRACRANIAL PROCEDURES W/O CC/MCC,8365.7142857,Standard
 PERIPH/CRANIAL NERVE & OTHER NERV SYST PROC W MCC,24712.416666999998,Standard
 NERVOUS SYSTEM NEOPLASMS W MCC,8940.35,Standard
 DEGENERATIVE NERVOUS SYSTEM DISORDERS W MCC,12917.142856999999,Standard
 DEGENERATIVE NERVOUS SYSTEM DISORDERS W/O MCC,8336.1785714,Standard
" ""DISORDERS OF LIVER EXCEPT MALIG,CIRR,ALC HEPA W MCC""",12332.916667,Standard
" ISCHEMIC STROKE, PRECEREBRAL OCCLUSION OR TRANSIENT ISCHEMIA W THROM",18311.416666999998,Standard
 INTRACRANIAL HEMORRHAGE OR CEREBRAL INFARCTION W MCC,12487.741259,Standard
 INTRACRANIAL HEMORRHAGE OR CEREBRAL INFARCTION W CC OR TPA IN 24 HRS,7599.5154639,Standard
 INTRACRANIAL HEMORRHAGE OR CEREBRAL INFARCTION W/O CC/MCC,5807.171428600001,Standard
 TRANSIENT ISCHEMIA W/O THROMBOLYTIC,5745.7837838,Standard
 NONSPECIFIC CEREBROVASCULAR DISORDERS W MCC,11592.949153,Standard
 NONSPECIFIC CEREBROVASCULAR DISORDERS W CC,7273.5348837,Standard
 NONSPECIFIC CEREBROVASCULAR DISORDERS W/O CC/MCC,5732.5714286,Standard
 CRANIAL & PERIPHERAL NERVE DISORDERS W/O MCC,7008.2307692,Standard
" ""ISCHEMIC STROKE, PRECEREBRAL OCCLUSION OR TRANSIENT ISCHEMIA W THRO",12835.238095,Standard
 CRANIOTOMY & ENDOVASCULAR INTRACRANIAL PROCEDURES W MCC,28913.230768999998,Standard
" DISORDERS OF LIVER EXCEPT MALIG,CIRR,ALC HEPA W CC",7172.538461499999,Standard
 COMBINED ANTERIOR/POSTERIOR SPINAL FUSION W MCC,61398.090909000006,Standard
 CELLULITIS W MCC,10611.85,Standard
 CELLULITIS W/O MCC,6476.345679,Standard
" ""AMPUTAT OF LOWER LIMB FOR ENDOCRINE,NUTRIT,& METABOL DIS W CC""",14229.333333,Standard
 O.R. PROCEDURES FOR OBESITY W/O CC/MCC,10468.782609,Standard
 DIABETES W MCC,9791.85,Standard
 DIABETES W CC,6483.2727273,Standard
" MISC DISORDERS OF NUTRITION,METABOLISM,FLUIDS/ELECTROLYTES W MCC",8732.263157899999,Standard
" ""MISC DISORDERS OF NUTRITION,METABOLISM,FLUIDS/ELECTROLYTES W/O MCC""",5869.6625,Standard
 KIDNEY TRANSPLANT,21573.7,Standard
 KIDNEY & URETER PROCEDURES FOR NEOPLASM W CC,14374.571429,Standard
 KIDNEY & URETER PROCEDURES FOR NEOPLASM W/O CC/MCC,11018.0,Standard
 KIDNEY & URETER PROCEDURES FOR NON,12876.166667,Standard
 RENAL FAILURE W MCC,10656.674418999999,Standard
 RENAL FAILURE W CC,6801.288135600001,Standard
 KIDNEY & URINARY TRACT INFECTIONS W MCC,7924.2659574,Standard
 KIDNEY & URINARY TRACT INFECTIONS W/O MCC,6047.3368421000005,Standard
 ENDOVASCULAR CARDIAC VALVE REPLACEMENT W/O MCC,37930.210526,Standard
 MEDICAL BACK PROBLEMS W/O MCC,6680.26,Standard
 MEDICAL BACK PROBLEMS W MCC,10426.875,Standard
 FRACTURES OF HIP & PELVIS W/O MCC,6057.6666667,Standard
 BACK & NECK PROC EXC SPINAL FUSION W/O CC/MCC,9535.466666700002,Standard
 COMBINED ANTERIOR/POSTERIOR SPINAL FUSION W CC,40653.48,Standard
 COMBINED ANTERIOR/POSTERIOR SPINAL FUSION W/O CC/MCC,33752.415093999996,Standard
 SPINAL FUSION EXCEPT CERVICAL W/O MCC,25840.746269,Standard
 REVISION OF HIP OR KNEE REPLACEMENT W CC,21535.571429,Standard
 MAJOR HIP AND KNEE JOINT REPLACEMENT OR REATTACHMENT OF LOWER EXTREM,19926.944444,Standard
 MAJOR HIP AND KNEE JOINT REPLACEMENT OR REATTACHMENT OF LOWER EXTREM,13901.621849000001,Standard
 CERVICAL SPINAL FUSION W CC,18829.842105,Standard
 CERVICAL SPINAL FUSION W/O CC/MCC,15566.630435,Standard
 DISORDERS OF THE BILIARY TRACT W CC,8731.727272700002,Standard
 HIP & FEMUR PROCEDURES EXCEPT MAJOR JOINT W MCC,18733.029412,Standard
 HIP & FEMUR PROCEDURES EXCEPT MAJOR JOINT W/O CC/MCC,11635.727273,Standard
 MAJOR JOINT/LIMB REATTACHMENT PROCEDURE OF UPPER EXTREMITIES,15597.691175999998,Standard
" LOWER EXTREM & HUMER PROC EXCEPT HIP,FOOT,FEMUR W CC",14659.44,Standard
" ""LOWER EXTREM & HUMER PROC EXCEPT HIP,FOOT,FEMUR W/O CC/MCC""",12165.833333,Standard
 OTHER MUSCULOSKELET SYS & CONN TISS O.R. PROC W MCC,25678.307692,Standard
 OTHER MUSCULOSKELET SYS & CONN TISS O.R. PROC W CC,12612.107143000001,Standard
 OTHER MUSCULOSKELET SYS & CONN TISS O.R. PROC W/O CC/MCC,10656.571429000001,Standard
 BACK & NECK PROC EXC SPINAL FUSION W CC,12005.307692,Standard
 HIP & FEMUR PROCEDURES EXCEPT MAJOR JOINT W CC,13892.510638,Standard
 CRANIO W MAJOR DEV IMPL/ACUTE COMPLEX CNS PDX W/O MCC,26205.416666999998,Standard
  CRANIOTOMY W MAJOR DEVICE IMPLANT OR ACUTE COMPLEX CNS PDX W MCC OR,33626.222222000004,Standard
" TRACH W MV >96 HRS OR PDX EXC FACE, MOUTH & NECK W/O MAJ O.R.",61247.0,Standard
 PERC CARDIOVASC PROC W DRUG,14365.517647,Standard
 PERCUTANEOUS CARDIOVASCULAR PROCEDURES W DRUG,20564.634146,Standard
 PERMANENT CARDIAC PACEMAKER IMPLANT W/O CC/MCC,15028.789474000001,Standard
 PERMANENT CARDIAC PACEMAKER IMPLANT W CC,17451.5,Standard
 PERMANENT CARDIAC PACEMAKER IMPLANT W MCC,23150.619048,Standard
 AMPUTATION FOR CIRC SYS DISORDERS EXC UPPER LIMB & TOE W MCC,30833.733333,Standard
 CORONARY BYPASS W/O CARDIAC CATH W/O MCC,25063.347825999997,Standard
 CORONARY BYPASS W CARDIAC CATH W/O MCC,31516.0,Standard
 OTHER CARDIOTHORACIC PROCEDURES W/O MCC,29337.066667000003,Standard
 OTHER CARDIOTHORACIC PROCEDURES W MCC,44054.083332999995,Standard
 CARDIAC VALVE & OTH MAJ CARDIOTHORACIC PROC W/O CARD CATH W/O CC/MCC,29221.181818,Standard
 CARDIAC VALVE & OTH MAJ CARDIOTHORACIC PROC W/O CARD CATH W CC,34270.466667,Standard
 OTHER HEART ASSIST SYSTEM IMPLANT,77742.363636,Standard
 RESPIRATORY SYSTEM DIAGNOSIS W VENTILATOR SUPPORT <=96 HOURS,16599.5,Standard
 RESPIRATORY SIGNS & SYMPTOMS,5792.25,Standard
 BRONCHITIS & ASTHMA W CC/MCC,7109.7272727,Standard
 PNEUMOTHORAX W CC,8015.45,Standard
 OTHER VASCULAR PROCEDURES W MCC,21288.863636000002,Standard
 OTHER VASCULAR PROCEDURES W CC,16228.65,Standard
 OTHER VASCULAR PROCEDURES W/O CC/MCC,12774.0,Standard
 OTHER CIRCULATORY SYSTEM O.R. PROCEDURES,25914.416666999998,Standard
 AORTIC AND HEART ASSIST PROCEDURES EXCEPT PULSATION BALLOON W/O MCC,26028.833333000002,Standard
 OTHER MAJOR CARDIOVASCULAR PROCEDURES W MCC,32167.269231000002,Standard
 OTHER MAJOR CARDIOVASCULAR PROCEDURES W CC,21514.347825999997,Standard
 OTHER MAJOR CARDIOVASCULAR PROCEDURES W/O CC/MCC,15858.727272999999,Standard
 PERCUTANEOUS INTRACARDIAC PROCEDURES W MCC,23810.384615,Standard
" ""ACUTE MYOCARDIAL INFARCTION, DISCHARGED ALIVE W MCC""",11822.283333,Standard
" ACUTE MYOCARDIAL INFARCTION, DISCHARGED ALIVE W CC",8249.3125,Standard
" ""CIRCULATORY DISORDERS EXCEPT AMI, W CARD CATH W MCC""",16363.476190000001,Standard
 PNEUMOTHORAX W MCC,13183.642856999999,Standard
" CIRCULATORY DISORDERS EXCEPT AMI, W CARD CATH W/O MCC",9110.96875,Standard
 HEART FAILURE & SHOCK W CC,7288.5,Standard
 HEART FAILURE & SHOCK W/O CC/MCC,5409.8125,Standard
 PERIPHERAL VASCULAR DISORDERS W MCC,9990.875,Standard
 PERIPHERAL VASCULAR DISORDERS W CC,7513.8,Standard
 HYPERTENSION W MCC,7810.6410256,Standard
 HYPERTENSION W/O MCC,5766.5208333,Standard
 CARDIAC ARRHYTHMIA & CONDUCTION DISORDERS W MCC,8716.75,Standard
 CARDIAC ARRHYTHMIA & CONDUCTION DISORDERS W CC,6291.938271600001,Standard
 HEART FAILURE & SHOCK W MCC,10042.121771,Standard
 SIMPLE PNEUMONIA & PLEURISY W/O CC/MCC,6144.277777800001,Standard
 SIMPLE PNEUMONIA & PLEURISY W CC,6961.782608699999,Standard
 CARDIAC ARRHYTHMIA & CONDUCTION DISORDERS W/O CC/MCC,4836.21875,Standard
Level 4 Urology and Related Services,1743.10121951219,DRG
Level 3 Urology and Related Services,1099.31843648209,DRG
Level 2 Laparoscopy and Related Services,4831.30546961327,DRG
Level 1 Laparoscopy and Related Services,2846.54602693601,DRG
Abdominal/Peritoneal/Biliary and Related Procedures,1855.0260759493601,DRG
Complex GI Procedures,2680.99652173913,DRG
Level 3 Lower GI Procedures,1512.4951470588198,DRG
Level 3 Upper GI Procedures,1674.66133333333,DRG
Level 5 Urology and Related Services,2337.35227848101,DRG
Level 2 Upper GI Procedures,926.2869655172391,DRG
Level 3 Pacemaker and Similar Procedures,6554.8698507462705,DRG
Level 2 Pacemaker and Similar Procedures,4815.7320408163205,DRG
Level 3 Electrophysiologic Procedures,13459.601559633,DRG
Level 2 Electrophysiologic Procedures,3475.71,DRG
Level 4 Endovascular Procedures,11176.8528205128,DRG
Level 3 Endovascular Procedures,7084.19784023667,DRG
Level 2 Endovascular Procedures,3267.17788819875,DRG
Level 1 Endovascular Procedures,1535.7577316293803,DRG
Level 2 ICD and Similar Procedures,23465.3284444444,DRG
 OTHER KIDNEY & URINARY TRACT DIAGNOSES W MCC,10687.066667000001,Standard
Level 6 Urology and Related Services,4968.16,DRG
Level 4 Gynecologic Procedures,1451.7666176470498,DRG
 SYNCOPE & COLLAPSE,6012.6219512,Standard
 CHEST PAIN,5454.0625,Standard
 OTHER CIRCULATORY SYSTEM DIAGNOSES W MCC,13389.333333,Standard
 OTHER CIRCULATORY SYSTEM DIAGNOSES W CC,6769.9285714,Standard
" STOMACH, ESOPHAGEAL & DUODENAL PROC W MCC",35917.818182,Standard
" ""ECMO OR TRACH W MV >96 HRS OR PDX EXC FACE, MOUTH & NECK W MAJ O.R.",82249.241379,Standard
Comprehensive Observation Services,1492.8810220994599,DRG
"Level 4 Extraocular, Repair, and Plastic Eye Procedures",1930.3596153846104,DRG
Level 7 Urology and Related Services,11520.3299999999,DRG
"Level 3 Extraocular, Repair, and Plastic Eye Procedures",1184.66999999999,DRG
Level 1 Intraocular Procedures,1256.01125,DRG
Level 4 Neurostimulator and Related Procedures,21489.33,DRG
Level 3 Neurostimulator and Related Procedures,13261.964516129,DRG
Level 2 Neurostimulator and Related Procedures,3947.43137931034,DRG
Level 2 Nerve Procedures,3023.8676923076896,DRG
Level 1 Nerve Procedures,999.059539748952,DRG
Level 6 Gynecologic Procedures,3990.9199999999896,DRG
Level 5 Gynecologic Procedures,2565.11255813953,DRG
Level 2 Intraocular Procedures,2361.22,DRG
 OTHER KIDNEY & URINARY TRACT DIAGNOSES W CC,8023.5348837,Standard
 URINARY STONES W/O ESW LITHOTRIPSY W/O MCC,6303.4166667,Standard
 MAJOR MALE PELVIC PROCEDURES W/O CC/MCC,9447.1764706,Standard
 DYSEQUILIBRIUM,5338.2631579,Standard
 OTITIS MEDIA & URI W/O MCC,5287.1818182,Standard
 MAJOR CHEST PROCEDURES W CC,17638.44,Standard
 MAJOR CHEST PROCEDURES W/O CC/MCC,12234.25,Standard
 OTHER RESP SYSTEM O.R. PROCEDURES W MCC,26017.107143,Standard
 OTHER RESP SYSTEM O.R. PROCEDURES W CC,12480.368421,Standard
 PULMONARY EMBOLISM W MCC,10449.6,Standard
 PULMONARY EMBOLISM W/O MCC,6319.125,Standard
 CRANIAL/FACIAL PROCEDURES W CC/MCC,17169.666666999998,Standard
 RESPIRATORY INFECTIONS & INFLAMMATIONS W MCC,12762.971429000001,Standard
 MAJOR CHEST TRAUMA W MCC,11737.9375,Standard
 MAJOR CHEST TRAUMA W CC,8005.2727273,Standard
 MAJOR CHEST TRAUMA W/O CC/MCC,6119.642857100001,Standard
 PLEURAL EFFUSION W CC,8146.25,Standard
 PULMONARY EDEMA & RESPIRATORY FAILURE,8976.0,Standard
 CHRONIC OBSTRUCTIVE PULMONARY DISEASE W MCC,8428.854430399999,Standard
 CHRONIC OBSTRUCTIVE PULMONARY DISEASE W CC,6966.896551700001,Standard
 CHRONIC OBSTRUCTIVE PULMONARY DISEASE W/O CC/MCC,5566.5384615,Standard
 RESPIRATORY INFECTIONS & INFLAMMATIONS W CC,8864.772727299998,Standard
 HEADACHES W/O MCC,6070.2727273,Standard
 SEIZURES W/O MCC,6375.7073171,Standard
 SEIZURES W MCC,11254.541667,Standard
Level 4 Airway Endoscopy,1676.6352577319599,DRG
Level 3 Airway Endoscopy,865.74,DRG
Level 5 Musculoskeletal Procedures,6049.058901515129,DRG
Level 4 Musculoskeletal Procedures,3551.4413623188398,DRG
Level 3 Musculoskeletal Procedures,1702.75864999999,DRG
Level 2 Musculoskeletal Procedures,844.0609999999989,DRG
Level 2 Breast/Lymphatic Surgery and Related Procedures,3087.15860215053,DRG
Level 1 Breast/Lymphatic Surgery and Related Procedures,1743.45937499999,DRG
Level 3 Excision/ Biopsy/ Incision and Drainage,1481.8198113207502,DRG
Level 2 Excision/ Biopsy/ Incision and Drainage,866.504977578485,DRG
" ""TRAUMATIC STUPOR & COMA, COMA >1 HR W MCC""",15330.75,Standard
" TRAUMATIC STUPOR & COMA, COMA >1 HR W CC",9034.590909100001,Standard
" ""TRAUMATIC STUPOR & COMA, COMA >1 HR W/O CC/MCC""",6890.9285714,Standard
" TRAUMATIC STUPOR & COMA, COMA <1 HR W MCC",13591.826087000001,Standard
" ""TRAUMATIC STUPOR & COMA, COMA <1 HR W CC""",8594.175438600001,Standard
" TRAUMATIC STUPOR & COMA, COMA <1 HR W/O CC/MCC",6265.1372549,Standard
 OTHER DISORDERS OF NERVOUS SYSTEM W MCC,10976.2,Standard
 OTHER DISORDERS OF NERVOUS SYSTEM W CC,6868.8666667,Standard
 OTHER DISORDERS OF NERVOUS SYSTEM W/O CC/MCC,5995.0714286,Standard
 SIMPLE PNEUMONIA & PLEURISY W MCC,9616.6666667,Standard
 OTHER KIDNEY & URINARY TRACT DIAGNOSES W/O CC/MCC,5981.0,Standard
 ENDOVASCULAR CARDIAC VALVE REPLACEMENT W MCC,46487.833332999995,Standard
 COMPLICATIONS OF TREATMENT W MCC,11926.083333,Standard
 SEPTICEMIA OR SEVERE SEPSIS W/O MV >96 HOURS W/O MCC,7890.2285714,Standard
 OTHER O.R. PROCEDURES FOR INJURIES W MCC,27265.272727,Standard
 OTHER O.R. PROCEDURES FOR INJURIES W CC,13225.0,Standard
 POISONING & TOXIC EFFECTS OF DRUGS W MCC,10120.181818000001,Standard
 POISONING & TOXIC EFFECTS OF DRUGS W/O MCC,5720.363636399999,Standard
 COMPLICATIONS OF TREATMENT W CC,7404.461538500001,Standard
 SIGNS & SYMPTOMS W MCC,8823.75,Standard
 SIGNS & SYMPTOMS W/O MCC,6021.4210526,Standard
" LIMB REATTACHMENT, HIP & FEMUR PROC FOR MULTIPLE SIGNIFICANT TRAUMA",24630.625,Standard
 OTHER O.R. PROCEDURES FOR MULTIPLE SIGNIFICANT TRAUMA W MCC,42027.25,Standard
 OTHER O.R. PROCEDURES FOR MULTIPLE SIGNIFICANT TRAUMA W CC,26717.4,Standard
 OTHER MULTIPLE SIGNIFICANT TRAUMA W MCC,19503.692308,Standard
 OTHER MULTIPLE SIGNIFICANT TRAUMA W CC,11775.6,Standard
 EXTENSIVE O.R. PROCEDURE UNRELATED TO PRINCIPAL DIAGNOSIS W MCC,25262.870968,Standard
 NON,25103.75,Standard
 SEPTICEMIA OR SEVERE SEPSIS W/O MV >96 HOURS W MCC,12702.004054,Standard
 SEPTICEMIA OR SEVERE SEPSIS W MV >96 HOURS OR PERIPHERAL EXTRACORPOR,38201.05,Standard
Level 5 ENT Procedures,2726.16833333333,DRG
 MAJOR HEMATOL/IMMUN DIAG EXC SICKLE CELL CRISIS & COAGUL W CC,8948.8333333,Standard
 RED BLOOD CELL DISORDERS W/O MCC,6471.527777800001,Standard
 LYMPHOMA & NON,18897.166666999998,Standard
 FEVER AND INFLAMMATORY CONDITIONS,6497.9230769,Standard
 POSTOPERATIVE & POST,11713.466667,Standard
 POSTOPERATIVE OR POST,13384.615385,Standard
 POSTOPERATIVE OR POST,27491.846154000003,Standard
 CHEMOTHERAPY W/O ACUTE LEUKEMIA AS SECONDARY DIAGNOSIS W CC,8847.1764706,Standard
 INFECTIOUS & PARASITIC DISEASES W O.R. PROCEDURE W CC,15774.766666999998,Standard
 INFECTIOUS & PARASITIC DISEASES W O.R. PROCEDURE W MCC,30570.526718,Standard
