Description,Charge,Category
 HEART FAILURE & SHOCK W/O CC/MCC,3813.5625,Standard
 HEART FAILURE & SHOCK W CC,5127.5714286,Standard
 SPINAL FUSION EXCEPT CERVICAL W/O MCC,22952.268293,Standard
 RENAL FAILURE W CC,5127.2641509,Standard
 KIDNEY & URINARY TRACT INFECTIONS W/O MCC,4455.6,Standard
 RED BLOOD CELL DISORDERS W/O MCC,5706.642857100001,Standard
 INFECTIOUS & PARASITIC DISEASES W O.R. PROCEDURE W MCC,25627.384615,Standard
 BILATERAL OR MULTIPLE MAJOR JOINT PROCS OF LOWER EXTREMITY W/O MCC,20709.416666999998,Standard
 SEPTICEMIA OR SEVERE SEPSIS W/O MV >96 HOURS W MCC,10017.131868,Standard
 SIGNS & SYMPTOMS W/O MCC,4271.9166667,Standard
 SEPTICEMIA OR SEVERE SEPSIS W/O MV >96 HOURS W/O MCC,5885.191489399999,Standard
 KIDNEY & URINARY TRACT INFECTIONS W MCC,5236.75,Standard
 CARDIAC ARRHYTHMIA & CONDUCTION DISORDERS W MCC,7036.217391300001,Standard
 MAJOR HIP AND KNEE JOINT REPLACEMENT OR REATTACHMENT OF LOWER EXTREM,11985.537897,Standard
 CARDIAC ARRHYTHMIA & CONDUCTION DISORDERS W/O CC/MCC,3113.7142857,Standard
 RENAL FAILURE W MCC,8068.56,Standard
" ""MISC DISORDERS OF NUTRITION,METABOLISM,FLUIDS/ELECTROLYTES W/O MCC""",4037.75,Standard
" MISC DISORDERS OF NUTRITION,METABOLISM,FLUIDS/ELECTROLYTES W MCC",6703.875,Standard
Level 2 Endovascular Procedures,3703.67,DRG
Level 1 Endovascular Procedures,1694.69688888888,DRG
Level 5 Airway Endoscopy,3334.4188235294105,DRG
Level 4 Airway Endoscopy,1905.79,DRG
Level 5 Musculoskeletal Procedures,7698.96397435896,DRG
 CELLULITIS W/O MCC,4661.88,Standard
" LOWER EXTREM & HUMER PROC EXCEPT HIP,FOOT,FEMUR W CC",13377.090909,Standard
 MAJOR JOINT/LIMB REATTACHMENT PROCEDURE OF UPPER EXTREMITIES,13943.072165000001,Standard
 HIP & FEMUR PROCEDURES EXCEPT MAJOR JOINT W CC,11349.514286,Standard
 HIP & FEMUR PROCEDURES EXCEPT MAJOR JOINT W MCC,15497.636363999998,Standard
 MAJOR HIP AND KNEE JOINT REPLACEMENT OR REATTACHMENT OF LOWER EXTREM,17712.433333,Standard
 REVISION OF HIP OR KNEE REPLACEMENT W CC,18890.333333000002,Standard
 CARDIAC ARRHYTHMIA & CONDUCTION DISORDERS W CC,4257.2941175999995,Standard
 COMBINED ANTERIOR/POSTERIOR SPINAL FUSION W/O CC/MCC,28803.705882,Standard
 G.I. OBSTRUCTION W CC,4979.25,Standard
 LAPAROSCOPIC CHOLECYSTECTOMY W/O C.D.E. W/O CC/MCC,7191.2727273,Standard
Level 2 Excision/ Biopsy/ Incision and Drainage,963.4427450980361,DRG
 COMBINED ANTERIOR/POSTERIOR SPINAL FUSION W CC,37537.611111,Standard
 MAJOR SMALL & LARGE BOWEL PROCEDURES W MCC,26658.375,Standard
 SYNCOPE & COLLAPSE,4327.9090909,Standard
Level 3 Excision/ Biopsy/ Incision and Drainage,1640.3940625,DRG
Level 3 Musculoskeletal Procedures,1860.4513815789398,DRG
 SIMPLE PNEUMONIA & PLEURISY W CC,5285.9148936,Standard
 SIMPLE PNEUMONIA & PLEURISY W/O CC/MCC,3922.6428571,Standard
 BRONCHITIS & ASTHMA W CC/MCC,5110.0,Standard
 RESPIRATORY SYSTEM DIAGNOSIS W VENTILATOR SUPPORT <=96 HOURS,14957.785713999998,Standard
 PERC CARDIOVASC PROC W DRUG,13621.916667,Standard
 G.I. HEMORRHAGE W MCC,9444.272727299998,Standard
 OTHER VASCULAR PROCEDURES W MCC,17774.230768999998,Standard
 OTHER MAJOR CARDIOVASCULAR PROCEDURES W/O CC/MCC,14381.0,Standard
" ""ACUTE MYOCARDIAL INFARCTION, DISCHARGED ALIVE W MCC""",9091.8125,Standard
Level 1 Laparoscopy and Related Services,3145.9686792452803,DRG
Level 2 Laparoscopy and Related Services,5601.97,DRG
Level 3 Urology and Related Services,1180.15888888889,DRG
Level 4 Urology and Related Services,1964.1699999999898,DRG
Level 3 Endovascular Procedures,7983.883239436609,DRG
Level 4 Endovascular Procedures,12251.436923076899,DRG
Level 2 Upper GI Procedures,1037.99,DRG
Abdominal/Peritoneal/Biliary and Related Procedures,2016.3946808510602,DRG
" ACUTE MYOCARDIAL INFARCTION, DISCHARGED ALIVE W CC",5432.5,Standard
 AORTIC AND HEART ASSIST PROCEDURES EXCEPT PULSATION BALLOON W/O MCC,23519.952381,Standard
 MAJOR GASTROINTESTINAL DISORDERS & PERITONEAL INFECTIONS W CC,5351.3333333,Standard
Level 5 Urology and Related Services,2668.66333333332,DRG
Level 2 Breast/Lymphatic Surgery and Related Procedures,3504.73,DRG
 EXTRACRANIAL PROCEDURES W/O CC/MCC,6400.037037,Standard
" ""ACUTE MYOCARDIAL INFARCTION, DISCHARGED ALIVE W/O CC/MCC""",4382.6666667,Standard
 HEART FAILURE & SHOCK W MCC,8033.5346535,Standard
Level 4 Gynecologic Procedures,1557.99529411764,DRG
Level 5 Gynecologic Procedures,2654.03363636363,DRG
Level 6 Gynecologic Procedures,4425.88384615384,DRG
 INTRACRANIAL HEMORRHAGE OR CEREBRAL INFARCTION W CC OR TPA IN 24 HRS,5368.3809524,Standard
Level 1 Nerve Procedures,1153.78032786885,DRG
Level 1 Intraocular Procedures,1381.73828571428,DRG
Comprehensive Observation Services,1700.17506410255,DRG
 G.I. HEMORRHAGE W CC,5475.7948718,Standard
Level 2 Musculoskeletal Procedures,960.828350515463,DRG
 G.I. OBSTRUCTION W/O CC/MCC,3510.7647059,Standard
" ""ESOPHAGITIS, GASTROENT & MISC DIGEST DISORDERS W/O MCC""",4203.8478261,Standard
Level 3 Neurostimulator and Related Procedures,15410.57,DRG
Level 1 Breast/Lymphatic Surgery and Related Procedures,1918.31862068965,DRG
 INTRACRANIAL HEMORRHAGE OR CEREBRAL INFARCTION W/O CC/MCC,4082.5625,Standard
Level 4 Musculoskeletal Procedures,3980.29267782424,DRG
 PULMONARY EMBOLISM W/O MCC,4816.0833333,Standard
 RESPIRATORY INFECTIONS & INFLAMMATIONS W MCC,10013.521739,Standard
 SIMPLE PNEUMONIA & PLEURISY W MCC,7427.04,Standard
 CHRONIC OBSTRUCTIVE PULMONARY DISEASE W CC,5385.6,Standard
 CHRONIC OBSTRUCTIVE PULMONARY DISEASE W MCC,6483.5357143,Standard
 PULMONARY EDEMA & RESPIRATORY FAILURE,6712.943662000001,Standard
 PULMONARY EMBOLISM W MCC,8097.0909091,Standard
