Description,Charge,Category
Comprehensive Observation Services,1737.25871859297,DRG
Level 1 Intraocular Procedures,1381.16379518072,DRG
Level 1 Nerve Procedures,1140.64304687499,DRG
Level 2 Breast/Lymphatic Surgery and Related Procedures,3594.38,DRG
Level 2 Upper GI Procedures,1043.0510869565198,DRG
 SYNCOPE & COLLAPSE,5984.9166667,Standard
 G.I. HEMORRHAGE W MCC,10333.846154,Standard
 G.I. HEMORRHAGE W CC,6741.4090909,Standard
 G.I. OBSTRUCTION W CC,5545.9090909,Standard
" ""ESOPHAGITIS, GASTROENT & MISC DIGEST DISORDERS W/O MCC""",5268.88,Standard
 MAJOR HIP AND KNEE JOINT REPLACEMENT OR REATTACHMENT OF LOWER EXTREM,12975.4,Standard
 HIP & FEMUR PROCEDURES EXCEPT MAJOR JOINT W CC,12540.357143000001,Standard
 CELLULITIS W/O MCC,5883.9090909,Standard
 CARDIAC ARRHYTHMIA & CONDUCTION DISORDERS W/O CC/MCC,5225.2727273,Standard
 DIABETES W MCC,8217.2307692,Standard
 RENAL FAILURE W MCC,9119.92,Standard
 RENAL FAILURE W CC,6842.8064516,Standard
 KIDNEY & URINARY TRACT INFECTIONS W MCC,6810.9090909,Standard
 KIDNEY & URINARY TRACT INFECTIONS W/O MCC,5371.363636399999,Standard
 SEPTICEMIA OR SEVERE SEPSIS W MV >96 HOURS OR PERIPHERAL EXTRACORPOR,33749.25,Standard
 SEPTICEMIA OR SEVERE SEPSIS W/O MV >96 HOURS W MCC,11204.734806999999,Standard
 SEPTICEMIA OR SEVERE SEPSIS W/O MV >96 HOURS W/O MCC,7231.555555600001,Standard
Level 1 Laparoscopy and Related Services,3352.94999999999,DRG
 DIABETES W CC,5980.2857143,Standard
 CARDIAC ARRHYTHMIA & CONDUCTION DISORDERS W CC,5348.8125,Standard
" ""MISC DISORDERS OF NUTRITION,METABOLISM,FLUIDS/ELECTROLYTES W/O MCC""",5061.875,Standard
 HEART FAILURE & SHOCK W CC,6417.7105263,Standard
 CARDIAC ARRHYTHMIA & CONDUCTION DISORDERS W MCC,7837.0645161,Standard
Level 4 Airway Endoscopy,1845.9355555555499,DRG
Level 4 Musculoskeletal Procedures,3838.8808333333295,DRG
Level 3 Musculoskeletal Procedures,1907.79448275862,DRG
Level 2 Musculoskeletal Procedures,985.4622727272721,DRG
Level 2 Excision/ Biopsy/ Incision and Drainage,1004.9023437499901,DRG
 INTRACRANIAL HEMORRHAGE OR CEREBRAL INFARCTION W MCC,9930.714285700002,Standard
 INTRACRANIAL HEMORRHAGE OR CEREBRAL INFARCTION W CC OR TPA IN 24 HRS,6679.44,Standard
 INTRACRANIAL HEMORRHAGE OR CEREBRAL INFARCTION W/O CC/MCC,5634.6666667,Standard
Level 1 Breast/Lymphatic Surgery and Related Procedures,2037.64,DRG
 PULMONARY EDEMA & RESPIRATORY FAILURE,8345.0,Standard
 CHRONIC OBSTRUCTIVE PULMONARY DISEASE W MCC,7706.8846154,Standard
 CHRONIC OBSTRUCTIVE PULMONARY DISEASE W CC,6295.3529412,Standard
 SIMPLE PNEUMONIA & PLEURISY W MCC,9197.137931000001,Standard
 SIMPLE PNEUMONIA & PLEURISY W CC,6236.9230769,Standard
 RESPIRATORY SYSTEM DIAGNOSIS W VENTILATOR SUPPORT <=96 HOURS,12508.333333,Standard
" ""ACUTE MYOCARDIAL INFARCTION, DISCHARGED ALIVE W MCC""",9206.411764700002,Standard
 RESPIRATORY INFECTIONS & INFLAMMATIONS W MCC,11856.894737,Standard
 HEART FAILURE & SHOCK W MCC,9176.366412200001,Standard
