Description,Charge,Category
 RED BLOOD CELL DISORDERS W/O MCC,6487.266666699999,Standard
Level 2 Endovascular Procedures,3717.63,DRG
Level 3 Urology and Related Services,1239.7,DRG
 SEPTICEMIA OR SEVERE SEPSIS W/O MV >96 HOURS W/O MCC,7865.2409639,Standard
 SEPTICEMIA OR SEVERE SEPSIS W/O MV >96 HOURS W MCC,13439.055046000001,Standard
 INFECTIOUS & PARASITIC DISEASES W O.R. PROCEDURE W MCC,37801.433333,Standard
Comprehensive Observation Services,1717.45530405405,DRG
 RENAL FAILURE W CC,6887.131147499999,Standard
 KIDNEY & URINARY TRACT INFECTIONS W/O MCC,5888.0322581,Standard
 KIDNEY & URINARY TRACT INFECTIONS W MCC,8125.15625,Standard
Level 3 Endovascular Procedures,7194.520735294109,DRG
 RENAL FAILURE W MCC,10964.15,Standard
" ""MISC DISORDERS OF NUTRITION,METABOLISM,FLUIDS/ELECTROLYTES W/O MCC""",6406.277777800001,Standard
 DIABETES W CC,6372.6538462,Standard
 MAJOR HEMATOL/IMMUN DIAG EXC SICKLE CELL CRISIS & COAGUL W CC,8836.642857100001,Standard
Level 2 Upper GI Procedures,1043.56,DRG
Level 1 Laparoscopy and Related Services,3281.66,DRG
Level 4 Urology and Related Services,1873.001,DRG
Level 4 Neurostimulator and Related Procedures,24176.26,DRG
Level 4 Gynecologic Procedures,1661.61,DRG
 O.R. PROCEDURES FOR OBESITY W/O CC/MCC,11543.857143000001,Standard
Level 2 Laparoscopy and Related Services,5628.01,DRG
 MEDICAL BACK PROBLEMS W/O MCC,6613.0,Standard
 MAJOR JOINT/LIMB REATTACHMENT PROCEDURE OF UPPER EXTREMITIES,18534.947368,Standard
Level 5 Urology and Related Services,2675.59174999999,DRG
 HIP & FEMUR PROCEDURES EXCEPT MAJOR JOINT W/O CC/MCC,12272.375,Standard
Level 3 Lower GI Procedures,1539.0454545454502,DRG
 HIP & FEMUR PROCEDURES EXCEPT MAJOR JOINT W CC,15105.891891999998,Standard
 MAJOR HIP AND KNEE JOINT REPLACEMENT OR REATTACHMENT OF LOWER EXTREM,23477.0,Standard
 OTHER DIGESTIVE SYSTEM DIAGNOSES W CC,6936.0,Standard
" ""ESOPHAGITIS, GASTROENT & MISC DIGEST DISORDERS W/O MCC""",5627.2972973000005,Standard
" ESOPHAGITIS, GASTROENT & MISC DIGEST DISORDERS W MCC",9151.75,Standard
 G.I. OBSTRUCTION W/O CC/MCC,4446.4545455,Standard
 G.I. OBSTRUCTION W CC,6381.8235294,Standard
 G.I. HEMORRHAGE W CC,7143.8541667,Standard
Abdominal/Peritoneal/Biliary and Related Procedures,2006.70171428571,DRG
 MAJOR HIP AND KNEE JOINT REPLACEMENT OR REATTACHMENT OF LOWER EXTREM,15112.185022,Standard
" ""DISORDERS OF LIVER EXCEPT MALIG,CIRR,ALC HEPA W MCC""",13330.454545,Standard
 CELLULITIS W/O MCC,6370.59375,Standard
Level 3 Airway Endoscopy,967.75,DRG
 MAJOR SMALL & LARGE BOWEL PROCEDURES W MCC,35995.142857,Standard
 SYNCOPE & COLLAPSE,5939.0833333,Standard
 CARDIAC ARRHYTHMIA & CONDUCTION DISORDERS W/O CC/MCC,4194.090909099999,Standard
 CARDIAC ARRHYTHMIA & CONDUCTION DISORDERS W CC,5758.0757576000005,Standard
 CARDIAC ARRHYTHMIA & CONDUCTION DISORDERS W MCC,8807.6410256,Standard
 HEART FAILURE & SHOCK W/O CC/MCC,5127.0,Standard
 HEART FAILURE & SHOCK W CC,7148.25,Standard
 HEART FAILURE & SHOCK W MCC,10918.384615,Standard
" CIRCULATORY DISORDERS EXCEPT AMI, W CARD CATH W/O MCC",8760.4545455,Standard
" ""ACUTE MYOCARDIAL INFARCTION, DISCHARGED ALIVE W/O CC/MCC""",5588.222222199999,Standard
" ACUTE MYOCARDIAL INFARCTION, DISCHARGED ALIVE W CC",7219.266666699999,Standard
" ""ACUTE MYOCARDIAL INFARCTION, DISCHARGED ALIVE W MCC""",12570.742424,Standard
 PERC CARDIOVASC PROC W DRUG,15529.074074,Standard
 PERCUTANEOUS CARDIOVASCULAR PROCEDURES W DRUG,23658.846154,Standard
 SIMPLE PNEUMONIA & PLEURISY W CC,6926.9534884,Standard
 SIMPLE PNEUMONIA & PLEURISY W MCC,10433.089743999999,Standard
 CHRONIC OBSTRUCTIVE PULMONARY DISEASE W/O CC/MCC,5426.357142899999,Standard
 CHRONIC OBSTRUCTIVE PULMONARY DISEASE W CC,6839.259259299999,Standard
 CHRONIC OBSTRUCTIVE PULMONARY DISEASE W MCC,8524.0375,Standard
 PULMONARY EDEMA & RESPIRATORY FAILURE,9006.0,Standard
 RESPIRATORY INFECTIONS & INFLAMMATIONS W CC,9586.45,Standard
 RESPIRATORY INFECTIONS & INFLAMMATIONS W MCC,13630.361111000002,Standard
 PULMONARY EMBOLISM W/O MCC,6590.8947368,Standard
 TRANSIENT ISCHEMIA W/O THROMBOLYTIC,5588.2857143,Standard
 INTRACRANIAL HEMORRHAGE OR CEREBRAL INFARCTION W/O CC/MCC,5865.875,Standard
 INTRACRANIAL HEMORRHAGE OR CEREBRAL INFARCTION W CC OR TPA IN 24 HRS,7831.918367300001,Standard
 INTRACRANIAL HEMORRHAGE OR CEREBRAL INFARCTION W MCC,12992.08,Standard
Level 1 Endovascular Procedures,1759.09897727272,DRG
 MAJOR SMALL & LARGE BOWEL PROCEDURES W/O CC/MCC,12382.461538,Standard
 MAJOR SMALL & LARGE BOWEL PROCEDURES W CC,18593.37037,Standard
 G.I. HEMORRHAGE W MCC,12613.117647,Standard
Level 5 Musculoskeletal Procedures,7937.82,DRG
Level 4 Musculoskeletal Procedures,4097.51514285714,DRG
Level 3 Musculoskeletal Procedures,1933.91,DRG
Level 2 Musculoskeletal Procedures,986.9399999999989,DRG
Level 2 Breast/Lymphatic Surgery and Related Procedures,3400.6849999999895,DRG
Level 3 Excision/ Biopsy/ Incision and Drainage,1699.7,DRG
Level 2 Excision/ Biopsy/ Incision and Drainage,967.7462280701731,DRG
 MAJOR GASTROINTESTINAL DISORDERS & PERITONEAL INFECTIONS W CC,7867.0,Standard
