Description,Charge,Category
 KIDNEY & URINARY TRACT INFECTIONS W MCC,6936.0909091,Standard
 INTRACRANIAL HEMORRHAGE OR CEREBRAL INFARCTION W MCC,10774.266667,Standard
 INTRACRANIAL HEMORRHAGE OR CEREBRAL INFARCTION W CC OR TPA IN 24 HRS,6557.84,Standard
 TRANSIENT ISCHEMIA W/O THROMBOLYTIC,5173.5454545,Standard
 SEIZURES W/O MCC,5548.3076923,Standard
 PULMONARY EDEMA & RESPIRATORY FAILURE,7816.6,Standard
 SYNCOPE & COLLAPSE,5360.8125,Standard
 CARDIAC ARRHYTHMIA & CONDUCTION DISORDERS W/O CC/MCC,3895.1578947,Standard
 CARDIAC ARRHYTHMIA & CONDUCTION DISORDERS W CC,5051.4642857,Standard
 CARDIAC ARRHYTHMIA & CONDUCTION DISORDERS W MCC,7321.875,Standard
 HEART FAILURE & SHOCK W CC,6018.6666667,Standard
 HEART FAILURE & SHOCK W MCC,9162.0111111,Standard
 SIMPLE PNEUMONIA & PLEURISY W CC,6146.8965517,Standard
 SIMPLE PNEUMONIA & PLEURISY W MCC,8940.75,Standard
 CHRONIC OBSTRUCTIVE PULMONARY DISEASE W CC,5945.08,Standard
 CHRONIC OBSTRUCTIVE PULMONARY DISEASE W MCC,7497.6785714,Standard
 CHEST PAIN,4727.9375,Standard
" ""ACUTE MYOCARDIAL INFARCTION, DISCHARGED ALIVE W MCC""",8405.181818199999,Standard
 RENAL FAILURE W CC,5975.3428571,Standard
Level 3 Excision/ Biopsy/ Incision and Drainage,1655.04,DRG
Abdominal/Peritoneal/Biliary and Related Procedures,2072.41,DRG
Level 3 Lower GI Procedures,1511.0975,DRG
Level 2 Upper GI Procedures,990.0851282051281,DRG
Level 4 Endovascular Procedures,12942.69,DRG
Level 3 Endovascular Procedures,8039.64,DRG
 RED BLOOD CELL DISORDERS W/O MCC,5695.357142899999,Standard
Level 1 Endovascular Procedures,1733.43,DRG
Level 4 Airway Endoscopy,1862.70999999999,DRG
Level 3 Airway Endoscopy,942.33,DRG
Level 5 Musculoskeletal Procedures,4896.67545454545,DRG
 MAJOR SMALL & LARGE BOWEL PROCEDURES W CC,15147.0,Standard
 DIABETES W CC,5497.3333333,Standard
 MAJOR SMALL & LARGE BOWEL PROCEDURES W MCC,34244.421053,Standard
 INFECTIOUS & PARASITIC DISEASES W O.R. PROCEDURE W MCC,32138.85,Standard
 SEPTICEMIA OR SEVERE SEPSIS W/O MV >96 HOURS W MCC,11111.823129,Standard
 SEPTICEMIA OR SEVERE SEPSIS W/O MV >96 HOURS W/O MCC,6724.931034499999,Standard
Level 2 Excision/ Biopsy/ Incision and Drainage,958.9067164179111,DRG
Level 1 Laparoscopy and Related Services,3122.8163636363597,DRG
Level 2 Laparoscopy and Related Services,5445.65,DRG
Level 2 Endovascular Procedures,3619.94,DRG
Level 4 Urology and Related Services,1919.77999999999,DRG
Level 2 Musculoskeletal Procedures,915.247619047619,DRG
 OTHER CIRCULATORY SYSTEM DIAGNOSES W MCC,11758.454545,Standard
Level 3 Urology and Related Services,1207.13,DRG
Level 1 Breast/Lymphatic Surgery and Related Procedures,1941.91,DRG
 KIDNEY & URINARY TRACT INFECTIONS W/O MCC,5348.095238100001,Standard
 OTHER KIDNEY & URINARY TRACT DIAGNOSES W MCC,9482.727272700002,Standard
 RENAL FAILURE W MCC,9092.074074099999,Standard
" ""MISC DISORDERS OF NUTRITION,METABOLISM,FLUIDS/ELECTROLYTES W/O MCC""",4950.9,Standard
" MISC DISORDERS OF NUTRITION,METABOLISM,FLUIDS/ELECTROLYTES W MCC",7420.103448299999,Standard
 CELLULITIS W/O MCC,5643.4761905000005,Standard
Level 3 Musculoskeletal Procedures,1882.03538461538,DRG
Level 4 Musculoskeletal Procedures,3843.3059259259203,DRG
Level 5 Urology and Related Services,2638.2799999999897,DRG
Level 1 Nerve Procedures,1074.84375,DRG
Comprehensive Observation Services,1649.8511986301198,DRG
 G.I. HEMORRHAGE W MCC,10232.333333,Standard
 G.I. HEMORRHAGE W CC,6292.54,Standard
" ""ESOPHAGITIS, GASTROENT & MISC DIGEST DISORDERS W/O MCC""",5499.744186,Standard
