Description,Charge,Category
" ""ESOPHAGITIS, GASTROENT & MISC DIGEST DISORDERS W/O MCC""",5421.1333333,Standard
Level 5 Urology and Related Services,2768.32,DRG
 MAJOR HIP AND KNEE JOINT REPLACEMENT OR REATTACHMENT OF LOWER EXTREM,14439.4,Standard
" ""MISC DISORDERS OF NUTRITION,METABOLISM,FLUIDS/ELECTROLYTES W/O MCC""",5262.9166667,Standard
 RENAL FAILURE W CC,6372.0526316000005,Standard
Level 5 Musculoskeletal Procedures,8138.82,DRG
Level 1 Laparoscopy and Related Services,3254.3338235294104,DRG
 PULMONARY EDEMA & RESPIRATORY FAILURE,8133.85,Standard
 KIDNEY & URINARY TRACT INFECTIONS W/O MCC,5609.4166667,Standard
 SEPTICEMIA OR SEVERE SEPSIS W/O MV >96 HOURS W MCC,11342.882353,Standard
 DEPRESSIVE NEUROSES,5349.5,Standard
 PSYCHOSES,7889.784313699999,Standard
 KIDNEY & URINARY TRACT INFECTIONS W MCC,6925.0,Standard
 SIMPLE PNEUMONIA & PLEURISY W CC,6190.2857143,Standard
Level 2 Excision/ Biopsy/ Incision and Drainage,999.4221875,DRG
Comprehensive Observation Services,1724.7691176470598,DRG
Level 3 Airway Endoscopy,988.77,DRG
 CHRONIC OBSTRUCTIVE PULMONARY DISEASE W MCC,7516.2941175999995,Standard
Level 3 Musculoskeletal Procedures,1881.8380952380899,DRG
Level 1 Endovascular Procedures,1729.41737704917,DRG
 HEART FAILURE & SHOCK W MCC,9353.7,Standard
 SIMPLE PNEUMONIA & PLEURISY W MCC,8946.25,Standard
Level 2 Upper GI Procedures,1066.23,DRG
Level 4 Musculoskeletal Procedures,4148.21238532109,DRG
