Description,Charge,Category
 NON,20181.882353,Standard
" LIMB REATTACHMENT, HIP & FEMUR PROC FOR MULTIPLE SIGNIFICANT TRAUMA",33870.578947,Standard
 LYMPHOMA & NON,10573.142856999999,Standard
 LYMPHOMA & NON,20384.217391,Standard
 OTHER MULTIPLE SIGNIFICANT TRAUMA W MCC,17961.8,Standard
 OTHER MULTIPLE SIGNIFICANT TRAUMA W CC,9502.090909100001,Standard
 EXTENSIVE O.R. PROCEDURE UNRELATED TO PRINCIPAL DIAGNOSIS W MCC,25175.734694,Standard
" ""TRAUMA TO THE SKIN, SUBCUT TISS & BREAST W/O MCC""",6471.466666699999,Standard
 CELLULITIS W/O MCC,6000.6860465,Standard
" OTHER SKIN, SUBCUT TISS & BREAST PROC W CC",10634.136364,Standard
" ""OTHER SKIN, SUBCUT TISS & BREAST PROC W MCC""",18628.538462,Standard
" FX, SPRN, STRN & DISL EXCEPT FEMUR, HIP, PELVIS & THIGH W/O MCC",5639.9583333,Standard
 MALIGNANCY OF HEPATOBILIARY SYSTEM OR PANCREAS W MCC,10782.0,Standard
 MALIGNANCY OF HEPATOBILIARY SYSTEM OR PANCREAS W CC,7493.0666667,Standard
 DISORDERS OF PANCREAS EXCEPT MALIGNANCY W MCC,11471.878788,Standard
 EXTENSIVE O.R. PROCEDURE UNRELATED TO PRINCIPAL DIAGNOSIS W CC,15832.689655000002,Standard
 SIGNS & SYMPTOMS W/O MCC,5753.7368421,Standard
 CELLULITIS W MCC,10039.219512,Standard
 CIRRHOSIS & ALCOHOLIC HEPATITIS W MCC,12086.529412,Standard
 COMPLICATIONS OF TREATMENT W MCC,11635.0,Standard
 CHEMOTHERAPY W/O ACUTE LEUKEMIA AS SECONDARY DIAGNOSIS W CC,8294.7391304,Standard
 INFECTIOUS & PARASITIC DISEASES W O.R. PROCEDURE W MCC,32864.715909,Standard
 POSTOPERATIVE OR POST,27059.434782999997,Standard
 ENDOCRINE DISORDERS W CC,6582.8888889,Standard
 POSTOPERATIVE OR POST,13406.178570999999,Standard
 FEVER AND INFLAMMATORY CONDITIONS,5951.6666667,Standard
 SEPTICEMIA OR SEVERE SEPSIS W MV >96 HOURS OR PERIPHERAL EXTRACORPOR,37566.419355,Standard
 SEPTICEMIA OR SEVERE SEPSIS W/O MV >96 HOURS W MCC,11990.017572,Standard
 SEPTICEMIA OR SEVERE SEPSIS W/O MV >96 HOURS W/O MCC,7028.6835443,Standard
 ACUTE ADJUSTMENT REACTION & PSYCHOSOCIAL DYSFUNCTION,5542.0555556,Standard
 ORGANIC DISTURBANCES & INTELLECTUAL DISABILITY,7971.2777778,Standard
 ALCOHOL/DRUG ABUSE OR DEPENDENCE W/O REHABILITATION THERAPY W MCC,11844.761905,Standard
 ALCOHOL/DRUG ABUSE OR DEPENDENCE W/O REHABILITATION THERAPY W/O MCC,5334.857142899999,Standard
 OTHER O.R. PROCEDURES FOR INJURIES W MCC,24121.0,Standard
 OTHER O.R. PROCEDURES FOR INJURIES W CC,16078.6875,Standard
 POISONING & TOXIC EFFECTS OF DRUGS W MCC,9292.987013,Standard
 POISONING & TOXIC EFFECTS OF DRUGS W/O MCC,6344.4615385,Standard
 SIGNS & SYMPTOMS W MCC,7599.7692308,Standard
 COMPLICATIONS OF TREATMENT W CC,6482.777777800001,Standard
 BIOPSIES OF MUSCULOSKELETAL SYSTEM & CONNECTIVE TISSUE W MCC,20452.230768999998,Standard
 OTHER KIDNEY & URINARY TRACT PROCEDURES W MCC,22537.375,Standard
 REVISION OF HIP OR KNEE REPLACEMENT W CC,27553.36,Standard
 URINARY STONES W/O ESW LITHOTRIPSY W/O MCC,6816.75,Standard
 OTHER KIDNEY & URINARY TRACT DIAGNOSES W MCC,10468.127273,Standard
 OTHER KIDNEY & URINARY TRACT DIAGNOSES W CC,6962.444444399999,Standard
 OTHER MUSCULOSKELET SYS & CONN TISS O.R. PROC W CC,12833.175,Standard
 OTHER MUSCULOSKELET SYS & CONN TISS O.R. PROC W MCC,18134.5,Standard
 SOFT TISSUE PROCEDURES W CC,12006.263158,Standard
" ""LOWER EXTREM & HUMER PROC EXCEPT HIP,FOOT,FEMUR W/O CC/MCC""",12439.15,Standard
" LOWER EXTREM & HUMER PROC EXCEPT HIP,FOOT,FEMUR W CC",16658.65,Standard
" ""LOWER EXTREM & HUMER PROC EXCEPT HIP,FOOT,FEMUR W MCC""",23139.461538,Standard
 MAJOR JOINT/LIMB REATTACHMENT PROCEDURE OF UPPER EXTREMITIES,15609.677419,Standard
 HIP & FEMUR PROCEDURES EXCEPT MAJOR JOINT W/O CC/MCC,11141.552631999999,Standard
 HIP & FEMUR PROCEDURES EXCEPT MAJOR JOINT W CC,12673.075342,Standard
 HIP & FEMUR PROCEDURES EXCEPT MAJOR JOINT W MCC,18027.6875,Standard
" ""UTERINE,ADNEXA PROC FOR NON",8193.6153846,Standard
 UTERINE & ADNEXA PROC FOR NON,7839.733333300001,Standard
 CESAREAN SECTION W CC/MCC,9211.4545455,Standard
 MAJOR HEMATOL/IMMUN DIAG EXC SICKLE CELL CRISIS & COAGUL W MCC,13031.478261,Standard
 MAJOR HEMATOL/IMMUN DIAG EXC SICKLE CELL CRISIS & COAGUL W CC,7936.75,Standard
 RED BLOOD CELL DISORDERS W MCC,9191.2325581,Standard
 RED BLOOD CELL DISORDERS W/O MCC,6339.6818182,Standard
 MAJOR HIP AND KNEE JOINT REPLACEMENT OR REATTACHMENT OF LOWER EXTREM,19063.092105,Standard
 MAJOR HIP AND KNEE JOINT REPLACEMENT OR REATTACHMENT OF LOWER EXTREM,13376.470103,Standard
 CERVICAL SPINAL FUSION W CC,18186.25,Standard
 CERVICAL SPINAL FUSION W/O CC/MCC,15564.65,Standard
 REVISION OF HIP OR KNEE REPLACEMENT W MCC,29657.909091,Standard
" ""WND DEBRID & SKN GRFT EXC HAND, FOR MUSCULO",12404.545455,Standard
" WND DEBRID & SKN GRFT EXC HAND, FOR MUSCULO",19492.833333000002,Standard
" ""WND DEBRID & SKN GRFT EXC HAND, FOR MUSCULO",29687.642857,Standard
 OTHER KIDNEY & URINARY TRACT PROCEDURES W CC,15242.461538,Standard
 RENAL FAILURE W MCC,9445.3468208,Standard
 RENAL FAILURE W CC,6454.439189199999,Standard
 KIDNEY & URINARY TRACT NEOPLASMS W MCC,10635.181818000001,Standard
" ""TENDONITIS, MYOSITIS & BURSITIS W/O MCC""",5703.636363600001,Standard
 MEDICAL BACK PROBLEMS W/O MCC,6582.7413793000005,Standard
 MEDICAL BACK PROBLEMS W MCC,10891.666667,Standard
 PATHOLOGICAL FRACTURES & MUSCULOSKELET & CONN TISS MALIG W CC,7895.238095199999,Standard
 KIDNEY & URINARY TRACT INFECTIONS W MCC,7101.1891892,Standard
 KIDNEY & URINARY TRACT INFECTIONS W/O MCC,5424.7171717,Standard
 BIOPSIES OF MUSCULOSKELETAL SYSTEM & CONNECTIVE TISSUE W CC,17059.214286000002,Standard
 DISORDERS OF PANCREAS EXCEPT MALIGNANCY W CC,5837.6176471,Standard
" ""FX, SPRN, STRN & DISL EXCEPT FEMUR, HIP, PELVIS & THIGH W MCC""",8912.6363636,Standard
 DISORDERS OF PANCREAS EXCEPT MALIGNANCY W/O CC/MCC,4597.6315789,Standard
" DISORDERS OF LIVER EXCEPT MALIG,CIRR,ALC HEPA W CC",6285.097561,Standard
 DISORDERS OF THE BILIARY TRACT W MCC,10235.333333,Standard
 DISORDERS OF THE BILIARY TRACT W CC,6927.682926800001,Standard
 DISORDERS OF THE BILIARY TRACT W/O CC/MCC,5117.5714286,Standard
 SPINAL FUSION EXCEPT CERVICAL W MCC,35283.866667,Standard
 SPINAL FUSION EXCEPT CERVICAL W/O MCC,25315.357616,Standard
 PATHOLOGICAL FRACTURES & MUSCULOSKELET & CONN TISS MALIG W MCC,10795.538462,Standard
 FRACTURES OF HIP & PELVIS W/O MCC,5264.4090909,Standard
 FRACTURES OF HIP & PELVIS W MCC,8244.0,Standard
 BACK & NECK PROC EXC SPINAL FUSION W CC,14322.615385,Standard
 OTHER MUSCULOSKELET SYS & CONN TISS O.R. PROC W/O CC/MCC,9312.5,Standard
 BILATERAL OR MULTIPLE MAJOR JOINT PROCS OF LOWER EXTREMITY W/O MCC,20853.290322999997,Standard
" ""DISORDERS OF LIVER EXCEPT MALIG,CIRR,ALC HEPA W MCC""",13797.529412,Standard
 REVISION OF HIP OR KNEE REPLACEMENT W/O CC/MCC,18461.078431,Standard
 HYPERTENSION W MCC,7043.2307692,Standard
" ""MISC DISORDERS OF NUTRITION,METABOLISM,FLUIDS/ELECTROLYTES W/O MCC""",5228.76,Standard
 RESPIRATORY NEOPLASMS W CC,7714.7692308,Standard
 MAJOR CHEST TRAUMA W MCC,9514.52,Standard
 MAJOR CHEST TRAUMA W CC,6956.944444399999,Standard
 PLEURAL EFFUSION W MCC,10320.375,Standard
 PULMONARY EDEMA & RESPIRATORY FAILURE,8345.2120141,Standard
 CHRONIC OBSTRUCTIVE PULMONARY DISEASE W MCC,7643.259067399999,Standard
 RESPIRATORY NEOPLASMS W MCC,10923.05,Standard
 CHRONIC OBSTRUCTIVE PULMONARY DISEASE W CC,6225.0,Standard
 SIMPLE PNEUMONIA & PLEURISY W CC,6315.414414399999,Standard
 NON,10939.125,Standard
" ACUTE MYOCARDIAL INFARCTION, EXPIRED W MCC",10878.967742,Standard
" ""ACUTE MYOCARDIAL INFARCTION, DISCHARGED ALIVE W/O CC/MCC""",6036.0862068999995,Standard
" ACUTE MYOCARDIAL INFARCTION, DISCHARGED ALIVE W CC",6800.097744399999,Standard
 SIMPLE PNEUMONIA & PLEURISY W/O CC/MCC,4671.9375,Standard
 SIMPLE PNEUMONIA & PLEURISY W MCC,8827.2477612,Standard
 RESPIRATORY INFECTIONS & INFLAMMATIONS W CC,8354.7894737,Standard
 RESPIRATORY INFECTIONS & INFLAMMATIONS W MCC,11314.273223999999,Standard
 PULMONARY EMBOLISM W/O MCC,6495.3,Standard
 NONSPECIFIC CEREBROVASCULAR DISORDERS W CC,6391.4347826,Standard
 CRANIAL & PERIPHERAL NERVE DISORDERS W MCC,9867.5454545,Standard
 CRANIAL & PERIPHERAL NERVE DISORDERS W/O MCC,7257.4117647,Standard
" TRAUMATIC STUPOR & COMA, COMA >1 HR W CC",9184.1176471,Standard
" TRAUMATIC STUPOR & COMA, COMA <1 HR W MCC",12999.116279,Standard
" ""TRAUMATIC STUPOR & COMA, COMA <1 HR W CC""",7696.192307699999,Standard
 OTHER DISORDERS OF NERVOUS SYSTEM W MCC,9888.3846154,Standard
 OTHER DISORDERS OF NERVOUS SYSTEM W CC,6215.2162162,Standard
 SEIZURES W MCC,11121.810345,Standard
 SEIZURES W/O MCC,6051.717948699999,Standard
 MAJOR CHEST PROCEDURES W MCC,30673.304348,Standard
 MAJOR CHEST PROCEDURES W CC,15812.5,Standard
 OTHER RESP SYSTEM O.R. PROCEDURES W MCC,22027.432431999998,Standard
 OTHER RESP SYSTEM O.R. PROCEDURES W CC,11962.454545,Standard
 PULMONARY EMBOLISM W MCC,9293.275862100001,Standard
 INTERSTITIAL LUNG DISEASE W MCC,10240.785714,Standard
 PNEUMOTHORAX W MCC,12387.857143000001,Standard
 PNEUMOTHORAX W CC,7522.5714286,Standard
 BRONCHITIS & ASTHMA W CC/MCC,6552.766666699999,Standard
 PERC CARDIOVASC PROC W DRUG,14720.856061000002,Standard
 OTHER VASCULAR PROCEDURES W MCC,21890.777778,Standard
 OTHER VASCULAR PROCEDURES W CC,16471.436363999997,Standard
 OTHER VASCULAR PROCEDURES W/O CC/MCC,11464.947368000001,Standard
 OTHER CIRCULATORY SYSTEM O.R. PROCEDURES,20827.3,Standard
 ENDOVASCULAR CARDIAC VALVE REPLACEMENT W MCC,47969.6,Standard
 ENDOVASCULAR CARDIAC VALVE REPLACEMENT W/O MCC,36445.378377999994,Standard
 AORTIC AND HEART ASSIST PROCEDURES EXCEPT PULSATION BALLOON W MCC,41416.076923,Standard
 AORTIC AND HEART ASSIST PROCEDURES EXCEPT PULSATION BALLOON W/O MCC,26171.277778,Standard
 OTHER MAJOR CARDIOVASCULAR PROCEDURES W MCC,30090.259259,Standard
 OTHER MAJOR CARDIOVASCULAR PROCEDURES W CC,20948.59375,Standard
 OTHER MAJOR CARDIOVASCULAR PROCEDURES W/O CC/MCC,15260.454544999999,Standard
 PERCUTANEOUS INTRACARDIAC PROCEDURES W MCC,21741.375,Standard
 PERCUTANEOUS INTRACARDIAC PROCEDURES W/O MCC,18369.307692,Standard
" ""ACUTE MYOCARDIAL INFARCTION, DISCHARGED ALIVE W MCC""",11098.933798,Standard
 PERCUTANEOUS CARDIOVASCULAR PROCEDURES W DRUG,23253.04878,Standard
 NONSPECIFIC CEREBROVASCULAR DISORDERS W MCC,10874.833333,Standard
 PERMANENT CARDIAC PACEMAKER IMPLANT W/O CC/MCC,13383.37931,Standard
 PERMANENT CARDIAC PACEMAKER IMPLANT W MCC,22261.263158,Standard
 OTHER RESPIRATORY SYSTEM DIAGNOSES W MCC,9790.470588200002,Standard
 RESPIRATORY SYSTEM DIAGNOSIS W VENTILATOR SUPPORT >96 HOURS,38113.75,Standard
 RESPIRATORY SYSTEM DIAGNOSIS W VENTILATOR SUPPORT <=96 HOURS,15582.877358000002,Standard
 CARDIAC VALVE & OTH MAJ CARDIOTHORACIC PROC W CARD CATH W MCC,57533.453125,Standard
 CARDIAC VALVE & OTH MAJ CARDIOTHORACIC PROC W CARD CATH W CC,36873.7,Standard
 CARDIAC VALVE & OTH MAJ CARDIOTHORACIC PROC W/O CARD CATH W MCC,51983.970588,Standard
 CARDIAC VALVE & OTH MAJ CARDIOTHORACIC PROC W/O CARD CATH W CC,31181.5,Standard
 CARDIAC DEFIBRILLATOR IMPLANT W/O CARDIAC CATH W MCC,53341.714286,Standard
 OTHER CARDIOTHORACIC PROCEDURES W MCC,44747.5625,Standard
 CORONARY BYPASS W CARDIAC CATH W MCC,44517.0,Standard
 CORONARY BYPASS W CARDIAC CATH W/O MCC,33602.064516000006,Standard
 CORONARY BYPASS W/O CARDIAC CATH W MCC,33073.720588,Standard
 CORONARY BYPASS W/O CARDIAC CATH W/O MCC,26335.303030000003,Standard
 AMPUTATION FOR CIRC SYS DISORDERS EXC UPPER LIMB & TOE W MCC,26903.344827999998,Standard
 AMPUTATION FOR CIRC SYS DISORDERS EXC UPPER LIMB & TOE W CC,16308.777778,Standard
 PERMANENT CARDIAC PACEMAKER IMPLANT W CC,16178.512195,Standard
 TRANSIENT ISCHEMIA W/O THROMBOLYTIC,5231.3829787,Standard
 INTRACRANIAL HEMORRHAGE OR CEREBRAL INFARCTION W/O CC/MCC,5192.128205100001,Standard
 INTRACRANIAL HEMORRHAGE OR CEREBRAL INFARCTION W CC OR TPA IN 24 HRS,6788.892857100001,Standard
 G.I. HEMORRHAGE W CC,6669.4472049999995,Standard
 G.I. HEMORRHAGE W MCC,11398.423077,Standard
 DIGESTIVE MALIGNANCY W CC,8115.6470588,Standard
 DIGESTIVE MALIGNANCY W MCC,12642.75,Standard
 MAJOR GASTROINTESTINAL DISORDERS & PERITONEAL INFECTIONS W CC,7136.3529412,Standard
 MAJOR GASTROINTESTINAL DISORDERS & PERITONEAL INFECTIONS W MCC,11179.395349,Standard
 MAJOR ESOPHAGEAL DISORDERS W CC,7238.363636399999,Standard
 OTHER DIGESTIVE SYSTEM O.R. PROCEDURES W CC,12935.076923,Standard
 OTHER DIGESTIVE SYSTEM O.R. PROCEDURES W MCC,22134.75,Standard
 PERITONEAL ADHESIOLYSIS W/O CC/MCC,10259.181818000001,Standard
 PERITONEAL ADHESIOLYSIS W CC,14910.2,Standard
 PERITONEAL ADHESIOLYSIS W MCC,25275.75,Standard
 MAJOR SMALL & LARGE BOWEL PROCEDURES W/O CC/MCC,10691.032258,Standard
 MAJOR SMALL & LARGE BOWEL PROCEDURES W CC,16175.845361000002,Standard
 MAJOR SMALL & LARGE BOWEL PROCEDURES W MCC,29308.830508,Standard
 G.I. HEMORRHAGE W/O CC/MCC,4586.5,Standard
" STOMACH, ESOPHAGEAL & DUODENAL PROC W/O CC/MCC",10772.307692,Standard
 COMPLICATED PEPTIC ULCER W CC,7219.0666667,Standard
 G.I. OBSTRUCTION W MCC,10119.0,Standard
" MISC DISORDERS OF NUTRITION,METABOLISM,FLUIDS/ELECTROLYTES W MCC",8154.243478300001,Standard
 DIABETES W CC,6035.781818199999,Standard
 DIABETES W MCC,9697.915493,Standard
" ""OTHER ENDOCRINE, NUTRIT & METAB O.R. PROC W CC""",14450.571429,Standard
" ""SKIN GRAFTS & WOUND DEBRID FOR ENDOC, NUTRIT & METAB DIS W CC""",13247.15625,Standard
 O.R. PROCEDURES FOR OBESITY W/O CC/MCC,10041.0,Standard
 LAPAROSCOPIC CHOLECYSTECTOMY W/O C.D.E. W/O CC/MCC,9095.6785714,Standard
 LAPAROSCOPIC CHOLECYSTECTOMY W/O C.D.E. W CC,10633.83871,Standard
 LAPAROSCOPIC CHOLECYSTECTOMY W/O C.D.E. W MCC,15752.6,Standard
 OTHER DIGESTIVE SYSTEM DIAGNOSES W CC,6788.0491803,Standard
 OTHER DIGESTIVE SYSTEM DIAGNOSES W MCC,11020.508475,Standard
" ""ESOPHAGITIS, GASTROENT & MISC DIGEST DISORDERS W/O MCC""",5750.1781609,Standard
" ESOPHAGITIS, GASTROENT & MISC DIGEST DISORDERS W MCC",8408.4032258,Standard
 G.I. OBSTRUCTION W/O CC/MCC,4410.3030303000005,Standard
 G.I. OBSTRUCTION W CC,6293.6119403,Standard
 INFLAMMATORY BOWEL DISEASE W CC,6632.0,Standard
 ENDOCRINE DISORDERS W MCC,11030.642856999999,Standard
" ""STOMACH, ESOPHAGEAL & DUODENAL PROC W CC""",14788.772727000001,Standard
 OTHER CIRCULATORY SYSTEM DIAGNOSES W CC,7106.606060600001,Standard
 CRANIOTOMY & ENDOVASCULAR INTRACRANIAL PROCEDURES W MCC,27171.257143,Standard
 CRANIOTOMY & ENDOVASCULAR INTRACRANIAL PROCEDURES W CC,18519.086957,Standard
 CRANIOTOMY & ENDOVASCULAR INTRACRANIAL PROCEDURES W/O CC/MCC,14680.794872,Standard
 EXTRACRANIAL PROCEDURES W MCC,20341.818182,Standard
 EXTRACRANIAL PROCEDURES W CC,10990.709676999999,Standard
 EXTRACRANIAL PROCEDURES W/O CC/MCC,8035.322580600001,Standard
 PERIPH/CRANIAL NERVE & OTHER NERV SYST PROC W MCC,21560.055556,Standard
 PERIPH/CRANIAL NERVE & OTHER NERV SYST PROC W CC OR PERIPH NEUROSTIM,15408.1,Standard
 NERVOUS SYSTEM NEOPLASMS W MCC,9811.65625,Standard
 NERVOUS SYSTEM NEOPLASMS W/O MCC,6786.363636399999,Standard
 DEGENERATIVE NERVOUS SYSTEM DISORDERS W MCC,12162.521739,Standard
 DEGENERATIVE NERVOUS SYSTEM DISORDERS W/O MCC,7668.285714300001,Standard
" ISCHEMIC STROKE, PRECEREBRAL OCCLUSION OR TRANSIENT ISCHEMIA W THROM",17381.764706,Standard
" ""ISCHEMIC STROKE, PRECEREBRAL OCCLUSION OR TRANSIENT ISCHEMIA W THRO",14367.289474000001,Standard
 INTRACRANIAL HEMORRHAGE OR CEREBRAL INFARCTION W MCC,11330.5625,Standard
 CRANIO W MAJOR DEV IMPL/ACUTE COMPLEX CNS PDX W/O MCC,22946.266667,Standard
" STOMACH, ESOPHAGEAL & DUODENAL PROC W MCC",27424.461538,Standard
  CRANIOTOMY W MAJOR DEVICE IMPLANT OR ACUTE COMPLEX CNS PDX W MCC OR,33601.717391000006,Standard
" ""ECMO OR TRACH W MV >96 HRS OR PDX EXC FACE, MOUTH & NECK W MAJ O.R.",85859.869565,Standard
 OTHER CIRCULATORY SYSTEM DIAGNOSES W MCC,12241.689655,Standard
 CHEST PAIN,5296.3777778,Standard
 SYNCOPE & COLLAPSE,5413.3650794,Standard
 CARDIAC ARRHYTHMIA & CONDUCTION DISORDERS W/O CC/MCC,4404.508771899999,Standard
 CARDIAC ARRHYTHMIA & CONDUCTION DISORDERS W CC,5611.781457,Standard
 CARDIAC ARRHYTHMIA & CONDUCTION DISORDERS W MCC,8157.8053691,Standard
 HYPERTENSION W/O MCC,4881.44,Standard
 ATHEROSCLEROSIS W/O MCC,4657.8,Standard
 PERIPHERAL VASCULAR DISORDERS W CC,6765.3333333,Standard
 PERIPHERAL VASCULAR DISORDERS W MCC,8765.9,Standard
 HEART FAILURE & SHOCK W/O CC/MCC,4740.3,Standard
 HEART FAILURE & SHOCK W CC,6642.810810800001,Standard
 HEART FAILURE & SHOCK W MCC,9655.3373737,Standard
" CIRCULATORY DISORDERS EXCEPT AMI, W CARD CATH W/O MCC",8747.2694611,Standard
" ""CIRCULATORY DISORDERS EXCEPT AMI, W CARD CATH W MCC""",14462.117188,Standard
" TRACH W MV >96 HRS OR PDX EXC FACE, MOUTH & NECK W/O MAJ O.R.",62219.142857000006,Standard
" AMPUTAT OF LOWER LIMB FOR ENDOCRINE,NUTRIT,& METABOL DIS W MCC",22384.0,Standard
" ""AMPUTAT OF LOWER LIMB FOR ENDOCRINE,NUTRIT,& METABOL DIS W CC""",13532.078947,Standard
Level 2 Laparoscopy and Related Services,5476.78650887572,DRG
Level 3 Musculoskeletal Procedures,1912.07013333332,DRG
Level 2 Musculoskeletal Procedures,983.341714285716,DRG
Level 2 Breast/Lymphatic Surgery and Related Procedures,3463.79611764706,DRG
Level 1 Breast/Lymphatic Surgery and Related Procedures,1942.8463551401899,DRG
Level 3 Excision/ Biopsy/ Incision and Drainage,1669.1256999999898,DRG
Level 2 Excision/ Biopsy/ Incision and Drainage,971.1409452202071,DRG
Level 3 Urology and Related Services,1241.9206763285001,DRG
Level 4 Urology and Related Services,1955.7235323383,DRG
Level 5 Urology and Related Services,2663.4553846154,DRG
Level 6 Urology and Related Services,5312.67764705882,DRG
Level 4 Gynecologic Procedures,1647.31760869565,DRG
Level 6 Gynecologic Procedures,4471.44,DRG
Level 1 Nerve Procedures,1133.9152475247502,DRG
Level 3 Neurostimulator and Related Procedures,15512.0999999999,DRG
Level 1 Intraocular Procedures,1370.2161151832302,DRG
Level 2 Intraocular Procedures,2585.20401826483,DRG
"Level 3 Extraocular, Repair, and Plastic Eye Procedures",1266.97772727272,DRG
"Level 4 Extraocular, Repair, and Plastic Eye Procedures",2162.81166666666,DRG
Level 7 Radiation Therapy,5081.79428571428,DRG
Comprehensive Observation Services,1701.64398120956,DRG
Level 1 Laparoscopy and Related Services,3211.46197943445,DRG
Level 4 Musculoskeletal Procedures,4043.32164623466,DRG
Level 5 Musculoskeletal Procedures,7748.604086538499,DRG
Level 5 Gynecologic Procedures,2755.6125,DRG
Level 3 Airway Endoscopy,966.554047619048,DRG
Level 2 Pacemaker and Similar Procedures,5276.57344262295,DRG
Level 1 ICD and Similar Procedures,17702.0663636363,DRG
Level 2 ICD and Similar Procedures,26474.3006382979,DRG
Level 2 Upper GI Procedures,1035.51894160584,DRG
Level 3 Upper GI Procedures,2010.30999999999,DRG
Level 3 Lower GI Procedures,1636.61294117647,DRG
Abdominal/Peritoneal/Biliary and Related Procedures,2096.16944134078,DRG
Complex GI Procedures,3146.24,DRG
Level 6 Musculoskeletal Procedures,12766.13,DRG
Level 3 Pacemaker and Similar Procedures,7598.642280701741,DRG
Level 3 Electrophysiologic Procedures,15366.4824999999,DRG
Level 4 Pacemaker and Similar Procedures,14794.57,DRG
Level 4 Airway Endoscopy,1917.35,DRG
Level 5 Airway Endoscopy,3518.6433333333293,DRG
Level 4 ENT Procedures,1611.4,DRG
Implantation Wireless PA Pressure Monitor,28571.334166666602,DRG
Level 5 ENT Procedures,3118.20865384615,DRG
Cochlear Implant Procedure,28547.2999999999,DRG
Level 1 Endovascular Procedures,1753.53753968255,DRG
Level 4 Endovascular Procedures,13022.66525,DRG
Level 2 Endovascular Procedures,3660.27825708058,DRG
Level 3 Endovascular Procedures,8162.8052905199,DRG
