Description,Charge,Category
 SIMPLE PNEUMONIA & PLEURISY W CC,5480.5714286,Standard
Comprehensive Observation Services,1470.59459016393,DRG
 HEART FAILURE & SHOCK W MCC,8292.8064516,Standard
 SEPTICEMIA OR SEVERE SEPSIS W/O MV >96 HOURS W MCC,10284.548387,Standard
 KIDNEY & URINARY TRACT INFECTIONS W/O MCC,4900.3333333,Standard
 SEPTICEMIA OR SEVERE SEPSIS W/O MV >96 HOURS W/O MCC,5791.363636399999,Standard
 CELLULITIS W/O MCC,5287.25,Standard
" ""ESOPHAGITIS, GASTROENT & MISC DIGEST DISORDERS W/O MCC""",4728.2727273,Standard
 CHRONIC OBSTRUCTIVE PULMONARY DISEASE W MCC,7245.8823529,Standard
 CHRONIC OBSTRUCTIVE PULMONARY DISEASE W CC,5535.8461538,Standard
 SIMPLE PNEUMONIA & PLEURISY W MCC,8076.0666667,Standard
 RENAL FAILURE W MCC,8572.2727273,Standard
