Description,Charge,Category
 SIMPLE PNEUMONIA & PLEURISY W CC,7342.2352941,Standard
 SIMPLE PNEUMONIA & PLEURISY W/O CC/MCC,5780.3333333,Standard
Comprehensive Observation Services,1598.53749999999,DRG
