Description,Charge,Category
 HEART FAILURE & SHOCK W CC,6440.7272727,Standard
" ""MISC DISORDERS OF NUTRITION,METABOLISM,FLUIDS/ELECTROLYTES W/O MCC""",5065.6666667,Standard
 KIDNEY & URINARY TRACT INFECTIONS W/O MCC,5454.4285714,Standard
 SEPTICEMIA OR SEVERE SEPSIS W/O MV >96 HOURS W MCC,11933.958333,Standard
 SEPTICEMIA OR SEVERE SEPSIS W/O MV >96 HOURS W/O MCC,6840.2,Standard
" ""ESOPHAGITIS, GASTROENT & MISC DIGEST DISORDERS W/O MCC""",5230.8181818,Standard
 PULMONARY EDEMA & RESPIRATORY FAILURE,7911.75,Standard
 CHRONIC OBSTRUCTIVE PULMONARY DISEASE W MCC,7346.2307692,Standard
 CHRONIC OBSTRUCTIVE PULMONARY DISEASE W CC,6068.1578947,Standard
Comprehensive Observation Services,1596.71396103895,DRG
Level 1 Intraocular Procedures,1295.98924050632,DRG
Abdominal/Peritoneal/Biliary and Related Procedures,1991.07,DRG
Level 2 Excision/ Biopsy/ Incision and Drainage,921.97,DRG
 SIMPLE PNEUMONIA & PLEURISY W MCC,8735.692307700001,Standard
 SIMPLE PNEUMONIA & PLEURISY W CC,6260.5,Standard
