Description,Charge,Category
Level 3 Musculoskeletal Procedures,2019.20999999999,DRG
Level 2 Musculoskeletal Procedures,1030.47,DRG
Level 3 Excision/ Biopsy/ Incision and Drainage,1765.08533333333,DRG
Level 2 Upper GI Procedures,1089.17368421052,DRG
Level 4 Musculoskeletal Procedures,3922.9574999999895,DRG
 PULMONARY EDEMA & RESPIRATORY FAILURE,7331.151515199999,Standard
Level 1 Intraocular Procedures,1465.3291358024699,DRG
 SEPTICEMIA OR SEVERE SEPSIS W/O MV >96 HOURS W/O MCC,6340.0625,Standard
 RENAL FAILURE W CC,5718.2307692,Standard
Comprehensive Observation Services,1706.91155339806,DRG
" ""MISC DISORDERS OF NUTRITION,METABOLISM,FLUIDS/ELECTROLYTES W/O MCC""",4639.5,Standard
 DIABETES W CC,5281.466666699999,Standard
 CELLULITIS W/O MCC,5820.8461538,Standard
Level 5 Urology and Related Services,2774.55692307692,DRG
Level 4 Urology and Related Services,1969.0286956521697,DRG
Level 3 Urology and Related Services,1294.3699999999901,DRG
 MEDICAL BACK PROBLEMS W/O MCC,5406.5454545,Standard
 MAJOR HIP AND KNEE JOINT REPLACEMENT OR REATTACHMENT OF LOWER EXTREM,11854.0,Standard
 SEPTICEMIA OR SEVERE SEPSIS W/O MV >96 HOURS W MCC,10178.202532,Standard
Abdominal/Peritoneal/Biliary and Related Procedures,1880.3146153846103,DRG
 CHRONIC OBSTRUCTIVE PULMONARY DISEASE W MCC,6974.478260899999,Standard
 SYNCOPE & COLLAPSE,4955.5,Standard
Level 2 Excision/ Biopsy/ Incision and Drainage,939.9768965517239,DRG
 HEART FAILURE & SHOCK W CC,5757.1176471,Standard
 HEART FAILURE & SHOCK W MCC,8379.8,Standard
 BRONCHITIS & ASTHMA W CC/MCC,5823.4615385,Standard
 SIMPLE PNEUMONIA & PLEURISY W CC,5674.8695652,Standard
 SIMPLE PNEUMONIA & PLEURISY W MCC,7899.103448299999,Standard
 CHRONIC OBSTRUCTIVE PULMONARY DISEASE W CC,5604.4186047,Standard
 CHRONIC OBSTRUCTIVE PULMONARY DISEASE W/O CC/MCC,4597.939393899999,Standard
Level 1 Laparoscopy and Related Services,3342.8097560975602,DRG
" ""ESOPHAGITIS, GASTROENT & MISC DIGEST DISORDERS W/O MCC""",4841.0930233,Standard
 KIDNEY & URINARY TRACT INFECTIONS W/O MCC,4988.6666667,Standard
