Description,Charge,Category
Level 2 Upper GI Procedures,973.8559541984711,DRG
" ""ACUTE MYOCARDIAL INFARCTION, DISCHARGED ALIVE W MCC""",9109.3333333,Standard
Level 3 Pacemaker and Similar Procedures,7020.67,DRG
Level 2 ICD and Similar Procedures,23222.1507692307,DRG
 DISORDERS OF PANCREAS EXCEPT MALIGNANCY W CC,5050.0714286,Standard
 MAJOR JOINT/LIMB REATTACHMENT PROCEDURE OF UPPER EXTREMITIES,12648.727273,Standard
" ""ACUTE MYOCARDIAL INFARCTION, DISCHARGED ALIVE W/O CC/MCC""",4467.8181818,Standard
Level 4 Gynecologic Procedures,1554.45,DRG
 SPINAL FUSION EXCEPT CERVICAL W/O MCC,20027.307692,Standard
Comprehensive Observation Services,1546.07395348838,DRG
Level 1 Intraocular Procedures,1312.5936363636301,DRG
Level 1 Nerve Procedures,1098.95583333333,DRG
 MAJOR HIP AND KNEE JOINT REPLACEMENT OR REATTACHMENT OF LOWER EXTREM,10474.734693999999,Standard
 CERVICAL SPINAL FUSION W/O CC/MCC,12319.222222,Standard
 OTHER DIGESTIVE SYSTEM DIAGNOSES W CC,5402.8823529,Standard
 FRACTURES OF HIP & PELVIS W/O MCC,4479.7857143,Standard
 HIP & FEMUR PROCEDURES EXCEPT MAJOR JOINT W MCC,15700.545455000001,Standard
 HIP & FEMUR PROCEDURES EXCEPT MAJOR JOINT W CC,10824.8125,Standard
" LOWER EXTREM & HUMER PROC EXCEPT HIP,FOOT,FEMUR W CC",11503.857143000001,Standard
 OTHER DIGESTIVE SYSTEM DIAGNOSES W MCC,9005.714285700002,Standard
Level 3 Musculoskeletal Procedures,1809.2,DRG
Level 7 Urology and Related Services,12107.3699999999,DRG
 MAJOR SMALL & LARGE BOWEL PROCEDURES W MCC,26821.736842,Standard
 OTHER CIRCULATORY SYSTEM DIAGNOSES W MCC,10615.904762,Standard
" ""CIRCULATORY DISORDERS EXCEPT AMI, W CARD CATH W MCC""",11990.69697,Standard
Level 5 Musculoskeletal Procedures,6977.723717948721,DRG
 SYNCOPE & COLLAPSE,4837.5294118,Standard
 CARDIAC ARRHYTHMIA & CONDUCTION DISORDERS W/O CC/MCC,3720.8918919,Standard
 PERIPHERAL VASCULAR DISORDERS W MCC,7840.1538462,Standard
 MAJOR SMALL & LARGE BOWEL PROCEDURES W CC,13247.142856999999,Standard
 PERIPHERAL VASCULAR DISORDERS W CC,5785.636363600001,Standard
 CARDIAC ARRHYTHMIA & CONDUCTION DISORDERS W MCC,7853.051282100001,Standard
 HYPERTENSION W/O MCC,4113.3125,Standard
" CIRCULATORY DISORDERS EXCEPT AMI, W CARD CATH W/O MCC",7112.5652174,Standard
Level 2 Excision/ Biopsy/ Incision and Drainage,903.5556557377049,DRG
Level 3 Excision/ Biopsy/ Incision and Drainage,1533.96,DRG
Level 1 Breast/Lymphatic Surgery and Related Procedures,1652.46857142857,DRG
Level 2 Musculoskeletal Procedures,923.29,DRG
 CARDIAC ARRHYTHMIA & CONDUCTION DISORDERS W CC,4934.5238094999995,Standard
" ""ESOPHAGITIS, GASTROENT & MISC DIGEST DISORDERS W/O MCC""",4983.5154639,Standard
 CHEST PAIN,4849.59375,Standard
Level 1 Endovascular Procedures,1597.77048780488,DRG
Level 6 Urology and Related Services,5065.54424999999,DRG
Level 5 Urology and Related Services,2416.53478571428,DRG
" ESOPHAGITIS, GASTROENT & MISC DIGEST DISORDERS W MCC",7306.2083333,Standard
 G.I. OBSTRUCTION W/O CC/MCC,3786.8947368,Standard
 G.I. OBSTRUCTION W CC,4960.7142857,Standard
 G.I. HEMORRHAGE W/O CC/MCC,3972.2307692,Standard
 HEART FAILURE & SHOCK W MCC,8234.4836601,Standard
Level 5 ENT Procedures,2967.5,DRG
 G.I. HEMORRHAGE W CC,5664.6849315,Standard
 MAJOR GASTROINTESTINAL DISORDERS & PERITONEAL INFECTIONS W CC,6585.4545455,Standard
 MAJOR GASTROINTESTINAL DISORDERS & PERITONEAL INFECTIONS W MCC,9263.375,Standard
Level 4 Musculoskeletal Procedures,3659.27208695651,DRG
 MAJOR SMALL & LARGE BOWEL PROCEDURES W/O CC/MCC,10791.615385,Standard
Level 3 Electrophysiologic Procedures,14516.84,DRG
Level 3 Endovascular Procedures,6766.13773809523,DRG
Level 2 Endovascular Procedures,3477.8316883116804,DRG
 G.I. HEMORRHAGE W MCC,10940.5,Standard
Level 4 Urology and Related Services,1821.37462499999,DRG
 SEIZURES W MCC,8742.470588200002,Standard
 OTHER VASCULAR PROCEDURES W MCC,17290.378378,Standard
 CORONARY BYPASS W CARDIAC CATH W/O MCC,26213.333333000002,Standard
 CORONARY BYPASS W CARDIAC CATH W MCC,36664.285714,Standard
 CARDIAC VALVE & OTH MAJ CARDIOTHORACIC PROC W/O CARD CATH W CC,29756.181818,Standard
 RESPIRATORY SYSTEM DIAGNOSIS W VENTILATOR SUPPORT <=96 HOURS,12333.095238,Standard
 RESPIRATORY SYSTEM DIAGNOSIS W VENTILATOR SUPPORT >96 HOURS,28908.388888999998,Standard
Abdominal/Peritoneal/Biliary and Related Procedures,1963.72469387755,DRG
 SIMPLE PNEUMONIA & PLEURISY W MCC,7997.2179487,Standard
 SIMPLE PNEUMONIA & PLEURISY W CC,5877.690909100001,Standard
 SIMPLE PNEUMONIA & PLEURISY W/O CC/MCC,4217.9375,Standard
 BRONCHITIS & ASTHMA W CC/MCC,6702.1875,Standard
 CHRONIC OBSTRUCTIVE PULMONARY DISEASE W/O CC/MCC,4306.2105263,Standard
 CHRONIC OBSTRUCTIVE PULMONARY DISEASE W CC,5279.1111111,Standard
 OTHER VASCULAR PROCEDURES W CC,13577.416667,Standard
 PULMONARY EDEMA & RESPIRATORY FAILURE,7433.1333333,Standard
 RESPIRATORY INFECTIONS & INFLAMMATIONS W MCC,10406.823529000001,Standard
 SEIZURES W/O MCC,4818.0,Standard
 HEART FAILURE & SHOCK W/O CC/MCC,4025.5151515000002,Standard
 TRANSIENT ISCHEMIA W/O THROMBOLYTIC,4557.75,Standard
 INTRACRANIAL HEMORRHAGE OR CEREBRAL INFARCTION W/O CC/MCC,4521.0357143,Standard
 INTRACRANIAL HEMORRHAGE OR CEREBRAL INFARCTION W CC OR TPA IN 24 HRS,5820.0769231,Standard
 INTRACRANIAL HEMORRHAGE OR CEREBRAL INFARCTION W MCC,9500.9310345,Standard
 DEGENERATIVE NERVOUS SYSTEM DISORDERS W/O MCC,6392.75,Standard
" TRACH W MV >96 HRS OR PDX EXC FACE, MOUTH & NECK W/O MAJ O.R.",51234.090909,Standard
" ""ECMO OR TRACH W MV >96 HRS OR PDX EXC FACE, MOUTH & NECK W MAJ O.R.",96788.93333300001,Standard
Level 3 Urology and Related Services,1084.97383870967,DRG
Level 2 Laparoscopy and Related Services,4839.82896551724,DRG
Level 1 Laparoscopy and Related Services,2858.7272826086896,DRG
 CORONARY BYPASS W/O CARDIAC CATH W/O MCC,19756.806452,Standard
 EXTENSIVE O.R. PROCEDURE UNRELATED TO PRINCIPAL DIAGNOSIS W MCC,24502.842105,Standard
 CHRONIC OBSTRUCTIVE PULMONARY DISEASE W MCC,7342.75,Standard
 SEPTICEMIA OR SEVERE SEPSIS W/O MV >96 HOURS W/O MCC,6728.553191500001,Standard
 PERC CARDIOVASC PROC W DRUG,11594.305556,Standard
 PERCUTANEOUS CARDIOVASCULAR PROCEDURES W DRUG,17821.086957,Standard
 SIGNS & SYMPTOMS W/O MCC,4536.0909091,Standard
 MEDICAL BACK PROBLEMS W/O MCC,5245.913043500001,Standard
" FX, SPRN, STRN & DISL EXCEPT FEMUR, HIP, PELVIS & THIGH W/O MCC",5696.75,Standard
 CELLULITIS W/O MCC,5735.0,Standard
" ""AMPUTAT OF LOWER LIMB FOR ENDOCRINE,NUTRIT,& METABOL DIS W CC""",11424.454545,Standard
 DIABETES W MCC,8024.636363600001,Standard
 DIABETES W CC,6494.0,Standard
" MISC DISORDERS OF NUTRITION,METABOLISM,FLUIDS/ELECTROLYTES W MCC",8816.827586200001,Standard
" ""MISC DISORDERS OF NUTRITION,METABOLISM,FLUIDS/ELECTROLYTES W/O MCC""",4417.125,Standard
 RENAL FAILURE W MCC,8212.2786885,Standard
 RENAL FAILURE W CC,5367.209677399999,Standard
 RENAL FAILURE W/O CC/MCC,3788.1428571,Standard
 HEART FAILURE & SHOCK W CC,5965.90625,Standard
 INFECTIOUS & PARASITIC DISEASES W O.R. PROCEDURE W MCC,30857.836735,Standard
 SEPTICEMIA OR SEVERE SEPSIS W/O MV >96 HOURS W MCC,10957.023529,Standard
 KIDNEY & URINARY TRACT INFECTIONS W MCC,6071.9607843,Standard
 KIDNEY & URINARY TRACT INFECTIONS W/O MCC,4872.2948718,Standard
 URINARY STONES W/O ESW LITHOTRIPSY W/O MCC,4987.642857100001,Standard
 SEPTICEMIA OR SEVERE SEPSIS W MV >96 HOURS OR PERIPHERAL EXTRACORPOR,33593.3,Standard
 RED BLOOD CELL DISORDERS W/O MCC,5508.05,Standard
 OTHER KIDNEY & URINARY TRACT DIAGNOSES W MCC,8595.0434783,Standard
 OTHER KIDNEY & URINARY TRACT DIAGNOSES W CC,5942.4230769,Standard
