Description,Charge,Category
 HEART FAILURE & SHOCK W MCC,7776.714285699999,Standard
Level 2 Excision/ Biopsy/ Incision and Drainage,854.415555555555,DRG
 SIMPLE PNEUMONIA & PLEURISY W/O CC/MCC,4392.0,Standard
 SIMPLE PNEUMONIA & PLEURISY W CC,5305.491228100001,Standard
 SIMPLE PNEUMONIA & PLEURISY W MCC,7604.7272727,Standard
 CHRONIC OBSTRUCTIVE PULMONARY DISEASE W/O CC/MCC,4200.5,Standard
 CHRONIC OBSTRUCTIVE PULMONARY DISEASE W CC,5236.235294100001,Standard
 CHRONIC OBSTRUCTIVE PULMONARY DISEASE W MCC,6449.1395349,Standard
 SIGNS & SYMPTOMS W/O MCC,4474.636363600001,Standard
 KIDNEY & URINARY TRACT INFECTIONS W/O MCC,4646.8888889,Standard
 SEPTICEMIA OR SEVERE SEPSIS W/O MV >96 HOURS W MCC,9809.8823529,Standard
Level 5 Urology and Related Services,2169.5691666666603,DRG
Level 1 Laparoscopy and Related Services,2729.51130434782,DRG
Level 2 Upper GI Procedures,907.43,DRG
Level 3 Musculoskeletal Procedures,1617.6080952380898,DRG
Level 1 Breast/Lymphatic Surgery and Related Procedures,1734.1699999999898,DRG
 RED BLOOD CELL DISORDERS W/O MCC,5098.25,Standard
Comprehensive Observation Services,1477.05528089887,DRG
Level 1 Intraocular Procedures,1218.48705882353,DRG
 CELLULITIS W/O MCC,5132.1875,Standard
 HEART FAILURE & SHOCK W CC,5395.0,Standard
" ""MISC DISORDERS OF NUTRITION,METABOLISM,FLUIDS/ELECTROLYTES W/O MCC""",4377.235294100001,Standard
 CARDIAC ARRHYTHMIA & CONDUCTION DISORDERS W/O CC/MCC,3338.6363636,Standard
 SYNCOPE & COLLAPSE,4610.7142857,Standard
" ""ESOPHAGITIS, GASTROENT & MISC DIGEST DISORDERS W/O MCC""",4588.64,Standard
 SEPTICEMIA OR SEVERE SEPSIS W/O MV >96 HOURS W/O MCC,6074.3333333,Standard
 MAJOR HIP AND KNEE JOINT REPLACEMENT OR REATTACHMENT OF LOWER EXTREM,11309.571429000001,Standard
