Description,Charge,Category
 OTHER CIRCULATORY SYSTEM DIAGNOSES W CC,5258.5454545,Standard
 OTHER DIGESTIVE SYSTEM DIAGNOSES W CC,5505.1333333,Standard
 LAPAROSCOPIC CHOLECYSTECTOMY W/O C.D.E. W CC,8995.714285700002,Standard
" DISORDERS OF LIVER EXCEPT MALIG,CIRR,ALC HEPA W CC",5307.363636399999,Standard
 MAJOR HIP AND KNEE JOINT REPLACEMENT OR REATTACHMENT OF LOWER EXTREM,15590.75,Standard
 MAJOR HIP AND KNEE JOINT REPLACEMENT OR REATTACHMENT OF LOWER EXTREM,10363.125,Standard
 HIP & FEMUR PROCEDURES EXCEPT MAJOR JOINT W MCC,15021.823529,Standard
 HIP & FEMUR PROCEDURES EXCEPT MAJOR JOINT W CC,10415.825397,Standard
" LOWER EXTREM & HUMER PROC EXCEPT HIP,FOOT,FEMUR W CC",11658.454545,Standard
Abdominal/Peritoneal/Biliary and Related Procedures,1813.09039999999,DRG
 CHRONIC OBSTRUCTIVE PULMONARY DISEASE W/O CC/MCC,4314.3823529,Standard
Complex GI Procedures,2481.42727272727,DRG
" CIRCULATORY DISORDERS EXCEPT AMI, W CARD CATH W/O MCC",6324.4259259,Standard
 HEART FAILURE & SHOCK W MCC,7495.4883721,Standard
 HEART FAILURE & SHOCK W CC,5582.0625,Standard
 HEART FAILURE & SHOCK W/O CC/MCC,3885.4210526,Standard
 POISONING & TOXIC EFFECTS OF DRUGS W/O MCC,4002.4166666999995,Standard
 POISONING & TOXIC EFFECTS OF DRUGS W MCC,7076.8333333,Standard
 SEPTICEMIA OR SEVERE SEPSIS W/O MV >96 HOURS W/O MCC,5971.2702703,Standard
 MAJOR SMALL & LARGE BOWEL PROCEDURES W MCC,24751.5,Standard
 SEPTICEMIA OR SEVERE SEPSIS W MV >96 HOURS OR PERIPHERAL EXTRACORPOR,31885.363636000002,Standard
 INFECTIOUS & PARASITIC DISEASES W O.R. PROCEDURE W MCC,24339.580645,Standard
 RED BLOOD CELL DISORDERS W/O MCC,4991.1785714,Standard
 RED BLOOD CELL DISORDERS W MCC,7005.3125,Standard
 KIDNEY & URINARY TRACT INFECTIONS W/O MCC,4553.4659091,Standard
 KIDNEY & URINARY TRACT INFECTIONS W MCC,6082.5428571,Standard
 RENAL FAILURE W CC,5102.5172414,Standard
 RENAL FAILURE W MCC,7543.4285714,Standard
 TRANSURETHRAL PROCEDURES W CC,7188.466666699999,Standard
 OTHER DIGESTIVE SYSTEM DIAGNOSES W MCC,8595.6666667,Standard
" ""ESOPHAGITIS, GASTROENT & MISC DIGEST DISORDERS W/O MCC""",4539.9361702,Standard
" ESOPHAGITIS, GASTROENT & MISC DIGEST DISORDERS W MCC",6795.9090909,Standard
 G.I. OBSTRUCTION W CC,5532.55,Standard
Level 3 Urology and Related Services,1058.74017857143,DRG
 OTHER VASCULAR PROCEDURES W MCC,17244.0,Standard
 OTHER VASCULAR PROCEDURES W CC,12632.214286,Standard
 OTHER MAJOR CARDIOVASCULAR PROCEDURES W MCC,24357.0,Standard
 PERC CARDIOVASC PROC W DRUG,10904.688172,Standard
 PERCUTANEOUS CARDIOVASCULAR PROCEDURES W DRUG,16439.864407,Standard
 PERMANENT CARDIAC PACEMAKER IMPLANT W CC,13431.928571,Standard
 PERMANENT CARDIAC PACEMAKER IMPLANT W MCC,23582.454545,Standard
 RESPIRATORY SYSTEM DIAGNOSIS W VENTILATOR SUPPORT <=96 HOURS,12184.857143000001,Standard
 RESPIRATORY SYSTEM DIAGNOSIS W VENTILATOR SUPPORT >96 HOURS,27124.466667,Standard
 BRONCHITIS & ASTHMA W CC/MCC,4956.5882353,Standard
 SIMPLE PNEUMONIA & PLEURISY W/O CC/MCC,3992.1875,Standard
 SIMPLE PNEUMONIA & PLEURISY W CC,5327.125,Standard
 SIMPLE PNEUMONIA & PLEURISY W MCC,7385.2631579,Standard
Level 4 Urology and Related Services,1714.4,DRG
Level 5 Urology and Related Services,2220.09427184466,DRG
Level 4 Gynecologic Procedures,1392.0344736842098,DRG
Level 5 Gynecologic Procedures,2550.05999999999,DRG
Level 4 Neurostimulator and Related Procedures,19833.9051219512,DRG
Level 1 Intraocular Procedures,1156.93621212121,DRG
Level 2 Intraocular Procedures,2139.23518518518,DRG
 EXTENSIVE O.R. PROCEDURE UNRELATED TO PRINCIPAL DIAGNOSIS W MCC,36309.454545,Standard
Comprehensive Observation Services,1427.12849315069,DRG
 SIGNS & SYMPTOMS W/O MCC,4365.1111111,Standard
 MAJOR SMALL & LARGE BOWEL PROCEDURES W/O CC/MCC,9044.944444399998,Standard
 MAJOR GASTROINTESTINAL DISORDERS & PERITONEAL INFECTIONS W CC,5682.7272727,Standard
 G.I. HEMORRHAGE W MCC,8999.1463415,Standard
 G.I. HEMORRHAGE W CC,5219.0357143,Standard
 G.I. HEMORRHAGE W/O CC/MCC,3598.4545454999998,Standard
" ""MISC DISORDERS OF NUTRITION,METABOLISM,FLUIDS/ELECTROLYTES W/O MCC""",4169.1875,Standard
 CHRONIC OBSTRUCTIVE PULMONARY DISEASE W CC,5119.140350899999,Standard
 SEPTICEMIA OR SEVERE SEPSIS W/O MV >96 HOURS W MCC,9614.038167899998,Standard
Level 3 Pacemaker and Similar Procedures,6429.675625,DRG
 MAJOR SMALL & LARGE BOWEL PROCEDURES W CC,13166.222222,Standard
 INTRACRANIAL HEMORRHAGE OR CEREBRAL INFARCTION W MCC,9100.727272700002,Standard
 DEGENERATIVE NERVOUS SYSTEM DISORDERS W/O MCC,6278.6153846,Standard
 EXTRACRANIAL PROCEDURES W/O CC/MCC,5798.4117647,Standard
Level 2 ICD and Similar Procedures,23291.239999999903,DRG
Level 2 Laparoscopy and Related Services,4458.1244,DRG
Level 2 Pacemaker and Similar Procedures,4678.73263157894,DRG
Level 4 Endovascular Procedures,11134.6634999999,DRG
Level 3 Endovascular Procedures,6090.85024489796,DRG
Level 2 Endovascular Procedures,3156.0825641025604,DRG
Level 1 Endovascular Procedures,1480.29594387754,DRG
Level 4 Airway Endoscopy,1614.26124999999,DRG
Level 3 Airway Endoscopy,841.52,DRG
Level 5 Musculoskeletal Procedures,6037.10166666667,DRG
Level 4 Musculoskeletal Procedures,3468.9575609756102,DRG
Level 3 Musculoskeletal Procedures,1452.64766666666,DRG
" ""LOWER EXTREM & HUMER PROC EXCEPT HIP,FOOT,FEMUR W/O CC/MCC""",9041.7692308,Standard
 OTHER CIRCULATORY SYSTEM DIAGNOSES W MCC,9646.4375,Standard
" MISC DISORDERS OF NUTRITION,METABOLISM,FLUIDS/ELECTROLYTES W MCC",6123.206896600001,Standard
 DIABETES W/O CC/MCC,4316.8666667,Standard
 DIABETES W CC,4782.857142899999,Standard
 DIABETES W MCC,8068.5,Standard
 CELLULITIS W/O MCC,6152.5555556,Standard
 INTRACRANIAL HEMORRHAGE OR CEREBRAL INFARCTION W CC OR TPA IN 24 HRS,5557.5405405,Standard
" FX, SPRN, STRN & DISL EXCEPT FEMUR, HIP, PELVIS & THIGH W/O MCC",4591.75,Standard
Level 3 Excision/ Biopsy/ Incision and Drainage,1442.83113636363,DRG
Level 1 Breast/Lymphatic Surgery and Related Procedures,1734.1699999999898,DRG
Level 2 Breast/Lymphatic Surgery and Related Procedures,3059.0599999999895,DRG
Level 2 Musculoskeletal Procedures,816.6741935483869,DRG
 MEDICAL BACK PROBLEMS W/O MCC,4939.125,Standard
 FRACTURES OF HIP & PELVIS W/O MCC,4264.75,Standard
Level 2 Excision/ Biopsy/ Incision and Drainage,832.542459893048,DRG
 TRANSIENT ISCHEMIA W/O THROMBOLYTIC,4688.4117647,Standard
Level 1 Laparoscopy and Related Services,2694.0002816901397,DRG
 SEIZURES W MCC,8400.173912999999,Standard
 CRANIAL & PERIPHERAL NERVE DISORDERS W/O MCC,5191.7272727,Standard
Level 3 Lower GI Procedures,1358.87999999999,DRG
Level 3 Upper GI Procedures,1658.0375,DRG
Level 2 Upper GI Procedures,870.399669669669,DRG
 PULMONARY EDEMA & RESPIRATORY FAILURE,6794.883720899999,Standard
 RESPIRATORY NEOPLASMS W MCC,8538.846153800001,Standard
 RESPIRATORY INFECTIONS & INFLAMMATIONS W MCC,9435.2941176,Standard
 PULMONARY EMBOLISM W/O MCC,5523.8333333,Standard
" ACUTE MYOCARDIAL INFARCTION, DISCHARGED ALIVE W CC",5150.71875,Standard
" ""ACUTE MYOCARDIAL INFARCTION, DISCHARGED ALIVE W/O CC/MCC""",4288.466666699999,Standard
" ""CIRCULATORY DISORDERS EXCEPT AMI, W CARD CATH W MCC""",11193.375,Standard
 CHEST PAIN,4215.4901961,Standard
" ""ACUTE MYOCARDIAL INFARCTION, DISCHARGED ALIVE W MCC""",8558.3205128,Standard
 SYNCOPE & COLLAPSE,4698.771428600001,Standard
 CARDIAC ARRHYTHMIA & CONDUCTION DISORDERS W/O CC/MCC,3313.7777778,Standard
 CHRONIC OBSTRUCTIVE PULMONARY DISEASE W MCC,6382.5751634,Standard
 CARDIAC ARRHYTHMIA & CONDUCTION DISORDERS W CC,4300.775,Standard
 CARDIAC ARRHYTHMIA & CONDUCTION DISORDERS W MCC,6243.3243243,Standard
 SEIZURES W/O MCC,4624.08,Standard
 PERIPHERAL VASCULAR DISORDERS W CC,6475.3684211,Standard
 OTHER RESP SYSTEM O.R. PROCEDURES W MCC,17091.266667,Standard
