Description,Charge,Category
 HEART FAILURE & SHOCK W MCC,8417.916666699999,Standard
Level 2 Excision/ Biopsy/ Incision and Drainage,857.134615384615,DRG
" ""MISC DISORDERS OF NUTRITION,METABOLISM,FLUIDS/ELECTROLYTES W/O MCC""",4550.3157895,Standard
 MAJOR HIP AND KNEE JOINT REPLACEMENT OR REATTACHMENT OF LOWER EXTREM,11718.62963,Standard
" ""ESOPHAGITIS, GASTROENT & MISC DIGEST DISORDERS W/O MCC""",4808.4444444,Standard
 CHEST PAIN,4354.6666667,Standard
 OTHER DISORDERS OF NERVOUS SYSTEM W CC,5682.6153846,Standard
 PULMONARY EDEMA & RESPIRATORY FAILURE,7178.7692308,Standard
 CHRONIC OBSTRUCTIVE PULMONARY DISEASE W MCC,6807.4222222,Standard
 CHRONIC OBSTRUCTIVE PULMONARY DISEASE W CC,5563.4166667,Standard
 CHRONIC OBSTRUCTIVE PULMONARY DISEASE W/O CC/MCC,4497.533333300001,Standard
 SIMPLE PNEUMONIA & PLEURISY W CC,5702.4915254,Standard
 SIMPLE PNEUMONIA & PLEURISY W/O CC/MCC,5025.25,Standard
 SYNCOPE & COLLAPSE,4881.2142857,Standard
 HEART FAILURE & SHOCK W CC,5753.1666667,Standard
 BRONCHITIS & ASTHMA W CC/MCC,5824.0,Standard
 SEPTICEMIA OR SEVERE SEPSIS W/O MV >96 HOURS W/O MCC,6512.4545455,Standard
 DIABETES W CC,5450.0,Standard
 SIGNS & SYMPTOMS W/O MCC,4587.3846154,Standard
Level 3 Musculoskeletal Procedures,1692.1925757575698,DRG
Level 4 Musculoskeletal Procedures,3501.405,DRG
Level 3 Endovascular Procedures,7374.65,DRG
Level 2 Upper GI Procedures,943.899999999999,DRG
Level 1 Laparoscopy and Related Services,2968.23999999999,DRG
Level 1 Intraocular Procedures,1269.96611111111,DRG
 SEPTICEMIA OR SEVERE SEPSIS W/O MV >96 HOURS W MCC,10523.225806,Standard
Comprehensive Observation Services,1484.85305970148,DRG
 KIDNEY & URINARY TRACT INFECTIONS W/O MCC,4986.6511628,Standard
 RED BLOOD CELL DISORDERS W/O MCC,5399.3846154,Standard
 KIDNEY & URINARY TRACT INFECTIONS W MCC,6441.0,Standard
Level 2 Musculoskeletal Procedures,890.803333333333,DRG
