Description,Charge,Category
  CRANIOTOMY W MAJOR DEVICE IMPLANT OR ACUTE COMPLEX CNS PDX W MCC OR,47644.25,Standard
" MISC DISORDERS OF NUTRITION,METABOLISM,FLUIDS/ELECTROLYTES W MCC",12895.0,Standard
 MEDICAL BACK PROBLEMS W/O MCC,10790.538462,Standard
 CIRRHOSIS & ALCOHOLIC HEPATITIS W MCC,18679.545455,Standard
" ""ESOPHAGITIS, GASTROENT & MISC DIGEST DISORDERS W/O MCC""",8842.785714299998,Standard
 G.I. HEMORRHAGE W CC,11646.642856999999,Standard
 G.I. HEMORRHAGE W MCC,16944.692308,Standard
 MAJOR SMALL & LARGE BOWEL PROCEDURES W/O CC/MCC,15266.25,Standard
 MAJOR SMALL & LARGE BOWEL PROCEDURES W CC,23326.666666999998,Standard
 OTHER CIRCULATORY SYSTEM DIAGNOSES W MCC,19996.909091,Standard
" TRAUMATIC STUPOR & COMA, COMA >1 HR W CC",13480.636363999998,Standard
 CRANIOTOMY & ENDOVASCULAR INTRACRANIAL PROCEDURES W MCC,41500.772726999996,Standard
" ""TRAUMATIC STUPOR & COMA, COMA >1 HR W/O CC/MCC""",9762.0,Standard
 SEIZURES W/O MCC,10097.846154,Standard
 PULMONARY EDEMA & RESPIRATORY FAILURE,13337.526316,Standard
 RESPIRATORY SYSTEM DIAGNOSIS W VENTILATOR SUPPORT <=96 HOURS,25170.307692,Standard
 FULL THICKNESS BURN W SKIN GRAFT OR INHAL INJ W CC/MCC,59069.166667,Standard
 INTRACRANIAL HEMORRHAGE OR CEREBRAL INFARCTION W CC OR TPA IN 24 HRS,11984.5,Standard
 INTRACRANIAL HEMORRHAGE OR CEREBRAL INFARCTION W MCC,17813.612903,Standard
 RENAL FAILURE W MCC,15351.230769,Standard
 CRANIOTOMY & ENDOVASCULAR INTRACRANIAL PROCEDURES W/O CC/MCC,20978.818182,Standard
 CRANIOTOMY & ENDOVASCULAR INTRACRANIAL PROCEDURES W CC,27391.5,Standard
 SYNCOPE & COLLAPSE,9902.727272700002,Standard
 HEART FAILURE & SHOCK W MCC,14181.25,Standard
 OTHER VASCULAR PROCEDURES W MCC,29774.952381,Standard
" ""TRAUMATIC STUPOR & COMA, COMA <1 HR W CC""",12700.769231,Standard
 RED BLOOD CELL DISORDERS W MCC,15267.583333,Standard
 NON,15041.454544999999,Standard
 INFECTIOUS & PARASITIC DISEASES W O.R. PROCEDURE W MCC,54618.5625,Standard
Level 3 Musculoskeletal Procedures,874.985,DRG
Level 2 Breast/Lymphatic Surgery and Related Procedures,3183.32,DRG
Level 1 Breast/Lymphatic Surgery and Related Procedures,1804.61999999999,DRG
Level 3 Excision/ Biopsy/ Incision and Drainage,1538.02,DRG
Level 2 Excision/ Biopsy/ Incision and Drainage,869.49525,DRG
Level 1 Endovascular Procedures,1571.58048780487,DRG
Level 2 Endovascular Procedures,3315.25490566037,DRG
Level 3 Endovascular Procedures,7116.92543859648,DRG
Level 2 Upper GI Procedures,907.369444444446,DRG
 RED BLOOD CELL DISORDERS W/O MCC,10641.988372,Standard
Level 4 Musculoskeletal Procedures,3708.94999999999,DRG
Level 5 Musculoskeletal Procedures,7057.88,DRG
Level 3 Neurostimulator and Related Procedures,12720.4366666666,DRG
Level 3 Lower GI Procedures,1530.98727272727,DRG
 SEPTICEMIA OR SEVERE SEPSIS W/O MV >96 HOURS W MCC,19095.734375,Standard
 SEPTICEMIA OR SEVERE SEPSIS W/O MV >96 HOURS W/O MCC,13216.529412,Standard
Complex GI Procedures,2840.46,DRG
 POISONING & TOXIC EFFECTS OF DRUGS W MCC,14833.818181999999,Standard
Level 1 Laparoscopy and Related Services,2969.51,DRG
Level 2 Laparoscopy and Related Services,3680.512,DRG
Level 3 Upper GI Procedures,1814.94,DRG
Level 7 Radiation Therapy,5005.11,DRG
Comprehensive Observation Services,1422.2817757009302,DRG
 EXTENSIVE O.R. PROCEDURE UNRELATED TO PRINCIPAL DIAGNOSIS W MCC,34513.25,Standard
