Description,Charge,Category
Level 2 Upper GI Procedures,854.6725581395351,DRG
Level 3 Excision/ Biopsy/ Incision and Drainage,1477.99,DRG
Level 2 Excision/ Biopsy/ Incision and Drainage,856.9799999999989,DRG
 CHRONIC OBSTRUCTIVE PULMONARY DISEASE W MCC,6795.142857100001,Standard
 SEPTICEMIA OR SEVERE SEPSIS W/O MV >96 HOURS W MCC,10585.0625,Standard
 SEPTICEMIA OR SEVERE SEPSIS W/O MV >96 HOURS W/O MCC,6355.0,Standard
Comprehensive Observation Services,1429.94262411347,DRG
 CELLULITIS W/O MCC,5411.6875,Standard
" ""ESOPHAGITIS, GASTROENT & MISC DIGEST DISORDERS W/O MCC""",4964.8181818,Standard
 HEART FAILURE & SHOCK W CC,5819.9230769,Standard
 HEART FAILURE & SHOCK W MCC,8334.041666699999,Standard
Level 1 Laparoscopy and Related Services,2490.33133333333,DRG
 SIMPLE PNEUMONIA & PLEURISY W MCC,8062.0588235,Standard
 KIDNEY & URINARY TRACT INFECTIONS W/O MCC,4942.75,Standard
 SIMPLE PNEUMONIA & PLEURISY W CC,5662.0,Standard
