Description,Charge,Category
Level 2 Laparoscopy and Related Services,5605.66541666666,DRG
Level 3 Pacemaker and Similar Procedures,7873.974090909091,DRG
Level 4 Neurostimulator and Related Procedures,23739.711499999903,DRG
 SIGNS & SYMPTOMS W/O MCC,5950.1764706,Standard
Level 2 Neurostimulator and Related Procedures,4195.37064516128,DRG
Comprehensive Observation Services,1750.95068933822,DRG
 ALCOHOL/DRUG ABUSE OR DEPENDENCE W/O REHABILITATION THERAPY W/O MCC,6187.16,Standard
 INFECTIOUS & PARASITIC DISEASES W O.R. PROCEDURE W CC,17326.818182,Standard
 SEPTICEMIA OR SEVERE SEPSIS W/O MV >96 HOURS W/O MCC,7927.761904800001,Standard
 SEPTICEMIA OR SEVERE SEPSIS W/O MV >96 HOURS W MCC,12871.123943999999,Standard
 SEPTICEMIA OR SEVERE SEPSIS W MV >96 HOURS OR PERIPHERAL EXTRACORPOR,39947.923077,Standard
 INFECTIOUS & PARASITIC DISEASES W O.R. PROCEDURE W MCC,32951.195122000005,Standard
 OTHER KIDNEY & URINARY TRACT DIAGNOSES W CC,7416.363636399999,Standard
 OTHER KIDNEY & URINARY TRACT DIAGNOSES W MCC,10553.088235,Standard
 KIDNEY & URINARY TRACT INFECTIONS W/O MCC,6010.5866667,Standard
 KIDNEY & URINARY TRACT INFECTIONS W MCC,7894.1904761999995,Standard
 PSYCHOSES,9012.904761900001,Standard
Level 1 Nerve Procedures,1198.91919831223,DRG
Level 5 Urology and Related Services,2771.4284848484804,DRG
Level 4 Urology and Related Services,2030.52931506849,DRG
Level 3 Urology and Related Services,1249.2325657894698,DRG
Level 1 Laparoscopy and Related Services,3248.05362903225,DRG
Level 2 Excision/ Biopsy/ Incision and Drainage,1004.82178707224,DRG
Level 3 Excision/ Biopsy/ Incision and Drainage,1747.3881818181799,DRG
Level 1 Breast/Lymphatic Surgery and Related Procedures,2050.7365,DRG
Level 2 Breast/Lymphatic Surgery and Related Procedures,3630.14,DRG
Level 2 Musculoskeletal Procedures,962.0681981982001,DRG
Level 3 Musculoskeletal Procedures,1922.63992248061,DRG
Level 4 Musculoskeletal Procedures,4199.48711267605,DRG
Level 5 Musculoskeletal Procedures,8000.948450704209,DRG
Level 2 Pacemaker and Similar Procedures,5204.07692307692,DRG
Level 3 Airway Endoscopy,998.61,DRG
Level 4 Airway Endoscopy,1973.96,DRG
Level 4 ENT Procedures,1658.99,DRG
Level 5 ENT Procedures,3263.66533333333,DRG
Level 1 Endovascular Procedures,1810.9555479452,DRG
Level 2 Endovascular Procedures,3669.13456521738,DRG
Level 3 Endovascular Procedures,7890.223058823521,DRG
Abdominal/Peritoneal/Biliary and Related Procedures,2129.33416666666,DRG
Level 3 Upper GI Procedures,2069.68,DRG
Level 2 Upper GI Procedures,1069.12841530054,DRG
Level 2 ICD and Similar Procedures,27884.55,DRG
Level 1 ICD and Similar Procedures,19537.35,DRG
Level 4 Gynecologic Procedures,1714.59999999999,DRG
Level 3 Electrophysiologic Procedures,16143.3825,DRG
 RED BLOOD CELL DISORDERS W/O MCC,6807.2,Standard
 CHRONIC OBSTRUCTIVE PULMONARY DISEASE W CC,6843.516129000001,Standard
 CARDIAC ARRHYTHMIA & CONDUCTION DISORDERS W CC,6196.0731706999995,Standard
 CARDIAC ARRHYTHMIA & CONDUCTION DISORDERS W/O CC/MCC,4522.5789474,Standard
 SYNCOPE & COLLAPSE,6130.863636399999,Standard
 CHEST PAIN,5570.0434783,Standard
 OTHER CIRCULATORY SYSTEM DIAGNOSES W MCC,15386.45,Standard
 MAJOR SMALL & LARGE BOWEL PROCEDURES W MCC,34633.571429,Standard
 MAJOR SMALL & LARGE BOWEL PROCEDURES W CC,19694.6,Standard
 CARDIAC ARRHYTHMIA & CONDUCTION DISORDERS W MCC,8837.1463415,Standard
 MAJOR SMALL & LARGE BOWEL PROCEDURES W/O CC/MCC,12139.923077,Standard
 G.I. HEMORRHAGE W MCC,12056.885714,Standard
 G.I. HEMORRHAGE W CC,7251.7887324,Standard
 G.I. OBSTRUCTION W MCC,11228.8,Standard
 G.I. OBSTRUCTION W CC,6617.6111111,Standard
" ESOPHAGITIS, GASTROENT & MISC DIGEST DISORDERS W MCC",9262.5238095,Standard
" ""ESOPHAGITIS, GASTROENT & MISC DIGEST DISORDERS W/O MCC""",6013.7254901999995,Standard
 OTHER DIGESTIVE SYSTEM DIAGNOSES W CC,7152.8,Standard
 MAJOR GASTROINTESTINAL DISORDERS & PERITONEAL INFECTIONS W CC,7615.25,Standard
 HYPERTENSION W/O MCC,5317.6153846,Standard
" ""CIRCULATORY DISORDERS EXCEPT AMI, W CARD CATH W MCC""",15954.153846000001,Standard
 ATHEROSCLEROSIS W/O MCC,5129.7142857,Standard
 RESPIRATORY SYSTEM DIAGNOSIS W VENTILATOR SUPPORT <=96 HOURS,16466.558824,Standard
 BRONCHITIS & ASTHMA W CC/MCC,7034.0625,Standard
 SIMPLE PNEUMONIA & PLEURISY W CC,7000.8253968,Standard
 SIMPLE PNEUMONIA & PLEURISY W MCC,9656.5757576,Standard
 PERC CARDIOVASC PROC W DRUG,15385.972603,Standard
 OTHER VASCULAR PROCEDURES W CC,17428.571429,Standard
 OTHER VASCULAR PROCEDURES W/O CC/MCC,12601.0,Standard
" ""ACUTE MYOCARDIAL INFARCTION, DISCHARGED ALIVE W MCC""",11924.875,Standard
" ACUTE MYOCARDIAL INFARCTION, DISCHARGED ALIVE W CC",7189.28,Standard
 CHRONIC OBSTRUCTIVE PULMONARY DISEASE W MCC,8457.0970874,Standard
 PULMONARY EDEMA & RESPIRATORY FAILURE,8988.0833333,Standard
 RESPIRATORY INFECTIONS & INFLAMMATIONS W CC,9298.2307692,Standard
 RESPIRATORY INFECTIONS & INFLAMMATIONS W MCC,12469.196078,Standard
 PULMONARY EMBOLISM W/O MCC,7320.2727273,Standard
 HEART FAILURE & SHOCK W CC,7232.2941175999995,Standard
 HEART FAILURE & SHOCK W/O CC/MCC,5270.0,Standard
 PERIPHERAL VASCULAR DISORDERS W CC,7536.533333300001,Standard
 LAPAROSCOPIC CHOLECYSTECTOMY W/O C.D.E. W CC,12039.153846,Standard
 CORONARY BYPASS W CARDIAC CATH W/O MCC,34976.461537999996,Standard
 DISORDERS OF PANCREAS EXCEPT MALIGNANCY W CC,6633.7272727,Standard
 DISORDERS OF THE BILIARY TRACT W CC,7938.2727273,Standard
 EXTRACRANIAL PROCEDURES W/O CC/MCC,8586.263157899999,Standard
 INTRACRANIAL HEMORRHAGE OR CEREBRAL INFARCTION W MCC,11911.304348,Standard
 INTRACRANIAL HEMORRHAGE OR CEREBRAL INFARCTION W CC OR TPA IN 24 HRS,7502.0810811,Standard
 INTRACRANIAL HEMORRHAGE OR CEREBRAL INFARCTION W/O CC/MCC,5752.2857143,Standard
 TRANSIENT ISCHEMIA W/O THROMBOLYTIC,5766.357142899999,Standard
 OTHER RESP SYSTEM O.R. PROCEDURES W MCC,23976.5,Standard
 PULMONARY EMBOLISM W MCC,10715.785714,Standard
 RENAL FAILURE W CC,7003.714285699999,Standard
 RENAL FAILURE W MCC,11319.285714,Standard
" ""MISC DISORDERS OF NUTRITION,METABOLISM,FLUIDS/ELECTROLYTES W/O MCC""",5744.96,Standard
" MISC DISORDERS OF NUTRITION,METABOLISM,FLUIDS/ELECTROLYTES W MCC",8703.0,Standard
 DIABETES W CC,6389.733333300001,Standard
" ""DISORDERS OF LIVER EXCEPT MALIG,CIRR,ALC HEPA W MCC""",12231.923077,Standard
 DIABETES W MCC,9727.133333299998,Standard
 PERCUTANEOUS CARDIOVASCULAR PROCEDURES W DRUG,29849.305556,Standard
 SPINAL FUSION EXCEPT CERVICAL W/O MCC,32616.153845999997,Standard
 REVISION OF HIP OR KNEE REPLACEMENT W CC,23060.769231000002,Standard
 MAJOR HIP AND KNEE JOINT REPLACEMENT OR REATTACHMENT OF LOWER EXTREM,21493.583333000002,Standard
 CELLULITIS W/O MCC,6669.106382999999,Standard
 HEART FAILURE & SHOCK W MCC,10447.020690000001,Standard
" CIRCULATORY DISORDERS EXCEPT AMI, W CARD CATH W/O MCC",8497.2307692,Standard
" FX, SPRN, STRN & DISL EXCEPT FEMUR, HIP, PELVIS & THIGH W/O MCC",6337.9090909,Standard
 MAJOR HIP AND KNEE JOINT REPLACEMENT OR REATTACHMENT OF LOWER EXTREM,15136.992126,Standard
 HIP & FEMUR PROCEDURES EXCEPT MAJOR JOINT W MCC,22888.941176,Standard
 HIP & FEMUR PROCEDURES EXCEPT MAJOR JOINT W CC,15331.194444,Standard
 MEDICAL BACK PROBLEMS W/O MCC,6570.0769231,Standard
 MAJOR JOINT/LIMB REATTACHMENT PROCEDURE OF UPPER EXTREMITIES,16649.392857,Standard
