Description,Charge,Category
 OTHER RESP SYSTEM O.R. PROCEDURES W MCC,21932.6,Standard
 MAJOR CHEST PROCEDURES W CC,17271.133333,Standard
 SEIZURES W/O MCC,6839.314285699999,Standard
 SEIZURES W MCC,10558.88,Standard
" ESOPHAGITIS, GASTROENT & MISC DIGEST DISORDERS W MCC",9528.692307700001,Standard
 OTHER RESP SYSTEM O.R. PROCEDURES W CC,12546.454545,Standard
Level 2 Excision/ Biopsy/ Incision and Drainage,969.478904593636,DRG
Level 3 Excision/ Biopsy/ Incision and Drainage,1649.89583333333,DRG
Level 1 Breast/Lymphatic Surgery and Related Procedures,1976.0695348837198,DRG
Level 2 Breast/Lymphatic Surgery and Related Procedures,3484.6621428571398,DRG
 OTHER DISORDERS OF NERVOUS SYSTEM W CC,6913.5454545,Standard
Level 2 Musculoskeletal Procedures,978.41,DRG
" ""TRAUMATIC STUPOR & COMA, COMA <1 HR W CC""",8712.1764706,Standard
 NONSPECIFIC CEREBROVASCULAR DISORDERS W MCC,12198.25,Standard
 RENAL FAILURE W MCC,10359.559322,Standard
" ""MISC DISORDERS OF NUTRITION,METABOLISM,FLUIDS/ELECTROLYTES W/O MCC""",5969.7878788,Standard
" MISC DISORDERS OF NUTRITION,METABOLISM,FLUIDS/ELECTROLYTES W MCC",8856.107142899999,Standard
 DIABETES W CC,6652.6538462,Standard
 DIABETES W MCC,10170.625,Standard
" ""AMPUTAT OF LOWER LIMB FOR ENDOCRINE,NUTRIT,& METABOL DIS W CC""",15127.916667,Standard
 CELLULITIS W/O MCC,6628.6538462,Standard
 CELLULITIS W MCC,11448.0,Standard
 MEDICAL BACK PROBLEMS W/O MCC,7930.4375,Standard
" LOWER EXTREM & HUMER PROC EXCEPT HIP,FOOT,FEMUR W CC",14322.615385,Standard
 MAJOR JOINT/LIMB REATTACHMENT PROCEDURE OF UPPER EXTREMITIES,15324.62069,Standard
 HIP & FEMUR PROCEDURES EXCEPT MAJOR JOINT W/O CC/MCC,10974.0,Standard
 HIP & FEMUR PROCEDURES EXCEPT MAJOR JOINT W CC,13667.136363999998,Standard
 HIP & FEMUR PROCEDURES EXCEPT MAJOR JOINT W MCC,18609.238095,Standard
 MAJOR HIP AND KNEE JOINT REPLACEMENT OR REATTACHMENT OF LOWER EXTREM,14211.917722,Standard
 MAJOR HIP AND KNEE JOINT REPLACEMENT OR REATTACHMENT OF LOWER EXTREM,20929.583333000002,Standard
 SPINAL FUSION EXCEPT CERVICAL W/O MCC,26952.28,Standard
 DISORDERS OF THE BILIARY TRACT W CC,8269.625,Standard
" DISORDERS OF LIVER EXCEPT MALIG,CIRR,ALC HEPA W CC",6935.25,Standard
" ""DISORDERS OF LIVER EXCEPT MALIG,CIRR,ALC HEPA W MCC""",13782.142856999999,Standard
 DISORDERS OF PANCREAS EXCEPT MALIGNANCY W CC,7182.478260899999,Standard
 RENAL FAILURE W CC,7003.8461538,Standard
" TRAUMATIC STUPOR & COMA, COMA >1 HR W CC",8966.0,Standard
 KIDNEY & URINARY TRACT INFECTIONS W MCC,7459.645161300001,Standard
 OTHER KIDNEY & URINARY TRACT DIAGNOSES W MCC,10852.928570999999,Standard
 INTRACRANIAL HEMORRHAGE OR CEREBRAL INFARCTION W/O CC/MCC,6045.5,Standard
 INTRACRANIAL HEMORRHAGE OR CEREBRAL INFARCTION W CC OR TPA IN 24 HRS,7625.390243899999,Standard
 INTRACRANIAL HEMORRHAGE OR CEREBRAL INFARCTION W MCC,12061.26,Standard
 DEGENERATIVE NERVOUS SYSTEM DISORDERS W/O MCC,7449.714285699999,Standard
 NERVOUS SYSTEM NEOPLASMS W MCC,9292.8125,Standard
 EXTRACRANIAL PROCEDURES W/O CC/MCC,7906.2692308,Standard
 CRANIOTOMY & ENDOVASCULAR INTRACRANIAL PROCEDURES W MCC,27462.545455,Standard
" TRACH W MV >96 HRS OR PDX EXC FACE, MOUTH & NECK W/O MAJ O.R.",55902.578947,Standard
 MALIGNANCY OF HEPATOBILIARY SYSTEM OR PANCREAS W MCC,10996.0,Standard
 EXTENSIVE O.R. PROCEDURE UNRELATED TO PRINCIPAL DIAGNOSIS W MCC,30377.107143,Standard
 SIGNS & SYMPTOMS W/O MCC,6004.0666667,Standard
 POISONING & TOXIC EFFECTS OF DRUGS W MCC,9822.470588200002,Standard
 SEPTICEMIA OR SEVERE SEPSIS W/O MV >96 HOURS W/O MCC,8094.6176471,Standard
 SEPTICEMIA OR SEVERE SEPSIS W/O MV >96 HOURS W MCC,12890.981982,Standard
 SEPTICEMIA OR SEVERE SEPSIS W MV >96 HOURS OR PERIPHERAL EXTRACORPOR,38489.125,Standard
 INFECTIOUS & PARASITIC DISEASES W O.R. PROCEDURE W MCC,34210.714286,Standard
 COAGULATION DISORDERS,13166.424242000001,Standard
 RED BLOOD CELL DISORDERS W/O MCC,6718.3333333,Standard
 RED BLOOD CELL DISORDERS W MCC,10314.333333,Standard
 MAJOR HEMATOL/IMMUN DIAG EXC SICKLE CELL CRISIS & COAGUL W CC,9257.5454545,Standard
 OTHER KIDNEY & URINARY TRACT DIAGNOSES W CC,7650.526315800001,Standard
 KIDNEY & URINARY TRACT INFECTIONS W/O MCC,6514.9615385,Standard
 G.I. OBSTRUCTION W/O CC/MCC,5057.0,Standard
Level 3 Musculoskeletal Procedures,1915.4515789473603,DRG
Level 5 Musculoskeletal Procedures,7855.7223648648705,DRG
" ""ACUTE MYOCARDIAL INFARCTION, DISCHARGED ALIVE W/O CC/MCC""",5893.8666667,Standard
" ACUTE MYOCARDIAL INFARCTION, DISCHARGED ALIVE W CC",7380.0535714,Standard
" ""ACUTE MYOCARDIAL INFARCTION, DISCHARGED ALIVE W MCC""",11633.909091,Standard
 PERCUTANEOUS INTRACARDIAC PROCEDURES W/O MCC,17574.833333000002,Standard
 OTHER MAJOR CARDIOVASCULAR PROCEDURES W MCC,33483.933333,Standard
 AORTIC AND HEART ASSIST PROCEDURES EXCEPT PULSATION BALLOON W/O MCC,29292.25,Standard
 ENDOVASCULAR CARDIAC VALVE REPLACEMENT W/O MCC,40649.055556,Standard
 OTHER VASCULAR PROCEDURES W CC,16483.642857,Standard
 PERC CARDIOVASC PROC W DRUG,14357.910112,Standard
 PERCUTANEOUS CARDIOVASCULAR PROCEDURES W DRUG,21953.454545,Standard
 PERMANENT CARDIAC PACEMAKER IMPLANT W/O CC/MCC,14525.928571,Standard
 PERMANENT CARDIAC PACEMAKER IMPLANT W CC,16912.681818,Standard
 PERMANENT CARDIAC PACEMAKER IMPLANT W MCC,24047.235294,Standard
 CORONARY BYPASS W/O CARDIAC CATH W/O MCC,23878.0,Standard
Level 4 Musculoskeletal Procedures,4060.0765882353003,DRG
" ""ESOPHAGITIS, GASTROENT & MISC DIGEST DISORDERS W/O MCC""",6004.4848485,Standard
 CORONARY BYPASS W CARDIAC CATH W MCC,46007.5,Standard
" ACUTE MYOCARDIAL INFARCTION, EXPIRED W MCC",12344.578947,Standard
 OTHER CARDIOTHORACIC PROCEDURES W/O MCC,36996.0,Standard
" ""CIRCULATORY DISORDERS EXCEPT AMI, W CARD CATH W MCC""",17333.852941,Standard
 HEART FAILURE & SHOCK W MCC,10611.374448999999,Standard
 OTHER DIGESTIVE SYSTEM DIAGNOSES W MCC,10046.692308,Standard
 OTHER DIGESTIVE SYSTEM DIAGNOSES W CC,7135.047619,Standard
 G.I. OBSTRUCTION W CC,6581.6818182,Standard
 G.I. HEMORRHAGE W CC,7372.8441557999995,Standard
 G.I. HEMORRHAGE W MCC,13694.974359,Standard
 DIGESTIVE MALIGNANCY W CC,8724.0,Standard
 MAJOR GASTROINTESTINAL DISORDERS & PERITONEAL INFECTIONS W CC,8055.375,Standard
 MAJOR GASTROINTESTINAL DISORDERS & PERITONEAL INFECTIONS W MCC,12623.076923,Standard
 MAJOR SMALL & LARGE BOWEL PROCEDURES W/O CC/MCC,11535.290323000001,Standard
 MAJOR SMALL & LARGE BOWEL PROCEDURES W CC,18038.0625,Standard
 MAJOR SMALL & LARGE BOWEL PROCEDURES W MCC,36373.923077,Standard
 SYNCOPE & COLLAPSE,6008.6923077,Standard
 CARDIAC ARRHYTHMIA & CONDUCTION DISORDERS W/O CC/MCC,5227.7586206999995,Standard
 CARDIAC ARRHYTHMIA & CONDUCTION DISORDERS W CC,5794.024390199999,Standard
 CARDIAC ARRHYTHMIA & CONDUCTION DISORDERS W MCC,8949.3846154,Standard
 HEART FAILURE & SHOCK W/O CC/MCC,5222.9411765,Standard
 HEART FAILURE & SHOCK W CC,7264.6666667,Standard
" CIRCULATORY DISORDERS EXCEPT AMI, W CARD CATH W/O MCC",8680.9736842,Standard
 CARDIAC VALVE & OTH MAJ CARDIOTHORACIC PROC W/O CARD CATH W CC,33342.307692,Standard
 CORONARY BYPASS W CARDIAC CATH W/O MCC,34574.72549,Standard
 RESPIRATORY SYSTEM DIAGNOSIS W VENTILATOR SUPPORT >96 HOURS,34450.894737,Standard
Level 5 Urology and Related Services,2683.86855670103,DRG
Level 4 Urology and Related Services,1951.8296226415,DRG
Level 3 Urology and Related Services,1220.46756613756,DRG
Level 2 Laparoscopy and Related Services,5554.065319148929,DRG
Level 1 Laparoscopy and Related Services,3224.33564516128,DRG
 LAPAROSCOPIC CHOLECYSTECTOMY W/O C.D.E. W CC,11773.846154,Standard
Abdominal/Peritoneal/Biliary and Related Procedures,2106.7003947368303,DRG
Complex GI Procedures,3103.70733333333,DRG
Level 3 Lower GI Procedures,1671.1465,DRG
Level 4 Gynecologic Procedures,1598.8854999999899,DRG
Level 3 Upper GI Procedures,1988.38,DRG
Level 2 ICD and Similar Procedures,26302.949487179398,DRG
Level 3 Pacemaker and Similar Procedures,7513.076,DRG
Level 3 Electrophysiologic Procedures,15447.33525,DRG
Level 3 Endovascular Procedures,8203.8652348993,DRG
Level 2 Endovascular Procedures,3663.01743902438,DRG
Level 1 Endovascular Procedures,1763.73045614034,DRG
Level 5 ENT Procedures,3144.65,DRG
Level 4 Airway Endoscopy,1896.4199999999898,DRG
Level 3 Airway Endoscopy,959.389999999999,DRG
Level 2 Upper GI Procedures,996.3121428571429,DRG
 RESPIRATORY SYSTEM DIAGNOSIS W VENTILATOR SUPPORT <=96 HOURS,16390.058824,Standard
Level 5 Gynecologic Procedures,2907.25,DRG
Level 1 Intraocular Procedures,1389.31672566371,DRG
 BRONCHITIS & ASTHMA W CC/MCC,6841.1304348,Standard
 SIMPLE PNEUMONIA & PLEURISY W/O CC/MCC,5389.4444444,Standard
 SIMPLE PNEUMONIA & PLEURISY W CC,6948.087912100001,Standard
 SIMPLE PNEUMONIA & PLEURISY W MCC,9786.0,Standard
Level 1 Nerve Procedures,1158.33367346938,DRG
 CHRONIC OBSTRUCTIVE PULMONARY DISEASE W CC,7019.217391300001,Standard
 CHRONIC OBSTRUCTIVE PULMONARY DISEASE W MCC,8779.732758600001,Standard
 PULMONARY EDEMA & RESPIRATORY FAILURE,9020.1525424,Standard
 CHRONIC OBSTRUCTIVE PULMONARY DISEASE W/O CC/MCC,5516.5833333,Standard
 RESPIRATORY INFECTIONS & INFLAMMATIONS W CC,9241.944444399998,Standard
 RESPIRATORY INFECTIONS & INFLAMMATIONS W MCC,12893.25,Standard
 PULMONARY EMBOLISM W/O MCC,7101.555555600001,Standard
 PULMONARY EMBOLISM W MCC,10625.0,Standard
Comprehensive Observation Services,1686.3791916167902,DRG
Level 2 Intraocular Procedures,2458.1371428571397,DRG
 RESPIRATORY NEOPLASMS W MCC,12267.058824,Standard
