Description,Charge,Category
Level 2 Breast/Lymphatic Surgery and Related Procedures,3382.72761904761,DRG
 G.I. OBSTRUCTION W CC,5706.1875,Standard
 G.I. HEMORRHAGE W CC,6025.275,Standard
 G.I. HEMORRHAGE W MCC,10503.0,Standard
 MAJOR SMALL & LARGE BOWEL PROCEDURES W CC,14996.25,Standard
 SYNCOPE & COLLAPSE,5045.857142899999,Standard
 CARDIAC ARRHYTHMIA & CONDUCTION DISORDERS W/O CC/MCC,3769.6666666999995,Standard
 CARDIAC ARRHYTHMIA & CONDUCTION DISORDERS W CC,4947.84375,Standard
 CARDIAC ARRHYTHMIA & CONDUCTION DISORDERS W MCC,7425.45,Standard
 HEART FAILURE & SHOCK W CC,5689.1176471,Standard
 HEART FAILURE & SHOCK W MCC,8924.556603799998,Standard
" ACUTE MYOCARDIAL INFARCTION, DISCHARGED ALIVE W CC",5956.6,Standard
Level 2 Musculoskeletal Procedures,973.7962068965511,DRG
 G.I. OBSTRUCTION W/O CC/MCC,3904.0833333000005,Standard
Level 5 Airway Endoscopy,3563.87,DRG
Level 2 Laparoscopy and Related Services,5239.984285714279,DRG
Level 4 Musculoskeletal Procedures,3995.2561320754708,DRG
Level 3 Musculoskeletal Procedures,1867.09098039215,DRG
Level 1 Laparoscopy and Related Services,3286.05301886792,DRG
Level 3 Urology and Related Services,1242.38999999999,DRG
Level 4 Urology and Related Services,1803.4913043478198,DRG
" ""ESOPHAGITIS, GASTROENT & MISC DIGEST DISORDERS W/O MCC""",4845.7142857,Standard
 MAJOR HIP AND KNEE JOINT REPLACEMENT OR REATTACHMENT OF LOWER EXTREM,12593.375,Standard
 BIOPSIES OF MUSCULOSKELETAL SYSTEM & CONNECTIVE TISSUE W CC,11989.846154,Standard
 HIP & FEMUR PROCEDURES EXCEPT MAJOR JOINT W CC,11966.823529000001,Standard
 CELLULITIS W/O MCC,5519.028571399999,Standard
Comprehensive Observation Services,1699.04654434251,DRG
Level 2 Intraocular Procedures,2547.61821428571,DRG
Level 1 Intraocular Procedures,1348.38670103092,DRG
Level 5 Urology and Related Services,2668.51396551724,DRG
Level 5 ENT Procedures,3024.39166666666,DRG
Level 1 Breast/Lymphatic Surgery and Related Procedures,1998.63,DRG
 OTHER KIDNEY & URINARY TRACT DIAGNOSES W MCC,9513.5833333,Standard
 DIABETES W CC,6117.4375,Standard
" ""ACUTE MYOCARDIAL INFARCTION, DISCHARGED ALIVE W MCC""",9661.555555600002,Standard
 SIMPLE PNEUMONIA & PLEURISY W CC,5875.2758621,Standard
 SIMPLE PNEUMONIA & PLEURISY W MCC,8464.3444444,Standard
 CHRONIC OBSTRUCTIVE PULMONARY DISEASE W MCC,7382.6976744,Standard
 PULMONARY EDEMA & RESPIRATORY FAILURE,7543.6818182,Standard
 INTRACRANIAL HEMORRHAGE OR CEREBRAL INFARCTION W MCC,8934.266666700001,Standard
 RESPIRATORY INFECTIONS & INFLAMMATIONS W MCC,10602.928570999999,Standard
 PULMONARY EMBOLISM W MCC,8773.272727299998,Standard
 OTHER RESP SYSTEM O.R. PROCEDURES W MCC,20725.0,Standard
Level 3 Excision/ Biopsy/ Incision and Drainage,1703.38,DRG
 SEPTICEMIA OR SEVERE SEPSIS W/O MV >96 HOURS W/O MCC,6493.0909091,Standard
Level 4 Airway Endoscopy,1917.11,DRG
Level 2 Excision/ Biopsy/ Incision and Drainage,956.6702739726019,DRG
 SEPTICEMIA OR SEVERE SEPSIS W/O MV >96 HOURS W MCC,11046.722973,Standard
" MISC DISORDERS OF NUTRITION,METABOLISM,FLUIDS/ELECTROLYTES W MCC",6968.0588235,Standard
" ""MISC DISORDERS OF NUTRITION,METABOLISM,FLUIDS/ELECTROLYTES W/O MCC""",5013.16,Standard
 RENAL FAILURE W MCC,8791.5714286,Standard
 RENAL FAILURE W CC,5698.1590909,Standard
 KIDNEY & URINARY TRACT INFECTIONS W MCC,6538.4230769,Standard
 INTRACRANIAL HEMORRHAGE OR CEREBRAL INFARCTION W CC OR TPA IN 24 HRS,6197.4583333,Standard
 KIDNEY & URINARY TRACT INFECTIONS W/O MCC,5922.1,Standard
Level 5 Musculoskeletal Procedures,7957.859999999991,DRG
 TRANSIENT ISCHEMIA W/O THROMBOLYTIC,5239.2857143,Standard
 RED BLOOD CELL DISORDERS W/O MCC,6010.7142857,Standard
 INFECTIOUS & PARASITIC DISEASES W O.R. PROCEDURE W MCC,28164.545455,Standard
 SEPTICEMIA OR SEVERE SEPSIS W MV >96 HOURS OR PERIPHERAL EXTRACORPOR,33939.692308,Standard
