Description,Charge,Category
 RESPIRATORY INFECTIONS & INFLAMMATIONS W MCC,10366.384615,Standard
 SEPTICEMIA OR SEVERE SEPSIS W/O MV >96 HOURS W MCC,10417.277778,Standard
Level 5 Gynecologic Procedures,2624.95368421052,DRG
Level 1 Nerve Procedures,1088.05550632911,DRG
Level 2 Neurostimulator and Related Procedures,3523.5311999999894,DRG
Level 4 Neurostimulator and Related Procedures,22823.6446153846,DRG
Level 1 Intraocular Procedures,1310.21743589743,DRG
Comprehensive Observation Services,1603.4059701492401,DRG
 PULMONARY EDEMA & RESPIRATORY FAILURE,7581.0,Standard
 CHRONIC OBSTRUCTIVE PULMONARY DISEASE W MCC,7126.381578899999,Standard
 CHRONIC OBSTRUCTIVE PULMONARY DISEASE W CC,5758.0454545,Standard
 SIMPLE PNEUMONIA & PLEURISY W MCC,8509.1954023,Standard
 SIMPLE PNEUMONIA & PLEURISY W CC,5829.9117647,Standard
 SIMPLE PNEUMONIA & PLEURISY W/O CC/MCC,4819.4545455,Standard
 RESPIRATORY SYSTEM DIAGNOSIS W VENTILATOR SUPPORT <=96 HOURS,14041.954544999999,Standard
 PERCUTANEOUS CARDIOVASCULAR PROCEDURES W DRUG,20127.434783,Standard
 PERC CARDIOVASC PROC W DRUG,13552.272727000001,Standard
" ""ACUTE MYOCARDIAL INFARCTION, DISCHARGED ALIVE W MCC""",9297.017241399999,Standard
 SEPTICEMIA OR SEVERE SEPSIS W/O MV >96 HOURS W/O MCC,6753.1052632,Standard
Level 4 Gynecologic Procedures,1574.33,DRG
Level 4 Urology and Related Services,1868.02999999999,DRG
Level 3 Urology and Related Services,1138.96675675675,DRG
Level 1 Laparoscopy and Related Services,3081.0236363636304,DRG
Level 2 Excision/ Biopsy/ Incision and Drainage,927.666798029554,DRG
Level 3 Excision/ Biopsy/ Incision and Drainage,1610.4199999999898,DRG
Level 1 Breast/Lymphatic Surgery and Related Procedures,1889.57,DRG
Level 2 Musculoskeletal Procedures,932.0566666666659,DRG
Level 3 Musculoskeletal Procedures,1756.0020833333301,DRG
Level 4 Musculoskeletal Procedures,3883.54,DRG
Level 5 Musculoskeletal Procedures,7451.92,DRG
Level 3 Airway Endoscopy,916.853389830507,DRG
" ""ACUTE MYOCARDIAL INFARCTION, DISCHARGED ALIVE W/O CC/MCC""",4947.0,Standard
Level 4 Airway Endoscopy,1717.6755,DRG
Level 4 ENT Procedures,1523.27,DRG
Level 5 ENT Procedures,3005.45,DRG
Level 1 Endovascular Procedures,1656.49309859155,DRG
Level 2 Endovascular Procedures,3522.3599999999897,DRG
Level 3 Endovascular Procedures,7467.48857142857,DRG
Level 3 Pacemaker and Similar Procedures,7127.28999999999,DRG
Level 2 Upper GI Procedures,967.5403,DRG
Abdominal/Peritoneal/Biliary and Related Procedures,2010.8108,DRG
Level 5 Airway Endoscopy,3369.39,DRG
" ""CIRCULATORY DISORDERS EXCEPT AMI, W CARD CATH W MCC""",13245.142856999999,Standard
" ACUTE MYOCARDIAL INFARCTION, DISCHARGED ALIVE W CC",6203.6739130000005,Standard
 HEART FAILURE & SHOCK W MCC,8583.7943925,Standard
 G.I. HEMORRHAGE W CC,5993.0666667,Standard
 G.I. OBSTRUCTION W CC,5379.357142899999,Standard
" CIRCULATORY DISORDERS EXCEPT AMI, W CARD CATH W/O MCC",7112.1153846,Standard
 MAJOR HIP AND KNEE JOINT REPLACEMENT OR REATTACHMENT OF LOWER EXTREM,11745.898551,Standard
 HIP & FEMUR PROCEDURES EXCEPT MAJOR JOINT W CC,12429.04,Standard
 CELLULITIS W/O MCC,5310.88,Standard
 G.I. HEMORRHAGE W MCC,9355.2307692,Standard
 DIABETES W MCC,7600.7272727,Standard
" MISC DISORDERS OF NUTRITION,METABOLISM,FLUIDS/ELECTROLYTES W MCC",6874.3333333,Standard
" ""MISC DISORDERS OF NUTRITION,METABOLISM,FLUIDS/ELECTROLYTES W/O MCC""",5009.5294118,Standard
 RENAL FAILURE W MCC,8501.518518500001,Standard
 RENAL FAILURE W CC,5775.1818182,Standard
 KIDNEY & URINARY TRACT INFECTIONS W/O MCC,4891.1333333,Standard
 OTHER KIDNEY & URINARY TRACT DIAGNOSES W MCC,8980.0,Standard
 DIABETES W CC,5377.636363600001,Standard
 CHEST PAIN,4610.4230769,Standard
" ""ESOPHAGITIS, GASTROENT & MISC DIGEST DISORDERS W/O MCC""",4994.2758621,Standard
 KIDNEY & URINARY TRACT INFECTIONS W MCC,6431.5454545,Standard
 HEART FAILURE & SHOCK W CC,6119.0625,Standard
 CARDIAC ARRHYTHMIA & CONDUCTION DISORDERS W/O CC/MCC,3811.8823529,Standard
 CARDIAC ARRHYTHMIA & CONDUCTION DISORDERS W MCC,7604.217391300001,Standard
 CARDIAC ARRHYTHMIA & CONDUCTION DISORDERS W CC,5054.8181818,Standard
