Description,Charge,Category
 COMPLICATIONS OF TREATMENT W MCC,14160.416667,Standard
 EXTENSIVE O.R. PROCEDURE UNRELATED TO PRINCIPAL DIAGNOSIS W MCC,30738.615385,Standard
 ALCOHOL/DRUG ABUSE OR DEPENDENCE W/O REHABILITATION THERAPY W/O MCC,6438.8181818,Standard
 EXTENSIVE O.R. PROCEDURE UNRELATED TO PRINCIPAL DIAGNOSIS W CC,17215.461538,Standard
Level 2 Breast/Lymphatic Surgery and Related Procedures,3629.50680851063,DRG
Level 4 Breast/Lymphatic Surgery and Related Procedures,8800.44666666666,DRG
Level 2 Musculoskeletal Procedures,995.095217391303,DRG
Level 3 Musculoskeletal Procedures,1974.25382608695,DRG
 OTHER VASCULAR PROCEDURES W CC,18346.024390000002,Standard
 OTHER VASCULAR PROCEDURES W/O CC/MCC,14161.55,Standard
 OTHER CIRCULATORY SYSTEM O.R. PROCEDURES,22063.578946999998,Standard
 ENDOVASCULAR CARDIAC VALVE REPLACEMENT W MCC,48036.761905,Standard
 ENDOVASCULAR CARDIAC VALVE REPLACEMENT W/O MCC,40358.636364,Standard
 AORTIC AND HEART ASSIST PROCEDURES EXCEPT PULSATION BALLOON W/O MCC,29818.515151999996,Standard
 OTHER MAJOR CARDIOVASCULAR PROCEDURES W CC,22682.833333000002,Standard
 PERCUTANEOUS INTRACARDIAC PROCEDURES W MCC,23538.416666999998,Standard
 PERCUTANEOUS INTRACARDIAC PROCEDURES W/O MCC,18893.962962999998,Standard
Level 1 Breast/Lymphatic Surgery and Related Procedures,1991.55838235293,DRG
" ""ACUTE MYOCARDIAL INFARCTION, DISCHARGED ALIVE W MCC""",12104.803922,Standard
Level 4 Musculoskeletal Procedures,4158.43014285713,DRG
Level 5 Musculoskeletal Procedures,8078.27804347825,DRG
" ""ACUTE MYOCARDIAL INFARCTION, DISCHARGED ALIVE W/O CC/MCC""",5791.15,Standard
" ""CIRCULATORY DISORDERS EXCEPT AMI, W CARD CATH W MCC""",17845.382353,Standard
" CIRCULATORY DISORDERS EXCEPT AMI, W CARD CATH W/O MCC",9093.0833333,Standard
 HEART FAILURE & SHOCK W MCC,11042.383512999999,Standard
 HEART FAILURE & SHOCK W CC,7583.8113208,Standard
 HEART FAILURE & SHOCK W/O CC/MCC,5564.2,Standard
 PERIPHERAL VASCULAR DISORDERS W MCC,11638.210526,Standard
 PERIPHERAL VASCULAR DISORDERS W CC,8021.625,Standard
 HYPERTENSION W/O MCC,5515.0740741,Standard
 CARDIAC ARRHYTHMIA & CONDUCTION DISORDERS W MCC,9663.022727299998,Standard
 CARDIAC ARRHYTHMIA & CONDUCTION DISORDERS W CC,6380.235294100001,Standard
" ACUTE MYOCARDIAL INFARCTION, DISCHARGED ALIVE W CC",7228.5666667,Standard
 CARDIAC ARRHYTHMIA & CONDUCTION DISORDERS W/O CC/MCC,4817.962963,Standard
 OTHER VASCULAR PROCEDURES W MCC,23993.148148,Standard
 PERCUTANEOUS CARDIOVASCULAR PROCEDURES W DRUG,27444.433332999997,Standard
 HEADACHES W/O MCC,6370.8181818,Standard
 MAJOR CHEST PROCEDURES W CC,19835.6,Standard
 OTHER RESP SYSTEM O.R. PROCEDURES W MCC,25617.090909,Standard
 PULMONARY EMBOLISM W MCC,11299.666667,Standard
 PULMONARY EMBOLISM W/O MCC,6841.9230769,Standard
Level 4 Endovascular Procedures,13425.5872972972,DRG
 RESPIRATORY INFECTIONS & INFLAMMATIONS W MCC,13678.047618999999,Standard
 RESPIRATORY NEOPLASMS W MCC,12615.666667,Standard
 RESPIRATORY NEOPLASMS W CC,9731.7777778,Standard
 MAJOR CHEST TRAUMA W CC,7483.0,Standard
 PULMONARY EDEMA & RESPIRATORY FAILURE,9381.7777778,Standard
 CHRONIC OBSTRUCTIVE PULMONARY DISEASE W MCC,8801.877193,Standard
 CHRONIC OBSTRUCTIVE PULMONARY DISEASE W CC,7001.45,Standard
 PERC CARDIOVASC PROC W DRUG,15218.989899,Standard
 SIMPLE PNEUMONIA & PLEURISY W MCC,9919.236842100001,Standard
 SIMPLE PNEUMONIA & PLEURISY W/O CC/MCC,5734.8461538,Standard
 PNEUMOTHORAX W CC,8466.5384615,Standard
 BRONCHITIS & ASTHMA W CC/MCC,7169.9473684,Standard
 RESPIRATORY SYSTEM DIAGNOSIS W VENTILATOR SUPPORT >96 HOURS,38659.083332999995,Standard
 RESPIRATORY SYSTEM DIAGNOSIS W VENTILATOR SUPPORT <=96 HOURS,17278.363636000002,Standard
 CARDIAC VALVE & OTH MAJ CARDIOTHORACIC PROC W/O CARD CATH W MCC,48507.153846,Standard
 CARDIAC VALVE & OTH MAJ CARDIOTHORACIC PROC W/O CARD CATH W CC,36068.16,Standard
 OTHER CARDIOTHORACIC PROCEDURES W/O MCC,30265.545455,Standard
 CORONARY BYPASS W/O CARDIAC CATH W MCC,53042.6,Standard
 CORONARY BYPASS W/O CARDIAC CATH W/O MCC,31107.380952,Standard
 PERMANENT CARDIAC PACEMAKER IMPLANT W MCC,24925.52381,Standard
 PERMANENT CARDIAC PACEMAKER IMPLANT W CC,17365.53125,Standard
 PERMANENT CARDIAC PACEMAKER IMPLANT W/O CC/MCC,15275.764706,Standard
 SIMPLE PNEUMONIA & PLEURISY W CC,7242.098591500001,Standard
 SEIZURES W/O MCC,6730.05,Standard
 SYNCOPE & COLLAPSE,6121.548387100001,Standard
 OTHER CIRCULATORY SYSTEM DIAGNOSES W CC,8065.4583333,Standard
Level 5 ENT Procedures,3192.9458461538397,DRG
Level 1 Endovascular Procedures,1803.4487152777697,DRG
Level 2 Endovascular Procedures,3788.8060465116296,DRG
 CERVICAL SPINAL FUSION W/O CC/MCC,17255.833333000002,Standard
Comprehensive Observation Services,1738.00244305241,DRG
Level 7 Radiation Therapy,5673.828717948721,DRG
"Level 3 Extraocular, Repair, and Plastic Eye Procedures",1366.8499999999901,DRG
Level 2 Intraocular Procedures,2660.6331111111103,DRG
Level 1 Intraocular Procedures,1446.68205882353,DRG
Level 4 Neurostimulator and Related Procedures,24985.180588235296,DRG
Level 1 Nerve Procedures,1210.50766666666,DRG
Level 5 Gynecologic Procedures,3023.36625,DRG
Level 4 Gynecologic Procedures,1637.41199999999,DRG
Level 5 Airway Endoscopy,3466.52105263157,DRG
Level 5 Urology and Related Services,2590.19329268293,DRG
Level 3 Urology and Related Services,1218.88882352941,DRG
Level 2 Laparoscopy and Related Services,5846.35282608695,DRG
Level 1 Laparoscopy and Related Services,3229.27042253521,DRG
Abdominal/Peritoneal/Biliary and Related Procedures,2106.1925490196,DRG
Complex GI Procedures,3239.96,DRG
Level 3 Lower GI Procedures,1652.91756756756,DRG
Level 3 Upper GI Procedures,2064.88629629629,DRG
Level 2 Upper GI Procedures,1036.63880733945,DRG
Level 2 ICD and Similar Procedures,27010.5784313725,DRG
Level 1 ICD and Similar Procedures,17762.2609090909,DRG
Level 3 Pacemaker and Similar Procedures,7881.58999999999,DRG
Level 2 Pacemaker and Similar Procedures,5565.375522388051,DRG
Level 3 Electrophysiologic Procedures,16082.3019831223,DRG
Level 4 Urology and Related Services,1959.6007407407396,DRG
 OTHER CIRCULATORY SYSTEM DIAGNOSES W MCC,12799.833333,Standard
 SIGNS & SYMPTOMS W/O MCC,6471.258064500001,Standard
Level 4 Airway Endoscopy,1974.44999999999,DRG
 MAJOR SMALL & LARGE BOWEL PROCEDURES W MCC,39095.904762,Standard
 MAJOR SMALL & LARGE BOWEL PROCEDURES W CC,19429.038462,Standard
 MAJOR SMALL & LARGE BOWEL PROCEDURES W/O CC/MCC,12482.241379000001,Standard
 MAJOR GASTROINTESTINAL DISORDERS & PERITONEAL INFECTIONS W MCC,13028.0,Standard
 MAJOR GASTROINTESTINAL DISORDERS & PERITONEAL INFECTIONS W CC,8731.3181818,Standard
 G.I. HEMORRHAGE W MCC,13038.06383,Standard
 G.I. HEMORRHAGE W CC,7724.9324324,Standard
 G.I. OBSTRUCTION W CC,7139.0,Standard
 G.I. OBSTRUCTION W/O CC/MCC,5145.277777800001,Standard
" ESOPHAGITIS, GASTROENT & MISC DIGEST DISORDERS W MCC",9472.8214286,Standard
" ""ESOPHAGITIS, GASTROENT & MISC DIGEST DISORDERS W/O MCC""",6293.5058824,Standard
 OTHER DIGESTIVE SYSTEM DIAGNOSES W MCC,13158.64,Standard
 OTHER DIGESTIVE SYSTEM DIAGNOSES W CC,7676.6666667,Standard
 COMPLICATIONS OF TREATMENT W CC,7546.0909091,Standard
 LAPAROSCOPIC CHOLECYSTECTOMY W/O C.D.E. W CC,12643.25,Standard
 DISORDERS OF PANCREAS EXCEPT MALIGNANCY W MCC,15713.666667,Standard
 DISORDERS OF PANCREAS EXCEPT MALIGNANCY W CC,7905.9285714,Standard
 DISORDERS OF PANCREAS EXCEPT MALIGNANCY W/O CC/MCC,5639.0625,Standard
 DISORDERS OF THE BILIARY TRACT W CC,8552.7333333,Standard
 COMBINED ANTERIOR/POSTERIOR SPINAL FUSION W CC,50235.11764700001,Standard
 COMBINED ANTERIOR/POSTERIOR SPINAL FUSION W/O CC/MCC,35005.428571,Standard
 SPINAL FUSION EXCEPT CERVICAL W/O MCC,28261.588235000003,Standard
 BILATERAL OR MULTIPLE MAJOR JOINT PROCS OF LOWER EXTREMITY W/O MCC,26618.565217,Standard
 REVISION OF HIP OR KNEE REPLACEMENT W CC,23643.733333,Standard
 REVISION OF HIP OR KNEE REPLACEMENT W/O CC/MCC,19785.136363999998,Standard
 MAJOR HIP AND KNEE JOINT REPLACEMENT OR REATTACHMENT OF LOWER EXTREM,19368.785713999998,Standard
 MAJOR HIP AND KNEE JOINT REPLACEMENT OR REATTACHMENT OF LOWER EXTREM,15617.84009,Standard
 CERVICAL SPINAL FUSION W CC,20924.6,Standard
 MALIGNANCY OF HEPATOBILIARY SYSTEM OR PANCREAS W MCC,14271.833333,Standard
 SEIZURES W MCC,13805.235294,Standard
Level 3 Endovascular Procedures,8304.276299559491,DRG
" TRAUMATIC STUPOR & COMA, COMA <1 HR W/O CC/MCC",6810.4074074,Standard
 CRANIOTOMY & ENDOVASCULAR INTRACRANIAL PROCEDURES W/O CC/MCC,16532.058824,Standard
 CRANIOTOMY & ENDOVASCULAR INTRACRANIAL PROCEDURES W CC,22285.769231000002,Standard
 CRANIOTOMY & ENDOVASCULAR INTRACRANIAL PROCEDURES W MCC,31760.888888999998,Standard
 CRANIO W MAJOR DEV IMPL/ACUTE COMPLEX CNS PDX W/O MCC,27666.583333,Standard
  CRANIOTOMY W MAJOR DEVICE IMPLANT OR ACUTE COMPLEX CNS PDX W MCC OR,41265.625,Standard
" TRACH W MV >96 HRS OR PDX EXC FACE, MOUTH & NECK W/O MAJ O.R.",67847.75,Standard
" ""ECMO OR TRACH W MV >96 HRS OR PDX EXC FACE, MOUTH & NECK W MAJ O.R.",101134.72727,Standard
Level 3 Excision/ Biopsy/ Incision and Drainage,1717.13764705882,DRG
Level 2 Excision/ Biopsy/ Incision and Drainage,996.9689276807891,DRG
 DIABETES W CC,7399.1538462,Standard
 HIP & FEMUR PROCEDURES EXCEPT MAJOR JOINT W MCC,18601.727273,Standard
 HIP & FEMUR PROCEDURES EXCEPT MAJOR JOINT W CC,14454.888888999998,Standard
 DIABETES W MCC,9941.133333299998,Standard
 HIP & FEMUR PROCEDURES EXCEPT MAJOR JOINT W/O CC/MCC,13374.484848,Standard
 MAJOR JOINT/LIMB REATTACHMENT PROCEDURE OF UPPER EXTREMITIES,15222.722222,Standard
" ""LOWER EXTREM & HUMER PROC EXCEPT HIP,FOOT,FEMUR W/O CC/MCC""",12926.0,Standard
 OTHER MUSCULOSKELET SYS & CONN TISS O.R. PROC W CC,13253.857143000001,Standard
" ""TRAUMA TO THE SKIN, SUBCUT TISS & BREAST W/O MCC""",6597.0,Standard
" FX, SPRN, STRN & DISL EXCEPT FEMUR, HIP, PELVIS & THIGH W/O MCC",6107.8947368,Standard
 MEDICAL BACK PROBLEMS W/O MCC,6741.3529412,Standard
 FRACTURES OF HIP & PELVIS W/O MCC,5922.9166667,Standard
 OTHER MUSCULOSKELET SYS & CONN TISS O.R. PROC W/O CC/MCC,10045.076923,Standard
 BACK & NECK PROC EXC SPINAL FUSION W CC,11696.636364,Standard
 BACK & NECK PROC EXC SPINAL FUSION W/O CC/MCC,9133.5714286,Standard
 OTHER DISORDERS OF NERVOUS SYSTEM W MCC,13198.0,Standard
 CAROTID ARTERY STENT PROCEDURE W CC,15218.9,Standard
 CAROTID ARTERY STENT PROCEDURE W/O CC/MCC,12695.222222,Standard
 CELLULITIS W/O MCC,7088.939393899999,Standard
" MISC DISORDERS OF NUTRITION,METABOLISM,FLUIDS/ELECTROLYTES W MCC",8586.1578947,Standard
 SEPTICEMIA OR SEVERE SEPSIS W/O MV >96 HOURS W MCC,13859.871428999999,Standard
 SEPTICEMIA OR SEVERE SEPSIS W MV >96 HOURS OR PERIPHERAL EXTRACORPOR,42145.6,Standard
 EXTRACRANIAL PROCEDURES W/O CC/MCC,7937.8181818,Standard
 POSTOPERATIVE & POST,13201.363636,Standard
 POSTOPERATIVE OR POST,14525.846153999999,Standard
 SEPTICEMIA OR SEVERE SEPSIS W/O MV >96 HOURS W/O MCC,8633.2716049,Standard
 INFECTIOUS & PARASITIC DISEASES W O.R. PROCEDURE W MCC,32970.395349,Standard
 CHEMOTHERAPY W/O ACUTE LEUKEMIA AS SECONDARY DIAGNOSIS W CC,9430.642857100001,Standard
 RED BLOOD CELL DISORDERS W/O MCC,7316.5405405,Standard
 RED BLOOD CELL DISORDERS W MCC,9956.1666667,Standard
 MAJOR HEMATOL/IMMUN DIAG EXC SICKLE CELL CRISIS & COAGUL W CC,9550.8235294,Standard
 MAJOR MALE PELVIC PROCEDURES W/O CC/MCC,17506.0,Standard
 OTHER KIDNEY & URINARY TRACT DIAGNOSES W MCC,11976.652173999999,Standard
" ""TRAUMATIC STUPOR & COMA, COMA <1 HR W CC""",8572.642857100001,Standard
" TRAUMATIC STUPOR & COMA, COMA >1 HR W CC",9177.6,Standard
 KIDNEY & URINARY TRACT INFECTIONS W MCC,8219.061224500001,Standard
 KIDNEY & URINARY TRACT SIGNS & SYMPTOMS W/O MCC,5766.636363600001,Standard
 KIDNEY & URINARY TRACT INFECTIONS W/O MCC,6378.1111111,Standard
 RENAL FAILURE W MCC,11085.145455,Standard
 NERVOUS SYSTEM NEOPLASMS W MCC,9683.3125,Standard
 RENAL FAILURE W CC,7637.507936499999,Standard
" ""MISC DISORDERS OF NUTRITION,METABOLISM,FLUIDS/ELECTROLYTES W/O MCC""",6329.5384615,Standard
 INTRACRANIAL HEMORRHAGE OR CEREBRAL INFARCTION W MCC,13349.015384999999,Standard
 INTRACRANIAL HEMORRHAGE OR CEREBRAL INFARCTION W CC OR TPA IN 24 HRS,8068.3421053,Standard
 INTRACRANIAL HEMORRHAGE OR CEREBRAL INFARCTION W/O CC/MCC,6246.45,Standard
 TRANSIENT ISCHEMIA W/O THROMBOLYTIC,5950.2727273,Standard
 DEGENERATIVE NERVOUS SYSTEM DISORDERS W/O MCC,9110.0,Standard
