Description,Charge,Category
Level 3 Musculoskeletal Procedures,1725.14111111111,DRG
Comprehensive Observation Services,1586.42530805686,DRG
Level 1 Intraocular Procedures,1324.55909090909,DRG
Level 1 Nerve Procedures,1098.53780487804,DRG
Level 4 Urology and Related Services,1862.19,DRG
Level 3 Urology and Related Services,1170.91999999999,DRG
Level 1 Laparoscopy and Related Services,3099.57,DRG
Abdominal/Peritoneal/Biliary and Related Procedures,1904.42842105263,DRG
Level 2 Upper GI Procedures,983.676764705882,DRG
Level 4 Musculoskeletal Procedures,3871.4,DRG
Level 4 Gynecologic Procedures,1569.41,DRG
Level 2 Excision/ Biopsy/ Incision and Drainage,898.0829032258059,DRG
 CHRONIC OBSTRUCTIVE PULMONARY DISEASE W CC,5407.6470588,Standard
 SEPTICEMIA OR SEVERE SEPSIS W/O MV >96 HOURS W/O MCC,7101.4242423999995,Standard
 CHRONIC OBSTRUCTIVE PULMONARY DISEASE W/O CC/MCC,4727.0,Standard
 SIMPLE PNEUMONIA & PLEURISY W MCC,8334.4285714,Standard
 SIMPLE PNEUMONIA & PLEURISY W CC,5360.4375,Standard
 SIMPLE PNEUMONIA & PLEURISY W/O CC/MCC,4088.3448276,Standard
 HEART FAILURE & SHOCK W MCC,8280.642857100001,Standard
 HEART FAILURE & SHOCK W CC,5577.6470588,Standard
 HEART FAILURE & SHOCK W/O CC/MCC,3862.0769231,Standard
 CARDIAC ARRHYTHMIA & CONDUCTION DISORDERS W MCC,6795.9333333,Standard
 SIGNS & SYMPTOMS W/O MCC,4239.2727273,Standard
 CARDIAC ARRHYTHMIA & CONDUCTION DISORDERS W CC,4465.55,Standard
 CELLULITIS W/O MCC,5025.6875,Standard
 KIDNEY & URINARY TRACT INFECTIONS W/O MCC,4605.4736842,Standard
" ""MISC DISORDERS OF NUTRITION,METABOLISM,FLUIDS/ELECTROLYTES W/O MCC""",4194.9473684,Standard
 CARDIAC ARRHYTHMIA & CONDUCTION DISORDERS W/O CC/MCC,4931.095238100001,Standard
 HIP & FEMUR PROCEDURES EXCEPT MAJOR JOINT W CC,11562.894737,Standard
 MAJOR HIP AND KNEE JOINT REPLACEMENT OR REATTACHMENT OF LOWER EXTREM,12340.25641,Standard
" ""ESOPHAGITIS, GASTROENT & MISC DIGEST DISORDERS W/O MCC""",4563.2083333,Standard
 G.I. OBSTRUCTION W/O CC/MCC,3457.1818181999997,Standard
 G.I. HEMORRHAGE W CC,5492.0526316000005,Standard
 SEPTICEMIA OR SEVERE SEPSIS W/O MV >96 HOURS W MCC,10305.473684,Standard
