Description,Charge,Category
 PERMANENT CARDIAC PACEMAKER IMPLANT W CC,19550.230768999998,Standard
 HEART FAILURE & SHOCK W CC,6107.070175399999,Standard
 HEART FAILURE & SHOCK W MCC,9007.4840426,Standard
" CIRCULATORY DISORDERS EXCEPT AMI, W CARD CATH W/O MCC",7359.8783784,Standard
" ""CIRCULATORY DISORDERS EXCEPT AMI, W CARD CATH W MCC""",13971.982759,Standard
" ACUTE MYOCARDIAL INFARCTION, DISCHARGED ALIVE W CC",6656.65,Standard
 OTHER MAJOR CARDIOVASCULAR PROCEDURES W MCC,42573.818182,Standard
 PERCUTANEOUS INTRACARDIAC PROCEDURES W/O MCC,16554.125,Standard
 HEART FAILURE & SHOCK W/O CC/MCC,4437.6190476,Standard
 OTHER CIRCULATORY SYSTEM O.R. PROCEDURES,21694.692308,Standard
 OTHER VASCULAR PROCEDURES W CC,20227.789474,Standard
 OTHER VASCULAR PROCEDURES W MCC,20420.894737,Standard
 PERC CARDIOVASC PROC W DRUG,14224.757575999998,Standard
 PERCUTANEOUS CARDIOVASCULAR PROCEDURES W DRUG,20411.565217,Standard
" ""ACUTE MYOCARDIAL INFARCTION, DISCHARGED ALIVE W MCC""",10422.153846,Standard
 PERIPHERAL VASCULAR DISORDERS W CC,6587.0,Standard
 CARDIAC ARRHYTHMIA & CONDUCTION DISORDERS W/O CC/MCC,3877.36,Standard
 HYPERTENSION W MCC,6626.6923077,Standard
 MAJOR SMALL & LARGE BOWEL PROCEDURES W/O CC/MCC,15974.0,Standard
 MAJOR GASTROINTESTINAL DISORDERS & PERITONEAL INFECTIONS W MCC,10137.0,Standard
 MAJOR SMALL & LARGE BOWEL PROCEDURES W CC,16043.677419,Standard
 MAJOR GASTROINTESTINAL DISORDERS & PERITONEAL INFECTIONS W CC,7623.740740700001,Standard
 DIGESTIVE MALIGNANCY W CC,7663.1666667,Standard
 PERMANENT CARDIAC PACEMAKER IMPLANT W MCC,29251.5,Standard
 ATHEROSCLEROSIS W/O MCC,4363.0666667,Standard
 EXTENSIVE O.R. PROCEDURE UNRELATED TO PRINCIPAL DIAGNOSIS W CC,14541.117647,Standard
 OTHER CIRCULATORY SYSTEM DIAGNOSES W MCC,11752.72973,Standard
 CHEST PAIN,4688.4814815,Standard
 SYNCOPE & COLLAPSE,5157.0,Standard
 CARDIAC ARRHYTHMIA & CONDUCTION DISORDERS W CC,5176.6037736,Standard
 CARDIAC ARRHYTHMIA & CONDUCTION DISORDERS W MCC,7668.5918366999995,Standard
 HYPERTENSION W/O MCC,4776.2631579,Standard
 OTHER CIRCULATORY SYSTEM DIAGNOSES W CC,6008.5,Standard
 CORONARY BYPASS W CARDIAC CATH W/O MCC,42867.5,Standard
 RESPIRATORY INFECTIONS & INFLAMMATIONS W MCC,10822.960784,Standard
 CARDIAC VALVE & OTH MAJ CARDIOTHORACIC PROC W/O CARD CATH W CC,34900.818182,Standard
 DYSEQUILIBRIUM,4605.6666667,Standard
 SEIZURES W/O MCC,5253.1333333,Standard
 SEIZURES W MCC,10357.952381000001,Standard
" TRAUMATIC STUPOR & COMA, COMA <1 HR W/O CC/MCC",5362.2727273,Standard
" ""TRAUMATIC STUPOR & COMA, COMA <1 HR W CC""",7177.5,Standard
" TRAUMATIC STUPOR & COMA, COMA <1 HR W MCC",11444.615385,Standard
 CRANIAL & PERIPHERAL NERVE DISORDERS W/O MCC,6962.1666667,Standard
 NONSPECIFIC CEREBROVASCULAR DISORDERS W CC,6137.642857100001,Standard
 TRANSIENT ISCHEMIA W/O THROMBOLYTIC,5029.0303030000005,Standard
 NONSPECIFIC CVA & PRECEREBRAL OCCLUSION W/O INFARCT W/O MCC,5716.9166667,Standard
 INTRACRANIAL HEMORRHAGE OR CEREBRAL INFARCTION W/O CC/MCC,5060.0,Standard
 INTRACRANIAL HEMORRHAGE OR CEREBRAL INFARCTION W CC OR TPA IN 24 HRS,6682.4137931000005,Standard
 INTRACRANIAL HEMORRHAGE OR CEREBRAL INFARCTION W MCC,11414.75,Standard
 DEGENERATIVE NERVOUS SYSTEM DISORDERS W/O MCC,6962.375,Standard
 DEGENERATIVE NERVOUS SYSTEM DISORDERS W MCC,10355.375,Standard
 MAJOR CHEST PROCEDURES W MCC,35420.363636,Standard
 CORONARY BYPASS W CARDIAC CATH W MCC,39910.384614999995,Standard
 OTHER RESP SYSTEM O.R. PROCEDURES W MCC,23215.0,Standard
 PULMONARY EMBOLISM W/O MCC,5716.8235294,Standard
 CARDIAC VALVE & OTH MAJ CARDIOTHORACIC PROC W/O CARD CATH W MCC,49369.363636,Standard
 OTHER HEART ASSIST SYSTEM IMPLANT,72448.8125,Standard
 RESPIRATORY SYSTEM DIAGNOSIS W VENTILATOR SUPPORT <=96 HOURS,15226.803571,Standard
 BRONCHITIS & ASTHMA W CC/MCC,6226.2272727,Standard
 SIMPLE PNEUMONIA & PLEURISY W/O CC/MCC,4961.6666667,Standard
 SIMPLE PNEUMONIA & PLEURISY W CC,5930.632183899999,Standard
 SIMPLE PNEUMONIA & PLEURISY W MCC,8501.1058201,Standard
 CHRONIC OBSTRUCTIVE PULMONARY DISEASE W/O CC/MCC,5242.533333300001,Standard
 CHRONIC OBSTRUCTIVE PULMONARY DISEASE W CC,5891.0,Standard
 CHRONIC OBSTRUCTIVE PULMONARY DISEASE W MCC,7296.927835100001,Standard
 PULMONARY EDEMA & RESPIRATORY FAILURE,7700.993939399999,Standard
 MAJOR CHEST TRAUMA W CC,6869.2727273,Standard
 RESPIRATORY NEOPLASMS W MCC,13816.823529,Standard
 RESPIRATORY INFECTIONS & INFLAMMATIONS W CC,8080.9230769,Standard
 G.I. HEMORRHAGE W MCC,10489.533333,Standard
 PULMONARY EMBOLISM W MCC,9110.3461538,Standard
 G.I. HEMORRHAGE W CC,6246.511363600001,Standard
 SPINAL FUSION EXCEPT CERVICAL W/O MCC,28325.918919,Standard
 G.I. OBSTRUCTION W CC,5442.6190476,Standard
 SEPTICEMIA OR SEVERE SEPSIS W MV >96 HOURS OR PERIPHERAL EXTRACORPOR,35298.6,Standard
 SEPTICEMIA OR SEVERE SEPSIS W/O MV >96 HOURS W MCC,11448.459057,Standard
 SEPTICEMIA OR SEVERE SEPSIS W/O MV >96 HOURS W/O MCC,7102.3846154,Standard
 ORGANIC DISTURBANCES & INTELLECTUAL DISABILITY,7547.6666667,Standard
 PSYCHOSES,7488.4086022,Standard
 ALCOHOL/DRUG ABUSE OR DEPENDENCE W/O REHABILITATION THERAPY W/O MCC,5132.6956522,Standard
 POSTOPERATIVE & POST,6471.466666699999,Standard
 OTHER O.R. PROCEDURES FOR INJURIES W MCC,26867.8125,Standard
 POISONING & TOXIC EFFECTS OF DRUGS W MCC,8579.611111100001,Standard
 POISONING & TOXIC EFFECTS OF DRUGS W/O MCC,4903.125,Standard
 COMPLICATIONS OF TREATMENT W MCC,11835.5,Standard
 COMPLICATIONS OF TREATMENT W CC,6932.0,Standard
 SIGNS & SYMPTOMS W/O MCC,4788.1666667,Standard
 EXTENSIVE O.R. PROCEDURE UNRELATED TO PRINCIPAL DIAGNOSIS W MCC,25851.857143,Standard
 OTHER O.R. PROCEDURES FOR INJURIES W CC,12295.583333,Standard
 POSTOPERATIVE OR POST,13544.75,Standard
 POSTOPERATIVE OR POST,23832.272727,Standard
 INFECTIOUS & PARASITIC DISEASES W O.R. PROCEDURE W MCC,28560.685185000002,Standard
 TRANSURETHRAL PROCEDURES W CC,9513.576923100001,Standard
 RENAL FAILURE W MCC,10082.180951999999,Standard
 RENAL FAILURE W CC,6470.6722689,Standard
 RENAL FAILURE W/O CC/MCC,4184.6153846,Standard
 NERVOUS SYSTEM NEOPLASMS W MCC,8020.0909091,Standard
 KIDNEY & URINARY TRACT INFECTIONS W MCC,6708.25,Standard
 KIDNEY & URINARY TRACT INFECTIONS W/O MCC,5413.354838699999,Standard
 OTHER KIDNEY & URINARY TRACT DIAGNOSES W MCC,9598.0597015,Standard
 OTHER KIDNEY & URINARY TRACT DIAGNOSES W CC,7780.1052632,Standard
 MAJOR MALE PELVIC PROCEDURES W CC/MCC,18074.583333000002,Standard
 MAJOR MALE PELVIC PROCEDURES W/O CC/MCC,10239.117647,Standard
 TRANSURETHRAL PROSTATECTOMY W CC/MCC,8835.0,Standard
 RED BLOOD CELL DISORDERS W MCC,8312.2222222,Standard
 RED BLOOD CELL DISORDERS W/O MCC,5575.5,Standard
 COAGULATION DISORDERS,10768.285714,Standard
 ENDOCRINE DISORDERS W MCC,9948.8461538,Standard
 G.I. OBSTRUCTION W MCC,9111.923076899999,Standard
" ""MISC DISORDERS OF NUTRITION,METABOLISM,FLUIDS/ELECTROLYTES W/O MCC""",4990.5609756,Standard
 DIABETES W CC,5496.4571429,Standard
 SPINAL FUSION EXCEPT CERVICAL W MCC,33034.190475999996,Standard
 COMBINED ANTERIOR/POSTERIOR SPINAL FUSION W CC,51011.066667,Standard
" ""DISORDERS OF LIVER EXCEPT MALIG,CIRR,ALC HEPA W MCC""",10520.5625,Standard
 DISORDERS OF PANCREAS EXCEPT MALIGNANCY W/O CC/MCC,5236.4285714,Standard
 DISORDERS OF PANCREAS EXCEPT MALIGNANCY W CC,5659.3684211,Standard
 DISORDERS OF PANCREAS EXCEPT MALIGNANCY W MCC,10233.882353,Standard
 REVISION OF HIP OR KNEE REPLACEMENT W CC,23046.666666999998,Standard
 CIRRHOSIS & ALCOHOLIC HEPATITIS W CC,6482.0714286,Standard
 LAPAROSCOPIC CHOLECYSTECTOMY W/O C.D.E. W CC,10283.3125,Standard
 OTHER DIGESTIVE SYSTEM DIAGNOSES W CC,6594.7407407,Standard
 OTHER DIGESTIVE SYSTEM DIAGNOSES W MCC,10231.0625,Standard
" ""ESOPHAGITIS, GASTROENT & MISC DIGEST DISORDERS W/O MCC""",5343.0634921,Standard
" ESOPHAGITIS, GASTROENT & MISC DIGEST DISORDERS W MCC",8130.0,Standard
 G.I. OBSTRUCTION W/O CC/MCC,4440.5384615,Standard
 CIRRHOSIS & ALCOHOLIC HEPATITIS W MCC,11063.0,Standard
 REVISION OF HIP OR KNEE REPLACEMENT W/O CC/MCC,16944.428571,Standard
 MAJOR HIP AND KNEE JOINT REPLACEMENT OR REATTACHMENT OF LOWER EXTREM,17930.086957,Standard
 MAJOR HIP AND KNEE JOINT REPLACEMENT OR REATTACHMENT OF LOWER EXTREM,14212.775194,Standard
 DIABETES W MCC,8868.322580600001,Standard
" ""AMPUTAT OF LOWER LIMB FOR ENDOCRINE,NUTRIT,& METABOL DIS W CC""",13274.0,Standard
 CELLULITIS W/O MCC,5507.8035714,Standard
 CELLULITIS W MCC,8666.6666667,Standard
 OTHER MUSCULOSKELETAL SYS & CONNECTIVE TISSUE DIAGNOSES W CC,6075.363636399999,Standard
" FX, SPRN, STRN & DISL EXCEPT FEMUR, HIP, PELVIS & THIGH W/O MCC",5341.0909091,Standard
 MEDICAL BACK PROBLEMS W/O MCC,7011.121212100001,Standard
 MEDICAL BACK PROBLEMS W MCC,9377.6666667,Standard
" LOWER EXTREM & HUMER PROC EXCEPT HIP,FOOT,FEMUR W CC",14657.0,Standard
 MAJOR JOINT/LIMB REATTACHMENT PROCEDURE OF UPPER EXTREMITIES,15036.321429,Standard
 HIP & FEMUR PROCEDURES EXCEPT MAJOR JOINT W/O CC/MCC,10266.727273,Standard
 HIP & FEMUR PROCEDURES EXCEPT MAJOR JOINT W CC,12221.325,Standard
 HIP & FEMUR PROCEDURES EXCEPT MAJOR JOINT W MCC,17227.173913,Standard
 CERVICAL SPINAL FUSION W/O CC/MCC,15441.238094999999,Standard
 CERVICAL SPINAL FUSION W CC,19332.736842,Standard
" MISC DISORDERS OF NUTRITION,METABOLISM,FLUIDS/ELECTROLYTES W MCC",8063.4042553,Standard
 CAROTID ARTERY STENT PROCEDURE W/O CC/MCC,11728.526316,Standard
 MAJOR SMALL & LARGE BOWEL PROCEDURES W MCC,30036.459458999998,Standard
 CAROTID ARTERY STENT PROCEDURE W MCC,27638.7,Standard
Level 1 Breast/Lymphatic Surgery and Related Procedures,1972.3938636363603,DRG
Level 2 Breast/Lymphatic Surgery and Related Procedures,3566.08,DRG
Level 2 Musculoskeletal Procedures,952.1820689655169,DRG
Level 1 Intraocular Procedures,1410.7961764705801,DRG
Level 3 Musculoskeletal Procedures,1824.04275862068,DRG
Level 4 Musculoskeletal Procedures,4154.92,DRG
Level 5 Musculoskeletal Procedures,8062.25333333332,DRG
Level 4 ENT Procedures,1629.72,DRG
Level 1 Endovascular Procedures,1774.8674009901101,DRG
Level 2 Endovascular Procedures,3636.1299999999896,DRG
Level 3 Endovascular Procedures,8250.63269076302,DRG
 CAROTID ARTERY STENT PROCEDURE W CC,13438.0,Standard
Level 4 Endovascular Procedures,12956.544583333301,DRG
Implantation Wireless PA Pressure Monitor,28913.07,DRG
Level 3 Electrophysiologic Procedures,15445.643170731699,DRG
Level 2 Pacemaker and Similar Procedures,5515.1,DRG
Level 3 Pacemaker and Similar Procedures,7529.13365853658,DRG
Level 4 Neurostimulator and Related Procedures,24525.04,DRG
Level 2 Neurostimulator and Related Procedures,2987.73428571428,DRG
Level 1 Nerve Procedures,1170.78623188405,DRG
Level 5 Gynecologic Procedures,2724.99333333333,DRG
Level 4 Gynecologic Procedures,1613.81799999999,DRG
Level 5 Urology and Related Services,2687.4708866995,DRG
Level 3 Excision/ Biopsy/ Incision and Drainage,1657.9330188679198,DRG
Level 4 Urology and Related Services,1996.79890909091,DRG
Level 2 Laparoscopy and Related Services,5370.93492307692,DRG
Level 1 Laparoscopy and Related Services,3236.79778761061,DRG
Abdominal/Peritoneal/Biliary and Related Procedures,2059.92221052631,DRG
Level 3 Upper GI Procedures,1798.5730769230702,DRG
Level 2 Upper GI Procedures,1035.11639344262,DRG
Level 2 ICD and Similar Procedures,27365.5042553191,DRG
Level 3 Urology and Related Services,1256.66,DRG
Level 2 Excision/ Biopsy/ Incision and Drainage,970.781031250003,DRG
Comprehensive Observation Services,1709.49639278555,DRG
 CRANIOTOMY & ENDOVASCULAR INTRACRANIAL PROCEDURES W MCC,28555.272727,Standard
  CRANIOTOMY W MAJOR DEVICE IMPLANT OR ACUTE COMPLEX CNS PDX W MCC OR,34040.714286,Standard
