Description,Charge,Category
 SPINAL FUS EXC CERV W SPINAL CURV/MALIG/INFEC OR EXT FUS W/O CC/MCC,33594.125,Standard
 SPINAL FUSION EXCEPT CERVICAL W/O MCC,27839.196262,Standard
 MAJOR HIP AND KNEE JOINT REPLACEMENT OR REATTACHMENT OF LOWER EXTREM,16946.851852,Standard
" WND DEBRID & SKN GRFT EXC HAND, FOR MUSCULO",15337.333333,Standard
 REVISION OF HIP OR KNEE REPLACEMENT W CC,22344.3,Standard
 SPINAL FUS EXC CERV W SPINAL CURV/MALIG/INFEC OR EXT FUS W CC,43289.466667,Standard
Level 2 Musculoskeletal Procedures,979.99,DRG
Level 3 Musculoskeletal Procedures,1878.9609615384602,DRG
 MAJOR JOINT/LIMB REATTACHMENT PROCEDURE OF UPPER EXTREMITIES,15498.113861000002,Standard
Level 5 Musculoskeletal Procedures,8242.12565420562,DRG
Level 4 Musculoskeletal Procedures,4141.82393939394,DRG
 COMBINED ANTERIOR/POSTERIOR SPINAL FUSION W/O CC/MCC,37985.4,Standard
 COMBINED ANTERIOR/POSTERIOR SPINAL FUSION W CC,42300.714286,Standard
 REVISION OF HIP OR KNEE REPLACEMENT W/O CC/MCC,18436.744444,Standard
 CERVICAL SPINAL FUSION W/O CC/MCC,16863.933333,Standard
 CERVICAL SPINAL FUSION W CC,16645.153846,Standard
 MAJOR HIP AND KNEE JOINT REPLACEMENT OR REATTACHMENT OF LOWER EXTREM,12488.64617,Standard
Level 1 Nerve Procedures,1233.94649999999,DRG
 BONE DISEASES & ARTHROPATHIES W/O MCC,4306.0909091,Standard
