Description,Charge,Category
 MAJOR SMALL & LARGE BOWEL PROCEDURES W/O CC/MCC,10093.941176,Standard
 EXTENSIVE O.R. PROCEDURE UNRELATED TO PRINCIPAL DIAGNOSIS W MCC,23162.0,Standard
 G.I. HEMORRHAGE W/O CC/MCC,3798.1538462,Standard
 G.I. HEMORRHAGE W CC,5576.4081633000005,Standard
 G.I. HEMORRHAGE W MCC,11881.0,Standard
 MAJOR GASTROINTESTINAL DISORDERS & PERITONEAL INFECTIONS W CC,6060.7857143,Standard
 MAJOR SMALL & LARGE BOWEL PROCEDURES W CC,14451.0,Standard
 MAJOR JOINT/LIMB REATTACHMENT PROCEDURE OF UPPER EXTREMITIES,13655.314286,Standard
 OTHER CIRCULATORY SYSTEM DIAGNOSES W MCC,10298.3125,Standard
 CHEST PAIN,4008.4285714000002,Standard
 SYNCOPE & COLLAPSE,4605.9090909,Standard
 CARDIAC ARRHYTHMIA & CONDUCTION DISORDERS W/O CC/MCC,3256.0909091,Standard
 CARDIAC ARRHYTHMIA & CONDUCTION DISORDERS W CC,4442.9032258,Standard
 SIGNS & SYMPTOMS W/O MCC,4519.095238100001,Standard
 MAJOR SMALL & LARGE BOWEL PROCEDURES W MCC,28061.0,Standard
 ALCOHOL/DRUG ABUSE OR DEPENDENCE W/O REHABILITATION THERAPY W/O MCC,4271.6111111,Standard
 SEPTICEMIA OR SEVERE SEPSIS W/O MV >96 HOURS W/O MCC,6065.9512195,Standard
 SEPTICEMIA OR SEVERE SEPSIS W/O MV >96 HOURS W MCC,10537.281481,Standard
 HIP & FEMUR PROCEDURES EXCEPT MAJOR JOINT W/O CC/MCC,9419.5714286,Standard
 CERVICAL SPINAL FUSION W/O CC/MCC,12913.090909,Standard
 MAJOR HIP AND KNEE JOINT REPLACEMENT OR REATTACHMENT OF LOWER EXTREM,11499.993548,Standard
 SPINAL FUSION EXCEPT CERVICAL W/O MCC,22967.727273,Standard
 COMBINED ANTERIOR/POSTERIOR SPINAL FUSION W/O CC/MCC,29404.588235000003,Standard
 COMBINED ANTERIOR/POSTERIOR SPINAL FUSION W CC,38227.230769,Standard
" DISORDERS OF LIVER EXCEPT MALIG,CIRR,ALC HEPA W CC",5374.0,Standard
 LAPAROSCOPIC CHOLECYSTECTOMY W/O C.D.E. W/O CC/MCC,7891.285714300001,Standard
 LAPAROSCOPIC CHOLECYSTECTOMY W/O C.D.E. W CC,9505.4615385,Standard
 OTHER DIGESTIVE SYSTEM DIAGNOSES W CC,5405.0,Standard
 OTHER DIGESTIVE SYSTEM DIAGNOSES W MCC,9267.3333333,Standard
" ""ESOPHAGITIS, GASTROENT & MISC DIGEST DISORDERS W/O MCC""",4541.4038462,Standard
" ESOPHAGITIS, GASTROENT & MISC DIGEST DISORDERS W MCC",7094.125,Standard
 G.I. OBSTRUCTION W/O CC/MCC,3460.7894736999997,Standard
 G.I. OBSTRUCTION W CC,4916.0645161,Standard
 OTHER MUSCULOSKELET SYS & CONN TISS O.R. PROC W/O CC/MCC,8198.1764706,Standard
 MEDICAL BACK PROBLEMS W/O MCC,5155.9,Standard
 CELLULITIS W MCC,8347.0,Standard
 CELLULITIS W/O MCC,4858.8461538,Standard
" MISC DISORDERS OF NUTRITION,METABOLISM,FLUIDS/ELECTROLYTES W MCC",6542.642857100001,Standard
" ""MISC DISORDERS OF NUTRITION,METABOLISM,FLUIDS/ELECTROLYTES W/O MCC""",4345.3103448,Standard
 RENAL FAILURE W MCC,8228.479166699999,Standard
 RENAL FAILURE W CC,5289.4307692,Standard
 KIDNEY & URINARY TRACT INFECTIONS W MCC,6162.1,Standard
 KIDNEY & URINARY TRACT INFECTIONS W/O MCC,4586.1830986,Standard
 URINARY STONES W/O ESW LITHOTRIPSY W/O MCC,4697.3888889,Standard
 RED BLOOD CELL DISORDERS W MCC,7634.0,Standard
 RED BLOOD CELL DISORDERS W/O MCC,5114.2916667,Standard
 INFECTIOUS & PARASITIC DISEASES W O.R. PROCEDURE W MCC,33250.674419,Standard
 OTHER MUSCULOSKELET SYS & CONN TISS O.R. PROC W CC,10574.0,Standard
 HIP & FEMUR PROCEDURES EXCEPT MAJOR JOINT W CC,11421.9,Standard
 OTHER RESP SYSTEM O.R. PROCEDURES W MCC,20243.105263,Standard
" CIRCULATORY DISORDERS EXCEPT AMI, W CARD CATH W/O MCC",6757.0666667,Standard
Level 4 Musculoskeletal Procedures,4057.07818681318,DRG
Level 3 Musculoskeletal Procedures,1938.11,DRG
Level 2 Musculoskeletal Procedures,987.138181818181,DRG
Level 2 Breast/Lymphatic Surgery and Related Procedures,3525.5599999999895,DRG
Level 1 Breast/Lymphatic Surgery and Related Procedures,1989.3738709677398,DRG
Level 3 Excision/ Biopsy/ Incision and Drainage,1581.71,DRG
Level 2 Excision/ Biopsy/ Incision and Drainage,967.837142857141,DRG
Comprehensive Observation Services,1640.70647058824,DRG
Level 2 Intraocular Procedures,2642.1163829787197,DRG
Level 6 Gynecologic Procedures,4469.5888,DRG
Level 5 Gynecologic Procedures,2938.94999999999,DRG
Level 4 Gynecologic Procedures,1659.19749999999,DRG
Level 5 Urology and Related Services,2616.59072727272,DRG
Level 5 Musculoskeletal Procedures,7886.62249999999,DRG
Level 4 Urology and Related Services,1912.6140625,DRG
Level 2 Laparoscopy and Related Services,5224.542799999989,DRG
Level 1 Laparoscopy and Related Services,3185.91507936508,DRG
Abdominal/Peritoneal/Biliary and Related Procedures,2124.50058823529,DRG
Level 3 Lower GI Procedures,1582.4776190476098,DRG
Level 2 Upper GI Procedures,1039.2981818181802,DRG
Level 2 ICD and Similar Procedures,27043.44,DRG
Level 3 Pacemaker and Similar Procedures,7614.49,DRG
Level 2 Pacemaker and Similar Procedures,5335.1068627451,DRG
Level 3 Endovascular Procedures,8025.103095238101,DRG
Level 2 Endovascular Procedures,3725.67999999999,DRG
Level 1 Endovascular Procedures,1745.82035714285,DRG
Level 5 ENT Procedures,3172.1080952380894,DRG
Level 4 Airway Endoscopy,1917.11,DRG
Level 3 Urology and Related Services,1224.62243589743,DRG
 HEART FAILURE & SHOCK W MCC,8159.363636399999,Standard
Level 3 Airway Endoscopy,969.85,DRG
 DIABETES W CC,5154.75,Standard
" ""CIRCULATORY DISORDERS EXCEPT AMI, W CARD CATH W MCC""",15505.615385,Standard
" ACUTE MYOCARDIAL INFARCTION, DISCHARGED ALIVE W CC",5331.8235294,Standard
" ""ACUTE MYOCARDIAL INFARCTION, DISCHARGED ALIVE W MCC""",8680.133333299998,Standard
 PERC CARDIOVASC PROC W DRUG,12066.676470999999,Standard
 PERCUTANEOUS CARDIOVASCULAR PROCEDURES W DRUG,18886.434783,Standard
 CORONARY BYPASS W/O CARDIAC CATH W/O MCC,20484.733333,Standard
 CORONARY BYPASS W CARDIAC CATH W/O MCC,27174.875,Standard
 CORONARY BYPASS W CARDIAC CATH W MCC,37713.181818,Standard
 RESPIRATORY SYSTEM DIAGNOSIS W VENTILATOR SUPPORT <=96 HOURS,13963.488372,Standard
 BRONCHITIS & ASTHMA W CC/MCC,5302.5263158,Standard
 SIMPLE PNEUMONIA & PLEURISY W/O CC/MCC,4188.5,Standard
 SIMPLE PNEUMONIA & PLEURISY W CC,5444.7936508,Standard
 SIMPLE PNEUMONIA & PLEURISY W MCC,7839.563636399999,Standard
 CHRONIC OBSTRUCTIVE PULMONARY DISEASE W CC,5271.9705882,Standard
 PULMONARY EDEMA & RESPIRATORY FAILURE,7164.983333300001,Standard
 PULMONARY EMBOLISM W/O MCC,5135.0,Standard
 PULMONARY EMBOLISM W MCC,8367.75,Standard
 OTHER RESP SYSTEM O.R. PROCEDURES W CC,10958.666667,Standard
 CARDIAC ARRHYTHMIA & CONDUCTION DISORDERS W MCC,6977.7916667,Standard
 SEIZURES W/O MCC,5064.6666667,Standard
 SEIZURES W MCC,8621.307692299999,Standard
 TRANSIENT ISCHEMIA W/O THROMBOLYTIC,4314.4166667,Standard
 INTRACRANIAL HEMORRHAGE OR CEREBRAL INFARCTION W/O CC/MCC,4240.0833333,Standard
 INTRACRANIAL HEMORRHAGE OR CEREBRAL INFARCTION W CC OR TPA IN 24 HRS,5893.5714286,Standard
 INTRACRANIAL HEMORRHAGE OR CEREBRAL INFARCTION W MCC,9451.090909100001,Standard
 HYPERTENSION W/O MCC,4022.4090909,Standard
 HEART FAILURE & SHOCK W/O CC/MCC,3891.4545454999998,Standard
 CHRONIC OBSTRUCTIVE PULMONARY DISEASE W MCC,6746.0126582,Standard
 HEART FAILURE & SHOCK W CC,5464.575,Standard
