Description,Charge,Category
 SEPTICEMIA OR SEVERE SEPSIS W/O MV >96 HOURS W MCC,19763.806452,Standard
 HEART FAILURE & SHOCK W MCC,13207.380952,Standard
" CIRCULATORY DISORDERS EXCEPT AMI, W CARD CATH W/O MCC",11169.818181999999,Standard
 CHRONIC OBSTRUCTIVE PULMONARY DISEASE W CC,9235.1538462,Standard
 CHRONIC OBSTRUCTIVE PULMONARY DISEASE W MCC,11426.625,Standard
Level 2 Musculoskeletal Procedures,925.500333333333,DRG
Level 3 Musculoskeletal Procedures,1843.43959999999,DRG
Level 1 Endovascular Procedures,1792.99,DRG
Level 5 Musculoskeletal Procedures,8004.29999999999,DRG
 HEART FAILURE & SHOCK W CC,9452.4615385,Standard
Level 2 Endovascular Procedures,3740.6510256410206,DRG
Level 1 Laparoscopy and Related Services,3305.23999999999,DRG
Level 3 Urology and Related Services,1248.6199999999901,DRG
Level 1 Nerve Procedures,1166.37988095238,DRG
Level 4 Musculoskeletal Procedures,3922.08189473684,DRG
 HYPERTENSION W MCC,9373.5714286,Standard
" ""ESOPHAGITIS, GASTROENT & MISC DIGEST DISORDERS W/O MCC""",7280.538461499999,Standard
 G.I. HEMORRHAGE W CC,10138.272727,Standard
 INFECTIOUS & PARASITIC DISEASES W O.R. PROCEDURE W MCC,39657.75,Standard
 RED BLOOD CELL DISORDERS W/O MCC,9081.923076899999,Standard
 RED BLOOD CELL DISORDERS W MCC,12562.909091,Standard
 KIDNEY & URINARY TRACT INFECTIONS W/O MCC,8782.625,Standard
 O.R. PROCEDURES FOR OBESITY W/O CC/MCC,13956.083333,Standard
 CELLULITIS W/O MCC,9297.4545455,Standard
 OTHER CIRCULATORY SYSTEM DIAGNOSES W MCC,16828.636363999998,Standard
 BACK & NECK PROC EXC SPINAL FUSION W CC,15903.333333,Standard
 REVISION OF HIP OR KNEE REPLACEMENT W/O CC/MCC,30509.0,Standard
 REVISION OF HIP OR KNEE REPLACEMENT W CC,28122.705882,Standard
 SPINAL FUSION EXCEPT CERVICAL W/O MCC,34093.642857,Standard
 COMBINED ANTERIOR/POSTERIOR SPINAL FUSION W/O CC/MCC,40960.68,Standard
 COMBINED ANTERIOR/POSTERIOR SPINAL FUSION W CC,51725.8,Standard
 ALCOHOL/DRUG ABUSE OR DEPENDENCE W/O REHABILITATION THERAPY W/O MCC,9277.677419399999,Standard
 MAJOR HIP AND KNEE JOINT REPLACEMENT OR REATTACHMENT OF LOWER EXTREM,18027.462857,Standard
" ""ALCOHOL/DRUG ABUSE OR DEPENDENCE, LEFT AMA""",6135.625,Standard
Comprehensive Observation Services,1717.2883125,DRG
Level 3 Excision/ Biopsy/ Incision and Drainage,1711.9,DRG
Level 1 Intraocular Procedures,1343.5373134328302,DRG
