Description,Charge,Category
Level 3 Excision/ Biopsy/ Incision and Drainage,1698.93833333333,DRG
 RENAL FAILURE W CC,8623.517241399999,Standard
" ""MISC DISORDERS OF NUTRITION,METABOLISM,FLUIDS/ELECTROLYTES W/O MCC""",6753.1764706,Standard
 RESPIRATORY INFECTIONS & INFLAMMATIONS W MCC,16552.769231000002,Standard
 PULMONARY EDEMA & RESPIRATORY FAILURE,11044.615385,Standard
 CHRONIC OBSTRUCTIVE PULMONARY DISEASE W MCC,10421.894737,Standard
" ""ESOPHAGITIS, GASTROENT & MISC DIGEST DISORDERS W/O MCC""",6885.5,Standard
 SIMPLE PNEUMONIA & PLEURISY W CC,8446.75,Standard
 HEART FAILURE & SHOCK W MCC,13288.537037,Standard
 CARDIAC ARRHYTHMIA & CONDUCTION DISORDERS W CC,6992.0,Standard
Level 2 Excision/ Biopsy/ Incision and Drainage,1057.4980701754303,DRG
 MAJOR HIP AND KNEE JOINT REPLACEMENT OR REATTACHMENT OF LOWER EXTREM,18810.862903,Standard
 MAJOR JOINT/LIMB REATTACHMENT PROCEDURE OF UPPER EXTREMITIES,21967.764706,Standard
Level 2 Musculoskeletal Procedures,1074.87499999999,DRG
 SIMPLE PNEUMONIA & PLEURISY W MCC,12399.219512,Standard
 SEPTICEMIA OR SEVERE SEPSIS W/O MV >96 HOURS W MCC,16411.529412,Standard
Level 3 Musculoskeletal Procedures,2075.15298245614,DRG
 SEPTICEMIA OR SEVERE SEPSIS W/O MV >96 HOURS W/O MCC,9530.6153846,Standard
Level 1 Intraocular Procedures,1513.6977777777802,DRG
Level 1 Nerve Procedures,1287.20999999999,DRG
Level 5 Gynecologic Procedures,3204.70909090909,DRG
Comprehensive Observation Services,1858.66868932038,DRG
Level 4 Gynecologic Procedures,1816.52999999999,DRG
Level 1 Laparoscopy and Related Services,3431.6365217391303,DRG
Abdominal/Peritoneal/Biliary and Related Procedures,2322.37666666666,DRG
Level 4 Musculoskeletal Procedures,4480.2785333333295,DRG
