Description,Charge,Category
Level 5 Musculoskeletal Procedures,8716.79,DRG
Level 3 Airway Endoscopy,1049.24,DRG
Level 4 Airway Endoscopy,2074.0299999999897,DRG
Level 5 Airway Endoscopy,3855.5999999999894,DRG
Level 5 ENT Procedures,3439.16,DRG
Level 1 Endovascular Procedures,1914.64443609023,DRG
Level 1 ICD and Similar Procedures,20165.3273333333,DRG
 CHRONIC OBSTRUCTIVE PULMONARY DISEASE W CC,6314.5909091,Standard
 SIMPLE PNEUMONIA & PLEURISY W MCC,9270.6634615,Standard
 SIMPLE PNEUMONIA & PLEURISY W CC,6536.1803279,Standard
 PNEUMOTHORAX W CC,7244.4166667,Standard
 BRONCHITIS & ASTHMA W CC/MCC,6377.7272727,Standard
 PERCUTANEOUS CARDIOVASCULAR PROCEDURES W DRUG,21811.273684,Standard
Level 4 Pacemaker and Similar Procedures,16110.89,DRG
Level 3 Upper GI Procedures,2172.98333333333,DRG
Level 2 Upper GI Procedures,1127.3906832298,DRG
Level 2 ICD and Similar Procedures,29364.669999999904,DRG
Level 3 Pacemaker and Similar Procedures,8303.99666666667,DRG
Level 2 Pacemaker and Similar Procedures,5990.11999999999,DRG
Level 3 Electrophysiologic Procedures,17030.302647058703,DRG
Level 4 Endovascular Procedures,14560.1099999999,DRG
Level 3 Endovascular Procedures,8970.1125266904,DRG
Level 2 Endovascular Procedures,4028.01189655173,DRG
 OTHER VASCULAR PROCEDURES W MCC,27047.742857,Standard
 PERC CARDIOVASC PROC W DRUG,14422.047244,Standard
 PERMANENT CARDIAC PACEMAKER IMPLANT W/O CC/MCC,14036.821429,Standard
Level 4 Musculoskeletal Procedures,4233.8974015748,DRG
 MAJOR CHEST TRAUMA W CC,6969.3846154,Standard
Level 2 Musculoskeletal Procedures,1070.02999999999,DRG
Level 4 Urology and Related Services,2136.72754385965,DRG
Level 5 Urology and Related Services,2909.9117592592497,DRG
Implantation of Drug Infusion Device,14976.66,DRG
" ""TRAUMATIC STUPOR & COMA, COMA <1 HR W CC""",8536.6956522,Standard
" TRAUMATIC STUPOR & COMA, COMA <1 HR W MCC",13777.105263,Standard
 NONSPECIFIC CEREBROVASCULAR DISORDERS W CC,7575.1666667,Standard
 TRANSIENT ISCHEMIA W/O THROMBOLYTIC,5888.6666667,Standard
  CRANIOTOMY W MAJOR DEVICE IMPLANT OR ACUTE COMPLEX CNS PDX W MCC OR,37170.0,Standard
Level 3 Urology and Related Services,1245.61474226803,DRG
 CRANIOTOMY & ENDOVASCULAR INTRACRANIAL PROCEDURES W MCC,31644.956522000004,Standard
 INTRACRANIAL HEMORRHAGE OR CEREBRAL INFARCTION W CC OR TPA IN 24 HRS,7013.0116279,Standard
 INTRACRANIAL HEMORRHAGE OR CEREBRAL INFARCTION W MCC,12867.386667,Standard
 DEGENERATIVE NERVOUS SYSTEM DISORDERS W/O MCC,7363.75,Standard
 DEGENERATIVE NERVOUS SYSTEM DISORDERS W MCC,11754.083333,Standard
 PERIPH/CRANIAL NERVE & OTHER NERV SYST PROC W CC OR PERIPH NEUROSTIM,15280.272727000001,Standard
 EXTRACRANIAL PROCEDURES W/O CC/MCC,7528.4418605,Standard
 OTHER CARDIOTHORACIC PROCEDURES W MCC,47643.0,Standard
 EXTRACRANIAL PROCEDURES W CC,10417.607143000001,Standard
 INTRACRANIAL HEMORRHAGE OR CEREBRAL INFARCTION W/O CC/MCC,5227.862069,Standard
Level 2 Laparoscopy and Related Services,6212.4799999999905,DRG
Level 1 Laparoscopy and Related Services,3530.1182608695503,DRG
Abdominal/Peritoneal/Biliary and Related Procedures,2307.3109090909,DRG
Level 2 Breast/Lymphatic Surgery and Related Procedures,3805.0183333333293,DRG
Level 3 Excision/ Biopsy/ Incision and Drainage,1842.81,DRG
Level 2 Excision/ Biopsy/ Incision and Drainage,1056.94369158878,DRG
 CHRONIC OBSTRUCTIVE PULMONARY DISEASE W MCC,8091.1470588,Standard
 PULMONARY EDEMA & RESPIRATORY FAILURE,8320.3378378,Standard
 MAJOR CHEST TRAUMA W MCC,10919.833333,Standard
 RESPIRATORY NEOPLASMS W MCC,11222.411765,Standard
 RESPIRATORY INFECTIONS & INFLAMMATIONS W CC,8578.75,Standard
 RESPIRATORY INFECTIONS & INFLAMMATIONS W MCC,12050.607843000002,Standard
 PULMONARY EMBOLISM W/O MCC,6183.0,Standard
 PULMONARY EMBOLISM W MCC,9512.138888899999,Standard
 OTHER RESP SYSTEM O.R. PROCEDURES W MCC,28547.241379000003,Standard
 EXTENSIVE O.R. PROCEDURE UNRELATED TO PRINCIPAL DIAGNOSIS W CC,15699.647059,Standard
Comprehensive Observation Services,1845.11720720719,DRG
 SEIZURES W/O MCC,5731.9487179,Standard
 SEIZURES W MCC,12363.85,Standard
 OTHER DISORDERS OF NERVOUS SYSTEM W CC,6442.857142899999,Standard
 OTHER DISORDERS OF NERVOUS SYSTEM W MCC,12313.272727,Standard
" TRAUMATIC STUPOR & COMA, COMA <1 HR W/O CC/MCC",5768.357142899999,Standard
Level 3 Musculoskeletal Procedures,2093.8660869565197,DRG
 EXTENSIVE O.R. PROCEDURE UNRELATED TO PRINCIPAL DIAGNOSIS W MCC,33040.529412,Standard
 SEPTICEMIA OR SEVERE SEPSIS W/O MV >96 HOURS W MCC,12577.548309,Standard
 COMPLICATIONS OF TREATMENT W CC,6819.0909091,Standard
 LAPAROSCOPIC CHOLECYSTECTOMY W/O C.D.E. W MCC,16277.375,Standard
 LAPAROSCOPIC CHOLECYSTECTOMY W/O C.D.E. W CC,11435.352941,Standard
 LAPAROSCOPIC CHOLECYSTECTOMY W/O C.D.E. W/O CC/MCC,8758.0588235,Standard
 CIRRHOSIS & ALCOHOLIC HEPATITIS W MCC,14238.363636000002,Standard
 MALIGNANCY OF HEPATOBILIARY SYSTEM OR PANCREAS W MCC,11104.363636,Standard
 DISORDERS OF PANCREAS EXCEPT MALIGNANCY W CC,6064.7142857,Standard
" ""DISORDERS OF LIVER EXCEPT MALIG,CIRR,ALC HEPA W MCC""",12164.4,Standard
" DISORDERS OF LIVER EXCEPT MALIG,CIRR,ALC HEPA W CC",6266.6153846,Standard
 DISORDERS OF THE BILIARY TRACT W MCC,10647.909091,Standard
 DISORDERS OF THE BILIARY TRACT W CC,7230.4285714,Standard
 COMBINED ANTERIOR/POSTERIOR SPINAL FUSION W CC,43634.346154,Standard
 COMBINED ANTERIOR/POSTERIOR SPINAL FUSION W/O CC/MCC,33193.636364,Standard
 SPINAL FUSION EXCEPT CERVICAL W/O MCC,26870.086957,Standard
 SIGNS & SYMPTOMS W/O MCC,5323.6666667,Standard
 MAJOR HIP AND KNEE JOINT REPLACEMENT OR REATTACHMENT OF LOWER EXTREM,20526.636363999998,Standard
 MAJOR HIP AND KNEE JOINT REPLACEMENT OR REATTACHMENT OF LOWER EXTREM,14201.597590000001,Standard
 CERVICAL SPINAL FUSION W CC,18582.875,Standard
" ""TENDONITIS, MYOSITIS & BURSITIS W/O MCC""",5934.0,Standard
 SIGNS & SYMPTOMS OF MUSCULOSKELETAL SYSTEM & CONN TISSUE W/O MCC,5970.636363600001,Standard
 MEDICAL BACK PROBLEMS W/O MCC,6213.5405405,Standard
 MEDICAL BACK PROBLEMS W MCC,10120.882353,Standard
 PATHOLOGICAL FRACTURES & MUSCULOSKELET & CONN TISS MALIG W CC,7446.05,Standard
 FRACTURES OF HIP & PELVIS W/O MCC,5073.5,Standard
 OTHER DIGESTIVE SYSTEM DIAGNOSES W CC,6775.289473700001,Standard
 OTHER MUSCULOSKELET SYS & CONN TISS O.R. PROC W CC,12462.75,Standard
" LOWER EXTREM & HUMER PROC EXCEPT HIP,FOOT,FEMUR W CC",14283.607143000001,Standard
 MAJOR JOINT/LIMB REATTACHMENT PROCEDURE OF UPPER EXTREMITIES,15864.666667,Standard
 HIP & FEMUR PROCEDURES EXCEPT MAJOR JOINT W/O CC/MCC,11626.777778,Standard
 HIP & FEMUR PROCEDURES EXCEPT MAJOR JOINT W CC,13862.028986000001,Standard
 HIP & FEMUR PROCEDURES EXCEPT MAJOR JOINT W MCC,22329.064516,Standard
 CERVICAL SPINAL FUSION W/O CC/MCC,15867.058824000002,Standard
" ""LOWER EXTREM & HUMER PROC EXCEPT HIP,FOOT,FEMUR W/O CC/MCC""",12672.111111,Standard
 CELLULITIS W MCC,9283.875,Standard
 OTHER DIGESTIVE SYSTEM DIAGNOSES W MCC,11434.588235,Standard
" ESOPHAGITIS, GASTROENT & MISC DIGEST DISORDERS W MCC",8344.041666699999,Standard
 CARDIAC VALVE & OTH MAJ CARDIOTHORACIC PROC W/O CARD CATH W CC,34445.384614999995,Standard
 CARDIAC VALVE & OTH MAJ CARDIOTHORACIC PROC W/O CARD CATH W MCC,71158.4375,Standard
 RESPIRATORY SYSTEM DIAGNOSIS W VENTILATOR SUPPORT <=96 HOURS,17298.207546999998,Standard
 RESPIRATORY SYSTEM DIAGNOSIS W VENTILATOR SUPPORT >96 HOURS,40192.916667000005,Standard
Complex GI Procedures,3190.640625,DRG
 PERIPHERAL VASCULAR DISORDERS W CC,6743.357142899999,Standard
 ATHEROSCLEROSIS W/O MCC,4952.4166667,Standard
 HYPERTENSION W/O MCC,4880.7692308,Standard
 CARDIAC ARRHYTHMIA & CONDUCTION DISORDERS W MCC,8098.3921568999995,Standard
 CARDIAC ARRHYTHMIA & CONDUCTION DISORDERS W CC,5599.8804348,Standard
 CARDIAC ARRHYTHMIA & CONDUCTION DISORDERS W/O CC/MCC,4187.6808511,Standard
 SYNCOPE & COLLAPSE,5613.1463415,Standard
 CHEST PAIN,5188.9,Standard
 OTHER CIRCULATORY SYSTEM DIAGNOSES W MCC,12800.870968000001,Standard
 OTHER CIRCULATORY SYSTEM DIAGNOSES W CC,6636.8666667,Standard
" STOMACH, ESOPHAGEAL & DUODENAL PROC W/O CC/MCC",10020.2,Standard
 MAJOR SMALL & LARGE BOWEL PROCEDURES W MCC,35644.125,Standard
 G.I. OBSTRUCTION W/O CC/MCC,4296.2307692,Standard
 G.I. OBSTRUCTION W CC,5914.5,Standard
 G.I. OBSTRUCTION W MCC,10311.652173999999,Standard
 G.I. HEMORRHAGE W/O CC/MCC,4584.0833333,Standard
 G.I. HEMORRHAGE W CC,6701.648,Standard
 G.I. HEMORRHAGE W MCC,11832.606557,Standard
" ""ESOPHAGITIS, GASTROENT & MISC DIGEST DISORDERS W/O MCC""",5315.345238100001,Standard
 DIGESTIVE MALIGNANCY W CC,8350.2142857,Standard
 MAJOR GASTROINTESTINAL DISORDERS & PERITONEAL INFECTIONS W CC,7236.32,Standard
 MAJOR GASTROINTESTINAL DISORDERS & PERITONEAL INFECTIONS W MCC,11373.083333,Standard
 OTHER DIGESTIVE SYSTEM O.R. PROCEDURES W MCC,29274.071429000003,Standard
 HERNIA PROCEDURES EXCEPT INGUINAL & FEMORAL W CC,11426.6,Standard
 MAJOR SMALL & LARGE BOWEL PROCEDURES W/O CC/MCC,12639.724138,Standard
 MAJOR SMALL & LARGE BOWEL PROCEDURES W CC,17492.555556,Standard
 DIGESTIVE MALIGNANCY W MCC,13131.941176,Standard
 CELLULITIS W/O MCC,5890.3043478,Standard
" WND DEBRID & SKN GRFT EXC HAND, FOR MUSCULO",18232.818182,Standard
 DIABETES W MCC,8848.857142899999,Standard
 PERCUTANEOUS INTRACARDIAC PROCEDURES W MCC,24354.3125,Standard
 AMPUTATION FOR CIRC SYS DISORDERS EXC UPPER LIMB & TOE W MCC,31000.846154000003,Standard
 OTHER MAJOR CARDIOVASCULAR PROCEDURES W MCC,36534.173913,Standard
 AORTIC AND HEART ASSIST PROCEDURES EXCEPT PULSATION BALLOON W/O MCC,29036.978261,Standard
 AORTIC AND HEART ASSIST PROCEDURES EXCEPT PULSATION BALLOON W MCC,44252.833332999995,Standard
 ENDOVASCULAR CARDIAC VALVE REPLACEMENT W/O MCC,39414.470588,Standard
 ENDOVASCULAR CARDIAC VALVE REPLACEMENT W MCC,49135.615385000005,Standard
 OTHER VASCULAR PROCEDURES W/O CC/MCC,12647.387097,Standard
 OTHER VASCULAR PROCEDURES W CC,17661.463768,Standard
 INFECTIOUS & PARASITIC DISEASES W O.R. PROCEDURE W CC,15123.727272999999,Standard
 POSTOPERATIVE OR POST,13063.071429000001,Standard
 POSTOPERATIVE & POST,12009.411765,Standard
 PERCUTANEOUS INTRACARDIAC PROCEDURES W/O MCC,18335.333333000002,Standard
 SEPTICEMIA OR SEVERE SEPSIS W MV >96 HOURS OR PERIPHERAL EXTRACORPOR,41801.0,Standard
 ACUTE ADJUSTMENT REACTION & PSYCHOSOCIAL DYSFUNCTION,5626.0,Standard
 ALCOHOL/DRUG ABUSE OR DEPENDENCE W/O REHABILITATION THERAPY W MCC,11246.307692,Standard
 ALCOHOL/DRUG ABUSE OR DEPENDENCE W/O REHABILITATION THERAPY W/O MCC,5481.3888889,Standard
 OTHER O.R. PROCEDURES FOR INJURIES W CC,13341.266667,Standard
 CORONARY BYPASS W CARDIAC CATH W MCC,64245.86842100001,Standard
 CORONARY BYPASS W CARDIAC CATH W/O MCC,33082.2,Standard
 CORONARY BYPASS W/O CARDIAC CATH W MCC,36828.357143,Standard
" ""AMPUTAT OF LOWER LIMB FOR ENDOCRINE,NUTRIT,& METABOL DIS W CC""",12855.571429000001,Standard
 POISONING & TOXIC EFFECTS OF DRUGS W MCC,10572.933332999999,Standard
 PERMANENT CARDIAC PACEMAKER IMPLANT W CC,17865.924528,Standard
 PERMANENT CARDIAC PACEMAKER IMPLANT W MCC,24184.0,Standard
 CORONARY BYPASS W/O CARDIAC CATH W/O MCC,25158.291666999998,Standard
 SEPTICEMIA OR SEVERE SEPSIS W/O MV >96 HOURS W/O MCC,7253.9425287,Standard
" ""ACUTE MYOCARDIAL INFARCTION, DISCHARGED ALIVE W MCC""",10922.39726,Standard
 OTHER MAJOR CARDIOVASCULAR PROCEDURES W CC,22981.423077,Standard
 URINARY STONES W/O ESW LITHOTRIPSY W/O MCC,6196.3076923,Standard
 DIABETES W CC,5958.258064500001,Standard
" MISC DISORDERS OF NUTRITION,METABOLISM,FLUIDS/ELECTROLYTES W MCC",8104.96875,Standard
" ""MISC DISORDERS OF NUTRITION,METABOLISM,FLUIDS/ELECTROLYTES W/O MCC""",5219.4,Standard
 KIDNEY & URETER PROCEDURES FOR NEOPLASM W CC,13079.235294,Standard
 TRANSURETHRAL PROCEDURES W CC,9254.25,Standard
 RENAL FAILURE W MCC,9829.7702703,Standard
 RENAL FAILURE W CC,6579.1730769,Standard
 KIDNEY & URINARY TRACT INFECTIONS W MCC,7064.444444399999,Standard
 KIDNEY & URINARY TRACT INFECTIONS W/O MCC,5447.9230769,Standard
" ACUTE MYOCARDIAL INFARCTION, DISCHARGED ALIVE W CC",6930.756097600001,Standard
 OTHER KIDNEY & URINARY TRACT DIAGNOSES W MCC,10557.222222,Standard
 OTHER KIDNEY & URINARY TRACT DIAGNOSES W CC,6999.3157894999995,Standard
 MAJOR MALE PELVIC PROCEDURES W/O CC/MCC,9253.466666700002,Standard
 RED BLOOD CELL DISORDERS W/O MCC,6080.5,Standard
 AMPUTATION FOR CIRC SYS DISORDERS EXC UPPER LIMB & TOE W CC,17042.090909,Standard
 COAGULATION DISORDERS,11505.636364,Standard
 CHEMOTHERAPY W/O ACUTE LEUKEMIA AS SECONDARY DIAGNOSIS W CC,8740.92,Standard
 INFECTIOUS & PARASITIC DISEASES W O.R. PROCEDURE W MCC,39806.60241,Standard
 POISONING & TOXIC EFFECTS OF DRUGS W/O MCC,5610.875,Standard
 HEART FAILURE & SHOCK W/O CC/MCC,4763.9333333,Standard
 HEART FAILURE & SHOCK W CC,6491.3529412,Standard
 HEART FAILURE & SHOCK W MCC,10058.785714,Standard
" ""ACUTE MYOCARDIAL INFARCTION, DISCHARGED ALIVE W/O CC/MCC""",5296.5238094999995,Standard
" CIRCULATORY DISORDERS EXCEPT AMI, W CARD CATH W/O MCC",8066.034482800001,Standard
" ""CIRCULATORY DISORDERS EXCEPT AMI, W CARD CATH W MCC""",15461.336957,Standard
