Description,Charge,Category
 KIDNEY & URINARY TRACT INFECTIONS W/O MCC,6999.6666667,Standard
 MAJOR HIP AND KNEE JOINT REPLACEMENT OR REATTACHMENT OF LOWER EXTREM,20704.206897,Standard
" ""ESOPHAGITIS, GASTROENT & MISC DIGEST DISORDERS W/O MCC""",6528.9285714,Standard
 CARDIAC ARRHYTHMIA & CONDUCTION DISORDERS W CC,6630.4285714,Standard
 PULMONARY EDEMA & RESPIRATORY FAILURE,10447.307692,Standard
 SEPTICEMIA OR SEVERE SEPSIS W/O MV >96 HOURS W MCC,15405.263888999998,Standard
 G.I. HEMORRHAGE W CC,8318.25,Standard
 SEPTICEMIA OR SEVERE SEPSIS W/O MV >96 HOURS W/O MCC,9042.0,Standard
 CELLULITIS W/O MCC,7296.3846154,Standard
Level 1 Intraocular Procedures,1514.20612244897,DRG
"Level 3 Extraocular, Repair, and Plastic Eye Procedures",1430.6699999999898,DRG
Comprehensive Observation Services,1855.96999999999,DRG
Level 3 Urology and Related Services,1339.3099999999902,DRG
Level 1 Laparoscopy and Related Services,3441.06529411764,DRG
 HEART FAILURE & SHOCK W CC,8216.7333333,Standard
Abdominal/Peritoneal/Biliary and Related Procedures,2288.2938461538397,DRG
Level 4 Gynecologic Procedures,1795.11,DRG
 HEART FAILURE & SHOCK W MCC,12645.833333,Standard
 SIMPLE PNEUMONIA & PLEURISY W MCC,11779.285714,Standard
Level 4 Musculoskeletal Procedures,3862.3175,DRG
Level 3 Musculoskeletal Procedures,2088.19363636363,DRG
Level 2 Musculoskeletal Procedures,980.9408,DRG
Level 3 Excision/ Biopsy/ Incision and Drainage,1836.27,DRG
Level 2 Excision/ Biopsy/ Incision and Drainage,993.7479999999989,DRG
 CHRONIC OBSTRUCTIVE PULMONARY DISEASE W CC,7884.0909091,Standard
