Description,Charge,Category
 G.I. HEMORRHAGE W CC,7262.0706522,Standard
Level 1 Breast/Lymphatic Surgery and Related Procedures,2070.48999999999,DRG
Level 2 Excision/ Biopsy/ Incision and Drainage,1014.2008064516,DRG
 INTRACRANIAL HEMORRHAGE OR CEREBRAL INFARCTION W MCC,13471.925926,Standard
 INTRACRANIAL HEMORRHAGE OR CEREBRAL INFARCTION W CC OR TPA IN 24 HRS,8592.444444399998,Standard
 INTRACRANIAL HEMORRHAGE OR CEREBRAL INFARCTION W/O CC/MCC,6393.4615385,Standard
 NONSPECIFIC CEREBROVASCULAR DISORDERS W MCC,16044.166667,Standard
 PULMONARY EDEMA & RESPIRATORY FAILURE,10018.564103,Standard
 CHRONIC OBSTRUCTIVE PULMONARY DISEASE W MCC,9830.9545455,Standard
 HEART FAILURE & SHOCK W/O CC/MCC,5974.7058824,Standard
Comprehensive Observation Services,1941.2282266010102,DRG
"Level 3 Extraocular, Repair, and Plastic Eye Procedures",1512.63,DRG
Level 1 Intraocular Procedures,1602.785,DRG
Level 4 Neurostimulator and Related Procedures,27123.746341463397,DRG
Level 3 Neurostimulator and Related Procedures,17460.3871111111,DRG
Level 2 Neurostimulator and Related Procedures,5056.94999999999,DRG
Level 1 Nerve Procedures,1339.3819230769197,DRG
 CHRONIC OBSTRUCTIVE PULMONARY DISEASE W CC,7790.5714286,Standard
 CHRONIC OBSTRUCTIVE PULMONARY DISEASE W/O CC/MCC,6365.1764706,Standard
 SIMPLE PNEUMONIA & PLEURISY W MCC,11656.101695000001,Standard
 SIMPLE PNEUMONIA & PLEURISY W CC,7811.2727273,Standard
 SIMPLE PNEUMONIA & PLEURISY W/O CC/MCC,6191.3846154,Standard
 BRONCHITIS & ASTHMA W CC/MCC,9753.055555600002,Standard
 RESPIRATORY SYSTEM DIAGNOSIS W VENTILATOR SUPPORT <=96 HOURS,18515.782609,Standard
" ""ACUTE MYOCARDIAL INFARCTION, DISCHARGED ALIVE W MCC""",12658.785714,Standard
Level 2 Breast/Lymphatic Surgery and Related Procedures,3652.32,DRG
Level 2 Musculoskeletal Procedures,1024.63,DRG
Level 3 Musculoskeletal Procedures,2007.78,DRG
Level 4 Musculoskeletal Procedures,4206.06304878049,DRG
 ENDOVASCULAR CARDIAC VALVE REPLACEMENT W/O MCC,43722.166667000005,Standard
 AORTIC AND HEART ASSIST PROCEDURES EXCEPT PULSATION BALLOON W/O MCC,28627.142857,Standard
 OTHER MAJOR CARDIOVASCULAR PROCEDURES W MCC,38119.892857,Standard
 OTHER MAJOR CARDIOVASCULAR PROCEDURES W CC,24266.16,Standard
 OTHER MAJOR CARDIOVASCULAR PROCEDURES W/O CC/MCC,19519.214286000002,Standard
 PERCUTANEOUS INTRACARDIAC PROCEDURES W MCC,24793.1,Standard
 PERCUTANEOUS INTRACARDIAC PROCEDURES W/O MCC,19034.786517,Standard
Level 1 Laparoscopy and Related Services,3346.4330508474604,DRG
Abdominal/Peritoneal/Biliary and Related Procedures,2162.5779166666603,DRG
 PULMONARY EMBOLISM W/O MCC,5208.4285714,Standard
 PULMONARY EMBOLISM W MCC,8381.333333300001,Standard
 HEART FAILURE & SHOCK W MCC,11497.809524,Standard
 OTHER RESP SYSTEM O.R. PROCEDURES W MCC,22478.0,Standard
 INTRACRANIAL HEMORRHAGE OR CEREBRAL INFARCTION W CC OR TPA IN 24 HRS,6090.2,Standard
 INTRACRANIAL HEMORRHAGE OR CEREBRAL INFARCTION W MCC,9633.9166667,Standard
" ""ACUTE MYOCARDIAL INFARCTION, DISCHARGED ALIVE W MCC""",11525.607843000002,Standard
Level 2 Upper GI Procedures,1080.71258064516,DRG
Level 3 Pacemaker and Similar Procedures,7933.528095238091,DRG
Level 3 Electrophysiologic Procedures,16221.0505882352,DRG
Level 3 Endovascular Procedures,8658.83461538462,DRG
Level 1 Endovascular Procedures,1846.00690909091,DRG
Level 4 Airway Endoscopy,1986.02999999999,DRG
Level 3 Airway Endoscopy,989.0101886792461,DRG
Level 5 Musculoskeletal Procedures,8254.340311111071,DRG
 INTRACRANIAL HEMORRHAGE OR CEREBRAL INFARCTION W/O CC/MCC,4345.25,Standard
 HEART FAILURE & SHOCK W CC,8857.7619048,Standard
 CARDIAC ARRHYTHMIA & CONDUCTION DISORDERS W MCC,9429.8333333,Standard
Level 4 Pacemaker and Similar Procedures,16207.3807142857,DRG
 HEART FAILURE & SHOCK W CC,6892.3043478,Standard
 HEART FAILURE & SHOCK W/O CC/MCC,5088.5555556,Standard
 PERIPHERAL VASCULAR DISORDERS W MCC,9733.1666667,Standard
 PERIPHERAL VASCULAR DISORDERS W CC,7034.804878,Standard
 ATHEROSCLEROSIS W/O MCC,5268.7368421,Standard
 HYPERTENSION W MCC,7554.7692308,Standard
 HYPERTENSION W/O MCC,5207.5740741,Standard
 CARDIAC ARRHYTHMIA & CONDUCTION DISORDERS W MCC,8470.0697674,Standard
 CARDIAC ARRHYTHMIA & CONDUCTION DISORDERS W CC,5755.9906542,Standard
 CARDIAC ARRHYTHMIA & CONDUCTION DISORDERS W/O CC/MCC,4436.0185185,Standard
 SYNCOPE & COLLAPSE,5890.2478632,Standard
Level 3 Musculoskeletal Procedures,2061.94505263158,DRG
 CHEST PAIN,5284.1833333,Standard
 OTHER CIRCULATORY SYSTEM DIAGNOSES W CC,7209.738095199999,Standard
" ""STOMACH, ESOPHAGEAL & DUODENAL PROC W CC""",15213.0,Standard
 MAJOR SMALL & LARGE BOWEL PROCEDURES W MCC,33661.814815,Standard
 MAJOR SMALL & LARGE BOWEL PROCEDURES W CC,16972.227273,Standard
 MAJOR SMALL & LARGE BOWEL PROCEDURES W/O CC/MCC,12314.59375,Standard
 HERNIA PROCEDURES EXCEPT INGUINAL & FEMORAL W CC,12670.909091,Standard
 MAJOR GASTROINTESTINAL DISORDERS & PERITONEAL INFECTIONS W MCC,12592.428570999999,Standard
 MAJOR GASTROINTESTINAL DISORDERS & PERITONEAL INFECTIONS W CC,7396.0,Standard
 DIGESTIVE MALIGNANCY W MCC,13515.538462,Standard
 DIGESTIVE MALIGNANCY W CC,9213.3181818,Standard
 G.I. HEMORRHAGE W MCC,12362.854545,Standard
 OTHER CIRCULATORY SYSTEM DIAGNOSES W MCC,13857.964912000001,Standard
 OTHER VASCULAR PROCEDURES W/O CC/MCC,13588.35,Standard
 HEART FAILURE & SHOCK W MCC,10195.832168,Standard
" ""CIRCULATORY DISORDERS EXCEPT AMI, W CARD CATH W MCC""",15874.4375,Standard
Level 1 ICD and Similar Procedures,21767.02,DRG
Level 2 ICD and Similar Procedures,31006.83,DRG
Level 2 Upper GI Procedures,1191.0073287671198,DRG
Level 2 Excision/ Biopsy/ Incision and Drainage,1162.19387096774,DRG
Level 3 Excision/ Biopsy/ Incision and Drainage,2126.5,DRG
Level 1 Breast/Lymphatic Surgery and Related Procedures,2340.41529411764,DRG
Level 2 Breast/Lymphatic Surgery and Related Procedures,4401.32,DRG
Level 2 Musculoskeletal Procedures,1234.2226,DRG
Level 3 Musculoskeletal Procedures,2236.4744444444395,DRG
Level 4 Musculoskeletal Procedures,5051.521791044771,DRG
Level 5 Musculoskeletal Procedures,9690.765,DRG
" CIRCULATORY DISORDERS EXCEPT AMI, W CARD CATH W/O MCC",8381.696202500001,Standard
Level 2 Endovascular Procedures,4508.22541666666,DRG
Abdominal/Peritoneal/Biliary and Related Procedures,2656.1233333333303,DRG
Level 4 Endovascular Procedures,15079.6327659574,DRG
Level 3 Endovascular Procedures,9465.36980468747,DRG
Level 2 Endovascular Procedures,4210.423474576261,DRG
Level 2 Excision/ Biopsy/ Incision and Drainage,1055.1197692307599,DRG
Level 3 Excision/ Biopsy/ Incision and Drainage,1848.39,DRG
Level 1 Breast/Lymphatic Surgery and Related Procedures,2168.7799999999897,DRG
Level 2 Breast/Lymphatic Surgery and Related Procedures,3825.69999999999,DRG
Level 2 Musculoskeletal Procedures,1069.32607843137,DRG
" ACUTE MYOCARDIAL INFARCTION, DISCHARGED ALIVE W CC",7386.725,Standard
" ""ACUTE MYOCARDIAL INFARCTION, DISCHARGED ALIVE W/O CC/MCC""",5641.3333333,Standard
Level 2 Upper GI Procedures,1302.8359405940598,DRG
 OTHER VASCULAR PROCEDURES W CC,18962.314286,Standard
 PERC CARDIOVASC PROC W/O CORONARY ARTERY STENT W/O MCC,11588.818181999999,Standard
 G.I. HEMORRHAGE W/O CC/MCC,4865.3846154,Standard
 SEIZURES W MCC,10997.954545,Standard
 SEIZURES W/O MCC,6072.239130399999,Standard
 HEADACHES W/O MCC,5968.5454545,Standard
 DYSEQUILIBRIUM,5290.75,Standard
 OTITIS MEDIA & URI W/O MCC,5360.2941176,Standard
 MAJOR CHEST PROCEDURES W MCC,29659.333333,Standard
 MAJOR CHEST PROCEDURES W CC,17519.956522,Standard
 OTHER RESP SYSTEM O.R. PROCEDURES W MCC,23973.352941,Standard
 OTHER RESP SYSTEM O.R. PROCEDURES W CC,12268.235294,Standard
 PULMONARY EMBOLISM W MCC,11000.138889,Standard
 PULMONARY EMBOLISM W/O MCC,6491.4166667,Standard
 OTHER DISORDERS OF NERVOUS SYSTEM W CC,7174.0377358,Standard
 RESPIRATORY INFECTIONS & INFLAMMATIONS W MCC,12087.904762,Standard
 RESPIRATORY NEOPLASMS W MCC,12126.65,Standard
 RESPIRATORY NEOPLASMS W CC,8699.518518500001,Standard
 MAJOR CHEST TRAUMA W MCC,16909.916666999998,Standard
 MAJOR CHEST TRAUMA W CC,8195.12,Standard
 PLEURAL EFFUSION W MCC,10251.142856999999,Standard
 PLEURAL EFFUSION W CC,7629.9411765,Standard
 PULMONARY EDEMA & RESPIRATORY FAILURE,9186.8828829,Standard
 CHRONIC OBSTRUCTIVE PULMONARY DISEASE W MCC,8170.300970899999,Standard
 CHRONIC OBSTRUCTIVE PULMONARY DISEASE W CC,6644.3424658,Standard
 CHRONIC OBSTRUCTIVE PULMONARY DISEASE W/O CC/MCC,5372.222222199999,Standard
 SIMPLE PNEUMONIA & PLEURISY W MCC,9772.7791411,Standard
 RESPIRATORY INFECTIONS & INFLAMMATIONS W CC,8564.416666699999,Standard
 SIMPLE PNEUMONIA & PLEURISY W CC,6749.7190083000005,Standard
 OTHER DISORDERS OF NERVOUS SYSTEM W MCC,10744.892856999999,Standard
" ""TRAUMATIC STUPOR & COMA, COMA <1 HR W CC""",8790.125,Standard
Level 2 Electrophysiologic Procedures,4437.9,DRG
Level 3 Electrophysiologic Procedures,18013.1218749999,DRG
Level 2 Pacemaker and Similar Procedures,6357.138000000001,DRG
Level 3 Pacemaker and Similar Procedures,8820.61545454547,DRG
Comprehensive Observation Services,1783.1169359331698,DRG
Level 5 Gynecologic Procedures,3044.61,DRG
Level 4 Gynecologic Procedures,1716.9473684210502,DRG
  CRANIOTOMY W MAJOR DEVICE IMPLANT OR ACUTE COMPLEX CNS PDX W MCC OR,32810.153846,Standard
 CRANIOTOMY & ENDOVASCULAR INTRACRANIAL PROCEDURES W MCC,29296.789474,Standard
 EXTRACRANIAL PROCEDURES W CC,11432.814815,Standard
 EXTRACRANIAL PROCEDURES W/O CC/MCC,8557.423076899999,Standard
" TRAUMATIC STUPOR & COMA, COMA <1 HR W/O CC/MCC",6541.8695652,Standard
 NERVOUS SYSTEM NEOPLASMS W MCC,14713.153846000001,Standard
 DEGENERATIVE NERVOUS SYSTEM DISORDERS W/O MCC,7711.4146341000005,Standard
" ISCHEMIC STROKE, PRECEREBRAL OCCLUSION OR TRANSIENT ISCHEMIA W THROM",19053.0,Standard
" ""ISCHEMIC STROKE, PRECEREBRAL OCCLUSION OR TRANSIENT ISCHEMIA W THRO",14135.944444,Standard
 INTRACRANIAL HEMORRHAGE OR CEREBRAL INFARCTION W MCC,14357.236111000002,Standard
 INTRACRANIAL HEMORRHAGE OR CEREBRAL INFARCTION W CC OR TPA IN 24 HRS,7355.128000000001,Standard
 INTRACRANIAL HEMORRHAGE OR CEREBRAL INFARCTION W/O CC/MCC,5571.3333333,Standard
 TRANSIENT ISCHEMIA W/O THROMBOLYTIC,5599.8709677,Standard
 NONSPECIFIC CEREBROVASCULAR DISORDERS W MCC,11405.782609,Standard
 NONSPECIFIC CEREBROVASCULAR DISORDERS W CC,6876.4117647,Standard
 CRANIAL & PERIPHERAL NERVE DISORDERS W/O MCC,6924.0,Standard
" ""TRAUMATIC STUPOR & COMA, COMA >1 HR W MCC""",17600.769231000002,Standard
 DEGENERATIVE NERVOUS SYSTEM DISORDERS W MCC,21537.272727,Standard
 SIMPLE PNEUMONIA & PLEURISY W/O CC/MCC,5366.3529412,Standard
 PNEUMOTHORAX W MCC,13868.533333000001,Standard
Level 5 Urology and Related Services,2772.1924637681104,DRG
 HEART FAILURE & SHOCK W CC,5455.4285714,Standard
 OTHER CARDIOTHORACIC PROCEDURES W MCC,46826.692308,Standard
 CORONARY BYPASS W CARDIAC CATH W MCC,44172.2,Standard
 CORONARY BYPASS W CARDIAC CATH W/O MCC,33351.785714,Standard
 CORONARY BYPASS W/O CARDIAC CATH W/O MCC,26212.0,Standard
 HEART FAILURE & SHOCK W MCC,8372.8,Standard
" CIRCULATORY DISORDERS EXCEPT AMI, W CARD CATH W/O MCC",6747.3703704,Standard
" ACUTE MYOCARDIAL INFARCTION, DISCHARGED ALIVE W CC",6362.7272727,Standard
" ""ACUTE MYOCARDIAL INFARCTION, DISCHARGED ALIVE W MCC""",9277.285714299998,Standard
 PERC CARDIOVASC PROC W DRUG,12991.658537000001,Standard
 PERCUTANEOUS CARDIOVASCULAR PROCEDURES W DRUG,18585.909091,Standard
 CARDIAC ARRHYTHMIA & CONDUCTION DISORDERS W MCC,6900.2,Standard
 PERMANENT CARDIAC PACEMAKER IMPLANT W/O CC/MCC,12401.333333,Standard
 SIMPLE PNEUMONIA & PLEURISY W CC,5411.5526316000005,Standard
 SIMPLE PNEUMONIA & PLEURISY W MCC,7953.4626866,Standard
 CHRONIC OBSTRUCTIVE PULMONARY DISEASE W CC,5321.45,Standard
 CHRONIC OBSTRUCTIVE PULMONARY DISEASE W MCC,6947.1111111,Standard
 PULMONARY EDEMA & RESPIRATORY FAILURE,7174.7037037,Standard
 RESPIRATORY INFECTIONS & INFLAMMATIONS W MCC,10504.280702,Standard
 PERMANENT CARDIAC PACEMAKER IMPLANT W MCC,24936.571429,Standard
 PERMANENT CARDIAC PACEMAKER IMPLANT W CC,18703.770833000002,Standard
 PERMANENT CARDIAC PACEMAKER IMPLANT W/O CC/MCC,14749.0,Standard
 PERCUTANEOUS CARDIOVASCULAR PROCEDURES W DRUG,25142.512605,Standard
 PERC CARDIOVASC PROC W DRUG,15544.897436000001,Standard
 SIMPLE PNEUMONIA & PLEURISY W/O CC/MCC,4136.9230769000005,Standard
 MAJOR SMALL & LARGE BOWEL PROCEDURES W CC,14548.214286000002,Standard
 G.I. HEMORRHAGE W MCC,9952.5454545,Standard
 G.I. HEMORRHAGE W CC,5705.4761905000005,Standard
 PNEUMOTHORAX W CC,7594.1875,Standard
 BRONCHITIS & ASTHMA W CC/MCC,6739.744186,Standard
 RESPIRATORY SIGNS & SYMPTOMS,5688.9230769,Standard
 OTHER RESPIRATORY SYSTEM DIAGNOSES W MCC,12082.4,Standard
 RESPIRATORY SYSTEM DIAGNOSIS W VENTILATOR SUPPORT <=96 HOURS,16613.960784,Standard
Level 4 Urology and Related Services,2046.89,DRG
Level 3 Urology and Related Services,1287.06,DRG
Level 2 Laparoscopy and Related Services,5893.16,DRG
 CARDIAC VALVE & OTH MAJ CARDIOTHORACIC PROC W/O CARD CATH W MCC,50843.0,Standard
 CARDIAC VALVE & OTH MAJ CARDIOTHORACIC PROC W/O CARD CATH W CC,34463.735294,Standard
 DIABETES W MCC,7759.5454545,Standard
 CELLULITIS W/O MCC,5334.1555556,Standard
 CELLULITIS W MCC,8276.2,Standard
 MAJOR JOINT/LIMB REATTACHMENT PROCEDURE OF UPPER EXTREMITIES,14216.515152000002,Standard
 HIP & FEMUR PROCEDURES EXCEPT MAJOR JOINT W/O CC/MCC,9948.5384615,Standard
 HIP & FEMUR PROCEDURES EXCEPT MAJOR JOINT W CC,11675.333333,Standard
 HIP & FEMUR PROCEDURES EXCEPT MAJOR JOINT W MCC,17005.181818,Standard
 MAJOR HIP AND KNEE JOINT REPLACEMENT OR REATTACHMENT OF LOWER EXTREM,12387.026667,Standard
 MAJOR HIP AND KNEE JOINT REPLACEMENT OR REATTACHMENT OF LOWER EXTREM,18888.866667,Standard
 REVISION OF HIP OR KNEE REPLACEMENT W/O CC/MCC,16399.608696,Standard
 REVISION OF HIP OR KNEE REPLACEMENT W CC,20350.454545,Standard
 BILATERAL OR MULTIPLE MAJOR JOINT PROCS OF LOWER EXTREMITY W/O MCC,19229.0,Standard
 SPINAL FUSION EXCEPT CERVICAL W/O MCC,23239.521739,Standard
" ""ESOPHAGITIS, GASTROENT & MISC DIGEST DISORDERS W/O MCC""",4550.0555556,Standard
 G.I. OBSTRUCTION W CC,5151.6,Standard
 OTHER VASCULAR PROCEDURES W MCC,23057.884615,Standard
 COMPLICATED PEPTIC ULCER W CC,7756.9166667,Standard
 MALIGNANCY OF HEPATOBILIARY SYSTEM OR PANCREAS W CC,8127.5454545,Standard
 G.I. OBSTRUCTION W MCC,10253.695652,Standard
 OTHER KIDNEY & URINARY TRACT DIAGNOSES W MCC,8751.0434783,Standard
 RED BLOOD CELL DISORDERS W MCC,7768.3125,Standard
 RED BLOOD CELL DISORDERS W/O MCC,5060.636363600001,Standard
 INFECTIOUS & PARASITIC DISEASES W O.R. PROCEDURE W MCC,28374.866667000002,Standard
 SEPTICEMIA OR SEVERE SEPSIS W/O MV >96 HOURS W MCC,10392.727273,Standard
 SEPTICEMIA OR SEVERE SEPSIS W/O MV >96 HOURS W/O MCC,6364.8870968,Standard
 DEPRESSIVE NEUROSES,4436.4375,Standard
 PSYCHOSES,6856.2765957,Standard
Level 3 Musculoskeletal Procedures,2141.30826347304,DRG
Level 2 Musculoskeletal Procedures,1104.79174603174,DRG
Level 2 Breast/Lymphatic Surgery and Related Procedures,4018.3299999999895,DRG
Level 1 Breast/Lymphatic Surgery and Related Procedures,2274.2044736842104,DRG
Level 3 Excision/ Biopsy/ Incision and Drainage,1941.46,DRG
Level 2 Excision/ Biopsy/ Incision and Drainage,1117.11421276595,DRG
Level 5 Urology and Related Services,2814.86877777777,DRG
Level 4 Gynecologic Procedures,1656.3891666666598,DRG
Level 5 Gynecologic Procedures,2943.84,DRG
 OTHER MUSCULOSKELETAL SYS & CONNECTIVE TISSUE DIAGNOSES W CC,7267.6153846,Standard
" OTHER SKIN, SUBCUT TISS & BREAST PROC W CC",10612.055556,Standard
 CELLULITIS W MCC,9942.0,Standard
 CELLULITIS W/O MCC,6138.2434783,Standard
" ""TRAUMA TO THE SKIN, SUBCUT TISS & BREAST W/O MCC""",6661.2307692,Standard
" ""AMPUTAT OF LOWER LIMB FOR ENDOCRINE,NUTRIT,& METABOL DIS W CC""",14777.2,Standard
 KIDNEY & URINARY TRACT INFECTIONS W/O MCC,4741.2692308,Standard
" ""OTHER ENDOCRINE, NUTRIT & METAB O.R. PROC W CC""",16174.583333,Standard
 KIDNEY & URINARY TRACT INFECTIONS W MCC,6192.235294100001,Standard
 RENAL FAILURE W MCC,8569.2,Standard
Level 1 Nerve Procedures,1449.09613333333,DRG
Level 5 Gynecologic Procedures,3179.78266666666,DRG
Level 4 Gynecologic Procedures,2078.84,DRG
 INFLAMMATORY BOWEL DISEASE W CC,7711.1333333,Standard
Level 4 Urology and Related Services,2353.56434782608,DRG
Level 3 Urology and Related Services,1531.1592045454502,DRG
Level 1 Laparoscopy and Related Services,4105.69,DRG
Level 3 Lower GI Procedures,1853.6515789473601,DRG
Level 3 Upper GI Procedures,2291.0,DRG
Level 1 Endovascular Procedures,1935.93,DRG
Level 2 Upper GI Procedures,1126.118,DRG
Level 1 Laparoscopy and Related Services,3457.59015151515,DRG
Level 3 Urology and Related Services,1333.80621359223,DRG
Level 4 Urology and Related Services,2112.52970588235,DRG
Level 1 Endovascular Procedures,2032.86303964756,DRG
Level 5 ENT Procedures,3617.7515384615294,DRG
Level 4 ENT Procedures,1836.39,DRG
Level 4 Airway Endoscopy,2151.4436923076896,DRG
Level 3 Airway Endoscopy,1105.4,DRG
Level 5 Musculoskeletal Procedures,8592.702857142851,DRG
Level 4 Musculoskeletal Procedures,4625.869430379729,DRG
" MISC DISORDERS OF NUTRITION,METABOLISM,FLUIDS/ELECTROLYTES W MCC",6775.6470588,Standard
" ""MISC DISORDERS OF NUTRITION,METABOLISM,FLUIDS/ELECTROLYTES W/O MCC""",4330.8695652,Standard
 RENAL FAILURE W CC,5380.1666667,Standard
 DIABETES W MCC,11412.9375,Standard
 DIABETES W CC,6265.4339623000005,Standard
" MISC DISORDERS OF NUTRITION,METABOLISM,FLUIDS/ELECTROLYTES W MCC",8150.614035100001,Standard
 SEPTICEMIA OR SEVERE SEPSIS W/O MV >96 HOURS W MCC,13140.672727,Standard
 SEPTICEMIA OR SEVERE SEPSIS W/O MV >96 HOURS W/O MCC,7710.9704796999995,Standard
 ORGANIC DISTURBANCES & INTELLECTUAL DISABILITY,13315.813953,Standard
 PSYCHOSES,13069.467949,Standard
" ""ALCOHOL/DRUG ABUSE OR DEPENDENCE, LEFT AMA""",4121.1666667,Standard
 ALCOHOL/DRUG ABUSE OR DEPENDENCE W REHABILITATION THERAPY,10238.897436,Standard
 ALCOHOL/DRUG ABUSE OR DEPENDENCE W/O REHABILITATION THERAPY W MCC,11503.55,Standard
 ALCOHOL/DRUG ABUSE OR DEPENDENCE W/O REHABILITATION THERAPY W/O MCC,5859.242105300001,Standard
 OTHER O.R. PROCEDURES FOR INJURIES W CC,14496.0,Standard
 POISONING & TOXIC EFFECTS OF DRUGS W MCC,10981.813953,Standard
 POISONING & TOXIC EFFECTS OF DRUGS W/O MCC,5566.76,Standard
 COMPLICATIONS OF TREATMENT W MCC,12165.538462,Standard
 COMPLICATIONS OF TREATMENT W CC,7102.444444399999,Standard
 SIGNS & SYMPTOMS W MCC,9454.625,Standard
 SIGNS & SYMPTOMS W/O MCC,5614.982142899999,Standard
 EXTENSIVE O.R. PROCEDURE UNRELATED TO PRINCIPAL DIAGNOSIS W MCC,29352.581394999997,Standard
 EXTENSIVE O.R. PROCEDURE UNRELATED TO PRINCIPAL DIAGNOSIS W CC,16589.296296,Standard
 NON,21656.454545,Standard
 NON,12902.8,Standard
Level 1 Nerve Procedures,1276.4755633802802,DRG
Level 2 Neurostimulator and Related Procedures,4802.1,DRG
Level 3 Neurostimulator and Related Procedures,16942.13,DRG
Comprehensive Observation Services,1835.33940677966,DRG
 SEPTICEMIA OR SEVERE SEPSIS W MV >96 HOURS OR PERIPHERAL EXTRACORPOR,67551.846154,Standard
 FEVER AND INFLAMMATORY CONDITIONS,6641.9411765,Standard
 POSTOPERATIVE & POST,6931.5833333,Standard
 POSTOPERATIVE OR POST,13597.333333,Standard
" ""MISC DISORDERS OF NUTRITION,METABOLISM,FLUIDS/ELECTROLYTES W/O MCC""",5551.369863,Standard
 ENDOCRINE DISORDERS W CC,7080.7777778,Standard
 KIDNEY & URETER PROCEDURES FOR NEOPLASM W CC,14651.692308000002,Standard
 KIDNEY & URETER PROCEDURES FOR NON,12571.642856999999,Standard
 TRANSURETHRAL PROCEDURES W CC,10297.948718000001,Standard
 RENAL FAILURE W MCC,11554.775,Standard
 RENAL FAILURE W CC,6721.443662000001,Standard
 RENAL FAILURE W/O CC/MCC,4784.0625,Standard
 KIDNEY & URINARY TRACT INFECTIONS W MCC,7425.043478300001,Standard
 KIDNEY & URINARY TRACT INFECTIONS W/O MCC,5834.971962600001,Standard
 URINARY STONES W/O ESW LITHOTRIPSY W/O MCC,6098.6,Standard
Implantation of Drug Infusion Device,16325.2413333333,DRG
 OTHER KIDNEY & URINARY TRACT DIAGNOSES W MCC,10354.307692,Standard
 MAJOR MALE PELVIC PROCEDURES W/O CC/MCC,10061.136364,Standard
 TRANSURETHRAL PROSTATECTOMY W CC/MCC,10369.32,Standard
 MAJOR HEMATOL/IMMUN DIAG EXC SICKLE CELL CRISIS & COAGUL W CC,9199.3181818,Standard
 RED BLOOD CELL DISORDERS W MCC,9595.5625,Standard
 RED BLOOD CELL DISORDERS W/O MCC,6513.097561,Standard
 COAGULATION DISORDERS,13782.916667,Standard
 LYMPHOMA & NON,27964.071429000003,Standard
 LYMPHOMA & NON,11545.277778,Standard
 CHEMOTHERAPY W/O ACUTE LEUKEMIA AS SECONDARY DIAGNOSIS W CC,8944.8333333,Standard
 INFECTIOUS & PARASITIC DISEASES W O.R. PROCEDURE W MCC,34503.7,Standard
 INFECTIOUS & PARASITIC DISEASES W O.R. PROCEDURE W CC,15686.567568,Standard
 OTHER KIDNEY & URINARY TRACT DIAGNOSES W CC,7861.4146341000005,Standard
"Level 3 Extraocular, Repair, and Plastic Eye Procedures",1656.81,DRG
Level 5 Urology and Related Services,3228.4965060240997,DRG
Complex GI Procedures,3573.5833333333294,DRG
 COMBINED ANTERIOR/POSTERIOR SPINAL FUSION W CC,43789.305882,Standard
 COMBINED ANTERIOR/POSTERIOR SPINAL FUSION W/O CC/MCC,36360.461537999996,Standard
 SPINAL FUSION EXCEPT CERVICAL W/O MCC,28162.823529,Standard
 REVISION OF HIP OR KNEE REPLACEMENT W CC,23409.303030000003,Standard
 MAJOR HIP AND KNEE JOINT REPLACEMENT OR REATTACHMENT OF LOWER EXTREM,20403.740741,Standard
 MAJOR HIP AND KNEE JOINT REPLACEMENT OR REATTACHMENT OF LOWER EXTREM,14628.436923,Standard
 CERVICAL SPINAL FUSION W CC,19411.56,Standard
 CERVICAL SPINAL FUSION W/O CC/MCC,16503.291666999998,Standard
 HIP & FEMUR PROCEDURES EXCEPT MAJOR JOINT W MCC,19869.285713999998,Standard
 HIP & FEMUR PROCEDURES EXCEPT MAJOR JOINT W CC,14043.844156000001,Standard
 DISORDERS OF THE BILIARY TRACT W CC,7616.5862068999995,Standard
 HIP & FEMUR PROCEDURES EXCEPT MAJOR JOINT W/O CC/MCC,11638.052631999999,Standard
" LOWER EXTREM & HUMER PROC EXCEPT HIP,FOOT,FEMUR W CC",14950.5,Standard
" ""LOWER EXTREM & HUMER PROC EXCEPT HIP,FOOT,FEMUR W/O CC/MCC""",12203.761905,Standard
 OTHER MUSCULOSKELET SYS & CONN TISS O.R. PROC W CC,13025.647059,Standard
Comprehensive Observation Services,2128.5176142857104,DRG
 BACK & NECK PROC EXC SPINAL FUSION W CC,13474.8,Standard
 BACK & NECK PROC EXC SPINAL FUSION W/O CC/MCC,9186.6666667,Standard
 FRACTURES OF HIP & PELVIS W/O MCC,5511.966666699999,Standard
 PATHOLOGICAL FRACTURES & MUSCULOSKELET & CONN TISS MALIG W MCC,12653.083333,Standard
 PATHOLOGICAL FRACTURES & MUSCULOSKELET & CONN TISS MALIG W CC,6870.25,Standard
 MEDICAL BACK PROBLEMS W MCC,10740.4,Standard
 MAJOR JOINT/LIMB REATTACHMENT PROCEDURE OF UPPER EXTREMITIES,16914.202532,Standard
 MEDICAL BACK PROBLEMS W/O MCC,6254.8240000000005,Standard
 DISORDERS OF THE BILIARY TRACT W MCC,11175.181818000001,Standard
" ""DISORDERS OF LIVER EXCEPT MALIG,CIRR,ALC HEPA W MCC""",12952.0,Standard
 G.I. OBSTRUCTION W CC,6336.4358974,Standard
 G.I. OBSTRUCTION W/O CC/MCC,4756.1290323,Standard
" ESOPHAGITIS, GASTROENT & MISC DIGEST DISORDERS W MCC",9472.5344828,Standard
" ""ESOPHAGITIS, GASTROENT & MISC DIGEST DISORDERS W/O MCC""",5662.1675978,Standard
 OTHER DIGESTIVE SYSTEM DIAGNOSES W MCC,11512.222222,Standard
 OTHER DIGESTIVE SYSTEM DIAGNOSES W CC,6852.5301205,Standard
 OTHER DIGESTIVE SYSTEM DIAGNOSES W/O CC/MCC,5095.7857143,Standard
 LAPAROSCOPIC CHOLECYSTECTOMY W/O C.D.E. W MCC,16663.5,Standard
 LAPAROSCOPIC CHOLECYSTECTOMY W/O C.D.E. W CC,11729.756757,Standard
 LAPAROSCOPIC CHOLECYSTECTOMY W/O C.D.E. W/O CC/MCC,9235.388888899999,Standard
" DISORDERS OF LIVER EXCEPT MALIG,CIRR,ALC HEPA W CC",7151.8333333,Standard
 CIRRHOSIS & ALCOHOLIC HEPATITIS W MCC,14285.166667,Standard
 MALIGNANCY OF HEPATOBILIARY SYSTEM OR PANCREAS W MCC,11388.875,Standard
Level 4 Musculoskeletal Procedures,4388.10133333332,DRG
Level 5 Musculoskeletal Procedures,8635.063132911378,DRG
 CARDIAC ARRHYTHMIA & CONDUCTION DISORDERS W CC,6596.5833333,Standard
 OTHER CIRCULATORY SYSTEM DIAGNOSES W MCC,14842.615385,Standard
 MAJOR SMALL & LARGE BOWEL PROCEDURES W CC,20619.466666999997,Standard
 G.I. HEMORRHAGE W MCC,13551.25,Standard
 DISORDERS OF PANCREAS EXCEPT MALIGNANCY W MCC,12034.944444,Standard
 DISORDERS OF PANCREAS EXCEPT MALIGNANCY W CC,6554.7755102,Standard
 DISORDERS OF PANCREAS EXCEPT MALIGNANCY W/O CC/MCC,4853.5454545,Standard
 CIRRHOSIS & ALCOHOLIC HEPATITIS W CC,7362.6666667,Standard
 BONE DISEASES & ARTHROPATHIES W/O MCC,5720.8947368,Standard
 OTHER MUSCULOSKELET SYS & CONN TISS O.R. PROC W/O CC/MCC,10097.052631999999,Standard
" ""TENDONITIS, MYOSITIS & BURSITIS W/O MCC""",6349.8823529,Standard
 RENAL FAILURE W CC,7985.2553191,Standard
 KIDNEY & URINARY TRACT INFECTIONS W MCC,8712.6153846,Standard
 KIDNEY & URINARY TRACT INFECTIONS W/O MCC,6831.7446809,Standard
 OTHER KIDNEY & URINARY TRACT DIAGNOSES W MCC,13609.470588,Standard
 RED BLOOD CELL DISORDERS W/O MCC,7506.636363600001,Standard
 SIGNS & SYMPTOMS OF MUSCULOSKELETAL SYSTEM & CONN TISSUE W/O MCC,5774.7692308,Standard
 SEPTICEMIA OR SEVERE SEPSIS W MV >96 HOURS OR PERIPHERAL EXTRACORPOR,54019.684211,Standard
 SEPTICEMIA OR SEVERE SEPSIS W/O MV >96 HOURS W MCC,15731.065657,Standard
 SEPTICEMIA OR SEVERE SEPSIS W/O MV >96 HOURS W/O MCC,8617.4722222,Standard
Level 5 Gynecologic Procedures,3349.73,DRG
Level 4 Gynecologic Procedures,1857.24359999999,DRG
 RENAL FAILURE W MCC,11445.847826000001,Standard
Level 6 Urology and Related Services,6616.21,DRG
 POISONING & TOXIC EFFECTS OF DRUGS W MCC,11381.076923,Standard
Level 3 Airway Endoscopy,1052.41,DRG
Level 4 Airway Endoscopy,1976.285,DRG
Level 5 Airway Endoscopy,3867.28,DRG
Level 4 ENT Procedures,1623.48642857142,DRG
Level 5 ENT Procedures,3449.58,DRG
Level 4 Urology and Related Services,2208.4546800000003,DRG
Level 3 Urology and Related Services,1391.53637333332,DRG
Level 2 Laparoscopy and Related Services,6541.677894736839,DRG
Level 1 Laparoscopy and Related Services,3720.2463157894604,DRG
Abdominal/Peritoneal/Biliary and Related Procedures,2428.49785714285,DRG
Level 5 Urology and Related Services,3070.7457638888695,DRG
" ""MISC DISORDERS OF NUTRITION,METABOLISM,FLUIDS/ELECTROLYTES W/O MCC""",6755.75,Standard
 INFECTIOUS & PARASITIC DISEASES W O.R. PROCEDURE W MCC,41578.909091,Standard
 DIABETES W CC,7165.5294118,Standard
" ""AFTERCARE, MUSCULOSKELETAL SYSTEM & CONNECTIVE TISSUE W CC""",7359.9230769,Standard
" ""FX, SPRN, STRN & DISL EXCEPT FEMUR, HIP, PELVIS & THIGH W MCC""",10087.923077,Standard
" FX, SPRN, STRN & DISL EXCEPT FEMUR, HIP, PELVIS & THIGH W/O MCC",5651.3829787,Standard
 G.I. HEMORRHAGE W CC,8107.259259299999,Standard
 G.I. OBSTRUCTION W CC,7311.35,Standard
" MISC DISORDERS OF NUTRITION,METABOLISM,FLUIDS/ELECTROLYTES W MCC",9464.3125,Standard
" ESOPHAGITIS, GASTROENT & MISC DIGEST DISORDERS W MCC",12033.692308,Standard
" ""ESOPHAGITIS, GASTROENT & MISC DIGEST DISORDERS W/O MCC""",6710.0,Standard
 LAPAROSCOPIC CHOLECYSTECTOMY W/O C.D.E. W MCC,18900.727273,Standard
 LAPAROSCOPIC CHOLECYSTECTOMY W/O C.D.E. W CC,13325.272727,Standard
 DISORDERS OF PANCREAS EXCEPT MALIGNANCY W/O CC/MCC,5723.7272727,Standard
" DISORDERS OF LIVER EXCEPT MALIG,CIRR,ALC HEPA W CC",7930.9090909,Standard
 G.I. OBSTRUCTION W/O CC/MCC,9514.0833333,Standard
 HIP & FEMUR PROCEDURES EXCEPT MAJOR JOINT W/O CC/MCC,13165.461538,Standard
 SPINAL FUSION EXCEPT CERVICAL W/O MCC,33430.642857,Standard
 MAJOR HIP AND KNEE JOINT REPLACEMENT OR REATTACHMENT OF LOWER EXTREM,16029.820512999999,Standard
 CERVICAL SPINAL FUSION W CC,23695.823528999998,Standard
 HIP & FEMUR PROCEDURES EXCEPT MAJOR JOINT W MCC,20692.4375,Standard
 HIP & FEMUR PROCEDURES EXCEPT MAJOR JOINT W CC,15380.4,Standard
 CELLULITIS W MCC,11472.733333,Standard
 CELLULITIS W/O MCC,7236.5714286,Standard
 DIABETES W MCC,13852.7,Standard
