Description,Charge,Category
 RESPIRATORY SYSTEM DIAGNOSIS W VENTILATOR SUPPORT <=96 HOURS,16077.172413999999,Standard
 BRONCHITIS & ASTHMA W CC/MCC,7586.9696969999995,Standard
 PNEUMOTHORAX W CC,7485.636363600001,Standard
 SIMPLE PNEUMONIA & PLEURISY W/O CC/MCC,5107.1578947,Standard
 CARDIAC VALVE & OTH MAJ CARDIOTHORACIC PROC W/O CARD CATH W CC,37409.615385000005,Standard
 RESPIRATORY INFECTIONS & INFLAMMATIONS W CC,8650.1707317,Standard
 RESPIRATORY INFECTIONS & INFLAMMATIONS W MCC,12875.373832,Standard
 RESPIRATORY NEOPLASMS W MCC,11770.407406999999,Standard
 PULMONARY EMBOLISM W/O MCC,6365.6285714,Standard
 OTHER RESP SYSTEM O.R. PROCEDURES W MCC,29559.285713999998,Standard
 OTHER RESP SYSTEM O.R. PROCEDURES W CC,13985.055556,Standard
 SIMPLE PNEUMONIA & PLEURISY W CC,6493.8513514,Standard
 SIMPLE PNEUMONIA & PLEURISY W MCC,9656.020202,Standard
 CHRONIC OBSTRUCTIVE PULMONARY DISEASE W/O CC/MCC,5205.636363600001,Standard
 CHRONIC OBSTRUCTIVE PULMONARY DISEASE W CC,6528.9655172,Standard
 CHRONIC OBSTRUCTIVE PULMONARY DISEASE W MCC,8214.6285714,Standard
 PULMONARY EDEMA & RESPIRATORY FAILURE,9584.8447205,Standard
 MAJOR CHEST TRAUMA W CC,7491.538461499999,Standard
 PULMONARY EMBOLISM W MCC,10343.361111,Standard
 CORONARY BYPASS W CARDIAC CATH W MCC,50942.315789,Standard
 TRANSURETHRAL PROCEDURES W CC,9804.40625,Standard
 CORONARY BYPASS W/O CARDIAC CATH W MCC,43768.066667,Standard
 PERCUTANEOUS INTRACARDIAC PROCEDURES W/O MCC,19759.736842,Standard
 PERCUTANEOUS INTRACARDIAC PROCEDURES W MCC,25412.5625,Standard
 OTHER MAJOR CARDIOVASCULAR PROCEDURES W CC,23204.916666999998,Standard
 KIDNEY & URETER PROCEDURES FOR NEOPLASM W CC,14470.133333000002,Standard
 AORTIC AND HEART ASSIST PROCEDURES EXCEPT PULSATION BALLOON W/O MCC,30461.36,Standard
 ENDOVASCULAR CARDIAC VALVE REPLACEMENT W/O MCC,44977.0,Standard
 MAJOR CHEST PROCEDURES W/O CC/MCC,14065.066667,Standard
 ENDOVASCULAR CARDIAC VALVE REPLACEMENT W MCC,51935.47619,Standard
 CORONARY BYPASS W CARDIAC CATH W/O MCC,36319.103448,Standard
 OTHER CIRCULATORY SYSTEM O.R. PROCEDURES,22152.846154,Standard
 OTHER VASCULAR PROCEDURES W CC,18767.833333000002,Standard
 OTHER VASCULAR PROCEDURES W MCC,24785.928571,Standard
 PERC CARDIOVASC PROC W DRUG,16545.108108,Standard
 PERCUTANEOUS CARDIOVASCULAR PROCEDURES W DRUG,23596.394737,Standard
 PERMANENT CARDIAC PACEMAKER IMPLANT W/O CC/MCC,14751.692308000002,Standard
 PERMANENT CARDIAC PACEMAKER IMPLANT W CC,17530.857143,Standard
 PERMANENT CARDIAC PACEMAKER IMPLANT W MCC,26458.294118,Standard
 CORONARY BYPASS W/O CARDIAC CATH W/O MCC,29333.692307999998,Standard
 OTHER VASCULAR PROCEDURES W/O CC/MCC,12573.047618999999,Standard
 MAJOR CHEST PROCEDURES W CC,17972.666666999998,Standard
Level 1 Nerve Procedures,1310.98467391304,DRG
 DYSEQUILIBRIUM,5053.75,Standard
 EXTRACRANIAL PROCEDURES W/O CC/MCC,8372.083333300001,Standard
 EXTRACRANIAL PROCEDURES W CC,12398.714286,Standard
Abdominal/Peritoneal/Biliary and Related Procedures,2416.36859813083,DRG
Level 1 Laparoscopy and Related Services,3678.6007777777795,DRG
Level 2 Laparoscopy and Related Services,6543.929513888871,DRG
Level 3 Urology and Related Services,1401.9409090909,DRG
Level 4 Urology and Related Services,2224.0630322580605,DRG
Level 5 Urology and Related Services,3048.25600550963,DRG
Level 6 Urology and Related Services,6611.94,DRG
Level 7 Urology and Related Services,13913.6123076923,DRG
 NERVOUS SYSTEM NEOPLASMS W MCC,9509.5238095,Standard
Level 4 Gynecologic Procedures,1815.18932432432,DRG
" ""ACUTE MYOCARDIAL INFARCTION, DISCHARGED ALIVE W MCC""",13941.121951,Standard
 CRANIOTOMY & ENDOVASCULAR INTRACRANIAL PROCEDURES W/O CC/MCC,16915.272727,Standard
 CRANIOTOMY & ENDOVASCULAR INTRACRANIAL PROCEDURES W CC,18819.769231000002,Standard
 CRANIOTOMY & ENDOVASCULAR INTRACRANIAL PROCEDURES W MCC,30557.4,Standard
Level 3 Neurostimulator and Related Procedures,16810.6258823529,DRG
Level 1 Intraocular Procedures,1593.54354320162,DRG
Level 2 Intraocular Procedures,2975.2058158995897,DRG
"Level 3 Extraocular, Repair, and Plastic Eye Procedures",1484.8951219512198,DRG
Level 7 Radiation Therapy,5643.685714285711,DRG
Comprehensive Observation Services,1942.68796934868,DRG
Level 5 Gynecologic Procedures,3345.21483870967,DRG
 OTITIS MEDIA & URI W/O MCC,5143.5882353,Standard
 DEGENERATIVE NERVOUS SYSTEM DISORDERS W MCC,21046.470588,Standard
" ""ISCHEMIC STROKE, PRECEREBRAL OCCLUSION OR TRANSIENT ISCHEMIA W THRO",13994.565217,Standard
 HEADACHES W/O MCC,6452.9285714,Standard
 SEIZURES W/O MCC,5895.0212766,Standard
 SEIZURES W MCC,12124.407406999999,Standard
 OTHER DISORDERS OF NERVOUS SYSTEM W CC,6573.85,Standard
 OTHER DISORDERS OF NERVOUS SYSTEM W MCC,11989.526316,Standard
" ""TRAUMATIC STUPOR & COMA, COMA <1 HR W CC""",7815.357142899999,Standard
" TRAUMATIC STUPOR & COMA, COMA <1 HR W MCC",13870.764706,Standard
 CRANIAL & PERIPHERAL NERVE DISORDERS W/O MCC,7681.2631579,Standard
 NONSPECIFIC CEREBROVASCULAR DISORDERS W CC,7581.15,Standard
 NONSPECIFIC CEREBROVASCULAR DISORDERS W MCC,9633.9333333,Standard
 DEGENERATIVE NERVOUS SYSTEM DISORDERS W/O MCC,7800.6904761999995,Standard
Level 3 Pacemaker and Similar Procedures,8860.27204545456,DRG
 INTRACRANIAL HEMORRHAGE OR CEREBRAL INFARCTION W/O CC/MCC,5522.4761905000005,Standard
Level 4 Pacemaker and Similar Procedures,17038.8605263157,DRG
Level 1 ICD and Similar Procedures,21757.056666666598,DRG
Level 2 ICD and Similar Procedures,31006.83,DRG
Level 2 Upper GI Procedures,1182.3562622950699,DRG
Level 3 Upper GI Procedures,2291.0,DRG
Level 3 Lower GI Procedures,1917.36228571428,DRG
Complex GI Procedures,3585.54,DRG
 INTRACRANIAL HEMORRHAGE OR CEREBRAL INFARCTION W CC OR TPA IN 24 HRS,7527.1160714,Standard
 INTRACRANIAL HEMORRHAGE OR CEREBRAL INFARCTION W MCC,12722.641975,Standard
 TRANSIENT ISCHEMIA W/O THROMBOLYTIC,5376.1590909,Standard
" ACUTE MYOCARDIAL INFARCTION, DISCHARGED ALIVE W CC",6955.4583333,Standard
 OTHER MAJOR CARDIOVASCULAR PROCEDURES W MCC,34992.5,Standard
" ""CIRCULATORY DISORDERS EXCEPT AMI, W CARD CATH W MCC""",20396.458333000002,Standard
 MAJOR JOINT/LIMB REATTACHMENT PROCEDURE OF UPPER EXTREMITIES,17086.316832,Standard
" ""LOWER EXTREM & HUMER PROC EXCEPT HIP,FOOT,FEMUR W/O CC/MCC""",12969.72,Standard
 FRACTURES OF HIP & PELVIS W/O MCC,4871.5909091,Standard
 PATHOLOGICAL FRACTURES & MUSCULOSKELET & CONN TISS MALIG W MCC,14314.277778,Standard
 PATHOLOGICAL FRACTURES & MUSCULOSKELET & CONN TISS MALIG W CC,7538.421052600001,Standard
 MEDICAL BACK PROBLEMS W MCC,10097.529412,Standard
 MEDICAL BACK PROBLEMS W/O MCC,6468.9242423999995,Standard
 HIP & FEMUR PROCEDURES EXCEPT MAJOR JOINT W/O CC/MCC,11545.333333,Standard
 BONE DISEASES & ARTHROPATHIES W/O MCC,5654.5263158,Standard
" FX, SPRN, STRN & DISL EXCEPT FEMUR, HIP, PELVIS & THIGH W/O MCC",5717.8181818,Standard
 CELLULITIS W MCC,9429.709677399998,Standard
 CELLULITIS W/O MCC,6233.4013605,Standard
" ""TRAUMA TO THE SKIN, SUBCUT TISS & BREAST W/O MCC""",6023.0,Standard
" ""AMPUTAT OF LOWER LIMB FOR ENDOCRINE,NUTRIT,& METABOL DIS W CC""",13776.125,Standard
 DIABETES W MCC,9336.1764706,Standard
 DIABETES W CC,5928.5384615,Standard
" ""TENDONITIS, MYOSITIS & BURSITIS W/O MCC""",6035.0,Standard
" MISC DISORDERS OF NUTRITION,METABOLISM,FLUIDS/ELECTROLYTES W MCC",8903.9215686,Standard
 HIP & FEMUR PROCEDURES EXCEPT MAJOR JOINT W CC,14308.116883,Standard
 MAJOR HIP AND KNEE JOINT REPLACEMENT OR REATTACHMENT OF LOWER EXTREM,14955.762666999999,Standard
 CIRRHOSIS & ALCOHOLIC HEPATITIS W MCC,12543.363636,Standard
 MALIGNANCY OF HEPATOBILIARY SYSTEM OR PANCREAS W MCC,12841.611111,Standard
 MALIGNANCY OF HEPATOBILIARY SYSTEM OR PANCREAS W CC,8632.4285714,Standard
 DISORDERS OF PANCREAS EXCEPT MALIGNANCY W MCC,11020.25,Standard
 DISORDERS OF PANCREAS EXCEPT MALIGNANCY W CC,6236.3333333,Standard
 DISORDERS OF PANCREAS EXCEPT MALIGNANCY W/O CC/MCC,5990.0833333,Standard
" ""ACUTE MYOCARDIAL INFARCTION, DISCHARGED ALIVE W/O CC/MCC""",5618.4090909,Standard
 HIP & FEMUR PROCEDURES EXCEPT MAJOR JOINT W MCC,20062.710526,Standard
" ""DISORDERS OF LIVER EXCEPT MALIG,CIRR,ALC HEPA W MCC""",12566.882353,Standard
 DISORDERS OF THE BILIARY TRACT W CC,7696.347826100001,Standard
 SPINAL FUSION EXCEPT CERVICAL W/O MCC,28142.764706,Standard
 BILATERAL OR MULTIPLE MAJOR JOINT PROCS OF LOWER EXTREMITY W/O MCC,22368.533333000003,Standard
" WND DEBRID & SKN GRFT EXC HAND, FOR MUSCULO",20365.785713999998,Standard
 REVISION OF HIP OR KNEE REPLACEMENT W CC,25963.692308,Standard
 REVISION OF HIP OR KNEE REPLACEMENT W/O CC/MCC,20009.695652000002,Standard
 MAJOR HIP AND KNEE JOINT REPLACEMENT OR REATTACHMENT OF LOWER EXTREM,21214.47541,Standard
 DISORDERS OF THE BILIARY TRACT W MCC,12842.826087000001,Standard
 LAPAROSCOPIC CHOLECYSTECTOMY W/O C.D.E. W/O CC/MCC,9811.4545455,Standard
" ""MISC DISORDERS OF NUTRITION,METABOLISM,FLUIDS/ELECTROLYTES W/O MCC""",5545.184466,Standard
 ENDOCRINE DISORDERS W CC,6283.25,Standard
 INFECTIOUS & PARASITIC DISEASES W O.R. PROCEDURE W MCC,36429.574713,Standard
 LYMPHOMA & NON,11556.142856999999,Standard
 LYMPHOMA & NON,21960.884615,Standard
 COAGULATION DISORDERS,12041.375,Standard
 RED BLOOD CELL DISORDERS W/O MCC,6257.3783784,Standard
 RED BLOOD CELL DISORDERS W MCC,9446.4375,Standard
 MAJOR HEMATOL/IMMUN DIAG EXC SICKLE CELL CRISIS & COAGUL W CC,8432.444444399998,Standard
 INFECTIOUS & PARASITIC DISEASES W O.R. PROCEDURE W CC,16278.45,Standard
 MAJOR MALE PELVIC PROCEDURES W/O CC/MCC,10453.363636,Standard
 OTHER KIDNEY & URINARY TRACT DIAGNOSES W MCC,10773.855263,Standard
 URINARY STONES W/O ESW LITHOTRIPSY W/O MCC,7010.142857100001,Standard
 KIDNEY & URINARY TRACT INFECTIONS W/O MCC,5582.9807692,Standard
 KIDNEY & URINARY TRACT INFECTIONS W MCC,7457.78,Standard
 RENAL FAILURE W/O CC/MCC,4912.260869600001,Standard
 RENAL FAILURE W CC,6579.1678322,Standard
 RENAL FAILURE W MCC,10741.204545,Standard
 OTHER KIDNEY & URINARY TRACT DIAGNOSES W CC,7431.461538500001,Standard
 ENDOCRINE DISORDERS W MCC,10698.5625,Standard
 POSTOPERATIVE & POST,15607.52,Standard
 VIRAL ILLNESS W/O MCC,6015.0625,Standard
 NON,11636.454545,Standard
 NON,38038.615385000005,Standard
 EXTENSIVE O.R. PROCEDURE UNRELATED TO PRINCIPAL DIAGNOSIS W CC,16554.75,Standard
 EXTENSIVE O.R. PROCEDURE UNRELATED TO PRINCIPAL DIAGNOSIS W MCC,27652.0,Standard
 SIGNS & SYMPTOMS W/O MCC,5528.777777800001,Standard
 COMPLICATIONS OF TREATMENT W CC,7055.9230769,Standard
 COMPLICATIONS OF TREATMENT W MCC,17337.681818,Standard
 POSTOPERATIVE & POST,7072.35,Standard
 POISONING & TOXIC EFFECTS OF DRUGS W/O MCC,5906.3333333,Standard
 ALCOHOL/DRUG ABUSE OR DEPENDENCE W/O REHABILITATION THERAPY W/O MCC,5897.7555556,Standard
 ALCOHOL/DRUG ABUSE OR DEPENDENCE W/O REHABILITATION THERAPY W MCC,11464.692308,Standard
 PSYCHOSES,8004.6785714,Standard
 ORGANIC DISTURBANCES & INTELLECTUAL DISABILITY,8206.9545455,Standard
 SEPTICEMIA OR SEVERE SEPSIS W/O MV >96 HOURS W/O MCC,7646.901734100001,Standard
 SEPTICEMIA OR SEVERE SEPSIS W/O MV >96 HOURS W MCC,12857.701578,Standard
 SEPTICEMIA OR SEVERE SEPSIS W MV >96 HOURS OR PERIPHERAL EXTRACORPOR,43236.214286,Standard
 POISONING & TOXIC EFFECTS OF DRUGS W MCC,11398.827586,Standard
 LAPAROSCOPIC CHOLECYSTECTOMY W/O C.D.E. W CC,12236.545455,Standard
" LOWER EXTREM & HUMER PROC EXCEPT HIP,FOOT,FEMUR W CC",15258.451613,Standard
 OTHER DIGESTIVE SYSTEM DIAGNOSES W CC,6513.7592593,Standard
Level 3 Endovascular Procedures,9658.20999999998,DRG
Level 2 Endovascular Procedures,4246.40999999999,DRG
Level 1 Endovascular Procedures,2031.61923076922,DRG
 OTHER DIGESTIVE SYSTEM DIAGNOSES W/O CC/MCC,4860.0625,Standard
Level 4 ENT Procedures,1757.1956,DRG
Level 5 Airway Endoscopy,4058.8710869565202,DRG
Level 4 Endovascular Procedures,15409.79,DRG
Level 4 Airway Endoscopy,2163.74948275861,DRG
Level 5 Musculoskeletal Procedures,9132.53186046513,DRG
Level 4 Musculoskeletal Procedures,4530.64873737372,DRG
Level 3 Musculoskeletal Procedures,2139.78499999999,DRG
Level 2 Musculoskeletal Procedures,1101.69745945945,DRG
Level 2 Breast/Lymphatic Surgery and Related Procedures,3986.3500735294106,DRG
Level 1 Breast/Lymphatic Surgery and Related Procedures,2253.89820224719,DRG
Level 3 Airway Endoscopy,1093.40514285714,DRG
Level 2 Electrophysiologic Procedures,4243.270625,DRG
Level 3 Electrophysiologic Procedures,17853.6594782608,DRG
Level 2 Pacemaker and Similar Procedures,6373.2526086956495,DRG
" CIRCULATORY DISORDERS EXCEPT AMI, W CARD CATH W/O MCC",8380.375,Standard
 HEART FAILURE & SHOCK W MCC,10203.797618999999,Standard
 HEART FAILURE & SHOCK W CC,6722.5875,Standard
 HEART FAILURE & SHOCK W/O CC/MCC,4800.8235294,Standard
 PERIPHERAL VASCULAR DISORDERS W MCC,10341.913043,Standard
 PERIPHERAL VASCULAR DISORDERS W CC,6844.0,Standard
 HYPERTENSION W/O MCC,4965.3157895,Standard
 CARDIAC ARRHYTHMIA & CONDUCTION DISORDERS W MCC,9377.3026316,Standard
 CARDIAC ARRHYTHMIA & CONDUCTION DISORDERS W CC,5652.1111111,Standard
 CARDIAC ARRHYTHMIA & CONDUCTION DISORDERS W/O CC/MCC,4166.4230769000005,Standard
 SYNCOPE & COLLAPSE,5848.45,Standard
 CHEST PAIN,5325.65,Standard
 OTHER CIRCULATORY SYSTEM DIAGNOSES W MCC,14042.146341,Standard
 OTHER CIRCULATORY SYSTEM DIAGNOSES W CC,6832.357142899999,Standard
" ""STOMACH, ESOPHAGEAL & DUODENAL PROC W CC""",17007.75,Standard
Level 3 Excision/ Biopsy/ Incision and Drainage,1848.21234375,DRG
Level 2 Excision/ Biopsy/ Incision and Drainage,1118.0478867102302,DRG
Level 5 ENT Procedures,3534.2336144578294,DRG
 DIGESTIVE MALIGNANCY W MCC,14459.642856999999,Standard
 COMPLICATED PEPTIC ULCER W CC,7548.214285699999,Standard
 INFLAMMATORY BOWEL DISEASE W CC,6895.6666667,Standard
 G.I. HEMORRHAGE W/O CC/MCC,4647.6923077,Standard
 G.I. HEMORRHAGE W CC,6958.5109489,Standard
 G.I. HEMORRHAGE W MCC,11809.1,Standard
 DIGESTIVE MALIGNANCY W CC,9506.857142899999,Standard
 MAJOR GASTROINTESTINAL DISORDERS & PERITONEAL INFECTIONS W/O CC/MCC,5735.9090909,Standard
 MAJOR GASTROINTESTINAL DISORDERS & PERITONEAL INFECTIONS W CC,7748.6896552,Standard
 PERITONEAL ADHESIOLYSIS W CC,19877.909091,Standard
 MAJOR GASTROINTESTINAL DISORDERS & PERITONEAL INFECTIONS W MCC,14268.315788999998,Standard
 MAJOR SMALL & LARGE BOWEL PROCEDURES W CC,17541.985075,Standard
 MAJOR SMALL & LARGE BOWEL PROCEDURES W MCC,35606.068966000006,Standard
 G.I. OBSTRUCTION W MCC,12843.705881999998,Standard
 G.I. OBSTRUCTION W CC,6408.5357143,Standard
 G.I. OBSTRUCTION W/O CC/MCC,4634.175,Standard
" ESOPHAGITIS, GASTROENT & MISC DIGEST DISORDERS W MCC",8669.8285714,Standard
" ""ESOPHAGITIS, GASTROENT & MISC DIGEST DISORDERS W/O MCC""",5659.5939394,Standard
 OTHER DIGESTIVE SYSTEM DIAGNOSES W MCC,11811.954545,Standard
 MAJOR SMALL & LARGE BOWEL PROCEDURES W/O CC/MCC,13030.058824,Standard
