Description,Charge,Category
Comprehensive Observation Services,1732.8316814159198,DRG
Abdominal/Peritoneal/Biliary and Related Procedures,2187.71,DRG
Level 1 Laparoscopy and Related Services,2854.26307692307,DRG
Level 4 Musculoskeletal Procedures,3876.14399999999,DRG
Level 3 Musculoskeletal Procedures,1987.88,DRG
Level 2 Excision/ Biopsy/ Incision and Drainage,1013.04,DRG
 PULMONARY EDEMA & RESPIRATORY FAILURE,6205.142857100001,Standard
 SIMPLE PNEUMONIA & PLEURISY W CC,5026.0,Standard
Level 1 Breast/Lymphatic Surgery and Related Procedures,2049.95,DRG
 SEPTICEMIA OR SEVERE SEPSIS W/O MV >96 HOURS W/O MCC,5812.0,Standard
 SEPTICEMIA OR SEVERE SEPSIS W/O MV >96 HOURS W MCC,9175.7692308,Standard
 HEART FAILURE & SHOCK W MCC,8084.473684199999,Standard
Level 2 Breast/Lymphatic Surgery and Related Procedures,3616.0999999999894,DRG
