Description,Charge,Category
Level 4 Airway Endoscopy,1991.69,DRG
Level 3 Musculoskeletal Procedures,2010.85314814814,DRG
Level 4 Musculoskeletal Procedures,4008.8824242424203,DRG
Level 4 Urology and Related Services,2052.73,DRG
Level 3 Urology and Related Services,1290.73,DRG
Level 3 Lower GI Procedures,1762.63,DRG
Level 1 Laparoscopy and Related Services,3278.20432432432,DRG
Abdominal/Peritoneal/Biliary and Related Procedures,2211.72708333333,DRG
Level 1 Endovascular Procedures,1853.45999999999,DRG
Level 3 Upper GI Procedures,2088.27,DRG
Level 2 Upper GI Procedures,1086.51,DRG
Level 4 Endovascular Procedures,13001.2586666666,DRG
 SPINAL FUSION EXCEPT CERVICAL W/O MCC,25686.175,Standard
 REVISION OF HIP OR KNEE REPLACEMENT W CC,22175.65,Standard
 REVISION OF HIP OR KNEE REPLACEMENT W/O CC/MCC,18250.48,Standard
 MAJOR HIP AND KNEE JOINT REPLACEMENT OR REATTACHMENT OF LOWER EXTREM,17360.0,Standard
Level 3 Endovascular Procedures,8687.32,DRG
Level 2 Endovascular Procedures,3727.65917355372,DRG
Level 5 Musculoskeletal Procedures,8233.686632653042,DRG
Level 3 Airway Endoscopy,1000.0607462686501,DRG
Level 2 Laparoscopy and Related Services,5913.7,DRG
Level 2 Musculoskeletal Procedures,992.1268965517239,DRG
 CARDIAC ARRHYTHMIA & CONDUCTION DISORDERS W/O CC/MCC,3964.0625,Standard
Level 1 Breast/Lymphatic Surgery and Related Procedures,2076.39,DRG
Level 5 Urology and Related Services,2820.97,DRG
 EXTENSIVE O.R. PROCEDURE UNRELATED TO PRINCIPAL DIAGNOSIS W MCC,23625.333333000002,Standard
 SEPTICEMIA OR SEVERE SEPSIS W/O MV >96 HOURS W/O MCC,7322.64,Standard
 CARDIAC ARRHYTHMIA & CONDUCTION DISORDERS W CC,5309.466666699999,Standard
 INFECTIOUS & PARASITIC DISEASES W O.R. PROCEDURE W CC,18552.833333000002,Standard
 INFECTIOUS & PARASITIC DISEASES W O.R. PROCEDURE W MCC,32410.612902999997,Standard
 RED BLOOD CELL DISORDERS W/O MCC,6062.8181818,Standard
 OTHER KIDNEY & URINARY TRACT DIAGNOSES W CC,7372.6153846,Standard
 OTHER KIDNEY & URINARY TRACT DIAGNOSES W MCC,10552.583333,Standard
 KIDNEY & URINARY TRACT INFECTIONS W/O MCC,5154.4615385,Standard
 KIDNEY & URINARY TRACT INFECTIONS W MCC,6899.8421053,Standard
 RENAL FAILURE W CC,6283.0487805,Standard
 RENAL FAILURE W MCC,9513.9791667,Standard
Level 2 Breast/Lymphatic Surgery and Related Procedures,3544.5774193548295,DRG
" ""MISC DISORDERS OF NUTRITION,METABOLISM,FLUIDS/ELECTROLYTES W/O MCC""",4854.5882353,Standard
 DIABETES W CC,5622.636363600001,Standard
" ""AMPUTAT OF LOWER LIMB FOR ENDOCRINE,NUTRIT,& METABOL DIS W CC""",12229.833333,Standard
 CELLULITIS W/O MCC,6272.0425532,Standard
 CELLULITIS W MCC,8789.3529412,Standard
" ""OTHER SKIN, SUBCUT TISS & BREAST PROC W/O CC/MCC""",7567.0909091,Standard
 SKIN GRAFT FOR SKIN ULCER OR CELLULITIS W MCC,21784.0,Standard
" LOWER EXTREM & HUMER PROC EXCEPT HIP,FOOT,FEMUR W CC",13484.25,Standard
 MAJOR JOINT/LIMB REATTACHMENT PROCEDURE OF UPPER EXTREMITIES,15653.941175999998,Standard
 HIP & FEMUR PROCEDURES EXCEPT MAJOR JOINT W/O CC/MCC,11255.470588,Standard
 HIP & FEMUR PROCEDURES EXCEPT MAJOR JOINT W CC,12404.611111,Standard
 HIP & FEMUR PROCEDURES EXCEPT MAJOR JOINT W MCC,21908.3125,Standard
 MAJOR HIP AND KNEE JOINT REPLACEMENT OR REATTACHMENT OF LOWER EXTREM,14016.153527,Standard
Level 2 Excision/ Biopsy/ Incision and Drainage,1012.9173703703699,DRG
" MISC DISORDERS OF NUTRITION,METABOLISM,FLUIDS/ELECTROLYTES W MCC",7448.8421053,Standard
Comprehensive Observation Services,1771.77716262977,DRG
 SEPTICEMIA OR SEVERE SEPSIS W/O MV >96 HOURS W MCC,12275.483516,Standard
 RESPIRATORY SYSTEM DIAGNOSIS W VENTILATOR SUPPORT <=96 HOURS,14637.818181999999,Standard
 G.I. OBSTRUCTION W CC,5597.5,Standard
" ""ACUTE MYOCARDIAL INFARCTION, DISCHARGED ALIVE W MCC""",9775.4583333,Standard
" ACUTE MYOCARDIAL INFARCTION, DISCHARGED ALIVE W CC",6117.0909091,Standard
" CIRCULATORY DISORDERS EXCEPT AMI, W CARD CATH W/O MCC",8990.7391304,Standard
 HEART FAILURE & SHOCK W MCC,9330.920354,Standard
 PERC CARDIOVASC PROC W DRUG,13908.0,Standard
 OTHER CIRCULATORY SYSTEM O.R. PROCEDURES,18638.916666999998,Standard
 SIMPLE PNEUMONIA & PLEURISY W CC,6151.0740741,Standard
 CHRONIC OBSTRUCTIVE PULMONARY DISEASE W CC,5996.0909091,Standard
 CHRONIC OBSTRUCTIVE PULMONARY DISEASE W MCC,7332.5,Standard
 PULMONARY EDEMA & RESPIRATORY FAILURE,8607.013888899999,Standard
 RESPIRATORY INFECTIONS & INFLAMMATIONS W MCC,11187.892856999999,Standard
 HEART FAILURE & SHOCK W CC,6224.85,Standard
 OTHER RESP SYSTEM O.R. PROCEDURES W MCC,24396.5,Standard
 SIMPLE PNEUMONIA & PLEURISY W MCC,8974.4285714,Standard
 OTHER VASCULAR PROCEDURES W CC,16285.8,Standard
 CARDIAC ARRHYTHMIA & CONDUCTION DISORDERS W MCC,7563.0,Standard
 OTHER VASCULAR PROCEDURES W MCC,21608.769231000002,Standard
 SYNCOPE & COLLAPSE,5242.095238100001,Standard
 MAJOR SMALL & LARGE BOWEL PROCEDURES W MCC,36323.142857,Standard
 MAJOR SMALL & LARGE BOWEL PROCEDURES W CC,15084.064516,Standard
 MAJOR SMALL & LARGE BOWEL PROCEDURES W/O CC/MCC,11359.857143000001,Standard
 G.I. HEMORRHAGE W MCC,10341.764706,Standard
 G.I. HEMORRHAGE W CC,6594.94,Standard
 G.I. OBSTRUCTION W/O CC/MCC,4990.0769231,Standard
" ESOPHAGITIS, GASTROENT & MISC DIGEST DISORDERS W MCC",7874.75,Standard
" ""ESOPHAGITIS, GASTROENT & MISC DIGEST DISORDERS W/O MCC""",5058.363636399999,Standard
 OTHER DIGESTIVE SYSTEM DIAGNOSES W CC,6966.9333333,Standard
 COMBINED ANTERIOR/POSTERIOR SPINAL FUSION W/O CC/MCC,30632.636363999998,Standard
 INTRACRANIAL HEMORRHAGE OR CEREBRAL INFARCTION W MCC,11572.958333,Standard
 INTRACRANIAL HEMORRHAGE OR CEREBRAL INFARCTION W CC OR TPA IN 24 HRS,6811.2941175999995,Standard
 INTRACRANIAL HEMORRHAGE OR CEREBRAL INFARCTION W/O CC/MCC,4983.4545455,Standard
 TRANSIENT ISCHEMIA W/O THROMBOLYTIC,5041.0,Standard
 PULMONARY EMBOLISM W MCC,10736.818181999999,Standard
 PULMONARY EMBOLISM W/O MCC,6459.1818182,Standard
