Description,Charge,Category
 SEPTICEMIA OR SEVERE SEPSIS W/O MV >96 HOURS W/O MCC,7176.3333333,Standard
 G.I. OBSTRUCTION W CC,6635.0833333,Standard
" ""ESOPHAGITIS, GASTROENT & MISC DIGEST DISORDERS W/O MCC""",5120.8292683,Standard
 OTHER DIGESTIVE SYSTEM DIAGNOSES W CC,6329.9090909,Standard
 PERMANENT CARDIAC PACEMAKER IMPLANT W MCC,25646.5,Standard
 RESPIRATORY SYSTEM DIAGNOSIS W VENTILATOR SUPPORT <=96 HOURS,17022.545455,Standard
Level 3 Musculoskeletal Procedures,2152.98,DRG
Level 4 Musculoskeletal Procedures,4503.038965517229,DRG
Level 5 Musculoskeletal Procedures,9176.46999999999,DRG
Level 1 Endovascular Procedures,1993.9795580110397,DRG
Level 2 Endovascular Procedures,4110.8025,DRG
 G.I. HEMORRHAGE W CC,6514.7428571,Standard
Level 3 Endovascular Procedures,9234.67914285716,DRG
Level 2 Breast/Lymphatic Surgery and Related Procedures,3988.97,DRG
Level 2 Pacemaker and Similar Procedures,6319.22562499999,DRG
Level 3 Pacemaker and Similar Procedures,8568.25125,DRG
 BRONCHITIS & ASTHMA W CC/MCC,6231.8095238000005,Standard
 SIMPLE PNEUMONIA & PLEURISY W/O CC/MCC,4786.7272727,Standard
 SIMPLE PNEUMONIA & PLEURISY W CC,6754.84,Standard
 SIMPLE PNEUMONIA & PLEURISY W MCC,10053.120879,Standard
 CHRONIC OBSTRUCTIVE PULMONARY DISEASE W CC,6168.5263158,Standard
Level 2 Upper GI Procedures,1183.27,DRG
 CHRONIC OBSTRUCTIVE PULMONARY DISEASE W MCC,9025.616666700002,Standard
 MAJOR HIP AND KNEE JOINT REPLACEMENT OR REATTACHMENT OF LOWER EXTREM,23997.833333000002,Standard
 G.I. HEMORRHAGE W MCC,12701.785714,Standard
 MAJOR HIP AND KNEE JOINT REPLACEMENT OR REATTACHMENT OF LOWER EXTREM,14892.729591999998,Standard
 HIP & FEMUR PROCEDURES EXCEPT MAJOR JOINT W MCC,22406.090909,Standard
 CARDIAC ARRHYTHMIA & CONDUCTION DISORDERS W CC,5181.9791667,Standard
 CARDIAC ARRHYTHMIA & CONDUCTION DISORDERS W MCC,9463.1153846,Standard
Level 2 Musculoskeletal Procedures,1112.95764705882,DRG
 HYPERTENSION W/O MCC,4654.15,Standard
 HEART FAILURE & SHOCK W CC,6438.8666667,Standard
 HEART FAILURE & SHOCK W MCC,9952.40625,Standard
" CIRCULATORY DISORDERS EXCEPT AMI, W CARD CATH W/O MCC",7875.2580645,Standard
" ""ACUTE MYOCARDIAL INFARCTION, DISCHARGED ALIVE W/O CC/MCC""",6897.4166667,Standard
" ACUTE MYOCARDIAL INFARCTION, DISCHARGED ALIVE W CC",6594.6896552,Standard
" ""ACUTE MYOCARDIAL INFARCTION, DISCHARGED ALIVE W MCC""",11506.318841,Standard
 PERC CARDIOVASC PROC W DRUG,14807.844444,Standard
 PERCUTANEOUS CARDIOVASCULAR PROCEDURES W DRUG,23531.478261,Standard
 PERMANENT CARDIAC PACEMAKER IMPLANT W CC,17568.733333,Standard
 CELLULITIS W/O MCC,5721.735294100001,Standard
 CARDIAC ARRHYTHMIA & CONDUCTION DISORDERS W/O CC/MCC,3785.5555556000004,Standard
 SYNCOPE & COLLAPSE,5659.7916667,Standard
 CHEST PAIN,4720.4444444,Standard
 MAJOR SMALL & LARGE BOWEL PROCEDURES W CC,17192.733333,Standard
 MAJOR GASTROINTESTINAL DISORDERS & PERITONEAL INFECTIONS W CC,7104.0909091,Standard
 MAJOR JOINT/LIMB REATTACHMENT PROCEDURE OF UPPER EXTREMITIES,16212.75,Standard
 SEPTICEMIA OR SEVERE SEPSIS W/O MV >96 HOURS W MCC,13175.217391,Standard
 HIP & FEMUR PROCEDURES EXCEPT MAJOR JOINT W/O CC/MCC,11190.727273,Standard
 HIP & FEMUR PROCEDURES EXCEPT MAJOR JOINT W CC,14174.166667,Standard
 PULMONARY EDEMA & RESPIRATORY FAILURE,8209.9473684,Standard
Abdominal/Peritoneal/Biliary and Related Procedures,2413.29,DRG
Level 4 Endovascular Procedures,15161.420322580601,DRG
Level 4 Urology and Related Services,2234.35718749999,DRG
 KIDNEY & URINARY TRACT INFECTIONS W MCC,8186.214285699999,Standard
Level 3 Urology and Related Services,1401.8544791666598,DRG
 RENAL FAILURE W CC,6245.9787234,Standard
 RENAL FAILURE W MCC,9939.1290323,Standard
" ""MISC DISORDERS OF NUTRITION,METABOLISM,FLUIDS/ELECTROLYTES W/O MCC""",5199.871794899999,Standard
" MISC DISORDERS OF NUTRITION,METABOLISM,FLUIDS/ELECTROLYTES W MCC",7871.047619,Standard
 DIABETES W CC,5706.5384615,Standard
" ""TRAUMA TO THE SKIN, SUBCUT TISS & BREAST W/O MCC""",5799.5,Standard
 TRANSIENT ISCHEMIA W/O THROMBOLYTIC,5057.3125,Standard
Level 1 Laparoscopy and Related Services,3587.36535714285,DRG
 OTHER KIDNEY & URINARY TRACT DIAGNOSES W MCC,10857.3,Standard
Level 5 Urology and Related Services,3071.9986,DRG
Level 2 Excision/ Biopsy/ Incision and Drainage,1104.19382239381,DRG
 INTRACRANIAL HEMORRHAGE OR CEREBRAL INFARCTION W/O CC/MCC,5021.363636399999,Standard
 PULMONARY EMBOLISM W MCC,10524.818181999999,Standard
Level 3 Excision/ Biopsy/ Incision and Drainage,1927.28,DRG
Level 1 Nerve Procedures,1307.26583333333,DRG
Comprehensive Observation Services,1924.7236639676,DRG
 COMBINED ANTERIOR/POSTERIOR SPINAL FUSION W CC,56365.153846,Standard
 OTHER KIDNEY & URINARY TRACT DIAGNOSES W CC,7009.2727273,Standard
 RED BLOOD CELL DISORDERS W/O MCC,5947.4761905000005,Standard
 INFECTIOUS & PARASITIC DISEASES W O.R. PROCEDURE W MCC,36157.190475999996,Standard
 SEPTICEMIA OR SEVERE SEPSIS W MV >96 HOURS OR PERIPHERAL EXTRACORPOR,46777.636364,Standard
 INTRACRANIAL HEMORRHAGE OR CEREBRAL INFARCTION W CC OR TPA IN 24 HRS,6926.142857100001,Standard
 INTRACRANIAL HEMORRHAGE OR CEREBRAL INFARCTION W MCC,11800.3125,Standard
 SIGNS & SYMPTOMS W/O MCC,5181.8125,Standard
 POISONING & TOXIC EFFECTS OF DRUGS W MCC,9365.6,Standard
 RESPIRATORY INFECTIONS & INFLAMMATIONS W MCC,12820.534884,Standard
 KIDNEY & URINARY TRACT INFECTIONS W/O MCC,5354.0,Standard
