Description,Charge,Category
 MAJOR MALE PELVIC PROCEDURES W CC/MCC,15762.233333000002,Standard
 HIP & FEMUR PROCEDURES EXCEPT MAJOR JOINT W CC,17372.869565,Standard
 RENAL FAILURE W CC,7331.5416667,Standard
 RENAL FAILURE W MCC,11439.0,Standard
 CARDIAC ARRHYTHMIA & CONDUCTION DISORDERS W/O CC/MCC,4376.0,Standard
 SYNCOPE & COLLAPSE,6185.5833333,Standard
 G.I. HEMORRHAGE W CC,7530.3529412,Standard
 G.I. OBSTRUCTION W CC,6628.2727273,Standard
" ""ESOPHAGITIS, GASTROENT & MISC DIGEST DISORDERS W/O MCC""",5895.2307692,Standard
 MAJOR HIP AND KNEE JOINT REPLACEMENT OR REATTACHMENT OF LOWER EXTREM,24783.583333000002,Standard
 MAJOR HIP AND KNEE JOINT REPLACEMENT OR REATTACHMENT OF LOWER EXTREM,15916.290909000001,Standard
 CELLULITIS W/O MCC,6856.6,Standard
 KIDNEY & URINARY TRACT INFECTIONS W/O MCC,6168.4347826,Standard
 CARDIAC ARRHYTHMIA & CONDUCTION DISORDERS W CC,5994.36,Standard
" ""MISC DISORDERS OF NUTRITION,METABOLISM,FLUIDS/ELECTROLYTES W/O MCC""",6143.7241379,Standard
 HEART FAILURE & SHOCK W MCC,11419.907692,Standard
 CHRONIC OBSTRUCTIVE PULMONARY DISEASE W CC,7120.857142899999,Standard
 CHRONIC OBSTRUCTIVE PULMONARY DISEASE W MCC,8937.75,Standard
 PULMONARY EDEMA & RESPIRATORY FAILURE,9492.0851064,Standard
" MISC DISORDERS OF NUTRITION,METABOLISM,FLUIDS/ELECTROLYTES W MCC",9088.6875,Standard
 RED BLOOD CELL DISORDERS W/O MCC,6852.8181818,Standard
 HEART FAILURE & SHOCK W CC,7427.692307699999,Standard
Comprehensive Observation Services,1867.1421428571398,DRG
Level 1 Intraocular Procedures,1541.1664249578303,DRG
Level 1 Nerve Procedures,1251.52275862069,DRG
Level 5 Urology and Related Services,2982.8099999999895,DRG
Level 4 Urology and Related Services,2170.48,DRG
Level 3 Urology and Related Services,1364.77,DRG
Level 2 Laparoscopy and Related Services,6328.28,DRG
Level 1 Laparoscopy and Related Services,3532.44711111111,DRG
 PSYCHOSES,11650.909091,Standard
 SEPTICEMIA OR SEVERE SEPSIS W/O MV >96 HOURS W/O MCC,8172.2307692,Standard
Level 2 Excision/ Biopsy/ Incision and Drainage,1057.14051282051,DRG
Level 3 Excision/ Biopsy/ Incision and Drainage,1674.2047368421,DRG
Level 1 Breast/Lymphatic Surgery and Related Procedures,2194.89,DRG
Level 2 Musculoskeletal Procedures,1086.50999999999,DRG
Level 3 Musculoskeletal Procedures,2128.5636734693803,DRG
Level 4 Musculoskeletal Procedures,4297.45714285714,DRG
Level 4 Airway Endoscopy,1901.4481818181798,DRG
Level 1 Endovascular Procedures,1799.80714285714,DRG
Level 2 Endovascular Procedures,3800.3457142857105,DRG
Level 2 Pacemaker and Similar Procedures,6102.489999999991,DRG
Level 3 Pacemaker and Similar Procedures,8491.42937499999,DRG
Level 2 ICD and Similar Procedures,29836.7,DRG
Abdominal/Peritoneal/Biliary and Related Procedures,2343.04,DRG
 SIMPLE PNEUMONIA & PLEURISY W MCC,11549.029412,Standard
 SIMPLE PNEUMONIA & PLEURISY W CC,7244.8947368,Standard
 SEPTICEMIA OR SEVERE SEPSIS W/O MV >96 HOURS W MCC,14585.3125,Standard
" ""ACUTE MYOCARDIAL INFARCTION, DISCHARGED ALIVE W MCC""",15869.538462,Standard
