Description,Charge,Category
Level 7 Radiation Therapy,5793.78,DRG
 CHEMOTHERAPY W/O ACUTE LEUKEMIA AS SECONDARY DIAGNOSIS W MCC,153491.41667,Standard
 LYMPHOMA & NON,12570.461538,Standard
 CHEMO W ACUTE LEUKEMIA AS SDX W/O CC/MCC,12670.083333,Standard
 CHEMO W ACUTE LEUKEMIA AS SDX W CC OR HIGH DOSE CHEMO AGENT,30620.181818,Standard
 ACUTE LEUKEMIA W/O MAJOR O.R. PROCEDURE W MCC,49758.166667000005,Standard
 COAGULATION DISORDERS,17235.411765,Standard
 RED BLOOD CELL DISORDERS W/O MCC,8045.2575758,Standard
 RED BLOOD CELL DISORDERS W MCC,10841.933332999999,Standard
 CHEMOTHERAPY W/O ACUTE LEUKEMIA AS SECONDARY DIAGNOSIS W CC,19929.875,Standard
 MAJOR HEMATOL/IMMUN DIAG EXC SICKLE CELL CRISIS & COAGUL W CC,9959.3030303,Standard
 UTERINE & ADNEXA PROC FOR NON,14075.727272999999,Standard
 OTHER KIDNEY & URINARY TRACT DIAGNOSES W CC,10160.698629999999,Standard
 OTHER KIDNEY & URINARY TRACT DIAGNOSES W MCC,13098.52,Standard
 URINARY STONES W/O ESW LITHOTRIPSY W/O MCC,8150.6666667,Standard
 KIDNEY & URINARY TRACT INFECTIONS W/O MCC,7176.240506300001,Standard
 KIDNEY & URINARY TRACT INFECTIONS W MCC,8575.9285714,Standard
 RENAL FAILURE W/O CC/MCC,5776.625,Standard
 RENAL FAILURE W CC,7936.4153846,Standard
 MAJOR HEMATOL/IMMUN DIAG EXC SICKLE CELL CRISIS & COAGUL W MCC,26199.5,Standard
 OTHER O.R. PROCEDURES FOR MULTIPLE SIGNIFICANT TRAUMA W MCC,68619.73333300001,Standard
 SIGNS & SYMPTOMS W/O MCC,6643.5813953,Standard
 COMPLICATIONS OF TREATMENT W MCC,20362.96875,Standard
Level 2 Excision/ Biopsy/ Incision and Drainage,950.183644067802,DRG
 INFECTIOUS & PARASITIC DISEASES W O.R. PROCEDURE W CC,18494.0,Standard
 POSTOPERATIVE OR POST,36441.375,Standard
 POSTOPERATIVE OR POST,15198.904762,Standard
 POSTOPERATIVE & POST,15513.2,Standard
 POSTOPERATIVE & POST,8622.2941176,Standard
 FEVER AND INFLAMMATORY CONDITIONS,7568.444444399999,Standard
 SEPTICEMIA OR SEVERE SEPSIS W MV >96 HOURS OR PERIPHERAL EXTRACORPOR,48332.576923,Standard
 COMPLICATIONS OF TREATMENT W CC,9873.857142899999,Standard
 SEPTICEMIA OR SEVERE SEPSIS W/O MV >96 HOURS W MCC,14881.537530000001,Standard
 ACUTE ADJUSTMENT REACTION & PSYCHOSOCIAL DYSFUNCTION,7592.692307699999,Standard
 ORGANIC DISTURBANCES & INTELLECTUAL DISABILITY,10263.933332999999,Standard
 ALCOHOL/DRUG ABUSE OR DEPENDENCE W/O REHABILITATION THERAPY W/O MCC,6890.317073199999,Standard
 WOUND DEBRIDEMENTS FOR INJURIES W CC,15615.166667,Standard
 OTHER O.R. PROCEDURES FOR INJURIES W MCC,50010.05,Standard
 OTHER O.R. PROCEDURES FOR INJURIES W CC,14837.722222,Standard
 POISONING & TOXIC EFFECTS OF DRUGS W MCC,11235.714286,Standard
 POISONING & TOXIC EFFECTS OF DRUGS W/O MCC,6370.9565217,Standard
 SEPTICEMIA OR SEVERE SEPSIS W/O MV >96 HOURS W/O MCC,8963.355140200001,Standard
Comprehensive Observation Services,1700.7011870967901,DRG
 OTHER MULTIPLE SIGNIFICANT TRAUMA W CC,11746.615385,Standard
 EXTENSIVE O.R. PROCEDURE UNRELATED TO PRINCIPAL DIAGNOSIS W CC,21702.2,Standard
Level 2 Laparoscopy and Related Services,5613.78214285714,DRG
Level 3 Urology and Related Services,1223.97794183444,DRG
Level 4 Urology and Related Services,1899.2580412371103,DRG
Level 5 Urology and Related Services,2649.9638059701397,DRG
Level 6 Urology and Related Services,4859.92666666666,DRG
Level 7 Urology and Related Services,13428.921428571399,DRG
Level 4 Gynecologic Procedures,1707.97,DRG
Level 5 Gynecologic Procedures,2863.6989999999896,DRG
Level 1 Laparoscopy and Related Services,3222.4615642457898,DRG
Level 6 Gynecologic Procedures,4592.96,DRG
Level 2 Neurostimulator and Related Procedures,4054.7675555555497,DRG
Level 3 Neurostimulator and Related Procedures,14715.6646153846,DRG
Level 4 Neurostimulator and Related Procedures,24425.5964814814,DRG
Implantation of Drug Infusion Device,11775.65,DRG
Level 1 Intraocular Procedures,1405.39544885176,DRG
Level 2 Intraocular Procedures,2680.63333333333,DRG
"Level 3 Extraocular, Repair, and Plastic Eye Procedures",1324.09590909091,DRG
"Level 4 Extraocular, Repair, and Plastic Eye Procedures",2218.04842105263,DRG
Level 1 Nerve Procedures,1143.64157534246,DRG
 EXTENSIVE O.R. PROCEDURE UNRELATED TO PRINCIPAL DIAGNOSIS W MCC,35119.744681000004,Standard
Abdominal/Peritoneal/Biliary and Related Procedures,2074.56262773722,DRG
Level 3 Lower GI Procedures,1648.6010526315802,DRG
 NON,38919.875,Standard
Level 3 Airway Endoscopy,804.6576595744659,DRG
Level 4 Airway Endoscopy,1887.15852348993,DRG
Level 5 Airway Endoscopy,3394.2999999999897,DRG
Level 4 ENT Procedures,1461.1543529411701,DRG
Level 5 ENT Procedures,2855.67603773585,DRG
Level 1 Endovascular Procedures,1779.2215094339604,DRG
Level 2 Endovascular Procedures,3737.9909523809297,DRG
Complex GI Procedures,2990.53512195122,DRG
Level 3 Endovascular Procedures,8401.950588235279,DRG
Level 2 Electrophysiologic Procedures,3660.8825,DRG
Level 3 Electrophysiologic Procedures,16080.28,DRG
Level 2 Pacemaker and Similar Procedures,5610.741428571429,DRG
Level 3 Pacemaker and Similar Procedures,7843.76,DRG
Level 4 Pacemaker and Similar Procedures,15206.1099999999,DRG
Level 2 ICD and Similar Procedures,27771.669999999904,DRG
Level 2 Upper GI Procedures,1046.08462809916,DRG
Level 3 Upper GI Procedures,2005.9589189189103,DRG
Level 4 Endovascular Procedures,13735.8599999999,DRG
 INFECTIOUS & PARASITIC DISEASES W O.R. PROCEDURE W MCC,42949.189873,Standard
 CORONARY BYPASS W CARDIAC CATH W/O MCC,40145.064516000006,Standard
 HERNIA PROCEDURES EXCEPT INGUINAL & FEMORAL W CC,13992.210525999999,Standard
 HEART FAILURE & SHOCK W MCC,11977.777311,Standard
" CIRCULATORY DISORDERS EXCEPT AMI, W CARD CATH W/O MCC",10300.338462,Standard
" ""CIRCULATORY DISORDERS EXCEPT AMI, W CARD CATH W MCC""",18728.790322999997,Standard
" ""ACUTE MYOCARDIAL INFARCTION, DISCHARGED ALIVE W/O CC/MCC""",6544.9166667,Standard
" ACUTE MYOCARDIAL INFARCTION, DISCHARGED ALIVE W CC",8130.0909091,Standard
" ""ACUTE MYOCARDIAL INFARCTION, DISCHARGED ALIVE W MCC""",13620.83871,Standard
 PERCUTANEOUS INTRACARDIAC PROCEDURES W/O MCC,21271.0,Standard
 OTHER MAJOR CARDIOVASCULAR PROCEDURES W/O CC/MCC,18598.769231000002,Standard
 OTHER MAJOR CARDIOVASCULAR PROCEDURES W CC,27119.678570999997,Standard
 OTHER MAJOR CARDIOVASCULAR PROCEDURES W MCC,42769.285714,Standard
 AORTIC AND HEART ASSIST PROCEDURES EXCEPT PULSATION BALLOON W/O MCC,30826.342105,Standard
 HEART FAILURE & SHOCK W CC,8375.475409800001,Standard
 AORTIC AND HEART ASSIST PROCEDURES EXCEPT PULSATION BALLOON W MCC,47521.083332999995,Standard
 ENDOVASCULAR CARDIAC VALVE REPLACEMENT W MCC,65057.0,Standard
 OTHER CIRCULATORY SYSTEM O.R. PROCEDURES,28476.08,Standard
 OTHER VASCULAR PROCEDURES W/O CC/MCC,14390.875,Standard
 OTHER VASCULAR PROCEDURES W CC,19942.02381,Standard
 OTHER VASCULAR PROCEDURES W MCC,30256.071429000003,Standard
 PERC CARDIOVASC PROC W DRUG,16220.677419,Standard
 PERCUTANEOUS CARDIOVASCULAR PROCEDURES W DRUG,26034.37931,Standard
 PERMANENT CARDIAC PACEMAKER IMPLANT W CC,19555.588235,Standard
 AMPUTATION FOR CIRC SYS DISORDERS EXC UPPER LIMB & TOE W CC,23352.923077,Standard
 CORONARY BYPASS W/O CARDIAC CATH W/O MCC,29854.244444,Standard
 HEART TRANSPLANT OR IMPLANT OF HEART ASSIST SYSTEM W MCC,241074.89474000002,Standard
 ENDOVASCULAR CARDIAC VALVE REPLACEMENT W/O MCC,43808.296296,Standard
" ""ECMO OR TRACH W MV >96 HRS OR PDX EXC FACE, MOUTH & NECK W MAJ O.R.",127025.40625,Standard
 HEART FAILURE & SHOCK W/O CC/MCC,5989.88,Standard
 PERIPHERAL VASCULAR DISORDERS W CC,8326.611111100001,Standard
 G.I. OBSTRUCTION W MCC,12503.4375,Standard
 G.I. HEMORRHAGE W CC,9170.767241399999,Standard
 G.I. HEMORRHAGE W MCC,15195.0625,Standard
 DIGESTIVE MALIGNANCY W CC,9923.7647059,Standard
 MAJOR GASTROINTESTINAL DISORDERS & PERITONEAL INFECTIONS W CC,9247.393939399999,Standard
 OTHER DIGESTIVE SYSTEM O.R. PROCEDURES W CC,17243.0,Standard
 CORONARY BYPASS W/O CARDIAC CATH W MCC,44060.034482999996,Standard
 MAJOR SMALL & LARGE BOWEL PROCEDURES W/O CC/MCC,14642.434783,Standard
 MAJOR SMALL & LARGE BOWEL PROCEDURES W CC,20747.611765,Standard
 MAJOR SMALL & LARGE BOWEL PROCEDURES W MCC,46482.638889,Standard
" STOMACH, ESOPHAGEAL & DUODENAL PROC W/O CC/MCC",14205.083333,Standard
 PERIPHERAL VASCULAR DISORDERS W MCC,11169.75,Standard
" ""STOMACH, ESOPHAGEAL & DUODENAL PROC W CC""",19305.0,Standard
 OTHER CIRCULATORY SYSTEM DIAGNOSES W/O CC/MCC,6246.8181818,Standard
 OTHER CIRCULATORY SYSTEM DIAGNOSES W CC,8143.7948718,Standard
 OTHER CIRCULATORY SYSTEM DIAGNOSES W MCC,18249.638888999998,Standard
 CHEST PAIN,5952.7037037,Standard
 SYNCOPE & COLLAPSE,7099.733333300001,Standard
 CARDIAC ARRHYTHMIA & CONDUCTION DISORDERS W/O CC/MCC,5212.3015873,Standard
 CARDIAC ARRHYTHMIA & CONDUCTION DISORDERS W CC,6569.9875,Standard
 CARDIAC ARRHYTHMIA & CONDUCTION DISORDERS W MCC,11892.75,Standard
 HYPERTENSION W/O MCC,6017.5862068999995,Standard
 HYPERTENSION W MCC,9031.04,Standard
 PERIPHERAL VASCULAR DISORDERS W/O CC/MCC,6330.5833333,Standard
" STOMACH, ESOPHAGEAL & DUODENAL PROC W MCC",41487.3,Standard
 G.I. OBSTRUCTION W CC,8053.9,Standard
" TRACH W MV >96 HRS OR PDX EXC FACE, MOUTH & NECK W/O MAJ O.R.",96814.0,Standard
" ""TRACHEOSTOMY FOR FACE, MOUTH & NECK DIAGNOSES OR LARYNGECTOMY W CC""",34245.636364,Standard
 OTHER DISORDERS OF NERVOUS SYSTEM W/O CC/MCC,7586.7272727,Standard
 SEIZURES W MCC,20932.807692,Standard
 SEIZURES W/O MCC,7691.280487800001,Standard
 HEADACHES W/O MCC,6914.863636399999,Standard
 DYSEQUILIBRIUM,7091.8181818,Standard
 OTITIS MEDIA & URI W/O MCC,6136.0,Standard
 MAJOR CHEST PROCEDURES W MCC,40137.588235,Standard
 MAJOR CHEST PROCEDURES W CC,19952.333333000002,Standard
 MAJOR CHEST PROCEDURES W/O CC/MCC,16828.15,Standard
 OTHER RESP SYSTEM O.R. PROCEDURES W MCC,33791.666667000005,Standard
 OTHER RESP SYSTEM O.R. PROCEDURES W CC,14684.416667,Standard
 OTHER DISORDERS OF NERVOUS SYSTEM W CC,8170.16,Standard
 PULMONARY EMBOLISM W MCC,11409.1,Standard
 RESPIRATORY INFECTIONS & INFLAMMATIONS W MCC,15005.833333,Standard
 RESPIRATORY INFECTIONS & INFLAMMATIONS W CC,12714.115385,Standard
 RESPIRATORY NEOPLASMS W MCC,13338.8,Standard
 RESPIRATORY NEOPLASMS W CC,9313.3333333,Standard
 MAJOR CHEST TRAUMA W CC,8725.944444399998,Standard
 PULMONARY EDEMA & RESPIRATORY FAILURE,10218.521739,Standard
 CHRONIC OBSTRUCTIVE PULMONARY DISEASE W MCC,9935.2641509,Standard
 CHRONIC OBSTRUCTIVE PULMONARY DISEASE W CC,7618.7692308,Standard
 CHRONIC OBSTRUCTIVE PULMONARY DISEASE W/O CC/MCC,6237.8125,Standard
 SIMPLE PNEUMONIA & PLEURISY W MCC,10840.059524,Standard
 SIMPLE PNEUMONIA & PLEURISY W CC,7533.3918919,Standard
 PULMONARY EMBOLISM W/O MCC,7467.4375,Standard
 LIVER TRANSPLANT W MCC OR INTESTINAL TRANSPLANT,86865.571429,Standard
 OTHER DISORDERS OF NERVOUS SYSTEM W MCC,12391.625,Standard
" ""TRAUMATIC STUPOR & COMA, COMA <1 HR W CC""",9662.375,Standard
 ALLOGENEIC BONE MARROW TRANSPLANT,90159.466667,Standard
 AUTOLOGOUS BONE MARROW TRANSPLANT W CC/MCC,60968.41379299999,Standard
 INTRACRANIAL VASCULAR PROCEDURES W PDX HEMORRHAGE W MCC,83036.833333,Standard
  CRANIOTOMY W MAJOR DEVICE IMPLANT OR ACUTE COMPLEX CNS PDX W MCC OR,39718.225806,Standard
 CRANIO W MAJOR DEV IMPL/ACUTE COMPLEX CNS PDX W/O MCC,27699.294118,Standard
 CRANIOTOMY & ENDOVASCULAR INTRACRANIAL PROCEDURES W MCC,32539.439024,Standard
 CRANIOTOMY & ENDOVASCULAR INTRACRANIAL PROCEDURES W CC,23942.740741,Standard
 CRANIOTOMY & ENDOVASCULAR INTRACRANIAL PROCEDURES W/O CC/MCC,18399.179487,Standard
 SPINAL PROCEDURES W CC OR SPINAL NEUROSTIMULATORS,24069.285713999998,Standard
 EXTRACRANIAL PROCEDURES W CC,12085.461538,Standard
 EXTRACRANIAL PROCEDURES W/O CC/MCC,9388.695652200002,Standard
" TRAUMATIC STUPOR & COMA, COMA <1 HR W/O CC/MCC",7658.4545455,Standard
 NERVOUS SYSTEM NEOPLASMS W MCC,13370.833333,Standard
 INTRACRANIAL HEMORRHAGE OR CEREBRAL INFARCTION W MCC,14879.789474000001,Standard
 INTRACRANIAL HEMORRHAGE OR CEREBRAL INFARCTION W CC OR TPA IN 24 HRS,8669.8110236,Standard
 INTRACRANIAL HEMORRHAGE OR CEREBRAL INFARCTION W/O CC/MCC,7139.0967742,Standard
 TRANSIENT ISCHEMIA W/O THROMBOLYTIC,6547.6315789,Standard
 NONSPECIFIC CEREBROVASCULAR DISORDERS W MCC,16544.16,Standard
 NONSPECIFIC CEREBROVASCULAR DISORDERS W CC,8300.5217391,Standard
 CRANIAL & PERIPHERAL NERVE DISORDERS W/O MCC,9244.047618999999,Standard
" ""TRAUMATIC STUPOR & COMA, COMA >1 HR W MCC""",22919.5625,Standard
" TRAUMATIC STUPOR & COMA, COMA >1 HR W CC",10483.142856999999,Standard
" ""TRAUMATIC STUPOR & COMA, COMA >1 HR W/O CC/MCC""",7554.2727273,Standard
" TRAUMATIC STUPOR & COMA, COMA <1 HR W MCC",15491.0,Standard
 DEGENERATIVE NERVOUS SYSTEM DISORDERS W/O MCC,9177.925,Standard
 SIMPLE PNEUMONIA & PLEURISY W/O CC/MCC,6421.363636399999,Standard
 G.I. OBSTRUCTION W/O CC/MCC,5503.6666667,Standard
" ""ESOPHAGITIS, GASTROENT & MISC DIGEST DISORDERS W/O MCC""",6704.9259259,Standard
 O.R. PROCEDURES FOR OBESITY W/O CC/MCC,12129.363636,Standard
 O.R. PROCEDURES FOR OBESITY W CC,15039.818181999999,Standard
 MINOR SKIN DISORDERS W/O MCC,6723.5454545,Standard
" ""TRAUMA TO THE SKIN, SUBCUT TISS & BREAST W/O MCC""",7159.7647059,Standard
 CELLULITIS W/O MCC,7414.7413793,Standard
 CELLULITIS W MCC,14899.136363999998,Standard
" OTHER SKIN, SUBCUT TISS & BREAST PROC W CC",12699.166667,Standard
" FX, SPRN, STRN & DISL EXCEPT FEMUR, HIP, PELVIS & THIGH W/O MCC",7600.5294118,Standard
 SIGNS & SYMPTOMS OF MUSCULOSKELETAL SYSTEM & CONN TISSUE W/O MCC,6726.0833333,Standard
 DIABETES W MCC,10702.3125,Standard
 BONE DISEASES & ARTHROPATHIES W/O MCC,6746.8,Standard
 MEDICAL BACK PROBLEMS W MCC,12230.785714,Standard
 PATHOLOGICAL FRACTURES & MUSCULOSKELET & CONN TISS MALIG W CC,9123.3529412,Standard
 FRACTURES OF HIP & PELVIS W/O MCC,6595.04,Standard
" ESOPHAGITIS, GASTROENT & MISC DIGEST DISORDERS W MCC",10263.44,Standard
Level 5 Musculoskeletal Procedures,8195.95999999999,DRG
Level 4 Musculoskeletal Procedures,3853.0974358974395,DRG
Level 3 Musculoskeletal Procedures,1890.91024390243,DRG
Level 2 Musculoskeletal Procedures,1000.6008,DRG
Level 2 Breast/Lymphatic Surgery and Related Procedures,3616.0999999999894,DRG
 MEDICAL BACK PROBLEMS W/O MCC,7952.673684199999,Standard
Level 1 Breast/Lymphatic Surgery and Related Procedures,2013.85754385964,DRG
 DIABETES W CC,7376.557376999999,Standard
" MISC DISORDERS OF NUTRITION,METABOLISM,FLUIDS/ELECTROLYTES W MCC",9889.0666667,Standard
 CORONARY BYPASS W CARDIAC CATH W MCC,67267.636364,Standard
 OTHER CARDIOTHORACIC PROCEDURES W/O MCC,37082.846154,Standard
 CARDIAC VALVE & OTH MAJ CARDIOTHORACIC PROC W/O CARD CATH W CC,39377.375,Standard
 CARDIAC VALVE & OTH MAJ CARDIOTHORACIC PROC W/O CARD CATH W MCC,72941.828571,Standard
 CARDIAC VALVE & OTH MAJ CARDIOTHORACIC PROC W CARD CATH W MCC,77263.923077,Standard
 RESPIRATORY SYSTEM DIAGNOSIS W VENTILATOR SUPPORT <=96 HOURS,20214.822222,Standard
 RESPIRATORY SYSTEM DIAGNOSIS W VENTILATOR SUPPORT >96 HOURS,47003.583332999995,Standard
 OTHER RESPIRATORY SYSTEM DIAGNOSES W/O MCC,7034.142857100001,Standard
 RESPIRATORY SIGNS & SYMPTOMS,6303.2307692,Standard
 DIABETES W/O CC/MCC,5473.1538462,Standard
 BRONCHITIS & ASTHMA W CC/MCC,7699.739130399999,Standard
 OTHER KIDNEY & URINARY TRACT PROCEDURES W CC,22956.1875,Standard
 OTHER KIDNEY & URINARY TRACT PROCEDURES W MCC,29242.055556,Standard
 KIDNEY & URETER PROCEDURES FOR NON,20303.083333000002,Standard
 KIDNEY & URETER PROCEDURES FOR NEOPLASM W/O CC/MCC,12137.705881999998,Standard
 KIDNEY & URETER PROCEDURES FOR NEOPLASM W CC,16111.8,Standard
 KIDNEY TRANSPLANT,41412.962963,Standard
 ENDOCRINE DISORDERS W CC,9234.5454545,Standard
 ENDOCRINE DISORDERS W MCC,13175.153846,Standard
" ""MISC DISORDERS OF NUTRITION,METABOLISM,FLUIDS/ELECTROLYTES W/O MCC""",6505.2952381000005,Standard
 RENAL FAILURE W MCC,11717.466667,Standard
Level 3 Excision/ Biopsy/ Incision and Drainage,1519.99462499999,DRG
 BACK & NECK PROC EXC SPINAL FUSION W/O CC/MCC,10199.583333,Standard
 DISORDERS OF THE BILIARY TRACT W MCC,13658.2,Standard
 SPINAL FUS EXC CERV W SPINAL CURV/MALIG/INFEC OR EXT FUS W/O CC/MCC,43403.181818,Standard
 SPINAL FUS EXC CERV W SPINAL CURV/MALIG/INFEC OR EXT FUS W CC,54676.909090999994,Standard
 COMBINED ANTERIOR/POSTERIOR SPINAL FUSION W/O CC/MCC,39682.809524000004,Standard
 COMBINED ANTERIOR/POSTERIOR SPINAL FUSION W CC,47700.705882,Standard
 DISORDERS OF THE BILIARY TRACT W/O CC/MCC,7649.7272727,Standard
 DISORDERS OF THE BILIARY TRACT W CC,9927.1,Standard
" DISORDERS OF LIVER EXCEPT MALIG,CIRR,ALC HEPA W CC",12161.818181999999,Standard
" ""DISORDERS OF LIVER EXCEPT MALIG,CIRR,ALC HEPA W MCC""",19829.421053000002,Standard
 DISORDERS OF PANCREAS EXCEPT MALIGNANCY W CC,7623.9285714,Standard
 SPINAL FUSION EXCEPT CERVICAL W/O MCC,32105.098038999997,Standard
 DISORDERS OF PANCREAS EXCEPT MALIGNANCY W MCC,14299.64,Standard
 MALIGNANCY OF HEPATOBILIARY SYSTEM OR PANCREAS W MCC,14484.5,Standard
 CIRRHOSIS & ALCOHOLIC HEPATITIS W CC,8739.3636364,Standard
 CIRRHOSIS & ALCOHOLIC HEPATITIS W MCC,16052.72,Standard
 LAPAROSCOPIC CHOLECYSTECTOMY W/O C.D.E. W CC,13552.166667,Standard
" PANCREAS, LIVER & SHUNT PROCEDURES W CC",22041.952381,Standard
" ""PANCREAS, LIVER & SHUNT PROCEDURES W MCC""",40797.428571,Standard
 OTHER DIGESTIVE SYSTEM DIAGNOSES W/O CC/MCC,6125.5384615,Standard
 OTHER DIGESTIVE SYSTEM DIAGNOSES W CC,8111.511111100001,Standard
 OTHER DIGESTIVE SYSTEM DIAGNOSES W MCC,13624.625,Standard
 MALIGNANCY OF HEPATOBILIARY SYSTEM OR PANCREAS W CC,9130.076923100001,Standard
" ""WND DEBRID & SKN GRFT EXC HAND, FOR MUSCULO",41096.090909,Standard
 PNEUMOTHORAX W CC,9740.7058824,Standard
 REVISION OF HIP OR KNEE REPLACEMENT W CC,27416.3,Standard
" ""LOWER EXTREM & HUMER PROC EXCEPT HIP,FOOT,FEMUR W/O CC/MCC""",13366.428570999999,Standard
 OTHER MUSCULOSKELET SYS & CONN TISS O.R. PROC W CC,14699.15,Standard
" LOWER EXTREM & HUMER PROC EXCEPT HIP,FOOT,FEMUR W CC",18965.529412,Standard
 MAJOR JOINT/LIMB REATTACHMENT PROCEDURE OF UPPER EXTREMITIES,18328.368421,Standard
 HIP & FEMUR PROCEDURES EXCEPT MAJOR JOINT W CC,16451.459016,Standard
 OTHER MUSCULOSKELET SYS & CONN TISS O.R. PROC W/O CC/MCC,11231.769231,Standard
 HIP & FEMUR PROCEDURES EXCEPT MAJOR JOINT W/O CC/MCC,12565.454545,Standard
 CERVICAL SPINAL FUSION W/O CC/MCC,20321.5,Standard
 CERVICAL SPINAL FUSION W CC,22996.0,Standard
 MAJOR HIP AND KNEE JOINT REPLACEMENT OR REATTACHMENT OF LOWER EXTREM,15875.617778,Standard
 BACK & NECK PROC EXC SPINAL FUSION W CC,15655.153846000001,Standard
 MAJOR HIP AND KNEE JOINT REPLACEMENT OR REATTACHMENT OF LOWER EXTREM,29445.857143,Standard
 REVISION OF HIP OR KNEE REPLACEMENT W/O CC/MCC,21340.5625,Standard
 HIP & FEMUR PROCEDURES EXCEPT MAJOR JOINT W MCC,22584.5,Standard
" WND DEBRID & SKN GRFT EXC HAND, FOR MUSCULO",21348.454545,Standard
