Description,Charge,Category
 OTHER CIRCULATORY SYSTEM O.R. PROCEDURES,16178.454544999999,Standard
 PERMANENT CARDIAC PACEMAKER IMPLANT W/O CC/MCC,12324.631579,Standard
 OTHER VASCULAR PROCEDURES W MCC,18783.0,Standard
 PERC CARDIOVASC PROC W NON,12305.461538,Standard
 PERC CARDIOVASC PROC W DRUG,12490.942857,Standard
 PERCUTANEOUS CARDIOVASCULAR PROCEDURES W DRUG,19003.037037000002,Standard
 OTHER VASCULAR PROCEDURES W CC,14696.333333,Standard
 PERMANENT CARDIAC PACEMAKER IMPLANT W CC,14342.807691999998,Standard
 MAJOR SMALL & LARGE BOWEL PROCEDURES W/O CC/MCC,9405.317073200002,Standard
 CORONARY BYPASS W/O CARDIAC CATH W/O MCC,23551.458333000002,Standard
 MAJOR SMALL & LARGE BOWEL PROCEDURES W CC,13629.532258000001,Standard
 AORTIC AND HEART ASSIST PROCEDURES EXCEPT PULSATION BALLOON W/O MCC,23588.041666999998,Standard
 MAJOR GASTROINTESTINAL DISORDERS & PERITONEAL INFECTIONS W MCC,9005.6666667,Standard
 MAJOR GASTROINTESTINAL DISORDERS & PERITONEAL INFECTIONS W CC,6028.2083333,Standard
 G.I. HEMORRHAGE W MCC,10339.192308,Standard
 G.I. HEMORRHAGE W CC,5920.443038,Standard
 COMPLICATED PEPTIC ULCER W CC,6492.2727273,Standard
 G.I. OBSTRUCTION W MCC,11831.636364,Standard
 PERMANENT CARDIAC PACEMAKER IMPLANT W MCC,20175.210526,Standard
 OTHER MAJOR CARDIOVASCULAR PROCEDURES W MCC,26886.181818,Standard
 HEART FAILURE & SHOCK W MCC,8690.4122449,Standard
" ACUTE MYOCARDIAL INFARCTION, DISCHARGED ALIVE W CC",5701.6181818000005,Standard
 CHEST PAIN,4264.0232558,Standard
 SYNCOPE & COLLAPSE,4745.6142857,Standard
 CARDIAC ARRHYTHMIA & CONDUCTION DISORDERS W/O CC/MCC,3470.0140845,Standard
 OTHER CIRCULATORY SYSTEM DIAGNOSES W MCC,10587.909091,Standard
 CARDIAC ARRHYTHMIA & CONDUCTION DISORDERS W CC,4554.7307692,Standard
 OTHER CIRCULATORY SYSTEM DIAGNOSES W CC,7228.875,Standard
" STOMACH, ESOPHAGEAL & DUODENAL PROC W MCC",29656.0,Standard
" ""STOMACH, ESOPHAGEAL & DUODENAL PROC W CC""",15504.133333000002,Standard
 MAJOR SMALL & LARGE BOWEL PROCEDURES W MCC,26555.5,Standard
 CARDIAC ARRHYTHMIA & CONDUCTION DISORDERS W MCC,7348.6956522,Standard
 HYPERTENSION W/O MCC,4180.4117647,Standard
 HYPERTENSION W MCC,6046.75,Standard
 PERIPHERAL VASCULAR DISORDERS W CC,5891.1538462,Standard
 PERIPHERAL VASCULAR DISORDERS W MCC,9491.0666667,Standard
 HEART FAILURE & SHOCK W/O CC/MCC,4029.1388889,Standard
 HEART FAILURE & SHOCK W CC,5519.5609756,Standard
" CIRCULATORY DISORDERS EXCEPT AMI, W CARD CATH W/O MCC",6952.2040816,Standard
" ""CIRCULATORY DISORDERS EXCEPT AMI, W CARD CATH W MCC""",18804.235294,Standard
" ""ACUTE MYOCARDIAL INFARCTION, DISCHARGED ALIVE W/O CC/MCC""",6001.6818182,Standard
" ""ACUTE MYOCARDIAL INFARCTION, DISCHARGED ALIVE W MCC""",9078.160714299998,Standard
 G.I. OBSTRUCTION W CC,4979.060606100001,Standard
 RESPIRATORY NEOPLASMS W MCC,9572.7916667,Standard
 CORONARY BYPASS W CARDIAC CATH W MCC,46123.0,Standard
 CRANIAL & PERIPHERAL NERVE DISORDERS W/O MCC,5877.3125,Standard
 NONSPECIFIC CEREBROVASCULAR DISORDERS W CC,5664.9230769,Standard
 TRANSIENT ISCHEMIA W/O THROMBOLYTIC,4464.6344086,Standard
 INTRACRANIAL HEMORRHAGE OR CEREBRAL INFARCTION W/O CC/MCC,4460.8333333,Standard
 INTRACRANIAL HEMORRHAGE OR CEREBRAL INFARCTION W CC OR TPA IN 24 HRS,6008.586956499999,Standard
 INTRACRANIAL HEMORRHAGE OR CEREBRAL INFARCTION W MCC,10272.951613,Standard
 DEGENERATIVE NERVOUS SYSTEM DISORDERS W/O MCC,7724.206896600001,Standard
 EXTRACRANIAL PROCEDURES W/O CC/MCC,6369.3529412,Standard
 OTHER DISORDERS OF NERVOUS SYSTEM W CC,5311.0833333,Standard
Level 4 Endovascular Procedures,12634.66,DRG
Level 2 Endovascular Procedures,3477.03106870228,DRG
Level 1 Endovascular Procedures,1681.6565416666501,DRG
Level 5 ENT Procedures,3021.98999999999,DRG
Level 4 Airway Endoscopy,1701.5911538461498,DRG
Level 3 Airway Endoscopy,919.7696551724131,DRG
Level 5 Musculoskeletal Procedures,7495.76647058823,DRG
Level 4 Musculoskeletal Procedures,3784.7492307692205,DRG
Level 3 Musculoskeletal Procedures,1734.04235294117,DRG
Level 3 Endovascular Procedures,7601.799104477629,DRG
 SEIZURES W MCC,9204.5714286,Standard
 SEIZURES W/O MCC,4964.466666699999,Standard
 DYSEQUILIBRIUM,4366.0,Standard
 CARDIAC VALVE & OTH MAJ CARDIOTHORACIC PROC W/O CARD CATH W CC,36182.333332999995,Standard
 RESPIRATORY SYSTEM DIAGNOSIS W VENTILATOR SUPPORT <=96 HOURS,14959.22449,Standard
 BRONCHITIS & ASTHMA W CC/MCC,5476.8695652,Standard
 INTERSTITIAL LUNG DISEASE W MCC,9174.6666667,Standard
 SIMPLE PNEUMONIA & PLEURISY W/O CC/MCC,4971.4210526,Standard
 SIMPLE PNEUMONIA & PLEURISY W CC,5404.2190476000005,Standard
 SIMPLE PNEUMONIA & PLEURISY W MCC,7948.660377399999,Standard
 CHRONIC OBSTRUCTIVE PULMONARY DISEASE W/O CC/MCC,4509.7916667,Standard
 CHRONIC OBSTRUCTIVE PULMONARY DISEASE W CC,5341.3035714,Standard
 CHRONIC OBSTRUCTIVE PULMONARY DISEASE W MCC,6821.5808824000005,Standard
 PULMONARY EDEMA & RESPIRATORY FAILURE,7480.0,Standard
Level 1 Breast/Lymphatic Surgery and Related Procedures,1865.35318181818,DRG
 RESPIRATORY INFECTIONS & INFLAMMATIONS W CC,7252.5,Standard
 RESPIRATORY INFECTIONS & INFLAMMATIONS W MCC,10153.473684,Standard
 PULMONARY EMBOLISM W/O MCC,4955.0833333,Standard
 PULMONARY EMBOLISM W MCC,8826.533333299998,Standard
 OTHER RESP SYSTEM O.R. PROCEDURES W CC,10353.909091,Standard
 OTHER RESP SYSTEM O.R. PROCEDURES W MCC,19636.956522,Standard
 OTITIS MEDIA & URI W/O MCC,4263.7857143,Standard
 CORONARY BYPASS W CARDIAC CATH W/O MCC,28152.142857,Standard
 G.I. OBSTRUCTION W/O CC/MCC,3939.1818181999997,Standard
 MAJOR HIP AND KNEE JOINT REPLACEMENT OR REATTACHMENT OF LOWER EXTREM,11819.151079000001,Standard
" ""ESOPHAGITIS, GASTROENT & MISC DIGEST DISORDERS W/O MCC""",4895.890625,Standard
 SEPTICEMIA OR SEVERE SEPSIS W/O MV >96 HOURS W/O MCC,6197.9689922,Standard
 SEPTICEMIA OR SEVERE SEPSIS W/O MV >96 HOURS W MCC,10907.661591,Standard
 SEPTICEMIA OR SEVERE SEPSIS W MV >96 HOURS OR PERIPHERAL EXTRACORPOR,37511.1875,Standard
 POSTOPERATIVE & POST,11948.733333,Standard
 INFECTIOUS & PARASITIC DISEASES W O.R. PROCEDURE W CC,15883.727272999999,Standard
 INFECTIOUS & PARASITIC DISEASES W O.R. PROCEDURE W MCC,28783.0,Standard
 COAGULATION DISORDERS,11108.272727,Standard
 RED BLOOD CELL DISORDERS W/O MCC,5154.3142857,Standard
 RED BLOOD CELL DISORDERS W MCC,7744.85,Standard
 MAJOR HEMATOL/IMMUN DIAG EXC SICKLE CELL CRISIS & COAGUL W CC,6850.7,Standard
" ESOPHAGITIS, GASTROENT & MISC DIGEST DISORDERS W MCC",7126.035714300001,Standard
 OTHER KIDNEY & URINARY TRACT DIAGNOSES W MCC,8718.326923100001,Standard
 KIDNEY & URINARY TRACT INFECTIONS W/O MCC,4709.0145985,Standard
Level 1 ICD and Similar Procedures,17924.9739999999,DRG
Level 3 Pacemaker and Similar Procedures,7173.05076923077,DRG
Level 2 Pacemaker and Similar Procedures,5133.94,DRG
Level 3 Electrophysiologic Procedures,14807.539999999899,DRG
 ALCOHOL/DRUG ABUSE OR DEPENDENCE W/O REHABILITATION THERAPY W/O MCC,4465.5833333,Standard
 KIDNEY & URINARY TRACT INFECTIONS W MCC,6128.2954545,Standard
 POISONING & TOXIC EFFECTS OF DRUGS W MCC,7852.043478300001,Standard
 COMPLICATIONS OF TREATMENT W MCC,9824.5454545,Standard
Level 2 Excision/ Biopsy/ Incision and Drainage,923.9803533568789,DRG
Level 3 Excision/ Biopsy/ Incision and Drainage,1619.26999999999,DRG
Comprehensive Observation Services,1598.92249427917,DRG
Level 4 Neurostimulator and Related Procedures,22051.4783999999,DRG
Level 5 Urology and Related Services,2546.85306666666,DRG
Level 4 Urology and Related Services,1878.3,DRG
Level 3 Urology and Related Services,1180.06909090909,DRG
Level 2 Laparoscopy and Related Services,5117.7606862745,DRG
Level 1 Laparoscopy and Related Services,3044.6398104265504,DRG
Abdominal/Peritoneal/Biliary and Related Procedures,1949.8894029850699,DRG
Complex GI Procedures,2718.66363636363,DRG
Level 3 Upper GI Procedures,1798.41882352941,DRG
Level 2 Upper GI Procedures,954.225476190475,DRG
Level 2 ICD and Similar Procedures,24596.749795918302,DRG
 NON,19099.5,Standard
 EXTENSIVE O.R. PROCEDURE UNRELATED TO PRINCIPAL DIAGNOSIS W MCC,26592.217391,Standard
 SIGNS & SYMPTOMS W/O MCC,4561.7741935,Standard
 POISONING & TOXIC EFFECTS OF DRUGS W/O MCC,4596.625,Standard
 RENAL FAILURE W/O CC/MCC,3758.0,Standard
 OTHER KIDNEY & URINARY TRACT DIAGNOSES W CC,5523.189189199999,Standard
 RENAL FAILURE W MCC,8335.609375,Standard
 CERVICAL SPINAL FUSION W/O CC/MCC,14333.571429,Standard
Level 2 Musculoskeletal Procedures,885.995384615385,DRG
 MAJOR HIP AND KNEE JOINT REPLACEMENT OR REATTACHMENT OF LOWER EXTREM,17244.269231000002,Standard
 REVISION OF HIP OR KNEE REPLACEMENT W/O CC/MCC,15485.25,Standard
 REVISION OF HIP OR KNEE REPLACEMENT W CC,19069.615385,Standard
 RENAL FAILURE W CC,5500.435294100001,Standard
 COMBINED ANTERIOR/POSTERIOR SPINAL FUSION W/O CC/MCC,30486.090909,Standard
" DISORDERS OF LIVER EXCEPT MALIG,CIRR,ALC HEPA W CC",5892.3157895,Standard
" ""DISORDERS OF LIVER EXCEPT MALIG,CIRR,ALC HEPA W MCC""",10042.391304,Standard
 DISORDERS OF PANCREAS EXCEPT MALIGNANCY W CC,5114.4615385,Standard
 CIRRHOSIS & ALCOHOLIC HEPATITIS W CC,5908.4,Standard
 CIRRHOSIS & ALCOHOLIC HEPATITIS W MCC,10083.619048,Standard
 LAPAROSCOPIC CHOLECYSTECTOMY W/O C.D.E. W/O CC/MCC,9056.0,Standard
 LAPAROSCOPIC CHOLECYSTECTOMY W/O C.D.E. W CC,9525.6,Standard
 LAPAROSCOPIC CHOLECYSTECTOMY W/O C.D.E. W MCC,17934.642857,Standard
 OTHER DIGESTIVE SYSTEM DIAGNOSES W CC,5643.1851852,Standard
 OTHER DIGESTIVE SYSTEM DIAGNOSES W MCC,9215.84,Standard
 HIP & FEMUR PROCEDURES EXCEPT MAJOR JOINT W MCC,15972.966666999999,Standard
 HIP & FEMUR PROCEDURES EXCEPT MAJOR JOINT W CC,11266.560440000001,Standard
 SPINAL FUSION EXCEPT CERVICAL W/O MCC,24193.205882,Standard
" LOWER EXTREM & HUMER PROC EXCEPT HIP,FOOT,FEMUR W CC",11890.230769,Standard
 OTHER KIDNEY & URINARY TRACT PROCEDURES W CC,13545.384615,Standard
 HIP & FEMUR PROCEDURES EXCEPT MAJOR JOINT W/O CC/MCC,9337.388888899999,Standard
 TRANSURETHRAL PROCEDURES W CC,7838.8421053,Standard
" ""MISC DISORDERS OF NUTRITION,METABOLISM,FLUIDS/ELECTROLYTES W/O MCC""",4479.4264706,Standard
" MISC DISORDERS OF NUTRITION,METABOLISM,FLUIDS/ELECTROLYTES W MCC",6691.2673267,Standard
 DIABETES W/O CC/MCC,3781.8181818000003,Standard
 DIABETES W CC,5807.233333300001,Standard
 DIABETES W MCC,7597.72,Standard
 OTHER KIDNEY & URINARY TRACT PROCEDURES W MCC,21424.411765,Standard
 CELLULITIS W/O MCC,5141.1111111,Standard
 O.R. PROCEDURES FOR OBESITY W/O CC/MCC,8879.7692308,Standard
 OTHER MUSCULOSKELET SYS & CONN TISS O.R. PROC W/O CC/MCC,8288.8947368,Standard
 BACK & NECK PROC EXC SPINAL FUSION W CC,10551.818181999999,Standard
 FRACTURES OF HIP & PELVIS W/O MCC,4111.266666699999,Standard
Level 2 Breast/Lymphatic Surgery and Related Procedures,3308.5320512820504,DRG
 MEDICAL BACK PROBLEMS W/O MCC,5219.6744186000005,Standard
" FX, SPRN, STRN & DISL EXCEPT FEMUR, HIP, PELVIS & THIGH W/O MCC",4695.2758621,Standard
 CELLULITIS W MCC,7672.3333333,Standard
 PATHOLOGICAL FRACTURES & MUSCULOSKELET & CONN TISS MALIG W CC,6359.0625,Standard
