Description,Charge,Category
Level 2 Musculoskeletal Procedures,968.210526315789,DRG
Level 3 Musculoskeletal Procedures,1911.8748648648602,DRG
 MAJOR JOINT/LIMB REATTACHMENT PROCEDURE OF UPPER EXTREMITIES,13847.5,Standard
Level 4 Musculoskeletal Procedures,4114.9165,DRG
 CERVICAL SPINAL FUSION W/O CC/MCC,13321.307692,Standard
 MAJOR HIP AND KNEE JOINT REPLACEMENT OR REATTACHMENT OF LOWER EXTREM,13974.978261000002,Standard
 SPINAL FUSION EXCEPT CERVICAL W/O MCC,25602.454545,Standard
 COMBINED ANTERIOR/POSTERIOR SPINAL FUSION W/O CC/MCC,44181.851852,Standard
 COMBINED ANTERIOR/POSTERIOR SPINAL FUSION W CC,78398.307692,Standard
 O.R. PROCEDURES FOR OBESITY W/O CC/MCC,9515.368421100002,Standard
Level 5 Musculoskeletal Procedures,8266.52,DRG
Level 5 Urology and Related Services,2805.73,DRG
Level 1 Nerve Procedures,1112.24371428571,DRG
