Description,Charge,Category
Level 4 Musculoskeletal Procedures,4032.3848275862,DRG
Level 2 Excision/ Biopsy/ Incision and Drainage,1041.38,DRG
Level 4 Neurostimulator and Related Procedures,25620.58,DRG
 KIDNEY & URINARY TRACT INFECTIONS W MCC,5653.0,Standard
 KIDNEY & URINARY TRACT INFECTIONS W/O MCC,4663.709677399999,Standard
 INFECTIOUS & PARASITIC DISEASES W O.R. PROCEDURE W MCC,30923.052632,Standard
 SEPTICEMIA OR SEVERE SEPSIS W/O MV >96 HOURS W MCC,10335.91129,Standard
 SEPTICEMIA OR SEVERE SEPSIS W/O MV >96 HOURS W/O MCC,6365.0833333,Standard
Level 1 Endovascular Procedures,1881.07,DRG
Comprehensive Observation Services,1794.3960103626998,DRG
Level 5 Musculoskeletal Procedures,7857.59928571428,DRG
 CERVICAL SPINAL FUSION W/O CC/MCC,13416.470588,Standard
 MAJOR HIP AND KNEE JOINT REPLACEMENT OR REATTACHMENT OF LOWER EXTREM,19250.521739,Standard
 SPINAL FUSION EXCEPT CERVICAL W/O MCC,26745.833333000002,Standard
" ""ESOPHAGITIS, GASTROENT & MISC DIGEST DISORDERS W/O MCC""",4464.5652174,Standard
" ""MISC DISORDERS OF NUTRITION,METABOLISM,FLUIDS/ELECTROLYTES W/O MCC""",4533.0769231,Standard
 G.I. HEMORRHAGE W CC,5537.857142899999,Standard
 HEART FAILURE & SHOCK W MCC,10765.166667,Standard
Level 1 Nerve Procedures,1052.7423076922998,DRG
" ""ACUTE MYOCARDIAL INFARCTION, DISCHARGED ALIVE W MCC""",9618.272727299998,Standard
Level 5 Urology and Related Services,2862.98999999999,DRG
Level 1 Laparoscopy and Related Services,3270.10277777777,DRG
Level 2 Upper GI Procedures,1102.69,DRG
 CHRONIC OBSTRUCTIVE PULMONARY DISEASE W MCC,7546.8181818,Standard
 SIMPLE PNEUMONIA & PLEURISY W MCC,7980.88,Standard
 SIMPLE PNEUMONIA & PLEURISY W CC,5616.9473683999995,Standard
 PERC CARDIOVASC PROC W DRUG,15392.066667,Standard
