Description,Charge,Category
 SIMPLE PNEUMONIA & PLEURISY W MCC,10168.857143000001,Standard
 SIMPLE PNEUMONIA & PLEURISY W/O CC/MCC,6366.0,Standard
 SIMPLE PNEUMONIA & PLEURISY W CC,7690.5675676,Standard
 BRONCHITIS & ASTHMA W CC/MCC,7639.4285714,Standard
 RESPIRATORY SYSTEM DIAGNOSIS W VENTILATOR SUPPORT <=96 HOURS,16058.363636000002,Standard
 CHRONIC OBSTRUCTIVE PULMONARY DISEASE W CC,7642.578947399999,Standard
 RENAL FAILURE W CC,7491.780487800001,Standard
 PULMONARY EDEMA & RESPIRATORY FAILURE,9220.037037,Standard
 PERC CARDIOVASC PROC W DRUG,15711.692308000002,Standard
 RESPIRATORY INFECTIONS & INFLAMMATIONS W MCC,13029.125,Standard
 INTRACRANIAL HEMORRHAGE OR CEREBRAL INFARCTION W CC OR TPA IN 24 HRS,8144.363636399999,Standard
 INTRACRANIAL HEMORRHAGE OR CEREBRAL INFARCTION W MCC,11269.666667,Standard
 CHRONIC OBSTRUCTIVE PULMONARY DISEASE W MCC,8909.581081100001,Standard
" ""ACUTE MYOCARDIAL INFARCTION, DISCHARGED ALIVE W MCC""",11818.772727,Standard
" ""ESOPHAGITIS, GASTROENT & MISC DIGEST DISORDERS W/O MCC""",6661.233333300001,Standard
 HEART FAILURE & SHOCK W CC,7717.956521699999,Standard
 KIDNEY & URINARY TRACT INFECTIONS W MCC,8497.6904762,Standard
" ""MISC DISORDERS OF NUTRITION,METABOLISM,FLUIDS/ELECTROLYTES W/O MCC""",6583.0666667,Standard
 RED BLOOD CELL DISORDERS W/O MCC,7441.75,Standard
 SEPTICEMIA OR SEVERE SEPSIS W/O MV >96 HOURS W MCC,12723.475728,Standard
 SEPTICEMIA OR SEVERE SEPSIS W/O MV >96 HOURS W/O MCC,8363.904761900001,Standard
" MISC DISORDERS OF NUTRITION,METABOLISM,FLUIDS/ELECTROLYTES W MCC",9030.542857100001,Standard
 DIABETES W CC,7055.8181818,Standard
 HEART FAILURE & SHOCK W MCC,10640.724138,Standard
 CELLULITIS W/O MCC,7166.4117647,Standard
 MAJOR HIP AND KNEE JOINT REPLACEMENT OR REATTACHMENT OF LOWER EXTREM,20808.302325999997,Standard
 RENAL FAILURE W MCC,10486.8,Standard
 G.I. HEMORRHAGE W CC,7886.7272727,Standard
 G.I. HEMORRHAGE W MCC,12085.866667,Standard
 SYNCOPE & COLLAPSE,6881.25,Standard
 CARDIAC ARRHYTHMIA & CONDUCTION DISORDERS W CC,6804.5454545,Standard
 CARDIAC ARRHYTHMIA & CONDUCTION DISORDERS W MCC,9170.75,Standard
 CELLULITIS W MCC,10405.818181999999,Standard
 KIDNEY & URINARY TRACT INFECTIONS W/O MCC,6865.714285699999,Standard
Level 1 Nerve Procedures,1187.5977272727198,DRG
Comprehensive Observation Services,1781.02943396226,DRG
Level 2 Excision/ Biopsy/ Incision and Drainage,1007.4621875,DRG
Level 2 Musculoskeletal Procedures,926.986666666667,DRG
Level 3 Musculoskeletal Procedures,1961.76,DRG
Level 4 Musculoskeletal Procedures,4097.94405405405,DRG
Level 5 Musculoskeletal Procedures,7933.153125,DRG
Level 1 Endovascular Procedures,1851.7690140845102,DRG
Level 3 Endovascular Procedures,8225.63545454545,DRG
Level 3 Pacemaker and Similar Procedures,8098.503846153841,DRG
Level 2 Upper GI Procedures,1099.28759999999,DRG
Abdominal/Peritoneal/Biliary and Related Procedures,2167.6645454545396,DRG
Level 3 Urology and Related Services,1309.79131578947,DRG
Level 1 Laparoscopy and Related Services,3467.61,DRG
Level 5 Urology and Related Services,2862.99,DRG
Level 4 Urology and Related Services,2083.18823529411,DRG
