Description,Charge,Category
 DEGENERATIVE NERVOUS SYSTEM DISORDERS W/O MCC,9477.8235294,Standard
 MAJOR SMALL & LARGE BOWEL PROCEDURES W MCC,38785.433333,Standard
 MAJOR SMALL & LARGE BOWEL PROCEDURES W CC,22276.16,Standard
 MAJOR SMALL & LARGE BOWEL PROCEDURES W/O CC/MCC,13875.333333,Standard
 MAJOR GASTROINTESTINAL DISORDERS & PERITONEAL INFECTIONS W MCC,14404.25,Standard
 MAJOR GASTROINTESTINAL DISORDERS & PERITONEAL INFECTIONS W CC,13653.142856999999,Standard
 G.I. HEMORRHAGE W MCC,15999.654545,Standard
 G.I. HEMORRHAGE W CC,8695.7258065,Standard
 G.I. OBSTRUCTION W MCC,13372.75,Standard
 G.I. OBSTRUCTION W CC,7839.3,Standard
" ESOPHAGITIS, GASTROENT & MISC DIGEST DISORDERS W MCC",9971.2916667,Standard
" ""ESOPHAGITIS, GASTROENT & MISC DIGEST DISORDERS W/O MCC""",6788.760869600001,Standard
 INTRACRANIAL HEMORRHAGE OR CEREBRAL INFARCTION W MCC,15296.795455000001,Standard
 OTHER DIGESTIVE SYSTEM DIAGNOSES W CC,8323.1764706,Standard
" ""PANCREAS, LIVER & SHUNT PROCEDURES W MCC""",50265.0,Standard
" PANCREAS, LIVER & SHUNT PROCEDURES W CC",21309.0,Standard
" ""PANCREAS, LIVER & SHUNT PROCEDURES W/O CC/MCC""",15226.545455000001,Standard
 LAPAROSCOPIC CHOLECYSTECTOMY W/O C.D.E. W CC,13461.833333,Standard
 CIRRHOSIS & ALCOHOLIC HEPATITIS W MCC,17271.25,Standard
Level 1 Nerve Procedures,1213.82311111111,DRG
Level 2 Neurostimulator and Related Procedures,4308.77538461538,DRG
Level 3 Neurostimulator and Related Procedures,16385.88,DRG
" STOMACH, ESOPHAGEAL & DUODENAL PROC W/O CC/MCC",13620.4,Standard
" ""STOMACH, ESOPHAGEAL & DUODENAL PROC W CC""",18939.222222,Standard
" STOMACH, ESOPHAGEAL & DUODENAL PROC W MCC",33818.904762,Standard
 OTHER CIRCULATORY SYSTEM DIAGNOSES W CC,8265.6521739,Standard
 OTHER MAJOR CARDIOVASCULAR PROCEDURES W/O CC/MCC,20875.818182,Standard
 PERCUTANEOUS INTRACARDIAC PROCEDURES W MCC,33281.193548,Standard
 PERCUTANEOUS INTRACARDIAC PROCEDURES W/O MCC,20700.584906,Standard
" ""ACUTE MYOCARDIAL INFARCTION, DISCHARGED ALIVE W MCC""",16087.222222,Standard
" ACUTE MYOCARDIAL INFARCTION, DISCHARGED ALIVE W CC",8062.285714300001,Standard
" ""CIRCULATORY DISORDERS EXCEPT AMI, W CARD CATH W MCC""",20690.66,Standard
" CIRCULATORY DISORDERS EXCEPT AMI, W CARD CATH W/O MCC",10804.786885,Standard
 HEART FAILURE & SHOCK W MCC,12638.731148,Standard
 HEART FAILURE & SHOCK W CC,9366.983333299999,Standard
Level 3 Excision/ Biopsy/ Incision and Drainage,1718.19259259259,DRG
Level 4 Neurostimulator and Related Procedures,25555.764838709598,DRG
 HEART FAILURE & SHOCK W/O CC/MCC,6511.6666667,Standard
 PERIPHERAL VASCULAR DISORDERS W CC,7835.863636399999,Standard
 HYPERTENSION W MCC,8973.16,Standard
 HYPERTENSION W/O MCC,6424.4545455,Standard
 CARDIAC ARRHYTHMIA & CONDUCTION DISORDERS W MCC,10930.043478,Standard
 CARDIAC ARRHYTHMIA & CONDUCTION DISORDERS W CC,6621.1794872,Standard
 CARDIAC ARRHYTHMIA & CONDUCTION DISORDERS W/O CC/MCC,5000.777777800001,Standard
 SYNCOPE & COLLAPSE,6836.7,Standard
 OTHER CIRCULATORY SYSTEM DIAGNOSES W MCC,16257.097222,Standard
Level 2 Excision/ Biopsy/ Incision and Drainage,1037.7956804733699,DRG
 COMPLICATIONS OF TREATMENT W CC,8383.153846199999,Standard
 PERIPHERAL VASCULAR DISORDERS W MCC,12219.947368000001,Standard
 OTHER MAJOR CARDIOVASCULAR PROCEDURES W CC,25959.37931,Standard
Implantation of Drug Infusion Device,13620.09375,DRG
Level 2 Intraocular Procedures,2780.59574803151,DRG
 COAGULATION DISORDERS,17427.5,Standard
 RED BLOOD CELL DISORDERS W/O MCC,8488.270270300001,Standard
 RED BLOOD CELL DISORDERS W MCC,12592.565217,Standard
 MAJOR HEMATOL/IMMUN DIAG EXC SICKLE CELL CRISIS & COAGUL W CC,22752.529412,Standard
 MAJOR MALE PELVIC PROCEDURES W/O CC/MCC,11739.4,Standard
 OTHER KIDNEY & URINARY TRACT DIAGNOSES W CC,11216.901408,Standard
 OTHER KIDNEY & URINARY TRACT DIAGNOSES W MCC,19156.825,Standard
 KIDNEY & URINARY TRACT INFECTIONS W/O MCC,6867.1272727,Standard
 KIDNEY & URINARY TRACT INFECTIONS W MCC,9568.621621600001,Standard
 RENAL FAILURE W CC,7854.3529412,Standard
 RENAL FAILURE W MCC,12615.090909,Standard
 OTHER KIDNEY & URINARY TRACT PROCEDURES W MCC,61547.6,Standard
 KIDNEY & URETER PROCEDURES FOR NON,14632.235294,Standard
 KIDNEY TRANSPLANT,34797.17284,Standard
" ""MISC DISORDERS OF NUTRITION,METABOLISM,FLUIDS/ELECTROLYTES W/O MCC""",6732.8,Standard
 EXTENSIVE O.R. PROCEDURE UNRELATED TO PRINCIPAL DIAGNOSIS W MCC,38171.173077,Standard
 EXTENSIVE O.R. PROCEDURE UNRELATED TO PRINCIPAL DIAGNOSIS W CC,17910.0,Standard
 NON,44105.533333,Standard
" MISC DISORDERS OF NUTRITION,METABOLISM,FLUIDS/ELECTROLYTES W MCC",9987.644444399999,Standard
 DIABETES W CC,7925.6666667,Standard
 DIABETES W MCC,11483.315789,Standard
 MEDICAL BACK PROBLEMS W/O MCC,8896.4545455,Standard
 MAJOR JOINT/LIMB REATTACHMENT PROCEDURE OF UPPER EXTREMITIES,23118.8,Standard
 HIP & FEMUR PROCEDURES EXCEPT MAJOR JOINT W CC,15229.846153999999,Standard
 HIP & FEMUR PROCEDURES EXCEPT MAJOR JOINT W MCC,21514.454545,Standard
"Level 3 Extraocular, Repair, and Plastic Eye Procedures",1388.7765363128399,DRG
"Level 4 Extraocular, Repair, and Plastic Eye Procedures",2275.11071428571,DRG
Comprehensive Observation Services,1800.5419866666898,DRG
 MALIGNANCY OF HEPATOBILIARY SYSTEM OR PANCREAS W MCC,15839.705881999998,Standard
" ""DISORDERS OF LIVER EXCEPT MALIG,CIRR,ALC HEPA W MCC""",16018.783784000001,Standard
 COMPLICATIONS OF TREATMENT W MCC,13804.961538,Standard
 POISONING & TOXIC EFFECTS OF DRUGS W MCC,11058.588235,Standard
 OTHER O.R. PROCEDURES FOR INJURIES W MCC,50208.375,Standard
 SEPTICEMIA OR SEVERE SEPSIS W/O MV >96 HOURS W/O MCC,9075.53125,Standard
 SEPTICEMIA OR SEVERE SEPSIS W/O MV >96 HOURS W MCC,17019.649446,Standard
Level 1 Intraocular Procedures,1472.3247323135902,DRG
 SEPTICEMIA OR SEVERE SEPSIS W MV >96 HOURS OR PERIPHERAL EXTRACORPOR,48548.315789,Standard
 POSTOPERATIVE OR POST,16130.8125,Standard
 POSTOPERATIVE OR POST,33543.041667000005,Standard
 INFECTIOUS & PARASITIC DISEASES W O.R. PROCEDURE W MCC,55843.447619000006,Standard
" DISORDERS OF LIVER EXCEPT MALIG,CIRR,ALC HEPA W CC",9202.8333333,Standard
 DISORDERS OF THE BILIARY TRACT W MCC,13076.727273,Standard
 DISORDERS OF THE BILIARY TRACT W CC,10325.555556,Standard
 SPINAL FUSION EXCEPT CERVICAL W/O MCC,41088.454545,Standard
 REVISION OF HIP OR KNEE REPLACEMENT W/O CC/MCC,25284.428571,Standard
 MAJOR HIP AND KNEE JOINT REPLACEMENT OR REATTACHMENT OF LOWER EXTREM,24738.583333000002,Standard
 MAJOR HIP AND KNEE JOINT REPLACEMENT OR REATTACHMENT OF LOWER EXTREM,22220.952381,Standard
 POSTOPERATIVE & POST,19632.590909,Standard
 OTHER MAJOR CARDIOVASCULAR PROCEDURES W MCC,41439.75,Standard
 OTHER DIGESTIVE SYSTEM DIAGNOSES W MCC,13155.5625,Standard
 ENDOVASCULAR CARDIAC VALVE REPLACEMENT W/O MCC,41892.0,Standard
Level 3 Upper GI Procedures,2093.77757281553,DRG
 NONSPECIFIC CEREBROVASCULAR DISORDERS W MCC,13198.352941,Standard
 CRANIAL & PERIPHERAL NERVE DISORDERS W/O MCC,10017.636364,Standard
 OTHER DISORDERS OF NERVOUS SYSTEM W MCC,16235.181818000001,Standard
 OTHER DISORDERS OF NERVOUS SYSTEM W CC,8512.4285714,Standard
Level 2 Upper GI Procedures,1080.68394101877,DRG
 CELLULITIS W MCC,11842.041667,Standard
Level 2 ICD and Similar Procedures,28309.1671590909,DRG
Level 1 ICD and Similar Procedures,19378.780714285702,DRG
Level 4 Pacemaker and Similar Procedures,15631.1,DRG
Level 3 Pacemaker and Similar Procedures,8078.209444444441,DRG
Level 2 Pacemaker and Similar Procedures,5784.83063492064,DRG
Level 3 Electrophysiologic Procedures,16385.7185436892,DRG
Level 2 Electrophysiologic Procedures,4093.66461538461,DRG
Level 4 Endovascular Procedures,14120.962891566202,DRG
Level 3 Endovascular Procedures,8776.297721518991,DRG
Level 2 Endovascular Procedures,3861.06989247312,DRG
Level 1 Endovascular Procedures,1839.7817551962803,DRG
 AORTIC AND HEART ASSIST PROCEDURES EXCEPT PULSATION BALLOON W/O MCC,29466.735294,Standard
Level 6 Urology and Related Services,5989.7663636363595,DRG
Level 5 ENT Procedures,3344.47,DRG
 TRANSIENT ISCHEMIA W/O THROMBOLYTIC,6662.636363600001,Standard
 INTRACRANIAL HEMORRHAGE OR CEREBRAL INFARCTION W/O CC/MCC,6372.1333333,Standard
Complex GI Procedures,3292.0454255319105,DRG
 HEART TRANSPLANT OR IMPLANT OF HEART ASSIST SYSTEM W MCC,337542.36841999996,Standard
 DEGENERATIVE NERVOUS SYSTEM DISORDERS W MCC,17046.75,Standard
 NERVOUS SYSTEM NEOPLASMS W MCC,10504.333333,Standard
 PERIPH/CRANIAL NERVE & OTHER NERV SYST PROC W CC OR PERIPH NEUROSTIM,19331.608696,Standard
Abdominal/Peritoneal/Biliary and Related Procedures,2241.1711864406698,DRG
Level 1 Laparoscopy and Related Services,3387.9296969696998,DRG
Level 2 Laparoscopy and Related Services,5700.06891304348,DRG
 PERIPH/CRANIAL NERVE & OTHER NERV SYST PROC W MCC,30583.833333,Standard
 EXTRACRANIAL PROCEDURES W/O CC/MCC,8585.0,Standard
 EXTRACRANIAL PROCEDURES W CC,11948.25,Standard
 EXTRACRANIAL PROCEDURES W MCC,21665.083333000002,Standard
Level 5 Airway Endoscopy,3749.44,DRG
 CAROTID ARTERY STENT PROCEDURE W/O CC/MCC,12313.615385,Standard
 CRANIOTOMY & ENDOVASCULAR INTRACRANIAL PROCEDURES W CC,22533.6875,Standard
Level 3 Urology and Related Services,1283.40329268292,DRG
Level 4 Urology and Related Services,2048.16044117647,DRG
Level 5 Urology and Related Services,2826.9625,DRG
 INTRACRANIAL HEMORRHAGE OR CEREBRAL INFARCTION W CC OR TPA IN 24 HRS,8455.4126984,Standard
 CRANIOTOMY & ENDOVASCULAR INTRACRANIAL PROCEDURES W MCC,36834.310345,Standard
  CRANIOTOMY W MAJOR DEVICE IMPLANT OR ACUTE COMPLEX CNS PDX W MCC OR,38813.458332999995,Standard
 LIVER TRANSPLANT W MCC OR INTESTINAL TRANSPLANT,83603.93333300001,Standard
" TRACH W MV >96 HRS OR PDX EXC FACE, MOUTH & NECK W/O MAJ O.R.",152760.69230999998,Standard
" ""ECMO OR TRACH W MV >96 HRS OR PDX EXC FACE, MOUTH & NECK W MAJ O.R.",226046.28378000003,Standard
 CRANIOTOMY & ENDOVASCULAR INTRACRANIAL PROCEDURES W/O CC/MCC,19251.111111000002,Standard
Level 7 Urology and Related Services,13812.2199999999,DRG
 CELLULITIS W/O MCC,7797.464285699999,Standard
Level 3 Airway Endoscopy,1017.0742857142801,DRG
 CARDIAC VALVE & OTH MAJ CARDIOTHORACIC PROC W/O CARD CATH W MCC,58739.269608,Standard
 CARDIAC VALVE & OTH MAJ CARDIOTHORACIC PROC W CARD CATH W MCC,91536.806452,Standard
 OTHER HEART ASSIST SYSTEM IMPLANT,135828.77143,Standard
Level 1 Breast/Lymphatic Surgery and Related Procedures,1985.88333333333,DRG
 RESPIRATORY SYSTEM DIAGNOSIS W VENTILATOR SUPPORT <=96 HOURS,19624.027778,Standard
 BRONCHITIS & ASTHMA W CC/MCC,8318.0869565,Standard
 SIMPLE PNEUMONIA & PLEURISY W CC,7553.586956499999,Standard
 SIMPLE PNEUMONIA & PLEURISY W MCC,11549.625,Standard
Level 2 Musculoskeletal Procedures,1040.57,DRG
 CHRONIC OBSTRUCTIVE PULMONARY DISEASE W CC,8270.8125,Standard
 CHRONIC OBSTRUCTIVE PULMONARY DISEASE W MCC,10506.842105,Standard
 CARDIAC VALVE & OTH MAJ CARDIOTHORACIC PROC W/O CARD CATH W CC,41114.5,Standard
Level 2 Breast/Lymphatic Surgery and Related Procedures,3709.13,DRG
 SEIZURES W/O MCC,7879.206896600001,Standard
 MAJOR CHEST PROCEDURES W MCC,44053.969697,Standard
 MAJOR CHEST PROCEDURES W CC,19171.466666999997,Standard
 PULMONARY EDEMA & RESPIRATORY FAILURE,12429.717949,Standard
 RESPIRATORY INFECTIONS & INFLAMMATIONS W CC,11851.842105,Standard
 RESPIRATORY INFECTIONS & INFLAMMATIONS W MCC,19325.404255,Standard
 PULMONARY EMBOLISM W/O MCC,8084.2727273,Standard
 PULMONARY EMBOLISM W MCC,13147.5,Standard
 OTHER RESP SYSTEM O.R. PROCEDURES W MCC,35760.971429000005,Standard
 OTHER RESP SYSTEM O.R. PROCEDURES W CC,14249.84,Standard
Level 4 Airway Endoscopy,1961.95539473684,DRG
 SEIZURES W MCC,13831.5,Standard
 CARDIAC VALVE & OTH MAJ CARDIOTHORACIC PROC W/O CARD CATH W/O CC/MCC,35174.0,Standard
 OTHER RESPIRATORY SYSTEM DIAGNOSES W MCC,24219.909091,Standard
 OTHER CARDIOTHORACIC PROCEDURES W MCC,59583.764705999994,Standard
Level 5 Musculoskeletal Procedures,8293.93550000001,DRG
Level 4 Musculoskeletal Procedures,4285.21758928571,DRG
Level 3 Musculoskeletal Procedures,2036.33515463917,DRG
 ENDOVASCULAR CARDIAC VALVE REPLACEMENT W MCC,54578.013333,Standard
 OTHER CIRCULATORY SYSTEM O.R. PROCEDURES,29292.653845999997,Standard
 CARDIAC DEFIBRILLATOR IMPLANT W/O CARDIAC CATH W MCC,63188.714286,Standard
 CARDIAC PACEMAKER REVISION EXCEPT DEVICE REPLACEMENT W MCC,30205.454545,Standard
 OTHER VASCULAR PROCEDURES W CC,20495.948718,Standard
 OTHER VASCULAR PROCEDURES W MCC,29067.853333,Standard
 PERC CARDIOVASC PROC W DRUG,16530.660377,Standard
 CARDIAC PACEMAKER REVISION EXCEPT DEVICE REPLACEMENT W CC,16098.583333,Standard
 PERMANENT CARDIAC PACEMAKER IMPLANT W/O CC/MCC,19649.333333000002,Standard
 PERCUTANEOUS CARDIOVASCULAR PROCEDURES W DRUG,25054.864407,Standard
 AMPUTATION FOR CIRC SYS DISORDERS EXC UPPER LIMB & TOE W MCC,46706.565217,Standard
 AMPUTATION FOR CIRC SYS DISORDERS EXC UPPER LIMB & TOE W CC,25524.4,Standard
 CORONARY BYPASS W/O CARDIAC CATH W MCC,41841.357143,Standard
 PERMANENT CARDIAC PACEMAKER IMPLANT W MCC,31953.523810000002,Standard
 CORONARY BYPASS W/O CARDIAC CATH W/O MCC,28429.4375,Standard
 CORONARY BYPASS W CARDIAC CATH W MCC,54718.025,Standard
 PERMANENT CARDIAC PACEMAKER IMPLANT W CC,21175.041666999998,Standard
