Description,Charge,Category
 OTHER VASCULAR PROCEDURES W MCC,19560.75,Standard
" CIRCULATORY DISORDERS EXCEPT AMI, W CARD CATH W/O MCC",7839.8064516,Standard
" ""CIRCULATORY DISORDERS EXCEPT AMI, W CARD CATH W MCC""",13662.181818000001,Standard
" ""ACUTE MYOCARDIAL INFARCTION, DISCHARGED ALIVE W/O CC/MCC""",5248.8181818,Standard
 SEPTICEMIA OR SEVERE SEPSIS W/O MV >96 HOURS W MCC,11390.783854000001,Standard
 SEPTICEMIA OR SEVERE SEPSIS W/O MV >96 HOURS W/O MCC,7115.409937899999,Standard
 POISONING & TOXIC EFFECTS OF DRUGS W MCC,11528.041667,Standard
 POISONING & TOXIC EFFECTS OF DRUGS W/O MCC,6171.8461538,Standard
 EXTENSIVE O.R. PROCEDURE UNRELATED TO PRINCIPAL DIAGNOSIS W MCC,23175.586207,Standard
Level 4 Urology and Related Services,1806.4236734693802,DRG
Level 3 Urology and Related Services,1136.39621951219,DRG
Level 2 Laparoscopy and Related Services,5194.46,DRG
Complex GI Procedures,2939.83,DRG
Abdominal/Peritoneal/Biliary and Related Procedures,1993.26,DRG
" ACUTE MYOCARDIAL INFARCTION, DISCHARGED ALIVE W CC",6790.021739100001,Standard
" ""ACUTE MYOCARDIAL INFARCTION, DISCHARGED ALIVE W MCC""",10469.722222,Standard
Level 1 Laparoscopy and Related Services,2993.48007092199,DRG
Level 5 Urology and Related Services,2477.3265269461103,DRG
 CHRONIC OBSTRUCTIVE PULMONARY DISEASE W MCC,7589.814433,Standard
Level 5 Gynecologic Procedures,2416.91119999999,DRG
 CARDIAC ARRHYTHMIA & CONDUCTION DISORDERS W CC,5271.0384615,Standard
 CARDIAC ARRHYTHMIA & CONDUCTION DISORDERS W MCC,7759.5121951,Standard
 HYPERTENSION W/O MCC,4939.9375,Standard
Level 2 Excision/ Biopsy/ Incision and Drainage,916.117266187047,DRG
Level 3 Excision/ Biopsy/ Incision and Drainage,1504.99345454545,DRG
 PERIPHERAL VASCULAR DISORDERS W CC,6929.9166667,Standard
 EXTRACRANIAL PROCEDURES W/O CC/MCC,7086.655172399999,Standard
" ""ISCHEMIC STROKE, PRECEREBRAL OCCLUSION OR TRANSIENT ISCHEMIA W THRO",11966.888889,Standard
 INTRACRANIAL HEMORRHAGE OR CEREBRAL INFARCTION W MCC,10856.263158,Standard
 INTRACRANIAL HEMORRHAGE OR CEREBRAL INFARCTION W CC OR TPA IN 24 HRS,6865.8414634,Standard
 INTRACRANIAL HEMORRHAGE OR CEREBRAL INFARCTION W/O CC/MCC,5255.3,Standard
 CHEST PAIN,4918.7272727,Standard
 OTHER CIRCULATORY SYSTEM DIAGNOSES W MCC,12053.310345,Standard
 MAJOR SMALL & LARGE BOWEL PROCEDURES W MCC,31022.111111000002,Standard
Level 1 Breast/Lymphatic Surgery and Related Procedures,1767.68285714285,DRG
 MAJOR SMALL & LARGE BOWEL PROCEDURES W CC,16551.541666999998,Standard
 MAJOR SMALL & LARGE BOWEL PROCEDURES W/O CC/MCC,10438.1875,Standard
 PERIPHERAL VASCULAR DISORDERS W MCC,8932.5,Standard
Level 6 Gynecologic Procedures,4178.07,DRG
 SEPTICEMIA OR SEVERE SEPSIS W MV >96 HOURS OR PERIPHERAL EXTRACORPOR,35057.631579,Standard
 HEART FAILURE & SHOCK W/O CC/MCC,4854.5714286,Standard
 HEART FAILURE & SHOCK W CC,6461.8988764,Standard
 HEART FAILURE & SHOCK W MCC,9492.4037855,Standard
Level 4 Gynecologic Procedures,1556.15,DRG
 INFECTIOUS & PARASITIC DISEASES W O.R. PROCEDURE W CC,15492.777778,Standard
 COAGULATION DISORDERS,11099.642856999999,Standard
 CHRONIC OBSTRUCTIVE PULMONARY DISEASE W CC,6294.8139535,Standard
 CORONARY BYPASS W CARDIAC CATH W MCC,47218.545455,Standard
 LAPAROSCOPIC CHOLECYSTECTOMY W/O C.D.E. W CC,10564.666667,Standard
 RESPIRATORY SYSTEM DIAGNOSIS W VENTILATOR SUPPORT <=96 HOURS,14629.145833,Standard
 LAPAROSCOPIC CHOLECYSTECTOMY W/O C.D.E. W MCC,14246.3125,Standard
 NONSPECIFIC CEREBROVASCULAR DISORDERS W MCC,9847.217391299999,Standard
 RESPIRATORY SYSTEM DIAGNOSIS W VENTILATOR SUPPORT >96 HOURS,33353.25,Standard
 SIMPLE PNEUMONIA & PLEURISY W/O CC/MCC,5038.6333333,Standard
 SIMPLE PNEUMONIA & PLEURISY W CC,6457.6818182,Standard
 SIMPLE PNEUMONIA & PLEURISY W MCC,8840.234741799999,Standard
 OTHER DIGESTIVE SYSTEM DIAGNOSES W CC,6404.6666667,Standard
 CHRONIC OBSTRUCTIVE PULMONARY DISEASE W/O CC/MCC,5144.9285714,Standard
 OTHER DIGESTIVE SYSTEM DIAGNOSES W MCC,10444.722222,Standard
" ""ESOPHAGITIS, GASTROENT & MISC DIGEST DISORDERS W/O MCC""",5363.9278351,Standard
" ESOPHAGITIS, GASTROENT & MISC DIGEST DISORDERS W MCC",8052.275,Standard
 G.I. OBSTRUCTION W/O CC/MCC,4596.4761905000005,Standard
 G.I. OBSTRUCTION W CC,6898.3125,Standard
 G.I. OBSTRUCTION W MCC,10145.142856999999,Standard
 G.I. HEMORRHAGE W/O CC/MCC,4710.9166667,Standard
 G.I. HEMORRHAGE W CC,6760.2820513,Standard
 G.I. HEMORRHAGE W MCC,11041.2,Standard
 MAJOR GASTROINTESTINAL DISORDERS & PERITONEAL INFECTIONS W CC,6858.363636399999,Standard
 MAJOR GASTROINTESTINAL DISORDERS & PERITONEAL INFECTIONS W MCC,10991.666667,Standard
 NONSPECIFIC CEREBROVASCULAR DISORDERS W CC,6552.5263158,Standard
 SEIZURES W MCC,9880.466666700002,Standard
 SEIZURES W/O MCC,5759.4347826,Standard
 PULMONARY EMBOLISM W MCC,9496.076923100001,Standard
 PULMONARY EMBOLISM W/O MCC,6213.125,Standard
 RESPIRATORY INFECTIONS & INFLAMMATIONS W MCC,11773.034483,Standard
 PULMONARY EDEMA & RESPIRATORY FAILURE,8108.357142899999,Standard
 CORONARY BYPASS W/O CARDIAC CATH W/O MCC,23652.647059,Standard
 PERMANENT CARDIAC PACEMAKER IMPLANT W CC,15929.944444,Standard
 PERCUTANEOUS CARDIOVASCULAR PROCEDURES W DRUG,19060.071429,Standard
 DISORDERS OF PANCREAS EXCEPT MALIGNANCY W CC,5922.142857100001,Standard
 RED BLOOD CELL DISORDERS W/O MCC,5794.56,Standard
 RED BLOOD CELL DISORDERS W MCC,8648.8387097,Standard
 OTHER KIDNEY & URINARY TRACT DIAGNOSES W CC,6984.9230769,Standard
Level 2 Breast/Lymphatic Surgery and Related Procedures,3050.6388888888896,DRG
 OTHER KIDNEY & URINARY TRACT DIAGNOSES W MCC,9847.7608696,Standard
 KIDNEY & URINARY TRACT INFECTIONS W/O MCC,5604.2835821,Standard
 KIDNEY & URINARY TRACT INFECTIONS W MCC,7119.690721600001,Standard
 RENAL FAILURE W/O CC/MCC,4638.0,Standard
 RENAL FAILURE W CC,6378.09375,Standard
 RENAL FAILURE W MCC,9338.7307692,Standard
" ""MISC DISORDERS OF NUTRITION,METABOLISM,FLUIDS/ELECTROLYTES W/O MCC""",5246.4545455,Standard
" MISC DISORDERS OF NUTRITION,METABOLISM,FLUIDS/ELECTROLYTES W MCC",7673.418181800001,Standard
 DIABETES W CC,5901.848484800001,Standard
 DIABETES W MCC,8391.9677419,Standard
 INFECTIOUS & PARASITIC DISEASES W O.R. PROCEDURE W MCC,28010.915493,Standard
 CELLULITIS W/O MCC,5908.4807692,Standard
 MEDICAL BACK PROBLEMS W/O MCC,6014.25,Standard
 FRACTURES OF HIP & PELVIS W/O MCC,5210.5454545,Standard
" LOWER EXTREM & HUMER PROC EXCEPT HIP,FOOT,FEMUR W CC",15124.125,Standard
 TRANSIENT ISCHEMIA W/O THROMBOLYTIC,5300.8076923,Standard
 MAJOR JOINT/LIMB REATTACHMENT PROCEDURE OF UPPER EXTREMITIES,14622.347826,Standard
 HIP & FEMUR PROCEDURES EXCEPT MAJOR JOINT W/O CC/MCC,10423.615385,Standard
 HIP & FEMUR PROCEDURES EXCEPT MAJOR JOINT W CC,12346.659574,Standard
 HIP & FEMUR PROCEDURES EXCEPT MAJOR JOINT W MCC,17025.862069,Standard
 CERVICAL SPINAL FUSION W/O CC/MCC,13879.363636000002,Standard
 MAJOR HIP AND KNEE JOINT REPLACEMENT OR REATTACHMENT OF LOWER EXTREM,12842.352273,Standard
 MAJOR HIP AND KNEE JOINT REPLACEMENT OR REATTACHMENT OF LOWER EXTREM,18303.904762000002,Standard
 PERC CARDIOVASC PROC W DRUG,14288.915254,Standard
 COMBINED ANTERIOR/POSTERIOR SPINAL FUSION W/O CC/MCC,29688.113208,Standard
 COMBINED ANTERIOR/POSTERIOR SPINAL FUSION W CC,37480.642857,Standard
 CELLULITIS W MCC,9209.0,Standard
 SPINAL FUSION EXCEPT CERVICAL W/O MCC,23627.538462,Standard
 SYNCOPE & COLLAPSE,5566.4090909,Standard
"Level 3 Extraocular, Repair, and Plastic Eye Procedures",1240.23,DRG
Level 3 Upper GI Procedures,1878.43,DRG
Level 2 Upper GI Procedures,961.31444444444,DRG
Comprehensive Observation Services,1580.48115254235,DRG
Level 4 Airway Endoscopy,1791.56,DRG
 CARDIAC ARRHYTHMIA & CONDUCTION DISORDERS W/O CC/MCC,4223.2307692,Standard
Level 2 Musculoskeletal Procedures,895.9955208333321,DRG
Level 3 Musculoskeletal Procedures,1773.32608247422,DRG
Level 2 Intraocular Procedures,2394.533125,DRG
Level 6 Musculoskeletal Procedures,11842.4299999999,DRG
Level 5 Musculoskeletal Procedures,7279.36368932037,DRG
Level 2 ICD and Similar Procedures,25186.3925,DRG
Level 1 Intraocular Procedures,1297.27887063654,DRG
Level 4 Neurostimulator and Related Procedures,22558.64,DRG
Level 3 Neurostimulator and Related Procedures,13854.0769230769,DRG
Level 4 Musculoskeletal Procedures,3647.20145374448,DRG
Level 1 Nerve Procedures,1078.3887978142,DRG
Level 2 Endovascular Procedures,3369.9046875,DRG
Level 5 Airway Endoscopy,3330.48,DRG
Level 2 Neurostimulator and Related Procedures,3883.294375,DRG
Level 1 Endovascular Procedures,1665.47294736842,DRG
Level 4 Endovascular Procedures,12395.0333333333,DRG
Level 3 Pacemaker and Similar Procedures,7029.83999999999,DRG
Level 3 Endovascular Procedures,7560.99492063494,DRG
