Description,Charge,Category
 KIDNEY & URINARY TRACT INFECTIONS W/O MCC,5523.9285714,Standard
 SEPTICEMIA OR SEVERE SEPSIS W/O MV >96 HOURS W MCC,12577.733333,Standard
 CELLULITIS W/O MCC,5927.2142857,Standard
Level 1 Intraocular Procedures,1461.776875,DRG
 HEART FAILURE & SHOCK W MCC,10370.615385,Standard
 CHRONIC OBSTRUCTIVE PULMONARY DISEASE W MCC,8017.538461499999,Standard
Level 5 Urology and Related Services,2832.88,DRG
Comprehensive Observation Services,1777.08260869565,DRG
 HEART FAILURE & SHOCK W CC,6644.25,Standard
