Description,Charge,Category
 DEGENERATIVE NERVOUS SYSTEM DISORDERS W/O MCC,10693.090909,Standard
 INTRACRANIAL HEMORRHAGE OR CEREBRAL INFARCTION W MCC,12791.272727,Standard
 CHRONIC OBSTRUCTIVE PULMONARY DISEASE W MCC,8737.9,Standard
 RED BLOOD CELL DISORDERS W/O MCC,6931.3043478,Standard
 INFECTIOUS & PARASITIC DISEASES W O.R. PROCEDURE W MCC,37032.584906000004,Standard
 SEPTICEMIA OR SEVERE SEPSIS W MV >96 HOURS OR PERIPHERAL EXTRACORPOR,44253.588235,Standard
 SEPTICEMIA OR SEVERE SEPSIS W/O MV >96 HOURS W MCC,13229.44,Standard
 SEPTICEMIA OR SEVERE SEPSIS W/O MV >96 HOURS W/O MCC,8162.140625,Standard
 PULMONARY EDEMA & RESPIRATORY FAILURE,9112.8125,Standard
 INTRACRANIAL HEMORRHAGE OR CEREBRAL INFARCTION W CC OR TPA IN 24 HRS,8423.0,Standard
 TRANSIENT ISCHEMIA W/O THROMBOLYTIC,6105.8695652,Standard
 SEIZURES W MCC,11564.8125,Standard
 SEIZURES W/O MCC,6683.2857143,Standard
 RESPIRATORY INFECTIONS & INFLAMMATIONS W MCC,12955.848484999999,Standard
 SIMPLE PNEUMONIA & PLEURISY W MCC,9758.9285714,Standard
 CHRONIC OBSTRUCTIVE PULMONARY DISEASE W CC,7135.625,Standard
 OTHER KIDNEY & URINARY TRACT DIAGNOSES W MCC,11389.589743999999,Standard
 ORGANIC DISTURBANCES & INTELLECTUAL DISABILITY,8263.142857100001,Standard
 RENAL FAILURE W CC,7055.66,Standard
 KIDNEY & URINARY TRACT INFECTIONS W MCC,8189.348837199999,Standard
" MISC DISORDERS OF NUTRITION,METABOLISM,FLUIDS/ELECTROLYTES W MCC",8699.159090899999,Standard
 DIABETES W CC,6746.761904800001,Standard
 DIABETES W MCC,9547.84,Standard
 OTHER VASCULAR PROCEDURES W MCC,23863.21875,Standard
 OTHER VASCULAR PROCEDURES W CC,17560.5,Standard
" ""ACUTE MYOCARDIAL INFARCTION, DISCHARGED ALIVE W MCC""",18821.904762000002,Standard
" ""CIRCULATORY DISORDERS EXCEPT AMI, W CARD CATH W MCC""",15646.8,Standard
" CIRCULATORY DISORDERS EXCEPT AMI, W CARD CATH W/O MCC",9385.588235299998,Standard
" ""MISC DISORDERS OF NUTRITION,METABOLISM,FLUIDS/ELECTROLYTES W/O MCC""",6257.0,Standard
 HEART FAILURE & SHOCK W MCC,10627.06993,Standard
 PERIPHERAL VASCULAR DISORDERS W CC,7809.5454545,Standard
 CELLULITIS W/O MCC,7772.4705882,Standard
" FX, SPRN, STRN & DISL EXCEPT FEMUR, HIP, PELVIS & THIGH W/O MCC",6430.2307692,Standard
 MEDICAL BACK PROBLEMS W/O MCC,7022.4090909,Standard
 HIP & FEMUR PROCEDURES EXCEPT MAJOR JOINT W CC,14468.3125,Standard
 CIRRHOSIS & ALCOHOLIC HEPATITIS W MCC,12375.909091,Standard
 MAJOR HIP AND KNEE JOINT REPLACEMENT OR REATTACHMENT OF LOWER EXTREM,16145.0,Standard
 KIDNEY & URINARY TRACT INFECTIONS W/O MCC,6334.119403,Standard
 HEART FAILURE & SHOCK W/O CC/MCC,5805.4615385,Standard
 PERC CARDIOVASC PROC W DRUG,15610.285713999998,Standard
 HEART FAILURE & SHOCK W CC,7152.5882353,Standard
 RESPIRATORY SYSTEM DIAGNOSIS W VENTILATOR SUPPORT <=96 HOURS,16835.863636000002,Standard
 RENAL FAILURE W MCC,10699.058824,Standard
 PERCUTANEOUS CARDIOVASCULAR PROCEDURES W DRUG,22509.75,Standard
 CARDIAC ARRHYTHMIA & CONDUCTION DISORDERS W MCC,8786.1176471,Standard
 SYNCOPE & COLLAPSE,6384.739130399999,Standard
 CHEST PAIN,5807.7878788,Standard
 OTHER CIRCULATORY SYSTEM DIAGNOSES W MCC,13426.466666999999,Standard
 G.I. HEMORRHAGE W MCC,12992.866667,Standard
 CARDIAC ARRHYTHMIA & CONDUCTION DISORDERS W CC,6045.8,Standard
" ESOPHAGITIS, GASTROENT & MISC DIGEST DISORDERS W MCC",9247.857142899999,Standard
" ""ESOPHAGITIS, GASTROENT & MISC DIGEST DISORDERS W/O MCC""",6343.5757576000005,Standard
 OTHER DIGESTIVE SYSTEM DIAGNOSES W MCC,11777.5,Standard
 BRONCHITIS & ASTHMA W CC/MCC,7198.785714300001,Standard
 SIMPLE PNEUMONIA & PLEURISY W CC,7193.461538500001,Standard
 G.I. HEMORRHAGE W CC,8418.9642857,Standard
