Description,Charge,Category
 OTHER MUSCULOSKELET SYS & CONN TISS O.R. PROC W/O CC/MCC,8269.4,Standard
 COMPLICATED PEPTIC ULCER W CC,6978.461538500001,Standard
 G.I. OBSTRUCTION W CC,5196.6792453,Standard
Level 2 Breast/Lymphatic Surgery and Related Procedures,3294.81301587302,DRG
" SHOULDER,ELBOW OR FOREARM PROC,EXC MAJOR JOINT PROC W CC",9615.9166667,Standard
" ""ESOPHAGITIS, GASTROENT & MISC DIGEST DISORDERS W/O MCC""",4692.2758621,Standard
" LOWER EXTREM & HUMER PROC EXCEPT HIP,FOOT,FEMUR W CC",12218.26087,Standard
 G.I. OBSTRUCTION W/O CC/MCC,4141.9473684,Standard
" ESOPHAGITIS, GASTROENT & MISC DIGEST DISORDERS W MCC",7157.5714286,Standard
 OTHER DIGESTIVE SYSTEM DIAGNOSES W MCC,9463.272727299998,Standard
 OTHER DIGESTIVE SYSTEM DIAGNOSES W CC,5565.0625,Standard
 LAPAROSCOPIC CHOLECYSTECTOMY W/O C.D.E. W CC,9513.142857100001,Standard
 CIRRHOSIS & ALCOHOLIC HEPATITIS W MCC,10314.857143000001,Standard
 CIRRHOSIS & ALCOHOLIC HEPATITIS W CC,6068.3846154,Standard
 DISORDERS OF PANCREAS EXCEPT MALIGNANCY W CC,5224.5714286,Standard
" ""LOWER EXTREM & HUMER PROC EXCEPT HIP,FOOT,FEMUR W/O CC/MCC""",11525.227273,Standard
 G.I. HEMORRHAGE W CC,5676.5,Standard
 MAJOR SMALL & LARGE BOWEL PROCEDURES W/O CC/MCC,9386.9,Standard
 MAJOR GASTROINTESTINAL DISORDERS & PERITONEAL INFECTIONS W CC,6124.4347826,Standard
 HEART FAILURE & SHOCK W CC,5571.4042553,Standard
 HEART FAILURE & SHOCK W/O CC/MCC,4062.1428571,Standard
 PERIPHERAL VASCULAR DISORDERS W CC,5969.777777800001,Standard
 ATHEROSCLEROSIS W/O MCC,4086.1333333000002,Standard
 HYPERTENSION W/O MCC,4245.0,Standard
 CARDIAC ARRHYTHMIA & CONDUCTION DISORDERS W MCC,6916.7674418999995,Standard
 CARDIAC ARRHYTHMIA & CONDUCTION DISORDERS W CC,4666.8431373,Standard
 CARDIAC ARRHYTHMIA & CONDUCTION DISORDERS W/O CC/MCC,3528.2105263000003,Standard
 SYNCOPE & COLLAPSE,5097.5862068999995,Standard
 OTHER CIRCULATORY SYSTEM DIAGNOSES W MCC,11772.130435,Standard
 OTHER CIRCULATORY SYSTEM DIAGNOSES W CC,5472.8461538,Standard
 MAJOR SMALL & LARGE BOWEL PROCEDURES W MCC,32739.777777999996,Standard
Level 1 Breast/Lymphatic Surgery and Related Procedures,1905.89888888888,DRG
 BACK & NECK PROC EXC SPINAL FUSION W/O CC/MCC,9392.4545455,Standard
 BACK & NECK PROC EXC SPINAL FUSION W CC,9923.692307700001,Standard
 MAJOR SMALL & LARGE BOWEL PROCEDURES W CC,15348.775,Standard
Level 2 Musculoskeletal Procedures,938.466842105263,DRG
 G.I. HEMORRHAGE W MCC,9667.580645200002,Standard
" TRACH W MV >96 HRS OR PDX EXC FACE, MOUTH & NECK W/O MAJ O.R.",50651.545455,Standard
 MAJOR JOINT/LIMB REATTACHMENT PROCEDURE OF UPPER EXTREMITIES,15112.615385,Standard
 EXTRACRANIAL PROCEDURES W CC,14700.5,Standard
Level 2 Excision/ Biopsy/ Incision and Drainage,933.245884353744,DRG
 DISORDERS OF PANCREAS EXCEPT MALIGNANCY W/O CC/MCC,3947.0833333000005,Standard
" ""DISORDERS OF LIVER EXCEPT MALIG,CIRR,ALC HEPA W MCC""",9415.625,Standard
 DEGENERATIVE NERVOUS SYSTEM DISORDERS W/O MCC,6867.45,Standard
" ""ISCHEMIC STROKE, PRECEREBRAL OCCLUSION OR TRANSIENT ISCHEMIA W THRO",10935.5,Standard
 INTRACRANIAL HEMORRHAGE OR CEREBRAL INFARCTION W MCC,10310.833333,Standard
 INTRACRANIAL HEMORRHAGE OR CEREBRAL INFARCTION W CC OR TPA IN 24 HRS,6221.260869600001,Standard
Level 3 Excision/ Biopsy/ Incision and Drainage,1613.60772727272,DRG
Level 2 Upper GI Procedures,992.014680851063,DRG
 DISORDERS OF THE BILIARY TRACT W CC,6118.0,Standard
 SPINAL FUSION EXCEPT CERVICAL W/O MCC,24881.508197,Standard
 BILATERAL OR MULTIPLE MAJOR JOINT PROCS OF LOWER EXTREMITY W/O MCC,26841.071429,Standard
 MAJOR HIP AND KNEE JOINT REPLACEMENT OR REATTACHMENT OF LOWER EXTREM,19264.125,Standard
 MAJOR HIP AND KNEE JOINT REPLACEMENT OR REATTACHMENT OF LOWER EXTREM,13421.85274,Standard
 CERVICAL SPINAL FUSION W/O CC/MCC,19160.05,Standard
 HIP & FEMUR PROCEDURES EXCEPT MAJOR JOINT W MCC,18141.0,Standard
" DISORDERS OF LIVER EXCEPT MALIG,CIRR,ALC HEPA W CC",5588.6666667,Standard
 CRANIOTOMY & ENDOVASCULAR INTRACRANIAL PROCEDURES W MCC,26525.25,Standard
Level 2 ICD and Similar Procedures,25766.0937837837,DRG
Level 3 Pacemaker and Similar Procedures,7179.5208219178085,DRG
 EXTRACRANIAL PROCEDURES W/O CC/MCC,6528.857142899999,Standard
Level 4 Musculoskeletal Procedures,3870.35686635943,DRG
Level 5 Musculoskeletal Procedures,7389.263606557371,DRG
Level 4 Airway Endoscopy,1829.65,DRG
 HIP & FEMUR PROCEDURES EXCEPT MAJOR JOINT W/O CC/MCC,9325.4166667,Standard
Level 5 ENT Procedures,3030.8775,DRG
 SIMPLE PNEUMONIA & PLEURISY W CC,5519.6875,Standard
Level 4 Pacemaker and Similar Procedures,14111.457894736799,DRG
Level 1 Endovascular Procedures,1676.1795161290302,DRG
Level 2 Endovascular Procedures,3459.9591237113395,DRG
Level 3 Endovascular Procedures,7779.764201680699,DRG
Level 4 Endovascular Procedures,12476.2195714285,DRG
Level 2 Electrophysiologic Procedures,3730.0875,DRG
Level 3 Electrophysiologic Procedures,14655.029333333301,DRG
 HEART FAILURE & SHOCK W MCC,8275.1103896,Standard
Level 2 Pacemaker and Similar Procedures,5096.05703703703,DRG
 HIP & FEMUR PROCEDURES EXCEPT MAJOR JOINT W CC,11120.26506,Standard
" CIRCULATORY DISORDERS EXCEPT AMI, W CARD CATH W/O MCC",6991.5633803,Standard
 OTHER VASCULAR PROCEDURES W MCC,19201.235294,Standard
" ACUTE MYOCARDIAL INFARCTION, DISCHARGED ALIVE W CC",5885.6875,Standard
Level 6 Urology and Related Services,5380.25,DRG
Level 5 Urology and Related Services,2569.20270676692,DRG
Level 4 Urology and Related Services,1853.18333333333,DRG
Level 3 Urology and Related Services,1146.80208333333,DRG
Level 2 Laparoscopy and Related Services,5008.45952380952,DRG
Level 1 Laparoscopy and Related Services,2997.2567768595,DRG
Abdominal/Peritoneal/Biliary and Related Procedures,2000.63857142857,DRG
 SIMPLE PNEUMONIA & PLEURISY W MCC,8097.8115942,Standard
 URINARY STONES W/O ESW LITHOTRIPSY W/O MCC,4892.0,Standard
 KIDNEY & URINARY TRACT INFECTIONS W/O MCC,4742.3333333,Standard
 KIDNEY & URINARY TRACT INFECTIONS W MCC,6160.0833333,Standard
 RENAL FAILURE W CC,5412.734939800001,Standard
 RENAL FAILURE W MCC,9157.440678,Standard
 ENDOCRINE DISORDERS W CC,5929.8181818,Standard
 SEIZURES W MCC,9279.576923100001,Standard
 SEIZURES W/O MCC,4955.44,Standard
 PULMONARY EMBOLISM W MCC,8699.92,Standard
 PULMONARY EMBOLISM W/O MCC,5640.3529412,Standard
 RESPIRATORY INFECTIONS & INFLAMMATIONS W MCC,10250.0,Standard
Level 4 Gynecologic Procedures,1584.22285714285,DRG
Level 1 Nerve Procedures,1096.3401599999902,DRG
Level 4 Neurostimulator and Related Procedures,22989.2657142857,DRG
Level 1 Intraocular Procedures,1342.6478125,DRG
" ""CIRCULATORY DISORDERS EXCEPT AMI, W CARD CATH W MCC""",12644.219512,Standard
 EXTENSIVE O.R. PROCEDURE UNRELATED TO PRINCIPAL DIAGNOSIS W MCC,26661.157895,Standard
" LIMB REATTACHMENT, HIP & FEMUR PROC FOR MULTIPLE SIGNIFICANT TRAUMA",27575.714286000002,Standard
 SIGNS & SYMPTOMS W/O MCC,4693.5,Standard
 POISONING & TOXIC EFFECTS OF DRUGS W/O MCC,4521.0,Standard
 POISONING & TOXIC EFFECTS OF DRUGS W MCC,8485.25,Standard
 SEPTICEMIA OR SEVERE SEPSIS W/O MV >96 HOURS W/O MCC,6153.604838699999,Standard
 SEPTICEMIA OR SEVERE SEPSIS W/O MV >96 HOURS W MCC,10448.273657,Standard
Level 3 Musculoskeletal Procedures,1775.1473076923,DRG
 RESPIRATORY NEOPLASMS W MCC,10218.055556,Standard
 SEPTICEMIA OR SEVERE SEPSIS W MV >96 HOURS OR PERIPHERAL EXTRACORPOR,32147.461538,Standard
 INFECTIOUS & PARASITIC DISEASES W O.R. PROCEDURE W MCC,28715.773585000003,Standard
 RED BLOOD CELL DISORDERS W/O MCC,5272.0,Standard
 RED BLOOD CELL DISORDERS W MCC,9129.0714286,Standard
 OTHER KIDNEY & URINARY TRACT DIAGNOSES W CC,6715.8421053,Standard
 OTHER KIDNEY & URINARY TRACT DIAGNOSES W MCC,8540.7272727,Standard
 CHEST PAIN,4365.7272727,Standard
Comprehensive Observation Services,1607.31850119904,DRG
Level 7 Radiation Therapy,5173.44999999999,DRG
"Level 3 Extraocular, Repair, and Plastic Eye Procedures",1232.0884090908999,DRG
 INFECTIOUS & PARASITIC DISEASES W O.R. PROCEDURE W CC,14182.434783,Standard
 RESPIRATORY NEOPLASMS W CC,6836.142857100001,Standard
" ""MISC DISORDERS OF NUTRITION,METABOLISM,FLUIDS/ELECTROLYTES W/O MCC""",4515.4901961000005,Standard
 CHRONIC OBSTRUCTIVE PULMONARY DISEASE W MCC,6721.526315800001,Standard
 PERMANENT CARDIAC PACEMAKER IMPLANT W CC,14830.837838,Standard
 PERMANENT CARDIAC PACEMAKER IMPLANT W/O CC/MCC,11993.222222,Standard
 PERCUTANEOUS CARDIOVASCULAR PROCEDURES W DRUG,21894.695313,Standard
 PERC CARDIOVASC PROC W DRUG,12669.378378,Standard
 PERCUTANEOUS CARDIOVASCULAR PROCEDURES W NON,18350.916666999998,Standard
 PULMONARY EDEMA & RESPIRATORY FAILURE,7236.4084507,Standard
 CRANIAL & PERIPHERAL NERVE DISORDERS W/O MCC,5664.8461538,Standard
 OTHER VASCULAR PROCEDURES W CC,15662.619047999999,Standard
 NONSPECIFIC CEREBROVASCULAR DISORDERS W CC,5481.222222199999,Standard
 NONSPECIFIC CEREBROVASCULAR DISORDERS W MCC,9229.307692299999,Standard
 TRANSIENT ISCHEMIA W/O THROMBOLYTIC,4550.3157895,Standard
 INTRACRANIAL HEMORRHAGE OR CEREBRAL INFARCTION W/O CC/MCC,4475.966666699999,Standard
" MISC DISORDERS OF NUTRITION,METABOLISM,FLUIDS/ELECTROLYTES W MCC",7559.555555600001,Standard
 DIABETES W CC,4998.9375,Standard
 DIABETES W MCC,7308.0,Standard
 CELLULITIS W/O MCC,5078.0444443999995,Standard
 MEDICAL BACK PROBLEMS W/O MCC,5098.7857143,Standard
 FRACTURES OF HIP & PELVIS W/O MCC,4640.0833333,Standard
 OTHER VASCULAR PROCEDURES W/O CC/MCC,10962.666667,Standard
 AORTIC AND HEART ASSIST PROCEDURES EXCEPT PULSATION BALLOON W/O MCC,29952.076923,Standard
 OTHER MAJOR CARDIOVASCULAR PROCEDURES W MCC,41082.352941000005,Standard
 OTHER MAJOR CARDIOVASCULAR PROCEDURES W CC,26870.37037,Standard
" ""ACUTE MYOCARDIAL INFARCTION, DISCHARGED ALIVE W MCC""",9438.266666700001,Standard
 PERMANENT CARDIAC PACEMAKER IMPLANT W MCC,20909.0,Standard
 CORONARY BYPASS W/O CARDIAC CATH W/O MCC,22709.615385,Standard
 PERC CARDIOVASC PROC W NON,11359.090909,Standard
 CORONARY BYPASS W CARDIAC CATH W MCC,41990.214286,Standard
 CORONARY BYPASS W CARDIAC CATH W/O MCC,28041.96,Standard
 CHRONIC OBSTRUCTIVE PULMONARY DISEASE W/O CC/MCC,4431.222222199999,Standard
 CHRONIC OBSTRUCTIVE PULMONARY DISEASE W CC,5804.72,Standard
" TRAUMATIC STUPOR & COMA, COMA >1 HR W CC",7241.1818182,Standard
 OTHER DISORDERS OF NERVOUS SYSTEM W CC,5545.0,Standard
 OTHER HEART ASSIST SYSTEM IMPLANT,78108.9375,Standard
 RESPIRATORY SYSTEM DIAGNOSIS W VENTILATOR SUPPORT <=96 HOURS,13551.076922999999,Standard
 BRONCHITIS & ASTHMA W CC/MCC,5577.1666667,Standard
 RESPIRATORY SYSTEM DIAGNOSIS W VENTILATOR SUPPORT >96 HOURS,27027.655172000002,Standard
 SIMPLE PNEUMONIA & PLEURISY W/O CC/MCC,4293.8125,Standard
