Description,Charge,Category
 OTHER DISORDERS OF THE EYE W/O MCC,6848.5833333,Standard
Level 4 Musculoskeletal Procedures,4259.07676236048,DRG
Level 3 Musculoskeletal Procedures,1924.17342592592,DRG
Level 2 Musculoskeletal Procedures,1013.14277486911,DRG
Level 2 Breast/Lymphatic Surgery and Related Procedures,3540.53318181818,DRG
Level 1 Breast/Lymphatic Surgery and Related Procedures,2102.69999999999,DRG
 PULMONARY EMBOLISM W/O MCC,7693.793103399999,Standard
 RESPIRATORY INFECTIONS & INFLAMMATIONS W MCC,15715.070423,Standard
Level 5 Musculoskeletal Procedures,8186.572274678059,DRG
 RESPIRATORY INFECTIONS & INFLAMMATIONS W CC,10222.59375,Standard
Level 3 Excision/ Biopsy/ Incision and Drainage,1791.17756756757,DRG
Level 2 Excision/ Biopsy/ Incision and Drainage,1013.35934920635,DRG
 RENAL FAILURE W CC,7761.7948718,Standard
 KIDNEY & URINARY TRACT INFECTIONS W MCC,10223.180451,Standard
 KIDNEY & URINARY TRACT INFECTIONS W/O MCC,7049.0235294,Standard
 O.R. PROCEDURES FOR OBESITY W/O CC/MCC,12480.607143000001,Standard
 ENDOCRINE DISORDERS W MCC,12420.047618999999,Standard
 RESPIRATORY NEOPLASMS W MCC,17416.7,Standard
" ""MISC DISORDERS OF NUTRITION,METABOLISM,FLUIDS/ELECTROLYTES W/O MCC""",6453.813559300001,Standard
Level 4 Gynecologic Procedures,1723.20181818181,DRG
Level 6 Gynecologic Procedures,4637.851304347821,DRG
" ""DISORDERS OF LIVER EXCEPT MALIG,CIRR,ALC HEPA W MCC""",19995.951456,Standard
" DISORDERS OF LIVER EXCEPT MALIG,CIRR,ALC HEPA W CC",8647.529411799998,Standard
Level 2 Endovascular Procedures,3858.30191709845,DRG
Level 1 Endovascular Procedures,1811.64697916663,DRG
Level 5 ENT Procedures,3292.61775193797,DRG
Level 4 ENT Procedures,1695.09999999999,DRG
Level 5 Airway Endoscopy,3566.14567901234,DRG
Level 5 Gynecologic Procedures,3091.98,DRG
Level 4 Airway Endoscopy,1966.0728169014103,DRG
Level 1 Intraocular Procedures,1419.0280580357098,DRG
Level 2 Intraocular Procedures,2711.45948795182,DRG
"Level 3 Extraocular, Repair, and Plastic Eye Procedures",1378.3844155844101,DRG
 PERITONEAL ADHESIOLYSIS W/O CC/MCC,12258.545455,Standard
Level 2 Neurostimulator and Related Procedures,3792.6199999999894,DRG
Level 2 Nerve Procedures,3415.9955,DRG
Level 1 Nerve Procedures,1217.32768707483,DRG
Level 3 Airway Endoscopy,993.402755905514,DRG
 CERVICAL SPINAL FUSION W CC,21020.9,Standard
 CERVICAL SPINAL FUSION W/O CC/MCC,16168.5,Standard
" ""CIRCULATORY DISORDERS EXCEPT AMI, W CARD CATH W MCC""",21618.895425,Standard
 OTHER RESPIRATORY SYSTEM DIAGNOSES W/O MCC,8981.055555600002,Standard
 RESPIRATORY SYSTEM DIAGNOSIS W VENTILATOR SUPPORT >96 HOURS,59754.135135000004,Standard
 RESPIRATORY SYSTEM DIAGNOSIS W VENTILATOR SUPPORT <=96 HOURS,24263.181818,Standard
 OTHER HEART ASSIST SYSTEM IMPLANT,127804.3,Standard
 CARDIAC VALVE & OTH MAJ CARDIOTHORACIC PROC W CARD CATH W MCC,89382.62069,Standard
 CARDIAC VALVE & OTH MAJ CARDIOTHORACIC PROC W CARD CATH W CC,43728.0,Standard
" ""LOWER EXTREM & HUMER PROC EXCEPT HIP,FOOT,FEMUR W/O CC/MCC""",13277.384615,Standard
 OTHER RESPIRATORY SYSTEM DIAGNOSES W MCC,20423.75,Standard
"Level 4 Extraocular, Repair, and Plastic Eye Procedures",2182.26428571428,DRG
Comprehensive Observation Services,1784.3685487178898,DRG
 SOFT TISSUE PROCEDURES W CC,14341.736841999998,Standard
 OTHER MUSCULOSKELET SYS & CONN TISS O.R. PROC W MCC,26577.857143,Standard
 OTHER MUSCULOSKELET SYS & CONN TISS O.R. PROC W CC,14211.4,Standard
 OTHER MUSCULOSKELET SYS & CONN TISS O.R. PROC W/O CC/MCC,10674.222222,Standard
 HEART TRANSPLANT OR IMPLANT OF HEART ASSIST SYSTEM W MCC,226631.84314,Standard
" ""ECMO OR TRACH W MV >96 HRS OR PDX EXC FACE, MOUTH & NECK W MAJ O.R.",200023.93023,Standard
 MAJOR HIP AND KNEE JOINT REPLACEMENT OR REATTACHMENT OF LOWER EXTREM,16464.918782,Standard
 RESPIRATORY SIGNS & SYMPTOMS,7064.642857100001,Standard
 BRONCHITIS & ASTHMA W CC/MCC,8012.6461538,Standard
 INTERSTITIAL LUNG DISEASE W MCC,13931.153846000001,Standard
" MISC DISORDERS OF NUTRITION,METABOLISM,FLUIDS/ELECTROLYTES W MCC",10290.702899,Standard
 DIABETES W CC,7265.3617021,Standard
 DIABETES W MCC,12625.481481,Standard
 BIOPSIES OF MUSCULOSKELETAL SYSTEM & CONNECTIVE TISSUE W CC,18082.0,Standard
 HIP & FEMUR PROCEDURES EXCEPT MAJOR JOINT W MCC,29705.88,Standard
 HIP & FEMUR PROCEDURES EXCEPT MAJOR JOINT W CC,17624.277778,Standard
 MAJOR JOINT/LIMB REATTACHMENT PROCEDURE OF UPPER EXTREMITIES,18764.761363999998,Standard
" LOWER EXTREM & HUMER PROC EXCEPT HIP,FOOT,FEMUR W CC",18335.681818,Standard
 RESPIRATORY NEOPLASMS W CC,9979.6363636,Standard
 PLEURAL EFFUSION W MCC,12373.4375,Standard
 PULMONARY EDEMA & RESPIRATORY FAILURE,11568.366197,Standard
 CHRONIC OBSTRUCTIVE PULMONARY DISEASE W MCC,11032.638298,Standard
 CHRONIC OBSTRUCTIVE PULMONARY DISEASE W CC,7580.8,Standard
 CHRONIC OBSTRUCTIVE PULMONARY DISEASE W/O CC/MCC,6082.9166667,Standard
 SIMPLE PNEUMONIA & PLEURISY W MCC,12249.94375,Standard
 SIMPLE PNEUMONIA & PLEURISY W CC,7800.6776316,Standard
 SIMPLE PNEUMONIA & PLEURISY W/O CC/MCC,6611.1388889,Standard
 DISORDERS OF PANCREAS EXCEPT MALIGNANCY W CC,7831.6842105000005,Standard
" TRACH W MV >96 HRS OR PDX EXC FACE, MOUTH & NECK W/O MAJ O.R.",105312.14894,Standard
 DISORDERS OF PANCREAS EXCEPT MALIGNANCY W MCC,13414.130435,Standard
 MALIGNANCY OF HEPATOBILIARY SYSTEM OR PANCREAS W MCC,14308.344828,Standard
 DISORDERS OF THE BILIARY TRACT W MCC,13421.08,Standard
" ""TRAUMATIC STUPOR & COMA, COMA >1 HR W MCC""",22664.642857,Standard
 CRANIAL & PERIPHERAL NERVE DISORDERS W/O MCC,10203.641026000001,Standard
 CRANIAL & PERIPHERAL NERVE DISORDERS W MCC,14107.571429,Standard
 NONSPECIFIC CEREBROVASCULAR DISORDERS W CC,10874.388889,Standard
 NONSPECIFIC CEREBROVASCULAR DISORDERS W MCC,14608.869565,Standard
 TRANSIENT ISCHEMIA W/O THROMBOLYTIC,6727.3333333,Standard
 DISORDERS OF THE BILIARY TRACT W CC,10958.76,Standard
 INTRACRANIAL HEMORRHAGE OR CEREBRAL INFARCTION W/O CC/MCC,6159.8947368,Standard
 INTRACRANIAL HEMORRHAGE OR CEREBRAL INFARCTION W MCC,14592.034483000001,Standard
" ""ISCHEMIC STROKE, PRECEREBRAL OCCLUSION OR TRANSIENT ISCHEMIA W THRO",16013.392856999999,Standard
" ISCHEMIC STROKE, PRECEREBRAL OCCLUSION OR TRANSIENT ISCHEMIA W THROM",21272.090909,Standard
 DEGENERATIVE NERVOUS SYSTEM DISORDERS W/O MCC,10073.818181999999,Standard
 DEGENERATIVE NERVOUS SYSTEM DISORDERS W MCC,20333.555556,Standard
Level 5 Urology and Related Services,2785.55250909089,DRG
Level 4 Urology and Related Services,2020.92416666666,DRG
 INTRACRANIAL HEMORRHAGE OR CEREBRAL INFARCTION W CC OR TPA IN 24 HRS,9324.1914894,Standard
Level 3 Urology and Related Services,1265.82197530864,DRG
 COMBINED ANTERIOR/POSTERIOR SPINAL FUSION W MCC,86264.285714,Standard
 COMBINED ANTERIOR/POSTERIOR SPINAL FUSION W/O CC/MCC,43511.131148,Standard
 MAJOR HIP AND KNEE JOINT REPLACEMENT OR REATTACHMENT OF LOWER EXTREM,23366.745098,Standard
 OTHER DIGESTIVE SYSTEM DIAGNOSES W CC,8204.1521739,Standard
 OTHER DIGESTIVE SYSTEM DIAGNOSES W MCC,14982.654545,Standard
" ""ESOPHAGITIS, GASTROENT & MISC DIGEST DISORDERS W/O MCC""",6911.1298701000005,Standard
" ESOPHAGITIS, GASTROENT & MISC DIGEST DISORDERS W MCC",11712.284211,Standard
 G.I. OBSTRUCTION W/O CC/MCC,5454.1111111,Standard
 G.I. OBSTRUCTION W CC,7531.6538462,Standard
 COMBINED ANTERIOR/POSTERIOR SPINAL FUSION W CC,63563.527777999996,Standard
 G.I. OBSTRUCTION W MCC,13311.484848,Standard
 REVISION OF HIP OR KNEE REPLACEMENT W/O CC/MCC,19112.320755,Standard
 REVISION OF HIP OR KNEE REPLACEMENT W CC,26426.979592,Standard
 REVISION OF HIP OR KNEE REPLACEMENT W MCC,35264.318182,Standard
" WND DEBRID & SKN GRFT EXC HAND, FOR MUSCULO",21217.566667,Standard
" ""WND DEBRID & SKN GRFT EXC HAND, FOR MUSCULO",62966.571428999996,Standard
 SPINAL FUSION EXCEPT CERVICAL W/O MCC,30617.979167,Standard
 SPINAL FUSION EXCEPT CERVICAL W MCC,43086.916667000005,Standard
Level 6 Urology and Related Services,6006.07,DRG
Level 2 Laparoscopy and Related Services,5794.63694444445,DRG
Level 1 Laparoscopy and Related Services,3406.04333333334,DRG
Abdominal/Peritoneal/Biliary and Related Procedures,2199.5760509554,DRG
Level 1 ICD and Similar Procedures,19324.7106666666,DRG
Level 4 Pacemaker and Similar Procedures,15631.1,DRG
Level 3 Pacemaker and Similar Procedures,8028.23673913043,DRG
Level 2 Pacemaker and Similar Procedures,5680.36751552796,DRG
Level 3 Electrophysiologic Procedures,16325.3549999999,DRG
Level 4 Endovascular Procedures,14123.02,DRG
Level 3 Endovascular Procedures,8636.82872180451,DRG
Level 2 ICD and Similar Procedures,28519.929999999902,DRG
 O.R. PROCEDURES FOR OBESITY W CC,13829.181818000001,Standard
 ADRENAL & PITUITARY PROCEDURES W CC/MCC,18489.272727,Standard
 CELLULITIS W/O MCC,7264.4380165,Standard
" PANCREAS, LIVER & SHUNT PROCEDURES W CC",23977.5,Standard
 LAPAROSCOPIC CHOLECYSTECTOMY W/O C.D.E. W MCC,23362.846154,Standard
 LAPAROSCOPIC CHOLECYSTECTOMY W/O C.D.E. W CC,12691.777778,Standard
 CIRRHOSIS & ALCOHOLIC HEPATITIS W MCC,17584.617021000002,Standard
 CIRRHOSIS & ALCOHOLIC HEPATITIS W CC,8305.257142899998,Standard
" ""AMPUTAT OF LOWER LIMB FOR ENDOCRINE,NUTRIT,& METABOL DIS W CC""",16689.538462,Standard
Level 2 Upper GI Procedures,1092.99927868852,DRG
Level 3 Upper GI Procedures,2087.4532075471698,DRG
Level 3 Lower GI Procedures,1751.55999999999,DRG
Level 3 Neurostimulator and Related Procedures,15755.653846153798,DRG
Level 4 Neurostimulator and Related Procedures,24748.782857142796,DRG
Implantation of Drug Infusion Device,13075.289999999899,DRG
 SYNCOPE & COLLAPSE,7314.740740700001,Standard
 CHEST PAIN,6096.8461538,Standard
 OTHER CIRCULATORY SYSTEM DIAGNOSES W MCC,18058.955556,Standard
 OTHER CIRCULATORY SYSTEM DIAGNOSES W CC,9572.0645161,Standard
" STOMACH, ESOPHAGEAL & DUODENAL PROC W MCC",50674.68,Standard
" ""STOMACH, ESOPHAGEAL & DUODENAL PROC W CC""",18041.542857,Standard
" STOMACH, ESOPHAGEAL & DUODENAL PROC W/O CC/MCC",11062.272727,Standard
 MAJOR SMALL & LARGE BOWEL PROCEDURES W MCC,45363.060606,Standard
 MAJOR SMALL & LARGE BOWEL PROCEDURES W CC,18322.201835,Standard
 MAJOR SMALL & LARGE BOWEL PROCEDURES W/O CC/MCC,13518.5,Standard
 PERITONEAL ADHESIOLYSIS W MCC,38192.133333,Standard
 PERITONEAL ADHESIOLYSIS W CC,19410.85,Standard
 HERNIA PROCEDURES EXCEPT INGUINAL & FEMORAL W CC,15876.36,Standard
Complex GI Procedures,3177.2639999999897,DRG
 MALIGNANCY OF HEPATOBILIARY SYSTEM OR PANCREAS W CC,9414.6666667,Standard
 LIVER TRANSPLANT W MCC OR INTESTINAL TRANSPLANT,124476.81818,Standard
Level 7 Radiation Therapy,5976.61999999999,DRG
 AUTOLOGOUS BONE MARROW TRANSPLANT W CC/MCC,46287.642857,Standard
 MAJOR HEMATOL/IMMUN DIAG EXC SICKLE CELL CRISIS & COAGUL W MCC,24712.705882,Standard
 MAJOR HEMATOL/IMMUN DIAG EXC SICKLE CELL CRISIS & COAGUL W CC,13466.136363999998,Standard
 RED BLOOD CELL DISORDERS W MCC,12401.48,Standard
 RED BLOOD CELL DISORDERS W/O MCC,7767.6721311,Standard
 COAGULATION DISORDERS,56900.210526,Standard
 ACUTE LEUKEMIA W/O MAJOR O.R. PROCEDURE W MCC,63136.176471000006,Standard
 OTHER KIDNEY & URINARY TRACT PROCEDURES W CC,19570.333333000002,Standard
 OTHER KIDNEY & URINARY TRACT PROCEDURES W MCC,38735.702702999995,Standard
 UTERINE & ADNEXA PROC FOR NON,14158.272727000001,Standard
 TRANSURETHRAL PROCEDURES W CC,11035.0,Standard
 KIDNEY & URETER PROCEDURES FOR NEOPLASM W/O CC/MCC,12200.230769,Standard
" OTHER SKIN, SUBCUT TISS & BREAST PROC W CC",12362.105263,Standard
 KIDNEY & URETER PROCEDURES FOR NEOPLASM W CC,15630.0,Standard
 MAJOR BLADDER PROCEDURES W CC,21222.846154,Standard
 CARDIAC ARRHYTHMIA & CONDUCTION DISORDERS W/O CC/MCC,4973.0714286,Standard
 CARDIAC ARRHYTHMIA & CONDUCTION DISORDERS W CC,7487.0,Standard
 CARDIAC ARRHYTHMIA & CONDUCTION DISORDERS W MCC,11036.396226,Standard
 CARDIAC CONGENITAL & VALVULAR DISORDERS W/O MCC,6975.6470588,Standard
 KIDNEY & URETER PROCEDURES FOR NON,18499.277778,Standard
 OTHER RESP SYSTEM O.R. PROCEDURES W CC,15923.125,Standard
 MAJOR MALE PELVIC PROCEDURES W/O CC/MCC,10910.466667,Standard
 PULMONARY EMBOLISM W MCC,13513.083333,Standard
 MAJOR GASTROINTESTINAL DISORDERS & PERITONEAL INFECTIONS W CC,8610.485714299999,Standard
 MAJOR GASTROINTESTINAL DISORDERS & PERITONEAL INFECTIONS W MCC,13522.433962000001,Standard
 OTHER DIGESTIVE SYSTEM O.R. PROCEDURES W CC,21881.846154,Standard
 ENDOCRINE DISORDERS W CC,8248.583333300001,Standard
 OTHER DIGESTIVE SYSTEM O.R. PROCEDURES W MCC,37029.388889,Standard
 HERNIA PROCEDURES EXCEPT INGUINAL & FEMORAL W/O CC/MCC,10912.166667,Standard
 CARDIAC VALVE & OTH MAJ CARDIOTHORACIC PROC W/O CARD CATH W MCC,66448.404494,Standard
 CARDIAC VALVE & OTH MAJ CARDIOTHORACIC PROC W/O CARD CATH W CC,39809.574468,Standard
 CARDIAC DEFIBRILLATOR IMPLANT W/O CARDIAC CATH W MCC,55744.260870000006,Standard
 CARDIAC DEFIBRILLATOR IMPLANT W/O CARDIAC CATH W/O MCC,44986.764706,Standard
 OTHER CARDIOTHORACIC PROCEDURES W MCC,57426.88,Standard
 OTHER CARDIOTHORACIC PROCEDURES W/O MCC,31599.0,Standard
 CORONARY BYPASS W CARDIAC CATH W MCC,66580.809524,Standard
 SIGNS & SYMPTOMS OF MUSCULOSKELETAL SYSTEM & CONN TISSUE W/O MCC,5982.5454545,Standard
" FX, SPRN, STRN & DISL EXCEPT FEMUR, HIP, PELVIS & THIGH W/O MCC",7065.0,Standard
 RENAL FAILURE W MCC,12712.681818000001,Standard
 CORONARY BYPASS W/O CARDIAC CATH W/O MCC,29824.355556,Standard
 CORONARY BYPASS W/O CARDIAC CATH W MCC,46215.283019,Standard
 CORONARY BYPASS W CARDIAC CATH W/O MCC,40672.866667,Standard
 CARDIAC CONGENITAL & VALVULAR DISORDERS W MCC,13816.8,Standard
 DIGESTIVE MALIGNANCY W MCC,16360.382353,Standard
 HYPERTENSION W/O MCC,6304.0882353,Standard
 ATHEROSCLEROSIS W/O MCC,5405.4285714,Standard
 INFECTIOUS & PARASITIC DISEASES W O.R. PROCEDURE W CC,18341.571429,Standard
 POSTOPERATIVE OR POST,29938.117647000003,Standard
 POSTOPERATIVE OR POST,15991.708333,Standard
 POSTOPERATIVE & POST,18719.304347999998,Standard
 POSTOPERATIVE & POST,8470.666666699999,Standard
 FEVER AND INFLAMMATORY CONDITIONS,7139.9285714,Standard
 SEPTICEMIA OR SEVERE SEPSIS W MV >96 HOURS OR PERIPHERAL EXTRACORPOR,66453.84848500001,Standard
 SEPTICEMIA OR SEVERE SEPSIS W/O MV >96 HOURS W MCC,16325.304659000001,Standard
 INFECTIOUS & PARASITIC DISEASES W O.R. PROCEDURE W MCC,60504.564103,Standard
 SEPTICEMIA OR SEVERE SEPSIS W/O MV >96 HOURS W/O MCC,8588.9124088,Standard
" TRAUMATIC STUPOR & COMA, COMA >1 HR W CC",9857.5454545,Standard
" TRAUMATIC STUPOR & COMA, COMA <1 HR W MCC",19608.1,Standard
" ""TRAUMATIC STUPOR & COMA, COMA <1 HR W CC""",9482.2068966,Standard
 OTHER DISORDERS OF NERVOUS SYSTEM W MCC,15813.912281,Standard
 OTHER DISORDERS OF NERVOUS SYSTEM W CC,8176.0714286,Standard
 SEIZURES W MCC,20056.090909,Standard
 SEIZURES W/O MCC,7200.1052632,Standard
 HEADACHES W/O MCC,6204.5,Standard
 PSYCHOSES,13044.769231,Standard
 CHEMOTHERAPY W/O ACUTE LEUKEMIA AS SECONDARY DIAGNOSIS W CC,10585.4,Standard
 OTITIS MEDIA & URI W MCC,8677.8823529,Standard
 OTITIS MEDIA & URI W/O MCC,5992.5,Standard
 CHEMO W ACUTE LEUKEMIA AS SDX OR W HIGH DOSE CHEMO AGENT W MCC,41278.44,Standard
 CHEMO W ACUTE LEUKEMIA AS SDX W CC OR HIGH DOSE CHEMO AGENT,18669.363636000002,Standard
 ATHEROSCLEROSIS W MCC,9975.25,Standard
 PERIPHERAL VASCULAR DISORDERS W/O CC/MCC,7520.533333300001,Standard
 PERIPHERAL VASCULAR DISORDERS W CC,8868.0175439,Standard
 PERIPHERAL VASCULAR DISORDERS W MCC,12906.235294,Standard
 HEART FAILURE & SHOCK W/O CC/MCC,5965.0555556,Standard
 HEART FAILURE & SHOCK W CC,8049.6767677,Standard
 HEART FAILURE & SHOCK W MCC,13267.101852,Standard
" CIRCULATORY DISORDERS EXCEPT AMI, W CARD CATH W/O MCC",11302.075949,Standard
 KIDNEY TRANSPLANT,32954.174757,Standard
 CELLULITIS W MCC,13136.980769,Standard
 LYMPHOMA & NON,26636.958333000002,Standard
 LYMPHOMA & NON,13590.470588,Standard
 CHEMOTHERAPY W/O ACUTE LEUKEMIA AS SECONDARY DIAGNOSIS W MCC,18286.894737,Standard
 OTHER RESP SYSTEM O.R. PROCEDURES W MCC,35330.910256,Standard
 MAJOR CHEST PROCEDURES W/O CC/MCC,15593.88,Standard
 MAJOR CHEST PROCEDURES W CC,19037.545455,Standard
 MAJOR CHEST PROCEDURES W MCC,43060.956522,Standard
 HYPERTENSION W MCC,8904.1132075,Standard
 LUNG TRANSPLANT,119529.85714000001,Standard
 DIGESTIVE MALIGNANCY W CC,12614.625,Standard
 G.I. HEMORRHAGE W CC,8003.5666667,Standard
 EXTRACRANIAL PROCEDURES W/O CC/MCC,8346.6363636,Standard
" ""PANCREAS, LIVER & SHUNT PROCEDURES W MCC""",62820.0625,Standard
 BACK & NECK PROC EXC SPINAL FUSION W/O CC/MCC,9115.275862100001,Standard
 FRACTURES OF HIP & PELVIS W/O MCC,6734.857142899999,Standard
 PATHOLOGICAL FRACTURES & MUSCULOSKELET & CONN TISS MALIG W MCC,15635.294118000002,Standard
 DYSEQUILIBRIUM,6162.6923077,Standard
 AORTIC AND HEART ASSIST PROCEDURES EXCEPT PULSATION BALLOON W MCC,65381.416667,Standard
 ENDOVASCULAR CARDIAC VALVE REPLACEMENT W/O MCC,42479.010526,Standard
 AORTIC AND HEART ASSIST PROCEDURES EXCEPT PULSATION BALLOON W/O MCC,31795.793102999996,Standard
 ENDOVASCULAR CARDIAC VALVE REPLACEMENT W MCC,64133.851351,Standard
 CARDIAC PACEMAKER REVISION EXCEPT DEVICE REPLACEMENT W MCC,34881.615385000005,Standard
 PATHOLOGICAL FRACTURES & MUSCULOSKELET & CONN TISS MALIG W CC,8601.4,Standard
 MEDICAL BACK PROBLEMS W MCC,16676.096774,Standard
 MEDICAL BACK PROBLEMS W/O MCC,7552.4868421,Standard
 BONE DISEASES & ARTHROPATHIES W/O MCC,6411.5384615,Standard
 NON,12457.684211,Standard
 NON,39619.454545,Standard
 EXTENSIVE O.R. PROCEDURE UNRELATED TO PRINCIPAL DIAGNOSIS W CC,21281.487805,Standard
 OTHER CIRCULATORY SYSTEM O.R. PROCEDURES,29251.782608999998,Standard
 OTHER VASCULAR PROCEDURES W/O CC/MCC,15725.166667,Standard
 OTHER MAJOR CARDIOVASCULAR PROCEDURES W MCC,55617.345454999995,Standard
 PERCUTANEOUS INTRACARDIAC PROCEDURES W MCC,29001.969697000004,Standard
  CRANIOTOMY W MAJOR DEVICE IMPLANT OR ACUTE COMPLEX CNS PDX W MCC OR,41626.432432,Standard
 CRANIOTOMY & ENDOVASCULAR INTRACRANIAL PROCEDURES W MCC,42069.918367,Standard
 CRANIOTOMY & ENDOVASCULAR INTRACRANIAL PROCEDURES W CC,23125.457143,Standard
 CRANIOTOMY & ENDOVASCULAR INTRACRANIAL PROCEDURES W/O CC/MCC,20429.181818,Standard
 SPINAL PROCEDURES W MCC,44085.666667000005,Standard
 SPINAL PROCEDURES W CC OR SPINAL NEUROSTIMULATORS,27762.272727,Standard
 VENTRICULAR SHUNT PROCEDURES W MCC,41541.181818,Standard
 VENTRICULAR SHUNT PROCEDURES W CC,14599.928571,Standard
 OTHER MAJOR CARDIOVASCULAR PROCEDURES W CC,31653.481481,Standard
 VENTRICULAR SHUNT PROCEDURES W/O CC/MCC,12370.304348,Standard
 NERVOUS SYSTEM NEOPLASMS W MCC,18427.05,Standard
 PERIPH/CRANIAL NERVE & OTHER NERV SYST PROC W CC OR PERIPH NEUROSTIM,17135.894737,Standard
 BACK & NECK PROC EXC SPINAL FUSION W CC,13781.21875,Standard
 PERIPH/CRANIAL NERVE & OTHER NERV SYST PROC W MCC,29278.210526,Standard
" ""ACUTE MYOCARDIAL INFARCTION, DISCHARGED ALIVE W/O CC/MCC""",6151.1538462,Standard
" ACUTE MYOCARDIAL INFARCTION, DISCHARGED ALIVE W CC",8874.451612899999,Standard
" ""ACUTE MYOCARDIAL INFARCTION, DISCHARGED ALIVE W MCC""",15311.042553,Standard
 PERCUTANEOUS INTRACARDIAC PROCEDURES W/O MCC,23037.426667,Standard
 CAROTID ARTERY STENT PROCEDURE W/O CC/MCC,12637.842105,Standard
 G.I. HEMORRHAGE W MCC,17580.755245,Standard
Level 7 Urology and Related Services,13579.0273333333,DRG
 EXTRACRANIAL PROCEDURES W MCC,27646.470588,Standard
 ALCOHOL/DRUG ABUSE OR DEPENDENCE W/O REHABILITATION THERAPY W/O MCC,6496.4375,Standard
 OTHER O.R. PROCEDURES FOR INJURIES W CC,15871.05,Standard
 POISONING & TOXIC EFFECTS OF DRUGS W MCC,11972.166667,Standard
 COMPLICATIONS OF TREATMENT W MCC,14151.043478,Standard
 COMPLICATIONS OF TREATMENT W CC,7979.631578899999,Standard
 URINARY STONES W/O ESW LITHOTRIPSY W/O MCC,7308.8,Standard
 SIGNS & SYMPTOMS W/O MCC,6814.142857100001,Standard
 HIV W MAJOR RELATED CONDITION W MCC,27201.583333,Standard
 EXTRACRANIAL PROCEDURES W CC,14068.892856999999,Standard
 EXTENSIVE O.R. PROCEDURE UNRELATED TO PRINCIPAL DIAGNOSIS W MCC,37211.352941000005,Standard
 PERMANENT CARDIAC PACEMAKER IMPLANT W MCC,35243.595238,Standard
 PERMANENT CARDIAC PACEMAKER IMPLANT W CC,18706.25,Standard
 PERMANENT CARDIAC PACEMAKER IMPLANT W/O CC/MCC,15165.294118000002,Standard
 KIDNEY & URINARY TRACT SIGNS & SYMPTOMS W/O MCC,5935.5454545,Standard
 OTHER KIDNEY & URINARY TRACT DIAGNOSES W MCC,14271.639456,Standard
 OTHER KIDNEY & URINARY TRACT DIAGNOSES W CC,10503.409091,Standard
 AMPUTATION FOR CIRC SYS DISORDERS EXC UPPER LIMB & TOE W CC,23045.230768999998,Standard
 PERCUTANEOUS CARDIOVASCULAR PROCEDURES W DRUG,26239.882353,Standard
 PERC CARDIOVASC PROC W DRUG,16502.164179,Standard
 OTHER VASCULAR PROCEDURES W MCC,27343.134199,Standard
 OTHER VASCULAR PROCEDURES W CC,22723.708333000002,Standard
 AMPUTATION FOR CIRC SYS DISORDERS EXC UPPER LIMB & TOE W MCC,36564.346154,Standard
 INFLAMMATORY BOWEL DISEASE W CC,8295.5625,Standard
 G.I. HEMORRHAGE W/O CC/MCC,5442.9375,Standard
 OTHER O.R. PROCEDURES FOR INJURIES W MCC,35563.352941000005,Standard
