Description,Charge,Category
 MAJOR HIP AND KNEE JOINT REPLACEMENT OR REATTACHMENT OF LOWER EXTREM,13079.39726,Standard
 HIP & FEMUR PROCEDURES EXCEPT MAJOR JOINT W CC,11909.588235,Standard
 MAJOR JOINT/LIMB REATTACHMENT PROCEDURE OF UPPER EXTREMITIES,14372.142856999999,Standard
 CELLULITIS W/O MCC,5172.8,Standard
" ""MISC DISORDERS OF NUTRITION,METABOLISM,FLUIDS/ELECTROLYTES W/O MCC""",4732.636363600001,Standard
 RENAL FAILURE W MCC,8927.4375,Standard
 SEPTICEMIA OR SEVERE SEPSIS W/O MV >96 HOURS W MCC,11508.796295999999,Standard
 SEPTICEMIA OR SEVERE SEPSIS W/O MV >96 HOURS W/O MCC,6374.6333333,Standard
 KIDNEY & URINARY TRACT INFECTIONS W/O MCC,4963.8064516,Standard
Level 3 Musculoskeletal Procedures,1966.00226415094,DRG
Level 2 Musculoskeletal Procedures,1022.5999999999901,DRG
 REVISION OF HIP OR KNEE REPLACEMENT W/O CC/MCC,17551.533333000003,Standard
Level 2 Excision/ Biopsy/ Incision and Drainage,1019.51434782608,DRG
 KIDNEY & URINARY TRACT INFECTIONS W MCC,6645.1875,Standard
Level 2 Breast/Lymphatic Surgery and Related Procedures,3645.07,DRG
 CARDIAC ARRHYTHMIA & CONDUCTION DISORDERS W CC,4844.4545455,Standard
" ""ESOPHAGITIS, GASTROENT & MISC DIGEST DISORDERS W/O MCC""",4813.5185185,Standard
 RESPIRATORY INFECTIONS & INFLAMMATIONS W MCC,13777.181818000001,Standard
 PULMONARY EDEMA & RESPIRATORY FAILURE,8328.9428571,Standard
 CHRONIC OBSTRUCTIVE PULMONARY DISEASE W MCC,6700.5849057,Standard
 CHRONIC OBSTRUCTIVE PULMONARY DISEASE W CC,5700.5833333,Standard
 SIMPLE PNEUMONIA & PLEURISY W MCC,8165.9066667,Standard
 SIMPLE PNEUMONIA & PLEURISY W CC,5735.4473683999995,Standard
 PERC CARDIOVASC PROC W DRUG,12591.8125,Standard
Level 4 Musculoskeletal Procedures,4089.6651851851793,DRG
" ""ACUTE MYOCARDIAL INFARCTION, DISCHARGED ALIVE W MCC""",9161.529411799998,Standard
 HEART FAILURE & SHOCK W MCC,9200.719512200001,Standard
 HEART FAILURE & SHOCK W CC,5393.857142899999,Standard
 CARDIAC ARRHYTHMIA & CONDUCTION DISORDERS W MCC,7041.1538462,Standard
 CARDIAC ARRHYTHMIA & CONDUCTION DISORDERS W/O CC/MCC,4276.8461538,Standard
 G.I. HEMORRHAGE W MCC,10717.5,Standard
 G.I. HEMORRHAGE W CC,5928.8,Standard
 COMBINED ANTERIOR/POSTERIOR SPINAL FUSION W/O CC/MCC,29591.428570999997,Standard
Level 5 Musculoskeletal Procedures,8270.94978723404,DRG
Level 3 Airway Endoscopy,1002.7299999999901,DRG
Level 1 Endovascular Procedures,1844.54,DRG
Level 2 Neurostimulator and Related Procedures,4587.21,DRG
Level 4 Neurostimulator and Related Procedures,25097.42,DRG
Level 1 Intraocular Procedures,1439.9593567251502,DRG
Level 2 Intraocular Procedures,2734.68,DRG
Comprehensive Observation Services,1772.8943973941398,DRG
Level 4 Gynecologic Procedures,1655.43307692307,DRG
Level 1 Nerve Procedures,1200.54186046511,DRG
Level 3 Urology and Related Services,1284.51,DRG
Level 2 Laparoscopy and Related Services,5878.86999999999,DRG
Level 1 Laparoscopy and Related Services,3316.4502272727195,DRG
Level 2 Upper GI Procedures,1022.82297297297,DRG
Level 3 Endovascular Procedures,8207.1545,DRG
Level 5 Urology and Related Services,2805.23088235294,DRG
