Description,Charge,Category
 PULMONARY EDEMA & RESPIRATORY FAILURE,8200.15625,Standard
 PERC CARDIOVASC PROC W DRUG,14939.222222,Standard
 CORONARY BYPASS W CARDIAC CATH W MCC,43786.454545,Standard
 BRONCHITIS & ASTHMA W CC/MCC,6433.733333300001,Standard
 SIMPLE PNEUMONIA & PLEURISY W/O CC/MCC,5126.363636399999,Standard
 SIMPLE PNEUMONIA & PLEURISY W CC,6461.225,Standard
 SIMPLE PNEUMONIA & PLEURISY W MCC,8871.7714286,Standard
 CHRONIC OBSTRUCTIVE PULMONARY DISEASE W CC,6360.4736842,Standard
 CHRONIC OBSTRUCTIVE PULMONARY DISEASE W MCC,7928.961538500001,Standard
Level 1 Laparoscopy and Related Services,3166.0786956521697,DRG
Level 2 Excision/ Biopsy/ Incision and Drainage,984.1631818181821,DRG
Level 1 Endovascular Procedures,1878.11357142857,DRG
Level 2 Upper GI Procedures,1102.68999999999,DRG
" ""ACUTE MYOCARDIAL INFARCTION, DISCHARGED ALIVE W MCC""",11530.411765,Standard
Level 1 Nerve Procedures,1185.5304347826,DRG
Comprehensive Observation Services,1768.5784496124,DRG
 TRANSIENT ISCHEMIA W/O THROMBOLYTIC,5371.0,Standard
 INTRACRANIAL HEMORRHAGE OR CEREBRAL INFARCTION W CC OR TPA IN 24 HRS,6846.96,Standard
 INTRACRANIAL HEMORRHAGE OR CEREBRAL INFARCTION W MCC,11122.4,Standard
 SEPTICEMIA OR SEVERE SEPSIS W/O MV >96 HOURS W/O MCC,7107.121212100001,Standard
" CIRCULATORY DISORDERS EXCEPT AMI, W CARD CATH W/O MCC",8792.25,Standard
 PERCUTANEOUS CARDIOVASCULAR PROCEDURES W DRUG,23142.636363999998,Standard
 HEART FAILURE & SHOCK W CC,6443.9285714,Standard
" MISC DISORDERS OF NUTRITION,METABOLISM,FLUIDS/ELECTROLYTES W MCC",8136.266666699999,Standard
" ""MISC DISORDERS OF NUTRITION,METABOLISM,FLUIDS/ELECTROLYTES W/O MCC""",5344.6842105,Standard
 RENAL FAILURE W MCC,9264.0833333,Standard
 HEART FAILURE & SHOCK W MCC,9899.6896552,Standard
 RENAL FAILURE W CC,6354.6666667,Standard
 KIDNEY & URINARY TRACT INFECTIONS W MCC,7174.555555600001,Standard
 KIDNEY & URINARY TRACT INFECTIONS W/O MCC,5991.4,Standard
 RED BLOOD CELL DISORDERS W/O MCC,6274.6666667,Standard
 INFECTIOUS & PARASITIC DISEASES W O.R. PROCEDURE W MCC,35009.133333,Standard
 DIABETES W CC,5973.45,Standard
 CELLULITIS W/O MCC,6758.125,Standard
 MAJOR HIP AND KNEE JOINT REPLACEMENT OR REATTACHMENT OF LOWER EXTREM,17380.055556,Standard
" ""ESOPHAGITIS, GASTROENT & MISC DIGEST DISORDERS W/O MCC""",5397.1388889,Standard
 G.I. HEMORRHAGE W CC,6735.5652174,Standard
 OTHER CIRCULATORY SYSTEM DIAGNOSES W MCC,12154.666667,Standard
 CHEST PAIN,5318.5882353,Standard
 SYNCOPE & COLLAPSE,5646.7272727,Standard
 CARDIAC ARRHYTHMIA & CONDUCTION DISORDERS W CC,5426.4,Standard
 SEPTICEMIA OR SEVERE SEPSIS W/O MV >96 HOURS W MCC,11728.413333,Standard
 CARDIAC ARRHYTHMIA & CONDUCTION DISORDERS W MCC,9952.2777778,Standard
 HYPERTENSION W/O MCC,5364.266666699999,Standard
 MEDICAL BACK PROBLEMS W/O MCC,6008.75,Standard
