Description,Charge,Category
 MALIGNANCY OF HEPATOBILIARY SYSTEM OR PANCREAS W CC,7651.538461499999,Standard
 REVISION OF HIP OR KNEE REPLACEMENT W/O CC/MCC,22928.882353,Standard
 COMBINED ANTERIOR/POSTERIOR SPINAL FUSION W CC,57863.621622000006,Standard
 DISORDERS OF THE BILIARY TRACT W CC,6714.4,Standard
 MAJOR HIP AND KNEE JOINT REPLACEMENT OR REATTACHMENT OF LOWER EXTREM,23679.517241,Standard
 MAJOR HIP AND KNEE JOINT REPLACEMENT OR REATTACHMENT OF LOWER EXTREM,16773.960784,Standard
 CERVICAL SPINAL FUSION W MCC,38014.416667000005,Standard
 CERVICAL SPINAL FUSION W CC,23119.022727,Standard
 MALIGNANCY OF HEPATOBILIARY SYSTEM OR PANCREAS W MCC,10656.1875,Standard
 CERVICAL SPINAL FUSION W/O CC/MCC,17864.5,Standard
 DISORDERS OF THE BILIARY TRACT W MCC,12112.25,Standard
 BIOPSIES OF MUSCULOSKELETAL SYSTEM & CONNECTIVE TISSUE W CC,14311.133333000002,Standard
 REVISION OF HIP OR KNEE REPLACEMENT W MCC,35153.571429,Standard
" WND DEBRID & SKN GRFT EXC HAND, FOR MUSCULO",23706.190476,Standard
" ""WND DEBRID & SKN GRFT EXC HAND, FOR MUSCULO",72958.785714,Standard
 SPINAL FUSION EXCEPT CERVICAL W/O MCC,35466.25641,Standard
 SPINAL FUSION EXCEPT CERVICAL W MCC,45463.181818,Standard
 COMBINED ANTERIOR/POSTERIOR SPINAL FUSION W/O CC/MCC,42426.0,Standard
 REVISION OF HIP OR KNEE REPLACEMENT W CC,28843.78,Standard
 CIRRHOSIS & ALCOHOLIC HEPATITIS W MCC,12220.538462,Standard
 G.I. HEMORRHAGE W MCC,10212.5,Standard
 OTHER DIGESTIVE SYSTEM DIAGNOSES W CC,7249.0909091,Standard
 HYPERTENSION W/O MCC,4576.0625,Standard
 CARDIAC ARRHYTHMIA & CONDUCTION DISORDERS W MCC,7581.363636399999,Standard
 CARDIAC ARRHYTHMIA & CONDUCTION DISORDERS W CC,5418.3170732,Standard
 CARDIAC ARRHYTHMIA & CONDUCTION DISORDERS W/O CC/MCC,3901.8484848000003,Standard
 SYNCOPE & COLLAPSE,5294.7916667,Standard
 CHEST PAIN,4636.9487179,Standard
 OTHER CIRCULATORY SYSTEM DIAGNOSES W MCC,11467.342105,Standard
 OTHER CIRCULATORY SYSTEM DIAGNOSES W CC,6253.1666667,Standard
" STOMACH, ESOPHAGEAL & DUODENAL PROC W/O CC/MCC",9337.8181818,Standard
 MAJOR SMALL & LARGE BOWEL PROCEDURES W MCC,29841.454545,Standard
 MAJOR SMALL & LARGE BOWEL PROCEDURES W CC,16549.517241,Standard
 MAJOR SMALL & LARGE BOWEL PROCEDURES W/O CC/MCC,10257.083333,Standard
 MAJOR GASTROINTESTINAL DISORDERS & PERITONEAL INFECTIONS W CC,6694.4,Standard
 DIGESTIVE MALIGNANCY W CC,8862.076923100001,Standard
 HIP & FEMUR PROCEDURES EXCEPT MAJOR JOINT W MCC,20381.638888999998,Standard
 G.I. HEMORRHAGE W CC,6498.5609756,Standard
 G.I. OBSTRUCTION W CC,5524.16,Standard
 G.I. OBSTRUCTION W/O CC/MCC,4412.1,Standard
" ESOPHAGITIS, GASTROENT & MISC DIGEST DISORDERS W MCC",7957.0588235,Standard
" ""ESOPHAGITIS, GASTROENT & MISC DIGEST DISORDERS W/O MCC""",5054.2831858,Standard
 OTHER DIGESTIVE SYSTEM DIAGNOSES W MCC,10850.058824,Standard
 LAPAROSCOPIC CHOLECYSTECTOMY W/O C.D.E. W CC,11448.666667,Standard
 HIP & FEMUR PROCEDURES EXCEPT MAJOR JOINT W CC,13407.567901,Standard
 COMPLICATIONS OF TREATMENT W CC,6973.9,Standard
 MAJOR JOINT/LIMB REATTACHMENT PROCEDURE OF UPPER EXTREMITIES,20321.25,Standard
 OTHER KIDNEY & URINARY TRACT DIAGNOSES W MCC,9863.1612903,Standard
 OTHER KIDNEY & URINARY TRACT DIAGNOSES W CC,6589.6551724,Standard
 RED BLOOD CELL DISORDERS W MCC,8351.444444399998,Standard
 RED BLOOD CELL DISORDERS W/O MCC,5931.258064500001,Standard
 INFECTIOUS & PARASITIC DISEASES W O.R. PROCEDURE W MCC,38758.512194999996,Standard
 POSTOPERATIVE OR POST,31158.705882,Standard
 POSTOPERATIVE OR POST,11577.352941,Standard
 POSTOPERATIVE & POST,11074.2,Standard
 POSTOPERATIVE & POST,7200.608695700001,Standard
 SEPTICEMIA OR SEVERE SEPSIS W MV >96 HOURS OR PERIPHERAL EXTRACORPOR,44491.357143,Standard
 SEPTICEMIA OR SEVERE SEPSIS W/O MV >96 HOURS W MCC,11788.029412,Standard
 SEPTICEMIA OR SEVERE SEPSIS W/O MV >96 HOURS W/O MCC,7653.1016949,Standard
 ORGANIC DISTURBANCES & INTELLECTUAL DISABILITY,7482.6470588,Standard
 ALCOHOL/DRUG ABUSE OR DEPENDENCE W/O REHABILITATION THERAPY W/O MCC,8241.666666699999,Standard
 POISONING & TOXIC EFFECTS OF DRUGS W MCC,8570.7142857,Standard
 COMPLICATIONS OF TREATMENT W MCC,11302.2,Standard
 PERIPHERAL VASCULAR DISORDERS W CC,6604.0666667,Standard
 FULL THICKNESS BURN W SKIN GRAFT OR INHAL INJ W CC/MCC,51289.384614999995,Standard
 SIGNS & SYMPTOMS W/O MCC,5137.6842105,Standard
 OTHER MULTIPLE SIGNIFICANT TRAUMA W CC,14713.545455000001,Standard
 EXTENSIVE O.R. PROCEDURE UNRELATED TO PRINCIPAL DIAGNOSIS W MCC,31111.8,Standard
 KIDNEY & URINARY TRACT INFECTIONS W/O MCC,5267.147368399999,Standard
 HIP & FEMUR PROCEDURES EXCEPT MAJOR JOINT W/O CC/MCC,10267.130435,Standard
 KIDNEY & URINARY TRACT INFECTIONS W MCC,6754.392857100001,Standard
 RENAL FAILURE W CC,6388.304878,Standard
" LOWER EXTREM & HUMER PROC EXCEPT HIP,FOOT,FEMUR W CC",14211.285713999998,Standard
" ""LOWER EXTREM & HUMER PROC EXCEPT HIP,FOOT,FEMUR W/O CC/MCC""",15974.6,Standard
 OTHER MUSCULOSKELET SYS & CONN TISS O.R. PROC W MCC,23199.090909,Standard
 OTHER MUSCULOSKELET SYS & CONN TISS O.R. PROC W CC,11257.277778,Standard
 OTHER MUSCULOSKELET SYS & CONN TISS O.R. PROC W/O CC/MCC,9104.7777778,Standard
 BACK & NECK PROC EXC SPINAL FUSION W CC,12963.666667,Standard
 FRACTURES OF HIP & PELVIS W MCC,7610.0,Standard
 FRACTURES OF HIP & PELVIS W/O MCC,4799.952381,Standard
 PATHOLOGICAL FRACTURES & MUSCULOSKELET & CONN TISS MALIG W MCC,13493.909091,Standard
 MEDICAL BACK PROBLEMS W MCC,9308.2105263,Standard
 MEDICAL BACK PROBLEMS W/O MCC,5915.1294118000005,Standard
" ""AFTERCARE, MUSCULOSKELETAL SYSTEM & CONNECTIVE TISSUE W CC""",6882.357142899999,Standard
" FX, SPRN, STRN & DISL EXCEPT FEMUR, HIP, PELVIS & THIGH W/O MCC",5698.033333300001,Standard
 CELLULITIS W MCC,9867.5217391,Standard
 CELLULITIS W/O MCC,5497.4067797,Standard
" ""TRAUMA TO THE SKIN, SUBCUT TISS & BREAST W/O MCC""",5484.0625,Standard
 DIABETES W MCC,8238.7647059,Standard
 DIABETES W CC,6695.148148100001,Standard
" MISC DISORDERS OF NUTRITION,METABOLISM,FLUIDS/ELECTROLYTES W MCC",7199.3333333,Standard
" ""MISC DISORDERS OF NUTRITION,METABOLISM,FLUIDS/ELECTROLYTES W/O MCC""",4885.9090909,Standard
 RENAL FAILURE W MCC,9532.348214299998,Standard
 RENAL FAILURE W/O CC/MCC,4124.4615385,Standard
 PERIPHERAL VASCULAR DISORDERS W MCC,8470.0526316,Standard
" ""TRAUMATIC STUPOR & COMA, COMA <1 HR W CC""",8341.1568627,Standard
 HEART FAILURE & SHOCK W MCC,9045.692307700001,Standard
Level 3 Musculoskeletal Procedures,2000.7447916666601,DRG
Level 2 Musculoskeletal Procedures,1015.32363636363,DRG
Level 2 Breast/Lymphatic Surgery and Related Procedures,3717.28,DRG
Level 1 Breast/Lymphatic Surgery and Related Procedures,2006.9619047619,DRG
Level 3 Excision/ Biopsy/ Incision and Drainage,1738.9938095238,DRG
Level 2 Excision/ Biopsy/ Incision and Drainage,1035.6479292929303,DRG
 HEART FAILURE & SHOCK W CC,6105.607142899999,Standard
" ""ECMO OR TRACH W MV >96 HRS OR PDX EXC FACE, MOUTH & NECK W MAJ O.R.",113927.53332999999,Standard
Level 4 Musculoskeletal Procedures,4309.4246,DRG
" TRACH W MV >96 HRS OR PDX EXC FACE, MOUTH & NECK W/O MAJ O.R.",60147.52381,Standard
 CRANIOTOMY & ENDOVASCULAR INTRACRANIAL PROCEDURES W MCC,29380.948718,Standard
 CRANIOTOMY & ENDOVASCULAR INTRACRANIAL PROCEDURES W CC,18080.090909,Standard
 EXTRACRANIAL PROCEDURES W CC,9704.1666667,Standard
 EXTRACRANIAL PROCEDURES W/O CC/MCC,7046.4545455,Standard
 NERVOUS SYSTEM NEOPLASMS W MCC,9786.6666667,Standard
 DEGENERATIVE NERVOUS SYSTEM DISORDERS W MCC,10953.333333,Standard
 DEGENERATIVE NERVOUS SYSTEM DISORDERS W/O MCC,8032.84,Standard
" ISCHEMIC STROKE, PRECEREBRAL OCCLUSION OR TRANSIENT ISCHEMIA W THROM",16317.0,Standard
  CRANIOTOMY W MAJOR DEVICE IMPLANT OR ACUTE COMPLEX CNS PDX W MCC OR,39164.780488,Standard
" ""ISCHEMIC STROKE, PRECEREBRAL OCCLUSION OR TRANSIENT ISCHEMIA W THRO",13766.368421000001,Standard
Level 5 Musculoskeletal Procedures,7878.44172413793,DRG
Level 1 Endovascular Procedures,1839.33637362637,DRG
Comprehensive Observation Services,1779.07110151189,DRG
Level 4 Neurostimulator and Related Procedures,25620.58,DRG
Level 2 Neurostimulator and Related Procedures,4678.089999999989,DRG
Level 1 Nerve Procedures,1241.87642857142,DRG
Level 6 Gynecologic Procedures,4758.19999999999,DRG
Level 5 Gynecologic Procedures,3098.77,DRG
Level 5 Urology and Related Services,2862.98999999999,DRG
Level 2 Laparoscopy and Related Services,6021.34,DRG
Level 5 ENT Procedures,3175.9527272727196,DRG
Level 1 Laparoscopy and Related Services,3420.6781249999894,DRG
Complex GI Procedures,3313.32325,DRG
Level 3 Upper GI Procedures,2087.25833333333,DRG
Level 2 Upper GI Procedures,1076.80333333333,DRG
Level 3 Pacemaker and Similar Procedures,8099.97,DRG
Level 3 Electrophysiologic Procedures,16079.6867647058,DRG
Level 4 Endovascular Procedures,12064.479117646999,DRG
Level 3 Endovascular Procedures,8595.01864864865,DRG
Level 2 Endovascular Procedures,3697.20470588235,DRG
Abdominal/Peritoneal/Biliary and Related Procedures,2248.91999999999,DRG
 INTRACRANIAL HEMORRHAGE OR CEREBRAL INFARCTION W MCC,11445.241758,Standard
 INTRACRANIAL HEMORRHAGE OR CEREBRAL INFARCTION W CC OR TPA IN 24 HRS,7303.8618421,Standard
 TRANSIENT ISCHEMIA W/O THROMBOLYTIC,5007.9538462,Standard
 RESPIRATORY INFECTIONS & INFLAMMATIONS W MCC,11891.416667,Standard
 RESPIRATORY INFECTIONS & INFLAMMATIONS W CC,8004.5,Standard
 PULMONARY EDEMA & RESPIRATORY FAILURE,7669.0526316,Standard
 CHRONIC OBSTRUCTIVE PULMONARY DISEASE W MCC,8217.2068966,Standard
 CHRONIC OBSTRUCTIVE PULMONARY DISEASE W CC,5885.72,Standard
 CHRONIC OBSTRUCTIVE PULMONARY DISEASE W/O CC/MCC,4779.75,Standard
 SIMPLE PNEUMONIA & PLEURISY W MCC,8634.2258065,Standard
 SIMPLE PNEUMONIA & PLEURISY W CC,6074.2093023,Standard
 SIMPLE PNEUMONIA & PLEURISY W/O CC/MCC,4678.777777800001,Standard
 PNEUMOTHORAX W CC,7899.3157894999995,Standard
 BRONCHITIS & ASTHMA W CC/MCC,5953.0,Standard
 RESPIRATORY SYSTEM DIAGNOSIS W VENTILATOR SUPPORT <=96 HOURS,18169.808824,Standard
 CARDIAC VALVE & OTH MAJ CARDIOTHORACIC PROC W/O CARD CATH W MCC,56808.416667,Standard
 PERMANENT CARDIAC PACEMAKER IMPLANT W MCC,28398.692307999998,Standard
 PERMANENT CARDIAC PACEMAKER IMPLANT W CC,15971.333333,Standard
 PERCUTANEOUS CARDIOVASCULAR PROCEDURES W DRUG,19454.6,Standard
 INTRACRANIAL HEMORRHAGE OR CEREBRAL INFARCTION W/O CC/MCC,4900.2631579,Standard
 OTHER VASCULAR PROCEDURES W MCC,21943.15,Standard
 OTHER VASCULAR PROCEDURES W CC,20555.647059,Standard
 AORTIC AND HEART ASSIST PROCEDURES EXCEPT PULSATION BALLOON W MCC,59703.333333,Standard
 AORTIC AND HEART ASSIST PROCEDURES EXCEPT PULSATION BALLOON W/O MCC,28716.625,Standard
 OTHER MAJOR CARDIOVASCULAR PROCEDURES W MCC,40203.733333,Standard
 OTHER MAJOR CARDIOVASCULAR PROCEDURES W CC,21924.777778,Standard
" ""ACUTE MYOCARDIAL INFARCTION, DISCHARGED ALIVE W MCC""",10323.481481,Standard
" ACUTE MYOCARDIAL INFARCTION, DISCHARGED ALIVE W CC",6294.1111111,Standard
" ""CIRCULATORY DISORDERS EXCEPT AMI, W CARD CATH W MCC""",13576.25,Standard
" CIRCULATORY DISORDERS EXCEPT AMI, W CARD CATH W/O MCC",7961.259259299999,Standard
 PULMONARY EMBOLISM W/O MCC,5815.9411765,Standard
 PULMONARY EMBOLISM W MCC,14422.5,Standard
 PERC CARDIOVASC PROC W DRUG,16247.076922999999,Standard
 CRANIAL & PERIPHERAL NERVE DISORDERS W/O MCC,6109.3846154,Standard
 SEIZURES W/O MCC,5473.2539682999995,Standard
 SEIZURES W MCC,11988.926829,Standard
 OTHER DISORDERS OF NERVOUS SYSTEM W CC,6167.7083333,Standard
" TRAUMATIC STUPOR & COMA, COMA <1 HR W/O CC/MCC",5253.6551724,Standard
" TRAUMATIC STUPOR & COMA, COMA <1 HR W MCC",12199.526316,Standard
" TRAUMATIC STUPOR & COMA, COMA >1 HR W CC",7883.0,Standard
" ""TRAUMATIC STUPOR & COMA, COMA >1 HR W MCC""",17983.291666999998,Standard
 HEADACHES W/O MCC,4911.9090909,Standard
 DYSEQUILIBRIUM,5278.121212100001,Standard
 MAJOR CHEST PROCEDURES W MCC,37481.0,Standard
 OTHER RESP SYSTEM O.R. PROCEDURES W MCC,31432.555556,Standard
