Description,Charge,Category
Level 3 Musculoskeletal Procedures,1937.24,DRG
Level 4 Musculoskeletal Procedures,4105.89,DRG
Level 1 Endovascular Procedures,1746.203,DRG
Level 3 Endovascular Procedures,6201.5075,DRG
Level 3 Urology and Related Services,1241.84,DRG
Level 5 Urology and Related Services,2609.7403846153798,DRG
 HEART FAILURE & SHOCK W MCC,8450.3392857,Standard
 SEPTICEMIA OR SEVERE SEPSIS W/O MV >96 HOURS W MCC,10524.681818000001,Standard
 KIDNEY & URINARY TRACT INFECTIONS W/O MCC,4528.8333333,Standard
 KIDNEY & URINARY TRACT INFECTIONS W MCC,6124.0833333,Standard
 RENAL FAILURE W MCC,8674.857142899999,Standard
 MAJOR HIP AND KNEE JOINT REPLACEMENT OR REATTACHMENT OF LOWER EXTREM,12211.882353,Standard
 CARDIAC ARRHYTHMIA & CONDUCTION DISORDERS W CC,4400.2727273,Standard
 RESPIRATORY INFECTIONS & INFLAMMATIONS W MCC,11014.5,Standard
 PULMONARY EDEMA & RESPIRATORY FAILURE,7255.32,Standard
 CHRONIC OBSTRUCTIVE PULMONARY DISEASE W CC,5320.5714286,Standard
 PERCUTANEOUS CARDIOVASCULAR PROCEDURES W DRUG,18241.533333000003,Standard
 PERC CARDIOVASC PROC W DRUG,12520.92,Standard
" CIRCULATORY DISORDERS EXCEPT AMI, W CARD CATH W/O MCC",6750.9090909,Standard
Comprehensive Observation Services,1699.41218390804,DRG
