Description,Charge,Category
Level 4 Gynecologic Procedures,1751.92,DRG
Level 5 Urology and Related Services,2826.9625,DRG
Level 4 Urology and Related Services,2078.73,DRG
Level 2 Upper GI Procedures,1100.28,DRG
Abdominal/Peritoneal/Biliary and Related Procedures,2243.98999999999,DRG
Level 1 Intraocular Procedures,1430.5130344827498,DRG
Level 3 Musculoskeletal Procedures,1695.15666666666,DRG
Level 2 Musculoskeletal Procedures,998.9472,DRG
Level 3 Urology and Related Services,1256.3405,DRG
Comprehensive Observation Services,1754.3593087557501,DRG
" ""MISC DISORDERS OF NUTRITION,METABOLISM,FLUIDS/ELECTROLYTES W/O MCC""",6658.4761905000005,Standard
 SEPTICEMIA OR SEVERE SEPSIS W/O MV >96 HOURS W/O MCC,8339.8965517,Standard
 RENAL FAILURE W MCC,11484.909091,Standard
 CELLULITIS W/O MCC,7060.142857100001,Standard
" ""ESOPHAGITIS, GASTROENT & MISC DIGEST DISORDERS W/O MCC""",6925.461538500001,Standard
 HEART FAILURE & SHOCK W CC,7460.625,Standard
 HEART FAILURE & SHOCK W MCC,10698.4,Standard
 SIMPLE PNEUMONIA & PLEURISY W CC,7614.6842105000005,Standard
 SIMPLE PNEUMONIA & PLEURISY W MCC,10558.0,Standard
 PULMONARY EDEMA & RESPIRATORY FAILURE,9692.2105263,Standard
 RENAL FAILURE W CC,7389.714285699999,Standard
 SEPTICEMIA OR SEVERE SEPSIS W/O MV >96 HOURS W MCC,13361.911765,Standard
 KIDNEY & URINARY TRACT INFECTIONS W/O MCC,6668.9166667,Standard
Level 1 Laparoscopy and Related Services,3212.86642857143,DRG
