Description,Charge,Category
 OTHER MUSCULOSKELET SYS & CONN TISS O.R. PROC W/O CC/MCC,7608.4375,Standard
 CERVICAL SPINAL FUSION W/O CC/MCC,13348.4,Standard
 CERVICAL SPINAL FUSION W CC,15437.2,Standard
 MAJOR HIP AND KNEE JOINT REPLACEMENT OR REATTACHMENT OF LOWER EXTREM,11674.525641,Standard
Level 4 Neurostimulator and Related Procedures,22529.9112903225,DRG
Level 2 Neurostimulator and Related Procedures,4340.25,DRG
Level 1 Nerve Procedures,1129.64142857142,DRG
Level 4 Musculoskeletal Procedures,3917.9243801652797,DRG
 REVISION OF HIP OR KNEE REPLACEMENT W/O CC/MCC,15865.5,Standard
 COMBINED ANTERIOR/POSTERIOR SPINAL FUSION W/O CC/MCC,26817.16,Standard
 SPINAL FUSION EXCEPT CERVICAL W/O MCC,22671.195122,Standard
Level 3 Musculoskeletal Procedures,1713.703125,DRG
 BACK & NECK PROC EXC SPINAL FUSION W CC,9481.8181818,Standard
 COMBINED ANTERIOR/POSTERIOR SPINAL FUSION W CC,34178.636364,Standard
