Description,Charge,Category
 SIMPLE PNEUMONIA & PLEURISY W MCC,9407.8653846,Standard
 SIMPLE PNEUMONIA & PLEURISY W/O CC/MCC,5474.375,Standard
 BRONCHITIS & ASTHMA W CC/MCC,6625.5641026,Standard
 RESPIRATORY SYSTEM DIAGNOSIS W VENTILATOR SUPPORT <=96 HOURS,15219.107143000001,Standard
 CARDIAC VALVE & OTH MAJ CARDIOTHORACIC PROC W CARD CATH W MCC,63306.615385000005,Standard
 CHRONIC OBSTRUCTIVE PULMONARY DISEASE W MCC,8096.692307699999,Standard
 PULMONARY EDEMA & RESPIRATORY FAILURE,8765.045045,Standard
 CARDIAC VALVE & OTH MAJ CARDIOTHORACIC PROC W CARD CATH W CC,52485.727273000004,Standard
 SIMPLE PNEUMONIA & PLEURISY W CC,6665.3536585,Standard
 CHRONIC OBSTRUCTIVE PULMONARY DISEASE W CC,6514.258064500001,Standard
 OTHER DISORDERS OF NERVOUS SYSTEM W MCC,11748.266667,Standard
 RESPIRATORY INFECTIONS & INFLAMMATIONS W CC,8898.0,Standard
 RESPIRATORY INFECTIONS & INFLAMMATIONS W MCC,12304.346154,Standard
 CARDIAC VALVE & OTH MAJ CARDIOTHORACIC PROC W/O CARD CATH W MCC,54744.283019,Standard
 PULMONARY EMBOLISM W/O MCC,6433.2,Standard
 PULMONARY EMBOLISM W MCC,9507.0666667,Standard
 OTHER RESP SYSTEM O.R. PROCEDURES W MCC,29531.565217000003,Standard
 DYSEQUILIBRIUM,5267.1176471,Standard
 SEIZURES W/O MCC,6104.2105263,Standard
 SEIZURES W MCC,10815.625,Standard
 OTHER DISORDERS OF NERVOUS SYSTEM W CC,6792.526315800001,Standard
 RESPIRATORY NEOPLASMS W MCC,12032.416667,Standard
 CARDIAC VALVE & OTH MAJ CARDIOTHORACIC PROC W/O CARD CATH W CC,36192.0,Standard
 PERMANENT CARDIAC PACEMAKER IMPLANT W/O CC/MCC,17898.842105,Standard
 CARDIAC DEFIBRILLATOR IMPLANT W/O CARDIAC CATH W/O MCC,41744.454545,Standard
" ""ACUTE MYOCARDIAL INFARCTION, DISCHARGED ALIVE W MCC""",11065.530612,Standard
 PERCUTANEOUS INTRACARDIAC PROCEDURES W/O MCC,20261.978593,Standard
 PERCUTANEOUS INTRACARDIAC PROCEDURES W MCC,22609.894737,Standard
 OTHER MAJOR CARDIOVASCULAR PROCEDURES W CC,25198.142857,Standard
 OTHER MAJOR CARDIOVASCULAR PROCEDURES W MCC,36125.571429,Standard
 AORTIC AND HEART ASSIST PROCEDURES EXCEPT PULSATION BALLOON W/O MCC,29161.578947,Standard
 ENDOVASCULAR CARDIAC VALVE REPLACEMENT W MCC,48800.279279,Standard
 OTHER CIRCULATORY SYSTEM O.R. PROCEDURES,19844.0,Standard
 CARDIAC PACEMAKER REVISION EXCEPT DEVICE REPLACEMENT W MCC,24171.692308,Standard
 OTHER VASCULAR PROCEDURES W/O CC/MCC,13962.333333,Standard
 OTHER VASCULAR PROCEDURES W CC,17121.73913,Standard
 OTHER VASCULAR PROCEDURES W MCC,22996.266667,Standard
 PERC CARDIOVASC PROC W DRUG,14814.254902,Standard
 PERCUTANEOUS CARDIOVASCULAR PROCEDURES W DRUG,21335.733333,Standard
 TRANSIENT ISCHEMIA W/O THROMBOLYTIC,5725.658536600001,Standard
 PERMANENT CARDIAC PACEMAKER IMPLANT W CC,17906.65625,Standard
 PERMANENT CARDIAC PACEMAKER IMPLANT W MCC,23369.297297,Standard
 AMPUTATION FOR CIRC SYS DISORDERS EXC UPPER LIMB & TOE W CC,16180.272727000001,Standard
 CORONARY BYPASS W/O CARDIAC CATH W/O MCC,30220.583333,Standard
 CORONARY BYPASS W/O CARDIAC CATH W MCC,41953.75,Standard
 CORONARY BYPASS W CARDIAC CATH W/O MCC,35709.28,Standard
 CORONARY BYPASS W CARDIAC CATH W MCC,45786.684211,Standard
 OTHER CARDIOTHORACIC PROCEDURES W MCC,42173.80392200001,Standard
 CARDIAC DEFIBRILLATOR IMPLANT W/O CARDIAC CATH W MCC,47437.769231,Standard
 INTRACRANIAL HEMORRHAGE OR CEREBRAL INFARCTION W/O CC/MCC,5982.266666699999,Standard
Level 4 Neurostimulator and Related Procedures,25633.7,DRG
 INTRACRANIAL HEMORRHAGE OR CEREBRAL INFARCTION W MCC,13420.72549,Standard
Level 2 Breast/Lymphatic Surgery and Related Procedures,3686.17769911505,DRG
Level 2 Musculoskeletal Procedures,1027.7973134328302,DRG
Level 3 Musculoskeletal Procedures,2001.79448275862,DRG
Level 4 Musculoskeletal Procedures,4297.925947368401,DRG
Level 5 Musculoskeletal Procedures,8466.78999999999,DRG
Level 3 Airway Endoscopy,1023.09,DRG
Level 4 Airway Endoscopy,1959.14187499999,DRG
Level 5 ENT Procedures,3353.44,DRG
" ACUTE MYOCARDIAL INFARCTION, DISCHARGED ALIVE W CC",6810.4285714,Standard
Level 1 Endovascular Procedures,1852.41641878668,DRG
Level 1 Breast/Lymphatic Surgery and Related Procedures,2081.4876119402898,DRG
Level 2 Endovascular Procedures,3870.18709923664,DRG
Level 4 Endovascular Procedures,14164.4699999999,DRG
 CAROTID ARTERY STENT PROCEDURE W/O CC/MCC,13307.607143000001,Standard
 CAROTID ARTERY STENT PROCEDURE W CC,15179.75,Standard
 CRANIOTOMY & ENDOVASCULAR INTRACRANIAL PROCEDURES W/O CC/MCC,18451.47619,Standard
 CRANIOTOMY & ENDOVASCULAR INTRACRANIAL PROCEDURES W CC,22799.357143,Standard
 CRANIOTOMY & ENDOVASCULAR INTRACRANIAL PROCEDURES W MCC,27238.233333,Standard
  CRANIOTOMY W MAJOR DEVICE IMPLANT OR ACUTE COMPLEX CNS PDX W MCC OR,34248.25,Standard
" TRACH W MV >96 HRS OR PDX EXC FACE, MOUTH & NECK W/O MAJ O.R.",70539.105263,Standard
 CRANIAL & PERIPHERAL NERVE DISORDERS W/O MCC,8612.1176471,Standard
Level 3 Endovascular Procedures,8760.48248484851,DRG
Implantation Wireless PA Pressure Monitor,30210.02,DRG
Level 3 Excision/ Biopsy/ Incision and Drainage,1682.62723404255,DRG
Level 2 Excision/ Biopsy/ Incision and Drainage,1029.10144032922,DRG
Level 2 Electrophysiologic Procedures,4107.42,DRG
 DEGENERATIVE NERVOUS SYSTEM DISORDERS W/O MCC,8174.625,Standard
 DEGENERATIVE NERVOUS SYSTEM DISORDERS W MCC,11159.0,Standard
 NERVOUS SYSTEM NEOPLASMS W MCC,9010.5714286,Standard
 PERIPH/CRANIAL NERVE & OTHER NERV SYST PROC W CC OR PERIPH NEUROSTIM,15156.565217,Standard
 PERIPH/CRANIAL NERVE & OTHER NERV SYST PROC W MCC,24236.785713999998,Standard
 EXTRACRANIAL PROCEDURES W/O CC/MCC,8859.857142899999,Standard
 EXTRACRANIAL PROCEDURES W CC,10573.090909,Standard
 DIABETES W CC,6106.8333333,Standard
Comprehensive Observation Services,1809.93349168645,DRG
Level 1 Nerve Procedures,1244.75999999999,DRG
Level 4 Gynecologic Procedures,1756.2053333333301,DRG
Level 5 Urology and Related Services,2864.3799999999896,DRG
Level 1 Laparoscopy and Related Services,3394.00329670329,DRG
Abdominal/Peritoneal/Biliary and Related Procedures,2130.0759722222197,DRG
Complex GI Procedures,3318.52,DRG
Level 3 Upper GI Procedures,2078.26666666666,DRG
Level 2 Upper GI Procedures,1088.24280373831,DRG
Level 2 ICD and Similar Procedures,27877.28625,DRG
Level 1 ICD and Similar Procedures,19045.8755,DRG
Level 4 Pacemaker and Similar Procedures,15258.557333333301,DRG
Level 3 Pacemaker and Similar Procedures,8003.25300000003,DRG
Level 2 Pacemaker and Similar Procedures,5808.09,DRG
Level 3 Electrophysiologic Procedures,16355.2141133722,DRG
 INTRACRANIAL HEMORRHAGE OR CEREBRAL INFARCTION W CC OR TPA IN 24 HRS,7298.7207207,Standard
" ""CIRCULATORY DISORDERS EXCEPT AMI, W CARD CATH W MCC""",15104.814433000001,Standard
 DIABETES W MCC,9209.1627907,Standard
 SEPTICEMIA OR SEVERE SEPSIS W/O MV >96 HOURS W MCC,12840.049213,Standard
 DISORDERS OF PANCREAS EXCEPT MALIGNANCY W CC,8697.9333333,Standard
 DISORDERS OF PANCREAS EXCEPT MALIGNANCY W MCC,10849.785714,Standard
 SEPTICEMIA OR SEVERE SEPSIS W/O MV >96 HOURS W/O MCC,7605.046875,Standard
 SEPTICEMIA OR SEVERE SEPSIS W MV >96 HOURS OR PERIPHERAL EXTRACORPOR,39670.647058999995,Standard
 CIRRHOSIS & ALCOHOLIC HEPATITIS W MCC,13062.75,Standard
 POSTOPERATIVE & POST,11530.866667,Standard
 INFECTIOUS & PARASITIC DISEASES W O.R. PROCEDURE W CC,15633.631578999999,Standard
 INFECTIOUS & PARASITIC DISEASES W O.R. PROCEDURE W MCC,35421.753425,Standard
 RED BLOOD CELL DISORDERS W/O MCC,6361.966666699999,Standard
 RED BLOOD CELL DISORDERS W MCC,9143.0,Standard
 OTHER KIDNEY & URINARY TRACT DIAGNOSES W CC,7214.3181818,Standard
 OTHER KIDNEY & URINARY TRACT DIAGNOSES W MCC,10356.586206999998,Standard
 KIDNEY & URINARY TRACT INFECTIONS W/O MCC,5797.636363600001,Standard
 KIDNEY & URINARY TRACT INFECTIONS W MCC,7356.942857100001,Standard
 RENAL FAILURE W/O CC/MCC,4822.5625,Standard
 RENAL FAILURE W CC,6668.523364500001,Standard
 MAJOR HIP AND KNEE JOINT REPLACEMENT OR REATTACHMENT OF LOWER EXTREM,26513.064516,Standard
 LAPAROSCOPIC CHOLECYSTECTOMY W/O C.D.E. W/O CC/MCC,8957.4166667,Standard
 LAPAROSCOPIC CHOLECYSTECTOMY W/O C.D.E. W CC,11526.677419,Standard
 LAPAROSCOPIC CHOLECYSTECTOMY W/O C.D.E. W MCC,15617.277778,Standard
 OTHER DIGESTIVE SYSTEM DIAGNOSES W MCC,11198.368421,Standard
" ""ESOPHAGITIS, GASTROENT & MISC DIGEST DISORDERS W/O MCC""",5709.7341772,Standard
" ESOPHAGITIS, GASTROENT & MISC DIGEST DISORDERS W MCC",8520.7857143,Standard
 RENAL FAILURE W MCC,9801.522727299998,Standard
 ENDOCRINE DISORDERS W CC,7083.1538462,Standard
" ""DISORDERS OF LIVER EXCEPT MALIG,CIRR,ALC HEPA W MCC""",11638.923077,Standard
" DISORDERS OF LIVER EXCEPT MALIG,CIRR,ALC HEPA W CC",8101.636363600001,Standard
 COMBINED ANTERIOR/POSTERIOR SPINAL FUSION W MCC,76547.666667,Standard
 COMBINED ANTERIOR/POSTERIOR SPINAL FUSION W CC,50656.05,Standard
 HIP & FEMUR PROCEDURES EXCEPT MAJOR JOINT W MCC,19492.266667,Standard
 HIP & FEMUR PROCEDURES EXCEPT MAJOR JOINT W CC,13324.794872,Standard
 HIP & FEMUR PROCEDURES EXCEPT MAJOR JOINT W/O CC/MCC,11849.416667,Standard
 MAJOR JOINT/LIMB REATTACHMENT PROCEDURE OF UPPER EXTREMITIES,19117.670103,Standard
" LOWER EXTREM & HUMER PROC EXCEPT HIP,FOOT,FEMUR W CC",14157.636363999998,Standard
 OTHER MUSCULOSKELET SYS & CONN TISS O.R. PROC W CC,12336.884615,Standard
 OTHER MUSCULOSKELET SYS & CONN TISS O.R. PROC W/O CC/MCC,9786.28,Standard
 BACK & NECK PROC EXC SPINAL FUSION W CC,12597.545455,Standard
 FRACTURES OF HIP & PELVIS W/O MCC,5490.6842105,Standard
 MEDICAL BACK PROBLEMS W MCC,10297.545455,Standard
 MEDICAL BACK PROBLEMS W/O MCC,6338.55,Standard
 SIGNS & SYMPTOMS W/O MCC,5621.75,Standard
 ENDOCRINE DISORDERS W MCC,10284.857143000001,Standard
 BONE DISEASES & ARTHROPATHIES W/O MCC,5553.8181818,Standard
 COMPLICATIONS OF TREATMENT W CC,7561.692307699999,Standard
 COMPLICATIONS OF TREATMENT W MCC,13498.5,Standard
 POISONING & TOXIC EFFECTS OF DRUGS W MCC,9615.692307700001,Standard
 OTHER O.R. PROCEDURES FOR INJURIES W MCC,40157.090909,Standard
 ORGANIC DISTURBANCES & INTELLECTUAL DISABILITY,8359.9375,Standard
 REVISION OF HIP OR KNEE REPLACEMENT W/O CC/MCC,22653.5,Standard
 REVISION OF HIP OR KNEE REPLACEMENT W CC,23139.682927,Standard
" WND DEBRID & SKN GRFT EXC HAND, FOR MUSCULO",17986.722222,Standard
 BILATERAL OR MULTIPLE MAJOR JOINT PROCS OF LOWER EXTREMITY W/O MCC,22412.736842,Standard
 SPINAL FUSION EXCEPT CERVICAL W/O MCC,29249.791044999998,Standard
 SPINAL FUS EXC CERV W SPINAL CURV/MALIG/INFEC OR EXT FUS W CC,48821.692308,Standard
 COMBINED ANTERIOR/POSTERIOR SPINAL FUSION W/O CC/MCC,40229.3125,Standard
 CERVICAL SPINAL FUSION W CC,23173.864865,Standard
 G.I. OBSTRUCTION W/O CC/MCC,4770.551724100001,Standard
 OTHER DIGESTIVE SYSTEM DIAGNOSES W CC,6897.4545455,Standard
 G.I. OBSTRUCTION W CC,6296.0,Standard
 SYNCOPE & COLLAPSE,6320.123287699999,Standard
 CARDIAC ARRHYTHMIA & CONDUCTION DISORDERS W/O CC/MCC,4506.5428571,Standard
 O.R. PROCEDURES FOR OBESITY W CC,14074.615385,Standard
 O.R. PROCEDURES FOR OBESITY W/O CC/MCC,10968.047618999999,Standard
 EXTENSIVE O.R. PROCEDURE UNRELATED TO PRINCIPAL DIAGNOSIS W CC,16371.866666999998,Standard
 EXTENSIVE O.R. PROCEDURE UNRELATED TO PRINCIPAL DIAGNOSIS W MCC,28394.846154000003,Standard
 CARDIAC ARRHYTHMIA & CONDUCTION DISORDERS W CC,5898.6144578,Standard
 CARDIAC ARRHYTHMIA & CONDUCTION DISORDERS W MCC,8230.924731199999,Standard
 HYPERTENSION W/O MCC,5193.782608699999,Standard
" ""MISC DISORDERS OF NUTRITION,METABOLISM,FLUIDS/ELECTROLYTES W/O MCC""",5478.8958333,Standard
 PERIPHERAL VASCULAR DISORDERS W CC,7090.25,Standard
 PERIPHERAL VASCULAR DISORDERS W MCC,9604.5,Standard
 HEART FAILURE & SHOCK W/O CC/MCC,5294.16,Standard
 HEART FAILURE & SHOCK W CC,6744.5977011,Standard
 HEART FAILURE & SHOCK W MCC,9950.0807292,Standard
" CIRCULATORY DISORDERS EXCEPT AMI, W CARD CATH W/O MCC",8319.8352941,Standard
 MAJOR HIP AND KNEE JOINT REPLACEMENT OR REATTACHMENT OF LOWER EXTREM,16228.098927000001,Standard
 CHEST PAIN,5266.3333333,Standard
 OTHER CIRCULATORY SYSTEM DIAGNOSES W MCC,13798.173912999999,Standard
 HYPERTENSION W MCC,7366.1666667,Standard
" ""STOMACH, ESOPHAGEAL & DUODENAL PROC W CC""",13931.642856999999,Standard
 G.I. OBSTRUCTION W MCC,9681.6,Standard
 OTHER CIRCULATORY SYSTEM DIAGNOSES W CC,7130.8333333,Standard
 COMPLICATED PEPTIC ULCER W CC,8224.818181800001,Standard
 G.I. HEMORRHAGE W CC,7439.9090909,Standard
 G.I. HEMORRHAGE W MCC,11793.830189,Standard
 MAJOR GASTROINTESTINAL DISORDERS & PERITONEAL INFECTIONS W CC,6530.7272727,Standard
 MAJOR GASTROINTESTINAL DISORDERS & PERITONEAL INFECTIONS W MCC,10737.75,Standard
" MISC DISORDERS OF NUTRITION,METABOLISM,FLUIDS/ELECTROLYTES W MCC",8194.4848485,Standard
 DIABETES W/O CC/MCC,4726.0,Standard
" FX, SPRN, STRN & DISL EXCEPT FEMUR, HIP, PELVIS & THIGH W/O MCC",5881.0714286,Standard
 CERVICAL SPINAL FUSION W/O CC/MCC,22604.642857,Standard
 CELLULITIS W MCC,9650.8,Standard
 MAJOR SMALL & LARGE BOWEL PROCEDURES W MCC,32633.103448,Standard
 CELLULITIS W/O MCC,6124.8688525,Standard
 MAJOR SMALL & LARGE BOWEL PROCEDURES W CC,16678.3125,Standard
