Description,Charge,Category
 SIMPLE PNEUMONIA & PLEURISY W MCC,8583.8148148,Standard
 SIMPLE PNEUMONIA & PLEURISY W CC,6226.3333333,Standard
Level 1 Nerve Procedures,1145.72785714285,DRG
 CHRONIC OBSTRUCTIVE PULMONARY DISEASE W CC,5912.0714286,Standard
 CHRONIC OBSTRUCTIVE PULMONARY DISEASE W MCC,7229.2777778,Standard
 PULMONARY EDEMA & RESPIRATORY FAILURE,7852.52,Standard
 HEART FAILURE & SHOCK W MCC,8927.2,Standard
" ""ESOPHAGITIS, GASTROENT & MISC DIGEST DISORDERS W/O MCC""",4801.6153846,Standard
 KIDNEY & URINARY TRACT INFECTIONS W/O MCC,5126.4285714,Standard
 SEPTICEMIA OR SEVERE SEPSIS W/O MV >96 HOURS W MCC,11041.27907,Standard
 SEPTICEMIA OR SEVERE SEPSIS W/O MV >96 HOURS W/O MCC,6792.8095238000005,Standard
Level 2 Musculoskeletal Procedures,1035.24,DRG
Level 3 Musculoskeletal Procedures,2028.57,DRG
 CHRONIC OBSTRUCTIVE PULMONARY DISEASE W/O CC/MCC,4950.2,Standard
Comprehensive Observation Services,1800.4505434782602,DRG
