Description,Charge,Category
 KIDNEY & URINARY TRACT INFECTIONS W/O MCC,6101.2307692,Standard
 MAJOR HIP AND KNEE JOINT REPLACEMENT OR REATTACHMENT OF LOWER EXTREM,14148.592593000001,Standard
 CELLULITIS W/O MCC,6376.857142899999,Standard
 SEPTICEMIA OR SEVERE SEPSIS W/O MV >96 HOURS W MCC,11744.171429,Standard
 CHRONIC OBSTRUCTIVE PULMONARY DISEASE W/O CC/MCC,5606.9230769,Standard
 SIMPLE PNEUMONIA & PLEURISY W MCC,9300.95,Standard
Level 2 Musculoskeletal Procedures,955.955,DRG
" ""ESOPHAGITIS, GASTROENT & MISC DIGEST DISORDERS W/O MCC""",6446.722222199999,Standard
Comprehensive Observation Services,1796.53346938776,DRG
 HEART FAILURE & SHOCK W/O CC/MCC,5277.9285714,Standard
Level 1 Laparoscopy and Related Services,3467.61,DRG
 CHRONIC OBSTRUCTIVE PULMONARY DISEASE W CC,6721.2777778,Standard
 SIMPLE PNEUMONIA & PLEURISY W CC,6906.1666667,Standard
 HEART FAILURE & SHOCK W CC,7063.625,Standard
 HEART FAILURE & SHOCK W MCC,9844.5217391,Standard
 RENAL FAILURE W CC,7202.7692308,Standard
 PULMONARY EDEMA & RESPIRATORY FAILURE,8497.923076899999,Standard
 CHRONIC OBSTRUCTIVE PULMONARY DISEASE W MCC,7720.714285699999,Standard
