Description,Charge,Category
 RED BLOOD CELL DISORDERS W MCC,9298.642857100001,Standard
" ESOPHAGITIS, GASTROENT & MISC DIGEST DISORDERS W MCC",8407.5806452,Standard
" ""ESOPHAGITIS, GASTROENT & MISC DIGEST DISORDERS W/O MCC""",5576.45,Standard
 OTHER DIGESTIVE SYSTEM DIAGNOSES W CC,7174.0,Standard
 LAPAROSCOPIC CHOLECYSTECTOMY W/O C.D.E. W CC,10519.0,Standard
 DISORDERS OF PANCREAS EXCEPT MALIGNANCY W/O CC/MCC,4789.0,Standard
 SPINAL FUSION EXCEPT CERVICAL W/O MCC,28367.675,Standard
 BILATERAL OR MULTIPLE MAJOR JOINT PROCS OF LOWER EXTREMITY W/O MCC,22028.413793,Standard
" WND DEBRID & SKN GRFT EXC HAND, FOR MUSCULO",21178.583333000002,Standard
 REVISION OF HIP OR KNEE REPLACEMENT W CC,20836.304347999998,Standard
 REVISION OF HIP OR KNEE REPLACEMENT W/O CC/MCC,19977.365854,Standard
 MAJOR HIP AND KNEE JOINT REPLACEMENT OR REATTACHMENT OF LOWER EXTREM,19190.35,Standard
 RESPIRATORY INFECTIONS & INFLAMMATIONS W MCC,11349.884615,Standard
 MAJOR HIP AND KNEE JOINT REPLACEMENT OR REATTACHMENT OF LOWER EXTREM,15269.581169,Standard
 MEDICAL BACK PROBLEMS W/O MCC,6344.4705882,Standard
 CELLULITIS W MCC,9511.0,Standard
 CELLULITIS W/O MCC,5823.084745800001,Standard
" ""AMPUTAT OF LOWER LIMB FOR ENDOCRINE,NUTRIT,& METABOL DIS W CC""",13255.333333,Standard
 DIABETES W MCC,8557.4285714,Standard
 DIABETES W CC,6025.5625,Standard
" MISC DISORDERS OF NUTRITION,METABOLISM,FLUIDS/ELECTROLYTES W MCC",7554.853658499999,Standard
" ""MISC DISORDERS OF NUTRITION,METABOLISM,FLUIDS/ELECTROLYTES W/O MCC""",5029.9166667,Standard
 TRANSURETHRAL PROCEDURES W CC,10587.846154,Standard
 RENAL FAILURE W MCC,9155.6666667,Standard
 HIP & FEMUR PROCEDURES EXCEPT MAJOR JOINT W CC,12571.36,Standard
 RENAL FAILURE W CC,6156.88,Standard
 G.I. OBSTRUCTION W/O CC/MCC,4865.8,Standard
 G.I. HEMORRHAGE W CC,6385.7,Standard
 CHRONIC OBSTRUCTIVE PULMONARY DISEASE W CC,6361.6666667,Standard
 CHRONIC OBSTRUCTIVE PULMONARY DISEASE W/O CC/MCC,5382.5833333,Standard
 SIMPLE PNEUMONIA & PLEURISY W MCC,8852.3870968,Standard
 SIMPLE PNEUMONIA & PLEURISY W CC,6516.6372549,Standard
 SIMPLE PNEUMONIA & PLEURISY W/O CC/MCC,5112.5833333,Standard
 BRONCHITIS & ASTHMA W CC/MCC,6137.606060600001,Standard
 BRONCHITIS & ASTHMA W/O CC/MCC,4834.8823529,Standard
 RESPIRATORY SYSTEM DIAGNOSIS W VENTILATOR SUPPORT <=96 HOURS,14655.176471,Standard
 PERC CARDIOVASC PROC W DRUG,20526.5,Standard
" ""ACUTE MYOCARDIAL INFARCTION, DISCHARGED ALIVE W MCC""",9969.0,Standard
 G.I. OBSTRUCTION W CC,5680.05,Standard
" ""ACUTE MYOCARDIAL INFARCTION, DISCHARGED ALIVE W/O CC/MCC""",6838.0833333,Standard
 HEART FAILURE & SHOCK W MCC,9470.804347799998,Standard
 HEART FAILURE & SHOCK W CC,6240.527777800001,Standard
 HEART FAILURE & SHOCK W/O CC/MCC,4997.875,Standard
 HYPERTENSION W/O MCC,5333.7058824,Standard
 CARDIAC ARRHYTHMIA & CONDUCTION DISORDERS W MCC,7691.1666667,Standard
 CARDIAC ARRHYTHMIA & CONDUCTION DISORDERS W CC,6122.148148100001,Standard
 CARDIAC ARRHYTHMIA & CONDUCTION DISORDERS W/O CC/MCC,4414.7142857,Standard
 SYNCOPE & COLLAPSE,5373.451612899999,Standard
 CHEST PAIN,5038.037037,Standard
 G.I. HEMORRHAGE W MCC,14566.944444,Standard
" CIRCULATORY DISORDERS EXCEPT AMI, W CARD CATH W/O MCC",7483.9090909,Standard
 CHRONIC OBSTRUCTIVE PULMONARY DISEASE W MCC,7369.0,Standard
 KIDNEY & URINARY TRACT INFECTIONS W MCC,7359.921052600001,Standard
 OTHER KIDNEY & URINARY TRACT DIAGNOSES W MCC,10176.608696,Standard
Level 3 Excision/ Biopsy/ Incision and Drainage,1583.5827777777697,DRG
Level 1 Breast/Lymphatic Surgery and Related Procedures,2091.91999999999,DRG
Level 2 Breast/Lymphatic Surgery and Related Procedures,3613.24249999999,DRG
Level 2 Musculoskeletal Procedures,990.229565217391,DRG
Level 3 Musculoskeletal Procedures,1952.2292592592603,DRG
Level 4 Musculoskeletal Procedures,4084.6058024691297,DRG
Level 5 Musculoskeletal Procedures,8301.14797441371,DRG
Level 3 Airway Endoscopy,1015.11,DRG
Level 4 Airway Endoscopy,2006.58,DRG
Level 1 Endovascular Procedures,1812.39882352941,DRG
Level 3 Endovascular Procedures,8762.09,DRG
Level 2 Upper GI Procedures,1094.64,DRG
Abdominal/Peritoneal/Biliary and Related Procedures,2131.02272727272,DRG
Level 1 Laparoscopy and Related Services,3399.2416249999897,DRG
Level 2 Laparoscopy and Related Services,5616.70588235294,DRG
Level 3 Urology and Related Services,1300.38,DRG
Level 4 Urology and Related Services,1999.13433333333,DRG
Level 5 Urology and Related Services,2787.0978846153803,DRG
Comprehensive Observation Services,1785.4897528089898,DRG
Level 2 Excision/ Biopsy/ Incision and Drainage,1012.20499999999,DRG
 KIDNEY & URINARY TRACT INFECTIONS W/O MCC,5474.1076923,Standard
 PULMONARY EDEMA & RESPIRATORY FAILURE,8295.566929100001,Standard
 OTHER KIDNEY & URINARY TRACT DIAGNOSES W CC,6529.863636399999,Standard
 RED BLOOD CELL DISORDERS W/O MCC,5873.3333333,Standard
 INFECTIOUS & PARASITIC DISEASES W O.R. PROCEDURE W MCC,30596.0,Standard
 FEVER AND INFLAMMATORY CONDITIONS,5803.636363600001,Standard
 SEPTICEMIA OR SEVERE SEPSIS W/O MV >96 HOURS W MCC,11790.651684999999,Standard
 SEPTICEMIA OR SEVERE SEPSIS W/O MV >96 HOURS W/O MCC,7228.602564100001,Standard
 SIGNS & SYMPTOMS W/O MCC,5161.235294100001,Standard
 OTHER RESP SYSTEM O.R. PROCEDURES W MCC,21949.846154,Standard
 TRANSIENT ISCHEMIA W/O THROMBOLYTIC,5107.7857143,Standard
 INTRACRANIAL HEMORRHAGE OR CEREBRAL INFARCTION W/O CC/MCC,5534.142857100001,Standard
 INTRACRANIAL HEMORRHAGE OR CEREBRAL INFARCTION W CC OR TPA IN 24 HRS,7716.368421100001,Standard
