Description,Charge,Category
 CELLULITIS W/O MCC,5963.904761899999,Standard
Level 5 Musculoskeletal Procedures,7866.1875,DRG
Level 2 Excision/ Biopsy/ Incision and Drainage,1030.43348837209,DRG
 SEPTICEMIA OR SEVERE SEPSIS W/O MV >96 HOURS W/O MCC,7367.1764706,Standard
 SEPTICEMIA OR SEVERE SEPSIS W/O MV >96 HOURS W MCC,11443.139535,Standard
 KIDNEY & URINARY TRACT INFECTIONS W/O MCC,5437.0769231,Standard
 KIDNEY & URINARY TRACT INFECTIONS W MCC,7218.6153846,Standard
 RENAL FAILURE W CC,6355.12,Standard
 RENAL FAILURE W MCC,9001.411764700002,Standard
 CHRONIC OBSTRUCTIVE PULMONARY DISEASE W/O CC/MCC,5280.5454545,Standard
 HIP & FEMUR PROCEDURES EXCEPT MAJOR JOINT W CC,12807.090909,Standard
 MAJOR HIP AND KNEE JOINT REPLACEMENT OR REATTACHMENT OF LOWER EXTREM,13830.025641,Standard
Level 1 Laparoscopy and Related Services,3442.2699999999895,DRG
" ""ESOPHAGITIS, GASTROENT & MISC DIGEST DISORDERS W/O MCC""",5473.6666667,Standard
 G.I. HEMORRHAGE W CC,7843.8461538,Standard
 G.I. HEMORRHAGE W MCC,9755.285714299998,Standard
Comprehensive Observation Services,1765.10877133106,DRG
 HEART FAILURE & SHOCK W CC,6555.363636399999,Standard
 CARDIAC ARRHYTHMIA & CONDUCTION DISORDERS W CC,5550.7857143,Standard
 CHRONIC OBSTRUCTIVE PULMONARY DISEASE W CC,6556.652173899999,Standard
 PULMONARY EDEMA & RESPIRATORY FAILURE,8367.055555600002,Standard
 RESPIRATORY INFECTIONS & INFLAMMATIONS W CC,8097.6666667,Standard
 SIMPLE PNEUMONIA & PLEURISY W MCC,8894.618181799999,Standard
 CHRONIC OBSTRUCTIVE PULMONARY DISEASE W MCC,7723.1470588,Standard
 SIMPLE PNEUMONIA & PLEURISY W/O CC/MCC,5658.1333333,Standard
 BRONCHITIS & ASTHMA W CC/MCC,6546.625,Standard
" ""ACUTE MYOCARDIAL INFARCTION, DISCHARGED ALIVE W MCC""",9898.4545455,Standard
 HEART FAILURE & SHOCK W MCC,9705.242857100002,Standard
 SIMPLE PNEUMONIA & PLEURISY W CC,6853.7948718,Standard
