Description,Charge,Category
 HEART FAILURE & SHOCK W MCC,10809.743202,Standard
 OTHER CIRCULATORY SYSTEM DIAGNOSES W CC,7073.2352941,Standard
 MAJOR SMALL & LARGE BOWEL PROCEDURES W MCC,39793.384614999995,Standard
 MAJOR SMALL & LARGE BOWEL PROCEDURES W CC,18978.296296,Standard
 MAJOR SMALL & LARGE BOWEL PROCEDURES W/O CC/MCC,13133.567568,Standard
 MAJOR GASTROINTESTINAL DISORDERS & PERITONEAL INFECTIONS W MCC,13430.411765,Standard
 MAJOR GASTROINTESTINAL DISORDERS & PERITONEAL INFECTIONS W CC,7785.2285714,Standard
 DIGESTIVE MALIGNANCY W MCC,14606.916667,Standard
 DIGESTIVE MALIGNANCY W CC,8968.4285714,Standard
 G.I. HEMORRHAGE W MCC,14331.245614,Standard
 G.I. HEMORRHAGE W CC,7534.341666699999,Standard
 G.I. OBSTRUCTION W CC,6287.260869600001,Standard
 G.I. OBSTRUCTION W/O CC/MCC,4127.8,Standard
" ESOPHAGITIS, GASTROENT & MISC DIGEST DISORDERS W MCC",9023.518518500001,Standard
" ""ESOPHAGITIS, GASTROENT & MISC DIGEST DISORDERS W/O MCC""",6001.21,Standard
 OTHER DIGESTIVE SYSTEM DIAGNOSES W CC,7504.962963,Standard
 LAPAROSCOPIC CHOLECYSTECTOMY W/O C.D.E. W CC,12167.357143000001,Standard
 CIRRHOSIS & ALCOHOLIC HEPATITIS W MCC,13251.9375,Standard
 DISORDERS OF PANCREAS EXCEPT MALIGNANCY W CC,6425.5454545,Standard
" ""DISORDERS OF LIVER EXCEPT MALIG,CIRR,ALC HEPA W MCC""",13285.0,Standard
" DISORDERS OF LIVER EXCEPT MALIG,CIRR,ALC HEPA W CC",6929.0,Standard
 DISORDERS OF THE BILIARY TRACT W MCC,11691.75,Standard
 DISORDERS OF THE BILIARY TRACT W CC,7781.5833333,Standard
 G.I. OBSTRUCTION W MCC,11187.6875,Standard
 HEART FAILURE & SHOCK W CC,6998.419354800001,Standard
 OTHER CIRCULATORY SYSTEM DIAGNOSES W MCC,15659.710525999999,Standard
 CHEST PAIN,5432.125,Standard
" CIRCULATORY DISORDERS EXCEPT AMI, W CARD CATH W/O MCC",9115.7391304,Standard
" ""CIRCULATORY DISORDERS EXCEPT AMI, W CARD CATH W MCC""",16369.941175999998,Standard
" ""ACUTE MYOCARDIAL INFARCTION, DISCHARGED ALIVE W/O CC/MCC""",5553.4166667,Standard
" ACUTE MYOCARDIAL INFARCTION, DISCHARGED ALIVE W CC",7218.9,Standard
" ""ACUTE MYOCARDIAL INFARCTION, DISCHARGED ALIVE W MCC""",12465.289474,Standard
 AORTIC AND HEART ASSIST PROCEDURES EXCEPT PULSATION BALLOON W/O MCC,30189.769231000002,Standard
 OTHER VASCULAR PROCEDURES W CC,21495.75,Standard
 PERC CARDIOVASC PROC W DRUG,16339.294118000002,Standard
 PERCUTANEOUS CARDIOVASCULAR PROCEDURES W DRUG,23744.7,Standard
 PERMANENT CARDIAC PACEMAKER IMPLANT W/O CC/MCC,15536.416667,Standard
 PERMANENT CARDIAC PACEMAKER IMPLANT W CC,18903.157895,Standard
 PERMANENT CARDIAC PACEMAKER IMPLANT W MCC,27175.956522000004,Standard
 CORONARY BYPASS W/O CARDIAC CATH W/O MCC,31369.6875,Standard
 CORONARY BYPASS W CARDIAC CATH W/O MCC,40160.0,Standard
 CORONARY BYPASS W CARDIAC CATH W MCC,53706.277777999996,Standard
 RESPIRATORY SYSTEM DIAGNOSIS W VENTILATOR SUPPORT <=96 HOURS,17291.539474,Standard
 HEART FAILURE & SHOCK W/O CC/MCC,5053.9411765,Standard
 PERIPHERAL VASCULAR DISORDERS W MCC,10289.5,Standard
 PERIPHERAL VASCULAR DISORDERS W CC,7432.851851899999,Standard
 HYPERTENSION W MCC,7694.0645161,Standard
 HYPERTENSION W/O MCC,6015.4444444,Standard
 CARDIAC ARRHYTHMIA & CONDUCTION DISORDERS W MCC,9445.2,Standard
 CARDIAC ARRHYTHMIA & CONDUCTION DISORDERS W CC,5706.3209877,Standard
 CARDIAC ARRHYTHMIA & CONDUCTION DISORDERS W/O CC/MCC,4268.239130399999,Standard
 SYNCOPE & COLLAPSE,6166.7407407,Standard
 SPINAL FUSION EXCEPT CERVICAL W/O MCC,29217.114286,Standard
 MAJOR HIP AND KNEE JOINT REPLACEMENT OR REATTACHMENT OF LOWER EXTREM,15820.295337000001,Standard
 POISONING & TOXIC EFFECTS OF DRUGS W MCC,10510.738095,Standard
 HIP & FEMUR PROCEDURES EXCEPT MAJOR JOINT W MCC,22204.555556,Standard
Level 4 Gynecologic Procedures,1679.43,DRG
Level 5 Urology and Related Services,2574.82540229884,DRG
Level 4 Urology and Related Services,1992.72,DRG
Level 3 Urology and Related Services,1187.05263157894,DRG
Level 2 Laparoscopy and Related Services,5702.46,DRG
Level 1 Laparoscopy and Related Services,3218.16326732672,DRG
Abdominal/Peritoneal/Biliary and Related Procedures,2098.15782608695,DRG
Complex GI Procedures,3172.7,DRG
Level 3 Upper GI Procedures,2027.23,DRG
Level 2 Upper GI Procedures,1029.17585185185,DRG
Level 2 ICD and Similar Procedures,25378.2018604651,DRG
Level 3 Pacemaker and Similar Procedures,7447.72062499999,DRG
Level 2 Pacemaker and Similar Procedures,5353.772564102561,DRG
Level 3 Electrophysiologic Procedures,14713.0177272727,DRG
Level 3 Endovascular Procedures,8016.83352564102,DRG
Level 2 Endovascular Procedures,3555.75786407766,DRG
Level 1 Endovascular Procedures,1743.83786885245,DRG
Level 2 Excision/ Biopsy/ Incision and Drainage,972.010175438594,DRG
Level 3 Excision/ Biopsy/ Incision and Drainage,1712.80607142857,DRG
Level 1 Breast/Lymphatic Surgery and Related Procedures,2009.7120833333302,DRG
Level 2 Breast/Lymphatic Surgery and Related Procedures,3459.57081081081,DRG
Level 2 Musculoskeletal Procedures,977.670298507461,DRG
Level 3 Musculoskeletal Procedures,1878.20333333333,DRG
Level 5 Gynecologic Procedures,2964.04,DRG
Level 4 Musculoskeletal Procedures,3979.9560465116297,DRG
Level 3 Airway Endoscopy,978.13,DRG
Level 4 Airway Endoscopy,1933.47,DRG
Level 5 Airway Endoscopy,3317.82461538461,DRG
Level 4 ENT Procedures,1624.96,DRG
Level 5 ENT Procedures,3206.0899999999897,DRG
Cochlear Implant Procedure,28798.4099999999,DRG
Level 5 Musculoskeletal Procedures,8037.03000000001,DRG
Level 1 Nerve Procedures,1070.5571111111099,DRG
Comprehensive Observation Services,1696.4450765980403,DRG
 EXTENSIVE O.R. PROCEDURE UNRELATED TO PRINCIPAL DIAGNOSIS W CC,19034.818182,Standard
" ""MISC DISORDERS OF NUTRITION,METABOLISM,FLUIDS/ELECTROLYTES W/O MCC""",5980.463414600001,Standard
" MISC DISORDERS OF NUTRITION,METABOLISM,FLUIDS/ELECTROLYTES W MCC",8621.75,Standard
 DIABETES W CC,7008.6666667,Standard
 DIABETES W MCC,10443.454545,Standard
 O.R. PROCEDURES FOR OBESITY W/O CC/MCC,12498.157895,Standard
" ""AMPUTAT OF LOWER LIMB FOR ENDOCRINE,NUTRIT,& METABOL DIS W CC""",15567.444444,Standard
 OTHER KIDNEY & URINARY TRACT PROCEDURES W MCC,26994.866667000002,Standard
 CELLULITIS W/O MCC,6811.469135799999,Standard
 MEDICAL BACK PROBLEMS W/O MCC,6553.107142899999,Standard
 MEDICAL BACK PROBLEMS W MCC,11361.727273,Standard
" LOWER EXTREM & HUMER PROC EXCEPT HIP,FOOT,FEMUR W CC",16015.923077000001,Standard
 MAJOR JOINT/LIMB REATTACHMENT PROCEDURE OF UPPER EXTREMITIES,18749.578946999998,Standard
 HIP & FEMUR PROCEDURES EXCEPT MAJOR JOINT W/O CC/MCC,12161.875,Standard
 HIP & FEMUR PROCEDURES EXCEPT MAJOR JOINT W CC,15426.253165,Standard
 CELLULITIS W MCC,10549.2,Standard
 CERVICAL SPINAL FUSION W/O CC/MCC,18078.066667,Standard
 RENAL FAILURE W MCC,11122.392405,Standard
 RENAL FAILURE W/O CC/MCC,4861.25,Standard
 EXTENSIVE O.R. PROCEDURE UNRELATED TO PRINCIPAL DIAGNOSIS W MCC,30868.769231000002,Standard
 POISONING & TOXIC EFFECTS OF DRUGS W/O MCC,10673.9375,Standard
 RESPIRATORY SYSTEM DIAGNOSIS W VENTILATOR SUPPORT >96 HOURS,39795.736842,Standard
 SEPTICEMIA OR SEVERE SEPSIS W/O MV >96 HOURS W/O MCC,8127.2556391,Standard
 SEPTICEMIA OR SEVERE SEPSIS W/O MV >96 HOURS W MCC,14286.939444,Standard
 SEPTICEMIA OR SEVERE SEPSIS W MV >96 HOURS OR PERIPHERAL EXTRACORPOR,48762.34375,Standard
 RENAL FAILURE W CC,6952.993288600001,Standard
 INFECTIOUS & PARASITIC DISEASES W O.R. PROCEDURE W CC,20471.47619,Standard
 RED BLOOD CELL DISORDERS W/O MCC,6664.847826100001,Standard
 RED BLOOD CELL DISORDERS W MCC,9794.5416667,Standard
 VAGINAL DELIVERY W/O COMPLICATING DIAGNOSES,4737.6666667,Standard
 OTHER KIDNEY & URINARY TRACT DIAGNOSES W MCC,11720.666667,Standard
 KIDNEY & URINARY TRACT INFECTIONS W/O MCC,6220.8169014,Standard
 KIDNEY & URINARY TRACT INFECTIONS W MCC,8034.0340909,Standard
 INFECTIOUS & PARASITIC DISEASES W O.R. PROCEDURE W MCC,43975.625,Standard
 INTERSTITIAL LUNG DISEASE W MCC,11625.733333,Standard
 FRACTURES OF HIP & PELVIS W/O MCC,5553.0833333,Standard
 SIMPLE PNEUMONIA & PLEURISY W CC,6891.7157895,Standard
 SIMPLE PNEUMONIA & PLEURISY W/O CC/MCC,5200.235294100001,Standard
 CRANIOTOMY & ENDOVASCULAR INTRACRANIAL PROCEDURES W MCC,31166.666667,Standard
 EXTRACRANIAL PROCEDURES W/O CC/MCC,8458.346153800001,Standard
 DEGENERATIVE NERVOUS SYSTEM DISORDERS W MCC,14545.714286000002,Standard
 DEGENERATIVE NERVOUS SYSTEM DISORDERS W/O MCC,8280.611111100001,Standard
 INTRACRANIAL HEMORRHAGE OR CEREBRAL INFARCTION W MCC,13078.044776,Standard
 INTRACRANIAL HEMORRHAGE OR CEREBRAL INFARCTION W CC OR TPA IN 24 HRS,7770.608695700001,Standard
 INTRACRANIAL HEMORRHAGE OR CEREBRAL INFARCTION W/O CC/MCC,5898.3888889,Standard
 TRANSIENT ISCHEMIA W/O THROMBOLYTIC,5528.8,Standard
 CRANIAL & PERIPHERAL NERVE DISORDERS W/O MCC,21347.117647,Standard
 OTHER DISORDERS OF NERVOUS SYSTEM W MCC,11258.083333,Standard
 OTHER DISORDERS OF NERVOUS SYSTEM W CC,6860.6666667,Standard
 SEIZURES W MCC,12011.967742,Standard
" ""TRAUMATIC STUPOR & COMA, COMA <1 HR W CC""",8607.8181818,Standard
 CHRONIC OBSTRUCTIVE PULMONARY DISEASE W MCC,8706.276595700001,Standard
 CHRONIC OBSTRUCTIVE PULMONARY DISEASE W CC,6722.5,Standard
 PULMONARY EDEMA & RESPIRATORY FAILURE,9058.065476200001,Standard
 RESPIRATORY NEOPLASMS W MCC,12816.333333,Standard
 RESPIRATORY INFECTIONS & INFLAMMATIONS W CC,9485.3333333,Standard
 RESPIRATORY INFECTIONS & INFLAMMATIONS W MCC,13492.268816999998,Standard
 PULMONARY EMBOLISM W/O MCC,6575.3461538,Standard
 PULMONARY EMBOLISM W MCC,11392.515152,Standard
 SEIZURES W/O MCC,7386.5535714,Standard
 SIMPLE PNEUMONIA & PLEURISY W MCC,10900.903509,Standard
