Description,Charge,Category
Level 2 Neurostimulator and Related Procedures,2479.95,DRG
 SPINAL FUSION EXCEPT CERVICAL W/O MCC,41251.0,Standard
Level 4 Musculoskeletal Procedures,4321.58,DRG
Level 1 Nerve Procedures,1241.41,DRG
