Description,Charge,Category
Level 7 Urology and Related Services,13734.6799999999,DRG
Level 5 Gynecologic Procedures,3076.13,DRG
Level 6 Gynecologic Procedures,4508.8904347826,DRG
Level 5 Urology and Related Services,2709.55806722688,DRG
Level 4 Urology and Related Services,2016.3015454545498,DRG
Level 3 Urology and Related Services,1272.02858695652,DRG
Level 5 Musculoskeletal Procedures,8390.6,DRG
Level 4 Musculoskeletal Procedures,4131.820384615379,DRG
 MAJOR HIP AND KNEE JOINT REPLACEMENT OR REATTACHMENT OF LOWER EXTREM,14939.095238,Standard
Level 6 Urology and Related Services,5826.44166666666,DRG
Level 3 Musculoskeletal Procedures,2028.57,DRG
