Description,Charge,Category
 RESPIRATORY SYSTEM DIAGNOSIS W VENTILATOR SUPPORT <=96 HOURS,15813.0,Standard
 OTHER VASCULAR PROCEDURES W MCC,22306.909091,Standard
" ""ACUTE MYOCARDIAL INFARCTION, DISCHARGED ALIVE W MCC""",11511.846154,Standard
" ACUTE MYOCARDIAL INFARCTION, DISCHARGED ALIVE W CC",7394.9090909,Standard
" ""CIRCULATORY DISORDERS EXCEPT AMI, W CARD CATH W MCC""",16596.529412,Standard
 HEART FAILURE & SHOCK W CC,7080.5882353,Standard
 HEART FAILURE & SHOCK W/O CC/MCC,5421.9166667,Standard
 PERIPHERAL VASCULAR DISORDERS W CC,7549.214285699999,Standard
 ATHEROSCLEROSIS W/O MCC,5430.0714286,Standard
 HEART FAILURE & SHOCK W MCC,10123.270588,Standard
" CIRCULATORY DISORDERS EXCEPT AMI, W CARD CATH W/O MCC",8542.2857143,Standard
" ""ESOPHAGITIS, GASTROENT & MISC DIGEST DISORDERS W/O MCC""",6089.1739130000005,Standard
 HYPERTENSION W/O MCC,5608.392857100001,Standard
 SEPTICEMIA OR SEVERE SEPSIS W/O MV >96 HOURS W/O MCC,7964.728813600001,Standard
 SEPTICEMIA OR SEVERE SEPSIS W/O MV >96 HOURS W MCC,12483.091743,Standard
 SEPTICEMIA OR SEVERE SEPSIS W MV >96 HOURS OR PERIPHERAL EXTRACORPOR,32443.083333,Standard
 INFECTIOUS & PARASITIC DISEASES W O.R. PROCEDURE W MCC,31561.368421,Standard
 RED BLOOD CELL DISORDERS W/O MCC,6764.875,Standard
 OTHER KIDNEY & URINARY TRACT DIAGNOSES W MCC,11199.066667000001,Standard
 KIDNEY & URINARY TRACT INFECTIONS W/O MCC,6225.9508197,Standard
 KIDNEY & URINARY TRACT INFECTIONS W MCC,8021.466666699999,Standard
 RENAL FAILURE W CC,6810.12,Standard
 RENAL FAILURE W MCC,10206.238095,Standard
" ""MISC DISORDERS OF NUTRITION,METABOLISM,FLUIDS/ELECTROLYTES W/O MCC""",6031.2195122,Standard
 HYPERTENSION W MCC,7777.7272727,Standard
" MISC DISORDERS OF NUTRITION,METABOLISM,FLUIDS/ELECTROLYTES W MCC",8424.0232558,Standard
 MAJOR HIP AND KNEE JOINT REPLACEMENT OR REATTACHMENT OF LOWER EXTREM,13265.810811,Standard
 BRONCHITIS & ASTHMA W CC/MCC,7038.363636399999,Standard
" ESOPHAGITIS, GASTROENT & MISC DIGEST DISORDERS W MCC",8916.692307700001,Standard
 G.I. OBSTRUCTION W/O CC/MCC,5021.7272727,Standard
 G.I. OBSTRUCTION W CC,6588.5384615,Standard
 G.I. HEMORRHAGE W MCC,11723.090909,Standard
 OTHER CIRCULATORY SYSTEM DIAGNOSES W MCC,15243.666667,Standard
 CHEST PAIN,5672.4166667,Standard
 SYNCOPE & COLLAPSE,6245.16,Standard
 CARDIAC ARRHYTHMIA & CONDUCTION DISORDERS W/O CC/MCC,4817.4615385,Standard
 CARDIAC ARRHYTHMIA & CONDUCTION DISORDERS W CC,6278.0714286,Standard
 HIP & FEMUR PROCEDURES EXCEPT MAJOR JOINT W CC,14580.235294,Standard
 SIMPLE PNEUMONIA & PLEURISY W/O CC/MCC,5656.533333300001,Standard
 CELLULITIS W/O MCC,6338.4827586,Standard
Level 4 Musculoskeletal Procedures,3928.4559999999897,DRG
Level 1 Intraocular Procedures,1383.3339660056602,DRG
Level 1 Nerve Procedures,1070.12583333333,DRG
Level 5 Urology and Related Services,2686.4,DRG
Level 4 Urology and Related Services,1954.79999999999,DRG
Level 3 Urology and Related Services,1228.73428571428,DRG
Level 1 Laparoscopy and Related Services,3253.71,DRG
Level 2 Upper GI Procedures,1034.66999999999,DRG
Level 2 ICD and Similar Procedures,26741.23,DRG
Level 2 Intraocular Procedures,2615.91428571428,DRG
Level 2 Pacemaker and Similar Procedures,5365.57,DRG
Level 3 Endovascular Procedures,8210.2,DRG
Level 1 Endovascular Procedures,1765.03999999999,DRG
Level 3 Airway Endoscopy,959.52,DRG
Level 3 Musculoskeletal Procedures,1858.95583333333,DRG
Level 2 Musculoskeletal Procedures,967.031249999999,DRG
Level 1 Breast/Lymphatic Surgery and Related Procedures,1977.34,DRG
Level 3 Excision/ Biopsy/ Incision and Drainage,1675.6653333333302,DRG
Level 2 Excision/ Biopsy/ Incision and Drainage,947.66,DRG
Level 4 Endovascular Procedures,13202.69,DRG
Comprehensive Observation Services,1700.48158878504,DRG
Abdominal/Peritoneal/Biliary and Related Procedures,2009.71428571428,DRG
 TRANSIENT ISCHEMIA W/O THROMBOLYTIC,6191.3043478,Standard
 INTRACRANIAL HEMORRHAGE OR CEREBRAL INFARCTION W CC OR TPA IN 24 HRS,7312.8333333,Standard
 SIMPLE PNEUMONIA & PLEURISY W MCC,9632.4545455,Standard
 CHRONIC OBSTRUCTIVE PULMONARY DISEASE W/O CC/MCC,5771.904761899999,Standard
 CHRONIC OBSTRUCTIVE PULMONARY DISEASE W CC,6971.2941175999995,Standard
 SIMPLE PNEUMONIA & PLEURISY W CC,6925.942857100001,Standard
 PULMONARY EDEMA & RESPIRATORY FAILURE,8964.5238095,Standard
 RESPIRATORY INFECTIONS & INFLAMMATIONS W MCC,12215.181818000001,Standard
 OTHER RESP SYSTEM O.R. PROCEDURES W CC,12643.384615,Standard
 CHRONIC OBSTRUCTIVE PULMONARY DISEASE W MCC,8354.36,Standard
 OTHER RESP SYSTEM O.R. PROCEDURES W MCC,22192.727273,Standard
