Description,Charge,Category
" ""AMPUTAT OF LOWER LIMB FOR ENDOCRINE,NUTRIT,& METABOL DIS W CC""",18134.0,Standard
 INFECTIOUS & PARASITIC DISEASES W O.R. PROCEDURE W MCC,47389.191489,Standard
 CHEMOTHERAPY W/O ACUTE LEUKEMIA AS SECONDARY DIAGNOSIS W CC,12418.6875,Standard
 LYMPHOMA & NON,28261.666667,Standard
 ACUTE LEUKEMIA W/O MAJOR O.R. PROCEDURE W MCC,56436.166667,Standard
 COAGULATION DISORDERS,15934.888888999998,Standard
 RED BLOOD CELL DISORDERS W/O MCC,8305.965517199998,Standard
 RED BLOOD CELL DISORDERS W MCC,12403.026316,Standard
 MAJOR HEMATOL/IMMUN DIAG EXC SICKLE CELL CRISIS & COAGUL W CC,11011.866667,Standard
" ESOPHAGITIS, GASTROENT & MISC DIGEST DISORDERS W MCC",11752.761194,Standard
 MAJOR SMALL & LARGE BOWEL PROCEDURES W MCC,46910.564516000006,Standard
 MAJOR SMALL & LARGE BOWEL PROCEDURES W CC,21160.121622,Standard
 MAJOR SMALL & LARGE BOWEL PROCEDURES W/O CC/MCC,15127.375,Standard
 PERITONEAL ADHESIOLYSIS W CC,20911.307692,Standard
 OTHER DIGESTIVE SYSTEM O.R. PROCEDURES W MCC,33515.4375,Standard
" ""MISC DISORDERS OF NUTRITION,METABOLISM,FLUIDS/ELECTROLYTES W/O MCC""",7028.247524799999,Standard
 MAJOR GASTROINTESTINAL DISORDERS & PERITONEAL INFECTIONS W MCC,15483.95,Standard
 MAJOR GASTROINTESTINAL DISORDERS & PERITONEAL INFECTIONS W CC,9777.8157895,Standard
 DIGESTIVE MALIGNANCY W MCC,16979.409091,Standard
 ENDOCRINE DISORDERS W MCC,14358.333333,Standard
 ENDOCRINE DISORDERS W CC,9237.533333299998,Standard
 KIDNEY TRANSPLANT,30829.0,Standard
 MAJOR HEMATOL/IMMUN DIAG EXC SICKLE CELL CRISIS & COAGUL W MCC,25046.0,Standard
 OTHER DIGESTIVE SYSTEM O.R. PROCEDURES W CC,17335.733333,Standard
 G.I. HEMORRHAGE W/O CC/MCC,6266.8181818,Standard
 G.I. HEMORRHAGE W MCC,15472.175258000001,Standard
Level 5 Gynecologic Procedures,3409.1921686746996,DRG
Level 6 Gynecologic Procedures,5746.78,DRG
Level 1 Nerve Procedures,1432.66259090908,DRG
" ""OTHER ENDOCRINE, NUTRIT & METAB O.R. PROC W CC""",17772.363636000002,Standard
Level 4 Neurostimulator and Related Procedures,28384.091891891898,DRG
Level 1 Intraocular Procedures,1695.30443113771,DRG
Level 2 Intraocular Procedures,3189.3990416666697,DRG
"Level 3 Extraocular, Repair, and Plastic Eye Procedures",1613.307109375,DRG
"Level 4 Extraocular, Repair, and Plastic Eye Procedures",2651.3775,DRG
Comprehensive Observation Services,2065.09080065358,DRG
 FEVER AND INFLAMMATORY CONDITIONS,8189.826087,Standard
 POSTOPERATIVE & POST,9279.588235299998,Standard
 POSTOPERATIVE & POST,15476.142856999999,Standard
 POSTOPERATIVE OR POST,32897.642857,Standard
 INFECTIOUS & PARASITIC DISEASES W O.R. PROCEDURE W CC,20873.25,Standard
 O.R. PROCEDURES FOR OBESITY W/O CC/MCC,14291.294118000002,Standard
 DIABETES W CC,7935.652173899999,Standard
 DIABETES W/O CC/MCC,6106.75,Standard
" MISC DISORDERS OF NUTRITION,METABOLISM,FLUIDS/ELECTROLYTES W MCC",10755.948454000001,Standard
 G.I. OBSTRUCTION W CC,8451.194444399998,Standard
 G.I. OBSTRUCTION W MCC,13779.333333,Standard
 INFLAMMATORY BOWEL DISEASE W CC,9025.5,Standard
 COMPLICATED PEPTIC ULCER W CC,10054.636364,Standard
 TRANSURETHRAL PROCEDURES W CC,12591.357143000001,Standard
 G.I. HEMORRHAGE W CC,9179.3,Standard
 DIGESTIVE MALIGNANCY W CC,12771.52,Standard
 OTHER KIDNEY & URINARY TRACT PROCEDURES W MCC,31655.230768999998,Standard
 MINOR SKIN DISORDERS W/O MCC,7506.8666667,Standard
 RENAL FAILURE W MCC,13706.068702,Standard
 MALIGNANCY OF HEPATOBILIARY SYSTEM OR PANCREAS W MCC,14548.923077000001,Standard
 CIRRHOSIS & ALCOHOLIC HEPATITIS W CC,9473.05,Standard
 CIRRHOSIS & ALCOHOLIC HEPATITIS W MCC,16163.111111000002,Standard
 LAPAROSCOPIC CHOLECYSTECTOMY W/O C.D.E. W/O CC/MCC,12432.576923,Standard
 LAPAROSCOPIC CHOLECYSTECTOMY W/O C.D.E. W CC,15525.576922999999,Standard
 OTHER DIGESTIVE SYSTEM DIAGNOSES W/O CC/MCC,6525.1578947,Standard
 OTHER DIGESTIVE SYSTEM DIAGNOSES W CC,8928.8208955,Standard
 MEDICAL BACK PROBLEMS W/O MCC,8345.0789474,Standard
 VAGINAL DELIVERY W/O COMPLICATING DIAGNOSES,6279.0,Standard
 CESAREAN SECTION W CC/MCC,10832.818181999999,Standard
 UTERINE & ADNEXA PROC FOR NON,10184.058824,Standard
 UTERINE & ADNEXA PROC FOR NON,14785.818181999999,Standard
 OTHER KIDNEY & URINARY TRACT DIAGNOSES W CC,9648.3157895,Standard
 DISORDERS OF PANCREAS EXCEPT MALIGNANCY W MCC,14950.545455000001,Standard
 OTHER KIDNEY & URINARY TRACT DIAGNOSES W MCC,14545.382353,Standard
 URINARY STONES W/O ESW LITHOTRIPSY W/O MCC,7778.021739100001,Standard
 KIDNEY & URINARY TRACT INFECTIONS W/O MCC,7504.228070199999,Standard
 OTHER DIGESTIVE SYSTEM DIAGNOSES W MCC,14388.389831,Standard
 BONE DISEASES & ARTHROPATHIES W/O MCC,7188.2083333,Standard
 SIGNS & SYMPTOMS OF MUSCULOSKELETAL SYSTEM & CONN TISSUE W/O MCC,7413.4545455,Standard
" ""TENDONITIS, MYOSITIS & BURSITIS W/O MCC""",7895.8823529,Standard
" FX, SPRN, STRN & DISL EXCEPT FEMUR, HIP, PELVIS & THIGH W/O MCC",7683.038461499999,Standard
" OTHER SKIN, SUBCUT TISS & BREAST PROC W CC",13563.5,Standard
 CELLULITIS W MCC,12116.83871,Standard
 CELLULITIS W/O MCC,8192.3636364,Standard
" ""TRAUMA TO THE SKIN, SUBCUT TISS & BREAST W/O MCC""",8528.2692308,Standard
Level 4 Gynecologic Procedures,2040.5704444444398,DRG
 G.I. OBSTRUCTION W/O CC/MCC,5890.24,Standard
 KIDNEY & URINARY TRACT SIGNS & SYMPTOMS W/O MCC,6706.260869600001,Standard
 OTHER KIDNEY & URINARY TRACT PROCEDURES W CC,20589.916666999998,Standard
 MEDICAL BACK PROBLEMS W MCC,13171.4375,Standard
 PATHOLOGICAL FRACTURES & MUSCULOSKELET & CONN TISS MALIG W CC,9981.25,Standard
 RENAL FAILURE W CC,8633.682926799998,Standard
 RENAL FAILURE W/O CC/MCC,6632.15625,Standard
 KIDNEY & URINARY TRACT INFECTIONS W MCC,9559.439252299999,Standard
 REVISION OF HIP OR KNEE REPLACEMENT W CC,30511.923077,Standard
" ""ESOPHAGITIS, GASTROENT & MISC DIGEST DISORDERS W/O MCC""",7381.255999999999,Standard
 MAJOR HIP AND KNEE JOINT REPLACEMENT OR REATTACHMENT OF LOWER EXTREM,25420.5,Standard
 MAJOR HIP AND KNEE JOINT REPLACEMENT OR REATTACHMENT OF LOWER EXTREM,18607.449921,Standard
 CERVICAL SPINAL FUSION W CC,25667.95,Standard
 CERVICAL SPINAL FUSION W/O CC/MCC,20493.84,Standard
 HIP & FEMUR PROCEDURES EXCEPT MAJOR JOINT W MCC,25448.76087,Standard
 HIP & FEMUR PROCEDURES EXCEPT MAJOR JOINT W CC,18182.009259,Standard
 HIP & FEMUR PROCEDURES EXCEPT MAJOR JOINT W/O CC/MCC,15305.472222,Standard
 MAJOR JOINT/LIMB REATTACHMENT PROCEDURE OF UPPER EXTREMITIES,21168.132530000003,Standard
 CONNECTIVE TISSUE DISORDERS W MCC,34176.461537999996,Standard
" LOWER EXTREM & HUMER PROC EXCEPT HIP,FOOT,FEMUR W CC",19614.444444,Standard
 SOFT TISSUE PROCEDURES W CC,14727.727272999999,Standard
 BACK & NECK PROC EXC SPINAL FUSION W CC,16365.3125,Standard
 FRACTURES OF HIP & PELVIS W MCC,11139.875,Standard
 FRACTURES OF HIP & PELVIS W/O MCC,6868.9473684,Standard
" WND DEBRID & SKN GRFT EXC HAND, FOR MUSCULO",21773.5,Standard
 SPINAL FUSION EXCEPT CERVICAL W/O MCC,33933.462264,Standard
 DISORDERS OF THE BILIARY TRACT W/O CC/MCC,7713.857142899999,Standard
 DISORDERS OF THE BILIARY TRACT W CC,10175.974359,Standard
 DISORDERS OF THE BILIARY TRACT W MCC,15680.428571,Standard
" DISORDERS OF LIVER EXCEPT MALIG,CIRR,ALC HEPA W CC",8887.1153846,Standard
" ""DISORDERS OF LIVER EXCEPT MALIG,CIRR,ALC HEPA W MCC""",17103.583333000002,Standard
 DISORDERS OF PANCREAS EXCEPT MALIGNANCY W/O CC/MCC,6677.2380952,Standard
 DISORDERS OF PANCREAS EXCEPT MALIGNANCY W CC,8230.7647059,Standard
" ""LOWER EXTREM & HUMER PROC EXCEPT HIP,FOOT,FEMUR W/O CC/MCC""",16064.645161000002,Standard
Level 5 Urology and Related Services,3282.92166666667,DRG
Level 2 Neurostimulator and Related Procedures,4510.901176470589,DRG
Level 3 Urology and Related Services,1471.7076699029099,DRG
 PERCUTANEOUS CARDIOVASCULAR PROCEDURES W DRUG,28763.34375,Standard
 PERMANENT CARDIAC PACEMAKER IMPLANT W/O CC/MCC,19519.9,Standard
 PERMANENT CARDIAC PACEMAKER IMPLANT W CC,22492.384615,Standard
 PERMANENT CARDIAC PACEMAKER IMPLANT W MCC,31617.023810000002,Standard
 AMPUTATION FOR CIRC SYS DISORDERS EXC UPPER LIMB & TOE W CC,21318.142857,Standard
 AMPUTATION FOR CIRC SYS DISORDERS EXC UPPER LIMB & TOE W MCC,35266.0,Standard
 CORONARY BYPASS W/O CARDIAC CATH W/O MCC,33784.542857,Standard
 POISONING & TOXIC EFFECTS OF DRUGS W/O MCC,7249.6585366,Standard
 COMPLICATIONS OF TREATMENT W MCC,15739.882353,Standard
 CORONARY BYPASS W/O CARDIAC CATH W MCC,48065.076923,Standard
 CORONARY BYPASS W CARDIAC CATH W/O MCC,44858.642857,Standard
 CORONARY BYPASS W CARDIAC CATH W MCC,65307.0,Standard
 PERC CARDIOVASC PROC W DRUG,19408.981132,Standard
 OTHER CARDIOTHORACIC PROCEDURES W/O MCC,40773.384614999995,Standard
 CARDIAC DEFIB IMPLANT W CARDIAC CATH W/O AMI/HF/SHOCK W MCC,63637.666667,Standard
 COMPLICATIONS OF TREATMENT W CC,15149.434783,Standard
 SIGNS & SYMPTOMS W MCC,10317.166667,Standard
 SIGNS & SYMPTOMS W/O MCC,7397.555555600001,Standard
 OTHER MULTIPLE SIGNIFICANT TRAUMA W CC,13252.636364,Standard
 EXTENSIVE O.R. PROCEDURE UNRELATED TO PRINCIPAL DIAGNOSIS W MCC,36576.909091,Standard
 EXTENSIVE O.R. PROCEDURE UNRELATED TO PRINCIPAL DIAGNOSIS W CC,21199.833333000002,Standard
 NON,28159.0,Standard
 CARDIAC VALVE & OTH MAJ CARDIOTHORACIC PROC W/O CARD CATH W CC,44719.363636,Standard
 CARDIAC VALVE & OTH MAJ CARDIOTHORACIC PROC W/O CARD CATH W MCC,65135.3,Standard
 CARDIAC VALVE & OTH MAJ CARDIOTHORACIC PROC W CARD CATH W MCC,81594.8125,Standard
 RESPIRATORY SYSTEM DIAGNOSIS W VENTILATOR SUPPORT <=96 HOURS,21401.430233000003,Standard
 CARDIAC DEFIBRILLATOR IMPLANT W/O CARDIAC CATH W/O MCC,49306.923077,Standard
 RESPIRATORY SYSTEM DIAGNOSIS W VENTILATOR SUPPORT >96 HOURS,49400.0,Standard
 PERC CARDIOVASC PROC W NON,17507.066667,Standard
 OTHER VASCULAR PROCEDURES W MCC,29607.209677,Standard
" ""CIRCULATORY DISORDERS EXCEPT AMI, W CARD CATH W MCC""",20534.084337,Standard
 SEPTICEMIA OR SEVERE SEPSIS W MV >96 HOURS OR PERIPHERAL EXTRACORPOR,54360.129032000004,Standard
 SEPTICEMIA OR SEVERE SEPSIS W/O MV >96 HOURS W MCC,16176.455638999998,Standard
 SEPTICEMIA OR SEVERE SEPSIS W/O MV >96 HOURS W/O MCC,9939.1097561,Standard
 ORGANIC DISTURBANCES & INTELLECTUAL DISABILITY,10678.536585,Standard
 PSYCHOSES,10700.857143000001,Standard
 ALCOHOL/DRUG ABUSE OR DEPENDENCE W/O REHABILITATION THERAPY W MCC,15496.821429,Standard
 ALCOHOL/DRUG ABUSE OR DEPENDENCE W/O REHABILITATION THERAPY W/O MCC,7513.984127,Standard
 OTHER O.R. PROCEDURES FOR INJURIES W MCC,36113.363636,Standard
Level 4 Urology and Related Services,2360.39435897435,DRG
 OTHER O.R. PROCEDURES FOR INJURIES W CC,17539.307692,Standard
 ALLERGIC REACTIONS W/O MCC,5892.8333333,Standard
 PERC CARDIOVASC PROC W/O CORONARY ARTERY STENT W/O MCC,16686.772727,Standard
 POISONING & TOXIC EFFECTS OF DRUGS W MCC,13288.460317000001,Standard
" ""ACUTE MYOCARDIAL INFARCTION, DISCHARGED ALIVE W/O CC/MCC""",7684.473684199999,Standard
" ACUTE MYOCARDIAL INFARCTION, DISCHARGED ALIVE W CC",9262.130952399999,Standard
" ""ACUTE MYOCARDIAL INFARCTION, DISCHARGED ALIVE W MCC""",14859.216783000002,Standard
 OTHER MAJOR CARDIOVASCULAR PROCEDURES W CC,29722.814814999998,Standard
 OTHER MAJOR CARDIOVASCULAR PROCEDURES W MCC,45739.764706,Standard
 AORTIC AND HEART ASSIST PROCEDURES EXCEPT PULSATION BALLOON W/O MCC,36344.605263,Standard
 AORTIC AND HEART ASSIST PROCEDURES EXCEPT PULSATION BALLOON W MCC,56651.333333,Standard
 ENDOVASCULAR CARDIAC VALVE REPLACEMENT W/O MCC,53170.188679,Standard
 ENDOVASCULAR CARDIAC VALVE REPLACEMENT W MCC,65906.268293,Standard
 OTHER CIRCULATORY SYSTEM O.R. PROCEDURES,31476.2,Standard
 OTHER VASCULAR PROCEDURES W/O CC/MCC,16584.2,Standard
 OTHER VASCULAR PROCEDURES W CC,23195.189655000002,Standard
" ACUTE MYOCARDIAL INFARCTION, EXPIRED W MCC",15892.714286000002,Standard
 RESPIRATORY SIGNS & SYMPTOMS,7306.1578947,Standard
 BRONCHITIS & ASTHMA W/O CC/MCC,6787.4137931000005,Standard
 BRONCHITIS & ASTHMA W CC/MCC,8769.514285700001,Standard
 OTHER DISORDERS OF NERVOUS SYSTEM W MCC,14233.238094999999,Standard
" TRAUMATIC STUPOR & COMA, COMA <1 HR W/O CC/MCC",7821.0,Standard
" ""TRAUMATIC STUPOR & COMA, COMA <1 HR W CC""",10739.5,Standard
" TRAUMATIC STUPOR & COMA, COMA <1 HR W MCC",18101.8125,Standard
" ""TRAUMATIC STUPOR & COMA, COMA >1 HR W/O CC/MCC""",8455.1875,Standard
" TRAUMATIC STUPOR & COMA, COMA >1 HR W CC",11512.7,Standard
" ""TRAUMATIC STUPOR & COMA, COMA >1 HR W MCC""",19202.263158,Standard
 CRANIAL & PERIPHERAL NERVE DISORDERS W/O MCC,9126.095238099999,Standard
 NONSPECIFIC CEREBROVASCULAR DISORDERS W CC,8989.6551724,Standard
 NONSPECIFIC CEREBROVASCULAR DISORDERS W MCC,14879.8,Standard
 TRANSIENT ISCHEMIA W/O THROMBOLYTIC,7167.5416667,Standard
 INTRACRANIAL HEMORRHAGE OR CEREBRAL INFARCTION W/O CC/MCC,7223.108695700001,Standard
 OTHER DISORDERS OF NERVOUS SYSTEM W CC,8790.4545455,Standard
 INTRACRANIAL HEMORRHAGE OR CEREBRAL INFARCTION W CC OR TPA IN 24 HRS,9560.4823529,Standard
" ""ISCHEMIC STROKE, PRECEREBRAL OCCLUSION OR TRANSIENT ISCHEMIA W THRO",17283.0,Standard
" ISCHEMIC STROKE, PRECEREBRAL OCCLUSION OR TRANSIENT ISCHEMIA W THROM",23454.705882,Standard
 DEGENERATIVE NERVOUS SYSTEM DISORDERS W/O MCC,10415.627451,Standard
 DEGENERATIVE NERVOUS SYSTEM DISORDERS W MCC,18494.1,Standard
 NERVOUS SYSTEM NEOPLASMS W/O MCC,9453.4615385,Standard
 NERVOUS SYSTEM NEOPLASMS W MCC,11941.972222,Standard
 EXTRACRANIAL PROCEDURES W/O CC/MCC,10295.15625,Standard
 EXTRACRANIAL PROCEDURES W CC,15792.047618999999,Standard
 CRANIOTOMY & ENDOVASCULAR INTRACRANIAL PROCEDURES W/O CC/MCC,20386.56,Standard
 CRANIOTOMY & ENDOVASCULAR INTRACRANIAL PROCEDURES W CC,26421.357143,Standard
 CRANIOTOMY & ENDOVASCULAR INTRACRANIAL PROCEDURES W MCC,36323.25,Standard
  CRANIOTOMY W MAJOR DEVICE IMPLANT OR ACUTE COMPLEX CNS PDX W MCC OR,50003.777777999996,Standard
 INTRACRANIAL HEMORRHAGE OR CEREBRAL INFARCTION W MCC,16676.676691999997,Standard
 OTHER DISORDERS OF NERVOUS SYSTEM W/O CC/MCC,6949.4705882,Standard
 SEIZURES W MCC,15691.75,Standard
 SEIZURES W/O MCC,7938.5222222,Standard
 PNEUMOTHORAX W CC,9836.9375,Standard
 INTERSTITIAL LUNG DISEASE W MCC,15748.636363999998,Standard
 SIMPLE PNEUMONIA & PLEURISY W/O CC/MCC,6827.4,Standard
 SIMPLE PNEUMONIA & PLEURISY W CC,8740.3945578,Standard
 SIMPLE PNEUMONIA & PLEURISY W MCC,12215.980861,Standard
 CHRONIC OBSTRUCTIVE PULMONARY DISEASE W/O CC/MCC,7012.4102563999995,Standard
 CHRONIC OBSTRUCTIVE PULMONARY DISEASE W CC,8440.3913043,Standard
 CHRONIC OBSTRUCTIVE PULMONARY DISEASE W MCC,10492.850962,Standard
 PULMONARY EDEMA & RESPIRATORY FAILURE,11585.579439,Standard
 PLEURAL EFFUSION W CC,10639.5,Standard
 PLEURAL EFFUSION W MCC,12962.9,Standard
 MAJOR CHEST TRAUMA W CC,9790.217391299999,Standard
 MAJOR CHEST TRAUMA W MCC,14508.692308000002,Standard
 RESPIRATORY NEOPLASMS W CC,10703.222222,Standard
 RESPIRATORY NEOPLASMS W MCC,16386.741935,Standard
 RESPIRATORY INFECTIONS & INFLAMMATIONS W CC,11474.658537000001,Standard
 RESPIRATORY INFECTIONS & INFLAMMATIONS W MCC,15958.697917,Standard
 PULMONARY EMBOLISM W/O MCC,8652.673076899999,Standard
 PULMONARY EMBOLISM W MCC,13475.724138,Standard
 OTHER RESP SYSTEM O.R. PROCEDURES W CC,16869.913043,Standard
 OTHER RESP SYSTEM O.R. PROCEDURES W MCC,32195.682926999998,Standard
 MAJOR CHEST PROCEDURES W/O CC/MCC,16601.0,Standard
 MAJOR CHEST PROCEDURES W CC,24063.88,Standard
 MAJOR CHEST PROCEDURES W MCC,41622.125,Standard
 OTITIS MEDIA & URI W/O MCC,6873.9545455,Standard
 DYSEQUILIBRIUM,6843.538461499999,Standard
 HEADACHES W/O MCC,7169.5,Standard
" CIRCULATORY DISORDERS EXCEPT AMI, W CARD CATH W/O MCC",10966.927006999998,Standard
 HEART FAILURE & SHOCK W MCC,13229.178218000001,Standard
 DIABETES W MCC,11916.723404,Standard
 VIRAL ILLNESS W/O MCC,7605.2307692,Standard
Level 1 Endovascular Procedures,2170.4907243460602,DRG
 HEART FAILURE & SHOCK W/O CC/MCC,6492.3958333,Standard
Cochlear Implant Procedure,35292.8,DRG
Level 5 ENT Procedures,3794.3132857142896,DRG
Level 5 Airway Endoscopy,4369.52,DRG
Level 3 Airway Endoscopy,1146.6225,DRG
Level 5 Musculoskeletal Procedures,9810.08,DRG
Level 4 Musculoskeletal Procedures,4906.12367816094,DRG
Level 3 Musculoskeletal Procedures,2337.9037096774,DRG
Level 2 Musculoskeletal Procedures,1177.7432142857099,DRG
Level 2 Breast/Lymphatic Surgery and Related Procedures,4148.596847826079,DRG
 PERIPHERAL VASCULAR DISORDERS W MCC,13248.057692,Standard
 PERIPHERAL VASCULAR DISORDERS W CC,9257.921875,Standard
 PERIPHERAL VASCULAR DISORDERS W/O CC/MCC,6862.0882353,Standard
 ATHEROSCLEROSIS W/O MCC,6420.9375,Standard
 HYPERTENSION W MCC,9812.4871795,Standard
 HYPERTENSION W/O MCC,6669.8378378,Standard
Level 1 Breast/Lymphatic Surgery and Related Procedures,2426.3111340206196,DRG
Level 3 Excision/ Biopsy/ Incision and Drainage,2088.44,DRG
Level 2 Excision/ Biopsy/ Incision and Drainage,1204.0998493975699,DRG
Level 2 Pacemaker and Similar Procedures,6963.57,DRG
 HEART FAILURE & SHOCK W CC,8880.884058,Standard
" ""STOMACH, ESOPHAGEAL & DUODENAL PROC W CC""",19065.0,Standard
Level 2 Endovascular Procedures,4533.984980392151,DRG
Level 3 Endovascular Procedures,9906.11722222225,DRG
Level 4 Airway Endoscopy,2311.30533333333,DRG
Level 3 Electrophysiologic Procedures,19478.26,DRG
 OTHER CIRCULATORY SYSTEM DIAGNOSES W CC,9107.7111111,Standard
 OTHER CIRCULATORY SYSTEM DIAGNOSES W MCC,18056.38806,Standard
 CHEST PAIN,6761.7777778,Standard
 SYNCOPE & COLLAPSE,7588.3706294,Standard
Level 4 Endovascular Procedures,16675.84,DRG
 CARDIAC ARRHYTHMIA & CONDUCTION DISORDERS W CC,7531.8947368,Standard
 CARDIAC ARRHYTHMIA & CONDUCTION DISORDERS W MCC,10891.609756,Standard
Abdominal/Peritoneal/Biliary and Related Procedures,2516.83049019607,DRG
Complex GI Procedures,3856.99,DRG
Level 3 Lower GI Procedures,2043.6559649122698,DRG
 CARDIAC ARRHYTHMIA & CONDUCTION DISORDERS W/O CC/MCC,5793.171428600001,Standard
Level 2 Laparoscopy and Related Services,7215.56999999998,DRG
Level 3 Pacemaker and Similar Procedures,9632.65999999999,DRG
Level 1 ICD and Similar Procedures,22573.775999999903,DRG
Level 3 Upper GI Procedures,2464.45,DRG
Level 2 ICD and Similar Procedures,33452.497755102,DRG
Level 2 Upper GI Procedures,1260.1181746031698,DRG
Level 1 Laparoscopy and Related Services,3928.75073059359,DRG
