Description,Charge,Category
 CHEMOTHERAPY W/O ACUTE LEUKEMIA AS SECONDARY DIAGNOSIS W CC,13856.807018000001,Standard
 PERIPHERAL VASCULAR DISORDERS W/O CC/MCC,7977.142857100001,Standard
 PERIPHERAL VASCULAR DISORDERS W CC,10537.162790999999,Standard
 PERIPHERAL VASCULAR DISORDERS W MCC,14744.035713999998,Standard
 HEART FAILURE & SHOCK W/O CC/MCC,7917.107142899999,Standard
 INFECTIOUS & PARASITIC DISEASES W O.R. PROCEDURE W MCC,55063.701923,Standard
 ATHEROSCLEROSIS W/O MCC,7561.6470588,Standard
 AORTIC AND HEART ASSIST PROCEDURES EXCEPT PULSATION BALLOON W/O MCC,41999.839286,Standard
 SIGNS & SYMPTOMS OF MUSCULOSKELETAL SYSTEM & CONN TISSUE W/O MCC,8797.133333299998,Standard
" FX, SPRN, STRN & DISL EXCEPT FEMUR, HIP, PELVIS & THIGH W/O MCC",8475.8095238,Standard
 OTHER MUSCULOSKELETAL SYS & CONNECTIVE TISSUE DIAGNOSES W CC,10414.0,Standard
" ""OTHER SKIN, SUBCUT TISS & BREAST PROC W/O CC/MCC""",12814.6,Standard
 CELLULITIS W MCC,16002.173912999999,Standard
 PERCUTANEOUS INTRACARDIAC PROCEDURES W MCC,35643.470588,Standard
 PERCUTANEOUS INTRACARDIAC PROCEDURES W/O MCC,27907.756757,Standard
" ""ACUTE MYOCARDIAL INFARCTION, DISCHARGED ALIVE W MCC""",19385.359281,Standard
" ACUTE MYOCARDIAL INFARCTION, DISCHARGED ALIVE W CC",10773.925,Standard
 OTHER MAJOR CARDIOVASCULAR PROCEDURES W/O CC/MCC,24819.25,Standard
 HEART FAILURE & SHOCK W CC,10674.642201999999,Standard
 HEART FAILURE & SHOCK W MCC,16237.384164,Standard
" CIRCULATORY DISORDERS EXCEPT AMI, W CARD CATH W/O MCC",12850.598214,Standard
 AORTIC AND HEART ASSIST PROCEDURES EXCEPT PULSATION BALLOON W MCC,75115.230769,Standard
 ENDOVASCULAR CARDIAC VALVE REPLACEMENT W/O MCC,60336.783133000004,Standard
 ENDOVASCULAR CARDIAC VALVE REPLACEMENT W MCC,77882.914286,Standard
 OTHER CIRCULATORY SYSTEM O.R. PROCEDURES,34999.235294,Standard
 CARDIAC PACEMAKER REVISION EXCEPT DEVICE REPLACEMENT W MCC,43129.636364,Standard
 OTHER VASCULAR PROCEDURES W/O CC/MCC,18808.575758000003,Standard
 INFECTIOUS & PARASITIC DISEASES W O.R. PROCEDURE W CC,23899.0,Standard
 POSTOPERATIVE OR POST,54729.095238,Standard
 POSTOPERATIVE OR POST,19623.68,Standard
 OTHER VASCULAR PROCEDURES W CC,26441.311111000003,Standard
 OTHER VASCULAR PROCEDURES W MCC,34590.261538,Standard
 OTHER MAJOR CARDIOVASCULAR PROCEDURES W MCC,57045.54545499999,Standard
 OTHER MAJOR CARDIOVASCULAR PROCEDURES W CC,34332.615385000005,Standard
 LYMPHOMA & NON,44633.695651999995,Standard
 LYMPHOMA & NON,19327.5,Standard
 PERC CARDIOVASC PROC W DRUG,21859.788136000003,Standard
 PERCUTANEOUS CARDIOVASCULAR PROCEDURES W DRUG,33162.901099,Standard
 PERMANENT CARDIAC PACEMAKER IMPLANT W/O CC/MCC,21650.315789,Standard
 PERMANENT CARDIAC PACEMAKER IMPLANT W CC,26049.095237999998,Standard
 CHEMOTHERAPY W/O ACUTE LEUKEMIA AS SECONDARY DIAGNOSIS W MCC,24721.411765,Standard
 PERMANENT CARDIAC PACEMAKER IMPLANT W MCC,36298.782608999994,Standard
" ""ACUTE MYOCARDIAL INFARCTION, DISCHARGED ALIVE W/O CC/MCC""",8515.7826087,Standard
" ACUTE MYOCARDIAL INFARCTION, EXPIRED W MCC",19098.608696,Standard
" ""CIRCULATORY DISORDERS EXCEPT AMI, W CARD CATH W MCC""",25293.397059,Standard
 ACUTE LEUKEMIA W/O MAJOR O.R. PROCEDURE W CC,35507.0,Standard
 PERC CARDIOVASC PROC W/O CORONARY ARTERY STENT W/O MCC,17218.909091,Standard
 CORONARY BYPASS W/O CARDIAC CATH W/O MCC,38811.032608999994,Standard
 MINOR SKIN DISORDERS W/O MCC,9149.285714299998,Standard
 HEADACHES W/O MCC,8448.357142899999,Standard
 DYSEQUILIBRIUM,7904.9411765,Standard
 CRANIOTOMY & ENDOVASCULAR INTRACRANIAL PROCEDURES W MCC,44400.339286,Standard
 OTITIS MEDIA & URI W/O MCC,8006.4583333,Standard
 DENTAL & ORAL DISEASES W MCC,17056.454545,Standard
 MAJOR CHEST PROCEDURES W MCC,49409.148148,Standard
 MAJOR CHEST PROCEDURES W CC,25699.618182,Standard
 MAJOR CHEST PROCEDURES W/O CC/MCC,19974.125,Standard
 OTHER RESP SYSTEM O.R. PROCEDURES W MCC,38043.22,Standard
 OTHER RESP SYSTEM O.R. PROCEDURES W CC,17821.060606,Standard
 SEIZURES W/O MCC,10007.027027,Standard
 PULMONARY EMBOLISM W MCC,16108.114286000002,Standard
 RESPIRATORY INFECTIONS & INFLAMMATIONS W MCC,22905.413793,Standard
 RESPIRATORY INFECTIONS & INFLAMMATIONS W CC,12337.375,Standard
 RESPIRATORY NEOPLASMS W MCC,18160.705882,Standard
  CRANIOTOMY W MAJOR DEVICE IMPLANT OR ACUTE COMPLEX CNS PDX W MCC OR,57021.78125,Standard
 MAJOR CHEST TRAUMA W MCC,16226.0,Standard
 MAJOR CHEST TRAUMA W CC,10763.787879000001,Standard
 MAJOR CHEST TRAUMA W/O CC/MCC,8378.642857100001,Standard
 PLEURAL EFFUSION W MCC,16526.789474,Standard
" TRACH W MV >96 HRS OR PDX EXC FACE, MOUTH & NECK W/O MAJ O.R.",114090.15789000002,Standard
" ""ECMO OR TRACH W MV >96 HRS OR PDX EXC FACE, MOUTH & NECK W MAJ O.R.",190302.0,Standard
 PULMONARY EMBOLISM W/O MCC,9995.1081081,Standard
 SEIZURES W MCC,18322.4,Standard
 OTHER DISORDERS OF NERVOUS SYSTEM W/O CC/MCC,7958.3333333,Standard
 OTHER DISORDERS OF NERVOUS SYSTEM W CC,10672.907406999999,Standard
 INTRACRANIAL HEMORRHAGE OR CEREBRAL INFARCTION W/O CC/MCC,8412.958333300001,Standard
 TRANSIENT ISCHEMIA W/O THROMBOLYTIC,8411.05,Standard
 NONSPECIFIC CEREBROVASCULAR DISORDERS W MCC,19459.75,Standard
 CRANIAL & PERIPHERAL NERVE DISORDERS W/O MCC,10447.129031999999,Standard
" ""TRAUMATIC STUPOR & COMA, COMA >1 HR W MCC""",22768.571429,Standard
" TRAUMATIC STUPOR & COMA, COMA >1 HR W CC",13492.833333,Standard
" TRAUMATIC STUPOR & COMA, COMA <1 HR W MCC",21676.125,Standard
" ""TRAUMATIC STUPOR & COMA, COMA <1 HR W CC""",12541.133333,Standard
 MAJOR SMALL & LARGE BOWEL PROCEDURES W/O CC/MCC,17325.759259,Standard
 MAJOR SMALL & LARGE BOWEL PROCEDURES W CC,25531.597403,Standard
 MAJOR SMALL & LARGE BOWEL PROCEDURES W MCC,51001.28125,Standard
" STOMACH, ESOPHAGEAL & DUODENAL PROC W/O CC/MCC",15765.0,Standard
" ""STOMACH, ESOPHAGEAL & DUODENAL PROC W CC""",21458.947368,Standard
 DEGENERATIVE NERVOUS SYSTEM DISORDERS W/O MCC,12000.073171,Standard
 DEGENERATIVE NERVOUS SYSTEM DISORDERS W MCC,20649.666666999998,Standard
 NERVOUS SYSTEM NEOPLASMS W/O MCC,11208.6,Standard
 NERVOUS SYSTEM NEOPLASMS W MCC,14448.575758,Standard
 PERIPH/CRANIAL NERVE & OTHER NERV SYST PROC W MCC,52888.230769,Standard
 EXTRACRANIAL PROCEDURES W/O CC/MCC,11754.846154,Standard
 EXTRACRANIAL PROCEDURES W CC,16850.043478,Standard
 CRANIOTOMY & ENDOVASCULAR INTRACRANIAL PROCEDURES W/O CC/MCC,23864.451613,Standard
 CRANIOTOMY & ENDOVASCULAR INTRACRANIAL PROCEDURES W CC,30208.851852,Standard
 OTHER DISORDERS OF NERVOUS SYSTEM W MCC,16699.111111000002,Standard
 ACUTE LEUKEMIA W/O MAJOR O.R. PROCEDURE W MCC,68573.72,Standard
 LYMPHOMA & NON,68624.333333,Standard
 COAGULATION DISORDERS,20739.769231000002,Standard
 RED BLOOD CELL DISORDERS W/O MCC,9935.952381000001,Standard
 CORONARY BYPASS W/O CARDIAC CATH W MCC,56561.28125,Standard
 MAJOR HEMATOL/IMMUN DIAG EXC SICKLE CELL CRISIS & COAGUL W CC,14198.370369999999,Standard
 MAJOR HEMATOL/IMMUN DIAG EXC SICKLE CELL CRISIS & COAGUL W MCC,38223.75,Standard
 MAJOR MALE PELVIC PROCEDURES W/O CC/MCC,14354.615385,Standard
 OTHER KIDNEY & URINARY TRACT DIAGNOSES W CC,11412.93617,Standard
 OTHER KIDNEY & URINARY TRACT DIAGNOSES W MCC,16659.483333,Standard
 KIDNEY & URINARY TRACT INFECTIONS W/O MCC,8878.980392200001,Standard
 KIDNEY & URINARY TRACT INFECTIONS W MCC,11550.791209,Standard
 RENAL FAILURE W CC,10217.125,Standard
 AMPUTATION FOR CIRC SYS DISORDERS EXC UPPER LIMB & TOE W MCC,44426.347826,Standard
 AMPUTATION FOR CIRC SYS DISORDERS EXC UPPER LIMB & TOE W CC,25902.777778,Standard
 RENAL FAILURE W MCC,16610.081633,Standard
 OTHER KIDNEY & URINARY TRACT PROCEDURES W CC,26793.090909,Standard
 KIDNEY & URETER PROCEDURES FOR NEOPLASM W CC,20729.272727,Standard
 KIDNEY TRANSPLANT,35395.681818,Standard
 ENDOCRINE DISORDERS W CC,11254.529412,Standard
 ENDOCRINE DISORDERS W MCC,18207.346154,Standard
" ""MISC DISORDERS OF NUTRITION,METABOLISM,FLUIDS/ELECTROLYTES W/O MCC""",8237.4848485,Standard
" MISC DISORDERS OF NUTRITION,METABOLISM,FLUIDS/ELECTROLYTES W MCC",13896.534483000001,Standard
 DIABETES W CC,9444.9782609,Standard
 DIABETES W MCC,14828.926829,Standard
" ""OTHER ENDOCRINE, NUTRIT & METAB O.R. PROC W CC""",18519.125,Standard
" ""AMPUTAT OF LOWER LIMB FOR ENDOCRINE,NUTRIT,& METABOL DIS W CC""",21021.809524,Standard
 CORONARY BYPASS W CARDIAC CATH W/O MCC,49215.896552,Standard
 CELLULITIS W/O MCC,9246.6630435,Standard
 CORONARY BYPASS W CARDIAC CATH W MCC,74634.368421,Standard
 OTHER CARDIOTHORACIC PROCEDURES W MCC,68566.913043,Standard
 RED BLOOD CELL DISORDERS W MCC,14879.0,Standard
 POSTOPERATIVE & POST,19513.0,Standard
 PULMONARY EDEMA & RESPIRATORY FAILURE,13383.448276000001,Standard
 CHRONIC OBSTRUCTIVE PULMONARY DISEASE W MCC,12464.092593000001,Standard
 CHRONIC OBSTRUCTIVE PULMONARY DISEASE W CC,10078.466667,Standard
 SIMPLE PNEUMONIA & PLEURISY W MCC,14423.063492,Standard
 SIMPLE PNEUMONIA & PLEURISY W CC,10097.821781999999,Standard
 SIMPLE PNEUMONIA & PLEURISY W/O CC/MCC,7980.214285699999,Standard
 INTERSTITIAL LUNG DISEASE W MCC,18920.666666999998,Standard
 PNEUMOTHORAX W CC,11634.5,Standard
 BRONCHITIS & ASTHMA W CC/MCC,10690.909091,Standard
 RESPIRATORY SIGNS & SYMPTOMS,8524.9285714,Standard
 OTHER RESPIRATORY SYSTEM DIAGNOSES W MCC,19600.142857,Standard
 OTHER RESPIRATORY SYSTEM DIAGNOSES W/O MCC,9758.9411765,Standard
 RESPIRATORY SYSTEM DIAGNOSIS W VENTILATOR SUPPORT >96 HOURS,60042.115385000005,Standard
 RESPIRATORY SYSTEM DIAGNOSIS W VENTILATOR SUPPORT <=96 HOURS,26929.343284,Standard
 OTHER HEART ASSIST SYSTEM IMPLANT,128063.44444,Standard
 CARDIAC VALVE & OTH MAJ CARDIOTHORACIC PROC W CARD CATH W MCC,95100.041667,Standard
 CARDIAC VALVE & OTH MAJ CARDIOTHORACIC PROC W CARD CATH W CC,61601.428571000004,Standard
 CARDIAC VALVE & OTH MAJ CARDIOTHORACIC PROC W/O CARD CATH W MCC,77655.230769,Standard
 CARDIAC VALVE & OTH MAJ CARDIOTHORACIC PROC W/O CARD CATH W CC,49784.905882,Standard
 CARDIAC VALVE & OTH MAJ CARDIOTHORACIC PROC W/O CARD CATH W/O CC/MCC,45037.153846,Standard
 CARDIAC DEFIBRILLATOR IMPLANT W/O CARDIAC CATH W MCC,69821.166667,Standard
 OTHER CARDIOTHORACIC PROCEDURES W/O MCC,46230.473684,Standard
 POSTOPERATIVE & POST,13805.863636000002,Standard
 CHEST PAIN,7964.3611111,Standard
 SEPTICEMIA OR SEVERE SEPSIS W MV >96 HOURS OR PERIPHERAL EXTRACORPOR,65775.4,Standard
 BIOPSIES OF MUSCULOSKELETAL SYSTEM & CONNECTIVE TISSUE W CC,22940.08,Standard
 CERVICAL SPINAL FUSION W/O CC/MCC,23306.961538,Standard
 CERVICAL SPINAL FUSION W CC,29017.192307999998,Standard
 CERVICAL SPINAL FUSION W MCC,50249.076923,Standard
Level 3 Endovascular Procedures,10870.7599999999,DRG
Level 2 Endovascular Procedures,4714.35506550216,DRG
Level 1 Endovascular Procedures,2258.14,DRG
Level 5 ENT Procedures,4023.7,DRG
Level 4 ENT Procedures,1985.68263157894,DRG
 HIP & FEMUR PROCEDURES EXCEPT MAJOR JOINT W MCC,30889.156863,Standard
Level 5 Airway Endoscopy,4462.41548387096,DRG
 MAJOR HIP AND KNEE JOINT REPLACEMENT OR REATTACHMENT OF LOWER EXTREM,32132.033333,Standard
 REVISION OF HIP OR KNEE REPLACEMENT W/O CC/MCC,28251.909091,Standard
 REVISION OF HIP OR KNEE REPLACEMENT W CC,35502.68,Standard
" WND DEBRID & SKN GRFT EXC HAND, FOR MUSCULO",29853.12,Standard
" ""WND DEBRID & SKN GRFT EXC HAND, FOR MUSCULO",57273.733333000004,Standard
Level 4 Airway Endoscopy,2410.58585526315,DRG
Level 3 Airway Endoscopy,1227.4028301886801,DRG
Level 5 Musculoskeletal Procedures,10418.9984375,DRG
Level 4 Musculoskeletal Procedures,5163.44,DRG
 MAJOR HIP AND KNEE JOINT REPLACEMENT OR REATTACHMENT OF LOWER EXTREM,21004.59434,Standard
Level 3 Musculoskeletal Procedures,2452.84444444444,DRG
 HIP & FEMUR PROCEDURES EXCEPT MAJOR JOINT W CC,21460.962962999998,Standard
 MAJOR JOINT/LIMB REATTACHMENT PROCEDURE OF UPPER EXTREMITIES,24649.047619,Standard
Level 1 Laparoscopy and Related Services,4145.43734439832,DRG
Abdominal/Peritoneal/Biliary and Related Procedures,2672.3807070707003,DRG
Complex GI Procedures,3955.2646,DRG
Level 3 Lower GI Procedures,2115.40405405405,DRG
Level 3 Upper GI Procedures,2518.78110047847,DRG
Level 2 Upper GI Procedures,1319.32097919215,DRG
Level 2 ICD and Similar Procedures,34285.6946153846,DRG
Level 1 ICD and Similar Procedures,23596.802222222203,DRG
Level 4 Pacemaker and Similar Procedures,19072.3499999999,DRG
 HIP & FEMUR PROCEDURES EXCEPT MAJOR JOINT W/O CC/MCC,17380.736842,Standard
Level 3 Pacemaker and Similar Procedures,9986.89000000001,DRG
Level 3 Electrophysiologic Procedures,20151.11,DRG
Level 4 Endovascular Procedures,17258.0,DRG
 BACK & NECK PROC EXC SPINAL FUSION W/O CC/MCC,13673.384615,Standard
 BACK & NECK PROC EXC SPINAL FUSION W CC,18908.692308,Standard
 OTHER MUSCULOSKELET SYS & CONN TISS O.R. PROC W/O CC/MCC,14979.0,Standard
 OTHER MUSCULOSKELET SYS & CONN TISS O.R. PROC W CC,19317.571429,Standard
 SOFT TISSUE PROCEDURES W CC,17370.0,Standard
" ""LOWER EXTREM & HUMER PROC EXCEPT HIP,FOOT,FEMUR W/O CC/MCC""",18458.552632,Standard
" LOWER EXTREM & HUMER PROC EXCEPT HIP,FOOT,FEMUR W CC",22309.2,Standard
Level 2 Pacemaker and Similar Procedures,7231.42,DRG
 FEVER AND INFLAMMATORY CONDITIONS,9605.782608700001,Standard
Level 2 Musculoskeletal Procedures,1250.5376,DRG
Level 1 Breast/Lymphatic Surgery and Related Procedures,2529.4307317073103,DRG
 OTHER DIGESTIVE SYSTEM DIAGNOSES W CC,10710.449275,Standard
 OTHER DIGESTIVE SYSTEM DIAGNOSES W MCC,17824.627119,Standard
" ""ESOPHAGITIS, GASTROENT & MISC DIGEST DISORDERS W/O MCC""",8632.857142899999,Standard
" ESOPHAGITIS, GASTROENT & MISC DIGEST DISORDERS W MCC",13866.204819,Standard
 G.I. OBSTRUCTION W/O CC/MCC,6952.1666667,Standard
 G.I. OBSTRUCTION W CC,9778.1025641,Standard
 G.I. OBSTRUCTION W MCC,16409.074074,Standard
 INFLAMMATORY BOWEL DISEASE W CC,10601.294118000002,Standard
 G.I. HEMORRHAGE W/O CC/MCC,7305.375,Standard
 OTHER DIGESTIVE SYSTEM DIAGNOSES W/O CC/MCC,7825.535714300001,Standard
 G.I. HEMORRHAGE W CC,10950.853503,Standard
 DIGESTIVE MALIGNANCY W CC,13222.076923,Standard
 DIGESTIVE MALIGNANCY W MCC,22537.448276,Standard
 MAJOR GASTROINTESTINAL DISORDERS & PERITONEAL INFECTIONS W CC,10928.787879000001,Standard
 MAJOR GASTROINTESTINAL DISORDERS & PERITONEAL INFECTIONS W MCC,19861.5,Standard
 OTHER DIGESTIVE SYSTEM O.R. PROCEDURES W CC,22449.1875,Standard
 OTHER DIGESTIVE SYSTEM O.R. PROCEDURES W MCC,44798.529412,Standard
 HERNIA PROCEDURES EXCEPT INGUINAL & FEMORAL W/O CC/MCC,14218.9375,Standard
 HERNIA PROCEDURES EXCEPT INGUINAL & FEMORAL W CC,18336.851852,Standard
 PERITONEAL ADHESIOLYSIS W CC,24707.25,Standard
 G.I. HEMORRHAGE W MCC,18526.382978999998,Standard
Level 2 Breast/Lymphatic Surgery and Related Procedures,4462.429999999989,DRG
" ""PANCREAS, LIVER & SHUNT PROCEDURES W MCC""",56547.26923099999,Standard
 LAPAROSCOPIC CHOLECYSTECTOMY W/O C.D.E. W MCC,26328.933333,Standard
Level 3 Excision/ Biopsy/ Incision and Drainage,2155.00602941176,DRG
Level 2 Excision/ Biopsy/ Incision and Drainage,1239.03985714286,DRG
 SPINAL FUSION EXCEPT CERVICAL W/O MCC,40218.347826,Standard
 COMBINED ANTERIOR/POSTERIOR SPINAL FUSION W/O CC/MCC,50873.105263,Standard
 COMBINED ANTERIOR/POSTERIOR SPINAL FUSION W CC,66478.128205,Standard
 COMBINED ANTERIOR/POSTERIOR SPINAL FUSION W MCC,100688.38462000001,Standard
 DISORDERS OF THE BILIARY TRACT W/O CC/MCC,8903.3478261,Standard
 DISORDERS OF THE BILIARY TRACT W CC,11487.929576999999,Standard
 DISORDERS OF THE BILIARY TRACT W MCC,17562.444444,Standard
" PANCREAS, LIVER & SHUNT PROCEDURES W CC",29200.758620999997,Standard
" DISORDERS OF LIVER EXCEPT MALIG,CIRR,ALC HEPA W CC",11119.853659,Standard
 DISORDERS OF PANCREAS EXCEPT MALIGNANCY W/O CC/MCC,7518.0,Standard
 DISORDERS OF PANCREAS EXCEPT MALIGNANCY W CC,10486.243902,Standard
 DISORDERS OF PANCREAS EXCEPT MALIGNANCY W MCC,18572.607143,Standard
 MALIGNANCY OF HEPATOBILIARY SYSTEM OR PANCREAS W CC,12483.285714,Standard
 MALIGNANCY OF HEPATOBILIARY SYSTEM OR PANCREAS W MCC,18578.882353,Standard
 CIRRHOSIS & ALCOHOLIC HEPATITIS W CC,11757.916667,Standard
 CIRRHOSIS & ALCOHOLIC HEPATITIS W MCC,20099.738095,Standard
 LAPAROSCOPIC CHOLECYSTECTOMY W/O C.D.E. W/O CC/MCC,13617.0,Standard
 LAPAROSCOPIC CHOLECYSTECTOMY W/O C.D.E. W CC,17862.875,Standard
" ""DISORDERS OF LIVER EXCEPT MALIG,CIRR,ALC HEPA W MCC""",21428.380952,Standard
Level 2 Laparoscopy and Related Services,7491.58,DRG
 INTRACRANIAL HEMORRHAGE OR CEREBRAL INFARCTION W MCC,19297.397162999998,Standard
Level 1 Nerve Procedures,1493.3945177664903,DRG
" STOMACH, ESOPHAGEAL & DUODENAL PROC W MCC",53156.954545,Standard
Comprehensive Observation Services,2144.94656482242,DRG
Level 3 Urology and Related Services,1567.7217380952302,DRG
"Level 3 Extraocular, Repair, and Plastic Eye Procedures",1679.80999999999,DRG
Level 2 Intraocular Procedures,3346.33519480519,DRG
Level 1 Intraocular Procedures,1777.9373509933603,DRG
Level 4 Neurostimulator and Related Procedures,31014.8680952381,DRG
Level 3 Neurostimulator and Related Procedures,19980.43,DRG
Level 2 Neurostimulator and Related Procedures,5706.6,DRG
Level 6 Gynecologic Procedures,5975.25,DRG
Level 5 Gynecologic Procedures,3717.1316666666603,DRG
 OTHER CIRCULATORY SYSTEM DIAGNOSES W CC,10413.081081,Standard
Level 4 Gynecologic Procedures,2107.71,DRG
Level 5 Urology and Related Services,3398.62411764706,DRG
 COMPLICATIONS OF TREATMENT W/O CC/MCC,8329.833333300001,Standard
 SIGNS & SYMPTOMS W MCC,13362.117647,Standard
 SIGNS & SYMPTOMS W/O MCC,8457.3793103,Standard
" LIMB REATTACHMENT, HIP & FEMUR PROC FOR MULTIPLE SIGNIFICANT TRAUMA",34562.416667000005,Standard
 OTHER MULTIPLE SIGNIFICANT TRAUMA W CC,15077.923077000001,Standard
 EXTENSIVE O.R. PROCEDURE UNRELATED TO PRINCIPAL DIAGNOSIS W MCC,46684.266667,Standard
 EXTENSIVE O.R. PROCEDURE UNRELATED TO PRINCIPAL DIAGNOSIS W CC,26006.952381,Standard
 NON,41861.62963,Standard
 NON,35665.411765,Standard
Level 4 Urology and Related Services,2463.08377777778,DRG
Level 7 Urology and Related Services,16439.752105263102,DRG
 OTHER CIRCULATORY SYSTEM DIAGNOSES W MCC,22030.344444,Standard
Level 7 Radiation Therapy,7457.109999999991,DRG
 SYNCOPE & COLLAPSE,8971.8834951,Standard
 SEPTICEMIA OR SEVERE SEPSIS W/O MV >96 HOURS W MCC,19985.344017,Standard
 SEPTICEMIA OR SEVERE SEPSIS W/O MV >96 HOURS W/O MCC,11666.819148999999,Standard
 ACUTE ADJUSTMENT REACTION & PSYCHOSOCIAL DYSFUNCTION,9996.4545455,Standard
 ORGANIC DISTURBANCES & INTELLECTUAL DISABILITY,13918.52,Standard
 PSYCHOSES,13561.307691999998,Standard
 ALCOHOL/DRUG ABUSE OR DEPENDENCE W/O REHABILITATION THERAPY W/O MCC,9834.133333299998,Standard
 OTHER O.R. PROCEDURES FOR INJURIES W MCC,46054.518519,Standard
 OTHER O.R. PROCEDURES FOR INJURIES W CC,20760.857143,Standard
 INTRACRANIAL HEMORRHAGE OR CEREBRAL INFARCTION W CC OR TPA IN 24 HRS,11141.410853,Standard
 COMPLICATIONS OF TREATMENT W MCC,20463.808511000003,Standard
 COMPLICATIONS OF TREATMENT W CC,11164.414634,Standard
 BONE DISEASES & ARTHROPATHIES W/O MCC,8530.1875,Standard
 MEDICAL BACK PROBLEMS W/O MCC,10015.671875,Standard
 POISONING & TOXIC EFFECTS OF DRUGS W MCC,16944.555556,Standard
 CONNECTIVE TISSUE DISORDERS W MCC,24472.722222,Standard
 MEDICAL BACK PROBLEMS W MCC,15817.736841999998,Standard
 CARDIAC ARRHYTHMIA & CONDUCTION DISORDERS W CC,8752.5925926,Standard
 CARDIAC ARRHYTHMIA & CONDUCTION DISORDERS W MCC,13116.894737,Standard
 HYPERTENSION W/O MCC,8180.789473700001,Standard
 HYPERTENSION W MCC,11931.076923,Standard
 CARDIAC ARRHYTHMIA & CONDUCTION DISORDERS W/O CC/MCC,6507.78125,Standard
 FRACTURES OF HIP & PELVIS W/O MCC,8674.285714299998,Standard
 PATHOLOGICAL FRACTURES & MUSCULOSKELET & CONN TISS MALIG W MCC,18907.052632,Standard
 PATHOLOGICAL FRACTURES & MUSCULOSKELET & CONN TISS MALIG W CC,11963.846154,Standard
