Description,Charge,Category
 HERNIA PROCEDURES EXCEPT INGUINAL & FEMORAL W CC,13628.181818000001,Standard
 INFECTIOUS & PARASITIC DISEASES W O.R. PROCEDURE W MCC,36175.588235,Standard
" DISORDERS OF LIVER EXCEPT MALIG,CIRR,ALC HEPA W CC",7988.7272727,Standard
 MAJOR GASTROINTESTINAL DISORDERS & PERITONEAL INFECTIONS W CC,8454.944444399998,Standard
 OTHER DIGESTIVE SYSTEM DIAGNOSES W MCC,12695.25,Standard
 G.I. HEMORRHAGE W CC,7533.354838699999,Standard
 G.I. OBSTRUCTION W CC,6856.45,Standard
 G.I. OBSTRUCTION W/O CC/MCC,4754.6785714,Standard
" ESOPHAGITIS, GASTROENT & MISC DIGEST DISORDERS W MCC",9560.909090899999,Standard
" ""ESOPHAGITIS, GASTROENT & MISC DIGEST DISORDERS W/O MCC""",6206.6626506,Standard
 OTHER DIGESTIVE SYSTEM DIAGNOSES W CC,7593.6666667,Standard
 LAPAROSCOPIC CHOLECYSTECTOMY W/O C.D.E. W/O CC/MCC,9775.5,Standard
 DISORDERS OF THE BILIARY TRACT W CC,7789.95,Standard
 G.I. HEMORRHAGE W MCC,13025.730769,Standard
 MAJOR HIP AND KNEE JOINT REPLACEMENT OR REATTACHMENT OF LOWER EXTREM,15018.923077000001,Standard
 DIABETES W MCC,10690.272727,Standard
 HIP & FEMUR PROCEDURES EXCEPT MAJOR JOINT W MCC,22539.529412,Standard
 RENAL FAILURE W CC,7196.7787611,Standard
 RENAL FAILURE W/O CC/MCC,5068.0,Standard
 KIDNEY & URINARY TRACT INFECTIONS W MCC,8410.5333333,Standard
 KIDNEY & URINARY TRACT INFECTIONS W/O MCC,6296.3513514,Standard
Level 2 Excision/ Biopsy/ Incision and Drainage,1179.83030769231,DRG
Level 3 Excision/ Biopsy/ Incision and Drainage,2088.44,DRG
Level 1 Breast/Lymphatic Surgery and Related Procedures,2397.16956521739,DRG
 OTHER KIDNEY & URINARY TRACT DIAGNOSES W CC,7953.875,Standard
Level 2 Breast/Lymphatic Surgery and Related Procedures,4322.53999999999,DRG
Level 2 Musculoskeletal Procedures,1168.68156862745,DRG
Level 3 Musculoskeletal Procedures,2157.3667105263103,DRG
Level 4 Musculoskeletal Procedures,4977.7284883720795,DRG
Level 5 Musculoskeletal Procedures,10053.66,DRG
Level 3 Airway Endoscopy,1189.09,DRG
Level 5 Airway Endoscopy,4369.52,DRG
 RED BLOOD CELL DISORDERS W MCC,12574.2,Standard
 BIOPSIES OF MUSCULOSKELETAL SYSTEM & CONNECTIVE TISSUE W CC,23692.230768999998,Standard
 RED BLOOD CELL DISORDERS W/O MCC,7010.3148148,Standard
Level 5 Urology and Related Services,3259.09583333333,DRG
 HIP & FEMUR PROCEDURES EXCEPT MAJOR JOINT W CC,15256.419355000002,Standard
 FRACTURES OF HIP & PELVIS W/O MCC,5718.0625,Standard
 MEDICAL BACK PROBLEMS W/O MCC,6912.5625,Standard
" FX, SPRN, STRN & DISL EXCEPT FEMUR, HIP, PELVIS & THIGH W/O MCC",6351.8181818,Standard
 OTHER MUSCULOSKELETAL SYS & CONNECTIVE TISSUE DIAGNOSES W CC,7670.357142899999,Standard
 CELLULITIS W MCC,10985.2,Standard
 CELLULITIS W/O MCC,6862.380952399999,Standard
 MAJOR SMALL & LARGE BOWEL PROCEDURES W/O CC/MCC,12224.333333,Standard
 PERC CARDIOVASC PROC W DRUG,15528.0,Standard
 PERCUTANEOUS CARDIOVASCULAR PROCEDURES W DRUG,23951.166666999998,Standard
 DIABETES W CC,6903.84,Standard
" MISC DISORDERS OF NUTRITION,METABOLISM,FLUIDS/ELECTROLYTES W MCC",8738.620689700001,Standard
" ""MISC DISORDERS OF NUTRITION,METABOLISM,FLUIDS/ELECTROLYTES W/O MCC""",5706.5151515,Standard
 RENAL FAILURE W MCC,11321.702703,Standard
Level 4 Gynecologic Procedures,1921.53411764705,DRG
Level 2 Endovascular Procedures,4282.396875,DRG
 MAJOR SMALL & LARGE BOWEL PROCEDURES W CC,18563.692308,Standard
 BONE DISEASES & ARTHROPATHIES W/O MCC,6258.2727273,Standard
 SYNCOPE & COLLAPSE,6282.6296296,Standard
 SEPTICEMIA OR SEVERE SEPSIS W MV >96 HOURS OR PERIPHERAL EXTRACORPOR,44576.647058999995,Standard
 SEPTICEMIA OR SEVERE SEPSIS W/O MV >96 HOURS W MCC,13723.985294,Standard
 SEPTICEMIA OR SEVERE SEPSIS W/O MV >96 HOURS W/O MCC,8447.0,Standard
 ALCOHOL/DRUG ABUSE OR DEPENDENCE W/O REHABILITATION THERAPY W/O MCC,6531.3043478,Standard
 POISONING & TOXIC EFFECTS OF DRUGS W MCC,14039.222222,Standard
Level 3 Endovascular Procedures,10483.225625,DRG
Level 2 Pacemaker and Similar Procedures,6963.57,DRG
Level 3 Pacemaker and Similar Procedures,9379.16894736841,DRG
Level 2 Upper GI Procedures,1235.88433734939,DRG
 MAJOR SMALL & LARGE BOWEL PROCEDURES W MCC,39085.181818,Standard
" ""ACUTE MYOCARDIAL INFARCTION, DISCHARGED ALIVE W MCC""",12336.611111,Standard
 POISONING & TOXIC EFFECTS OF DRUGS W/O MCC,6878.642857100001,Standard
 BRONCHITIS & ASTHMA W CC/MCC,7356.514285699999,Standard
 BRONCHITIS & ASTHMA W/O CC/MCC,5554.363636399999,Standard
 RESPIRATORY SYSTEM DIAGNOSIS W VENTILATOR SUPPORT <=96 HOURS,17081.272727,Standard
 PERMANENT CARDIAC PACEMAKER IMPLANT W CC,20269.833333000002,Standard
Level 1 Laparoscopy and Related Services,4029.57589041095,DRG
Level 2 Laparoscopy and Related Services,7199.2663636363595,DRG
Level 3 Urology and Related Services,1445.80428571428,DRG
Level 4 Urology and Related Services,2349.1962857142803,DRG
Level 1 Nerve Procedures,1315.16944444444,DRG
Comprehensive Observation Services,2094.019083004,DRG
Abdominal/Peritoneal/Biliary and Related Procedures,2475.14,DRG
" ACUTE MYOCARDIAL INFARCTION, DISCHARGED ALIVE W CC",7177.6111111,Standard
 OTHER KIDNEY & URINARY TRACT DIAGNOSES W MCC,12074.324324,Standard
 HEART FAILURE & SHOCK W MCC,10893.689655,Standard
 CARDIAC ARRHYTHMIA & CONDUCTION DISORDERS W/O CC/MCC,4700.971428600001,Standard
 CARDIAC ARRHYTHMIA & CONDUCTION DISORDERS W CC,6158.75,Standard
Level 1 Endovascular Procedures,2156.97013888889,DRG
 INTRACRANIAL HEMORRHAGE OR CEREBRAL INFARCTION W MCC,11745.888889,Standard
 INTRACRANIAL HEMORRHAGE OR CEREBRAL INFARCTION W CC OR TPA IN 24 HRS,7988.055555600001,Standard
 INTRACRANIAL HEMORRHAGE OR CEREBRAL INFARCTION W/O CC/MCC,7418.9473684,Standard
 SEIZURES W/O MCC,6622.266666699999,Standard
 PULMONARY EMBOLISM W/O MCC,6786.4545455,Standard
" CIRCULATORY DISORDERS EXCEPT AMI, W CARD CATH W/O MCC",8326.2857143,Standard
 RESPIRATORY INFECTIONS & INFLAMMATIONS W CC,10340.086957,Standard
 PULMONARY EDEMA & RESPIRATORY FAILURE,9113.9411765,Standard
 CHRONIC OBSTRUCTIVE PULMONARY DISEASE W MCC,9053.6935484,Standard
 CHRONIC OBSTRUCTIVE PULMONARY DISEASE W CC,7255.4705882,Standard
 RESPIRATORY INFECTIONS & INFLAMMATIONS W MCC,13412.363636,Standard
 CARDIAC ARRHYTHMIA & CONDUCTION DISORDERS W MCC,9336.0888889,Standard
 SIMPLE PNEUMONIA & PLEURISY W/O CC/MCC,5656.9583333,Standard
 HEART FAILURE & SHOCK W CC,7328.2878788,Standard
 SIMPLE PNEUMONIA & PLEURISY W CC,7368.528735600001,Standard
 SIMPLE PNEUMONIA & PLEURISY W MCC,10936.865545999999,Standard
 CHRONIC OBSTRUCTIVE PULMONARY DISEASE W/O CC/MCC,5766.0625,Standard
 HEART FAILURE & SHOCK W/O CC/MCC,5392.086956499999,Standard
