Description,Charge,Category
Level 4 Urology and Related Services,2500.9,DRG
 PERIPHERAL VASCULAR DISORDERS W CC,7688.0625,Standard
 PERIPHERAL VASCULAR DISORDERS W MCC,9138.4545455,Standard
 HEART FAILURE & SHOCK W/O CC/MCC,4739.857142899999,Standard
 HEART FAILURE & SHOCK W CC,6947.5714286,Standard
" ""ACUTE MYOCARDIAL INFARCTION, DISCHARGED ALIVE W/O CC/MCC""",5414.8461538,Standard
" CIRCULATORY DISORDERS EXCEPT AMI, W CARD CATH W/O MCC",8670.0645161,Standard
" ""CIRCULATORY DISORDERS EXCEPT AMI, W CARD CATH W MCC""",14889.727272999999,Standard
 PERIPHERAL VASCULAR DISORDERS W/O CC/MCC,5099.5454545,Standard
" ACUTE MYOCARDIAL INFARCTION, DISCHARGED ALIVE W CC",6446.8947368,Standard
 HEART FAILURE & SHOCK W MCC,10287.806306,Standard
 HYPERTENSION W/O MCC,4964.466666699999,Standard
Level 3 Musculoskeletal Procedures,2397.86478260869,DRG
 CARDIAC ARRHYTHMIA & CONDUCTION DISORDERS W CC,5540.5263158,Standard
Level 4 Musculoskeletal Procedures,5198.7160869565205,DRG
 SYNCOPE & COLLAPSE,5758.4390244,Standard
" ""ACUTE MYOCARDIAL INFARCTION, DISCHARGED ALIVE W MCC""",10635.057692,Standard
Level 2 Musculoskeletal Procedures,1240.92842105263,DRG
Level 2 Breast/Lymphatic Surgery and Related Procedures,4462.43,DRG
Level 1 Breast/Lymphatic Surgery and Related Procedures,2529.73999999999,DRG
Level 3 Excision/ Biopsy/ Incision and Drainage,1868.5506666666602,DRG
Level 2 Excision/ Biopsy/ Incision and Drainage,1236.777,DRG
 CHEST PAIN,5010.5,Standard
 OTHER CIRCULATORY SYSTEM DIAGNOSES W MCC,12987.181818000001,Standard
 CARDIAC ARRHYTHMIA & CONDUCTION DISORDERS W MCC,8819.518518500001,Standard
Level 3 Urology and Related Services,1572.54,DRG
 PERC CARDIOVASC PROC W DRUG,16329.714286000002,Standard
 OTHER RESPIRATORY SYSTEM DIAGNOSES W/O MCC,5967.0,Standard
Comprehensive Observation Services,2165.74801968017,DRG
Level 1 Intraocular Procedures,1776.424,DRG
Level 3 Neurostimulator and Related Procedures,19980.43,DRG
Level 4 Gynecologic Procedures,2107.71,DRG
Level 5 Urology and Related Services,3436.89,DRG
Level 1 Endovascular Procedures,2258.14,DRG
 DEGENERATIVE NERVOUS SYSTEM DISORDERS W/O MCC,7573.0769231,Standard
Level 2 Endovascular Procedures,4548.95533333333,DRG
Level 2 Pacemaker and Similar Procedures,7231.42,DRG
 MAJOR SMALL & LARGE BOWEL PROCEDURES W CC,16955.25,Standard
Level 3 Pacemaker and Similar Procedures,9986.89,DRG
Level 2 Upper GI Procedures,1310.07551020408,DRG
Abdominal/Peritoneal/Biliary and Related Procedures,2688.69384615384,DRG
Level 1 Laparoscopy and Related Services,4077.7567346938704,DRG
Level 3 Endovascular Procedures,10866.2765,DRG
 RESPIRATORY SYSTEM DIAGNOSIS W VENTILATOR SUPPORT <=96 HOURS,16976.473684,Standard
 INTRACRANIAL HEMORRHAGE OR CEREBRAL INFARCTION W MCC,11929.290323000001,Standard
 TRANSIENT ISCHEMIA W/O THROMBOLYTIC,5366.0666667,Standard
 BRONCHITIS & ASTHMA W CC/MCC,6606.0,Standard
 SIMPLE PNEUMONIA & PLEURISY W/O CC/MCC,5072.2857143,Standard
 SIMPLE PNEUMONIA & PLEURISY W CC,6567.9736842,Standard
 SIMPLE PNEUMONIA & PLEURISY W MCC,10122.470588,Standard
 CHRONIC OBSTRUCTIVE PULMONARY DISEASE W/O CC/MCC,5095.2307692,Standard
 CHRONIC OBSTRUCTIVE PULMONARY DISEASE W CC,6459.3783784,Standard
 INTRACRANIAL HEMORRHAGE OR CEREBRAL INFARCTION W CC OR TPA IN 24 HRS,7398.1509434,Standard
 CHRONIC OBSTRUCTIVE PULMONARY DISEASE W MCC,8264.833333300001,Standard
 RESPIRATORY INFECTIONS & INFLAMMATIONS W CC,8662.65,Standard
 RESPIRATORY INFECTIONS & INFLAMMATIONS W MCC,13011.279412,Standard
 PULMONARY EMBOLISM W/O MCC,6677.764705899999,Standard
 PULMONARY EMBOLISM W MCC,9976.9375,Standard
 SEIZURES W/O MCC,5861.4736842,Standard
 OTHER DISORDERS OF NERVOUS SYSTEM W MCC,10937.0,Standard
 PULMONARY EDEMA & RESPIRATORY FAILURE,8765.5,Standard
 MAJOR GASTROINTESTINAL DISORDERS & PERITONEAL INFECTIONS W MCC,11152.909091,Standard
 CARDIAC ARRHYTHMIA & CONDUCTION DISORDERS W/O CC/MCC,4022.2195122000003,Standard
 G.I. HEMORRHAGE W MCC,11139.130435,Standard
 G.I. OBSTRUCTION W/O CC/MCC,4264.3684211,Standard
" ESOPHAGITIS, GASTROENT & MISC DIGEST DISORDERS W MCC",9345.4210526,Standard
" ""ESOPHAGITIS, GASTROENT & MISC DIGEST DISORDERS W/O MCC""",5420.409638600001,Standard
 OTHER DIGESTIVE SYSTEM DIAGNOSES W MCC,11462.666667,Standard
 OTHER DIGESTIVE SYSTEM DIAGNOSES W CC,6608.44,Standard
 OTHER DIGESTIVE SYSTEM DIAGNOSES W/O CC/MCC,4744.9090909,Standard
 LAPAROSCOPIC CHOLECYSTECTOMY W/O C.D.E. W CC,11862.545455,Standard
 MAJOR HIP AND KNEE JOINT REPLACEMENT OR REATTACHMENT OF LOWER EXTREM,14721.201613,Standard
 HIP & FEMUR PROCEDURES EXCEPT MAJOR JOINT W MCC,19668.0,Standard
 HIP & FEMUR PROCEDURES EXCEPT MAJOR JOINT W CC,14634.836734999999,Standard
 G.I. OBSTRUCTION W CC,6017.533333300001,Standard
 FRACTURES OF HIP & PELVIS W/O MCC,5386.0,Standard
 MEDICAL BACK PROBLEMS W/O MCC,6077.2093023,Standard
 BONE DISEASES & ARTHROPATHIES W/O MCC,5363.8181818,Standard
" FX, SPRN, STRN & DISL EXCEPT FEMUR, HIP, PELVIS & THIGH W/O MCC",5769.6388889,Standard
 CELLULITIS W MCC,10089.647059,Standard
 CELLULITIS W/O MCC,6015.7317072999995,Standard
" ""TRAUMA TO THE SKIN, SUBCUT TISS & BREAST W/O MCC""",6038.6818182,Standard
 DIABETES W MCC,9504.7692308,Standard
 DIABETES W CC,6017.9117647,Standard
" MISC DISORDERS OF NUTRITION,METABOLISM,FLUIDS/ELECTROLYTES W MCC",8520.8148148,Standard
" ""MISC DISORDERS OF NUTRITION,METABOLISM,FLUIDS/ELECTROLYTES W/O MCC""",5454.4642857,Standard
 PATHOLOGICAL FRACTURES & MUSCULOSKELET & CONN TISS MALIG W CC,6925.1818182,Standard
 MAJOR GASTROINTESTINAL DISORDERS & PERITONEAL INFECTIONS W CC,7551.761904800001,Standard
 INFECTIOUS & PARASITIC DISEASES W O.R. PROCEDURE W MCC,36437.888889,Standard
 POISONING & TOXIC EFFECTS OF DRUGS W/O MCC,5292.0,Standard
 ALCOHOL/DRUG ABUSE OR DEPENDENCE W/O REHABILITATION THERAPY W/O MCC,5478.24,Standard
 SEPTICEMIA OR SEVERE SEPSIS W/O MV >96 HOURS W/O MCC,7438.8888889,Standard
 SEPTICEMIA OR SEVERE SEPSIS W/O MV >96 HOURS W MCC,12410.735099,Standard
 RENAL FAILURE W CC,6491.848484800001,Standard
 KIDNEY & URINARY TRACT INFECTIONS W MCC,7323.5238094999995,Standard
 KIDNEY & URINARY TRACT INFECTIONS W/O MCC,5812.2588235,Standard
 URINARY STONES W/O ESW LITHOTRIPSY W/O MCC,5809.4285714,Standard
 OTHER KIDNEY & URINARY TRACT DIAGNOSES W MCC,10710.375,Standard
 OTHER KIDNEY & URINARY TRACT DIAGNOSES W CC,7291.3846154,Standard
 RED BLOOD CELL DISORDERS W MCC,9524.4545455,Standard
 RENAL FAILURE W MCC,10325.018868000001,Standard
 RED BLOOD CELL DISORDERS W/O MCC,6293.722222199999,Standard
Level 5 Gynecologic Procedures,3719.92999999999,DRG
 G.I. OBSTRUCTION W MCC,10106.636364,Standard
 COMPLICATED PEPTIC ULCER W CC,7314.363636399999,Standard
 G.I. HEMORRHAGE W/O CC/MCC,4540.5384615,Standard
 G.I. HEMORRHAGE W CC,6889.2307692,Standard
Level 1 Nerve Procedures,1493.53999999999,DRG
 SIGNS & SYMPTOMS W/O MCC,5599.0,Standard
