Description,Charge,Category
 HEART TRANSPLANT OR IMPLANT OF HEART ASSIST SYSTEM W MCC,340829.97143000003,Standard
"Level 4 Extraocular, Repair, and Plastic Eye Procedures",2737.18523809523,DRG
  CRANIOTOMY W MAJOR DEVICE IMPLANT OR ACUTE COMPLEX CNS PDX W MCC OR,63423.5625,Standard
" TRACH W MV >96 HRS OR PDX EXC FACE, MOUTH & NECK W/O MAJ O.R.",144040.91667,Standard
" ""ECMO OR TRACH W MV >96 HRS OR PDX EXC FACE, MOUTH & NECK W MAJ O.R.",211693.625,Standard
Level 7 Radiation Therapy,7457.109999999991,DRG
Comprehensive Observation Services,2179.17000000001,DRG
Level 3 Electrophysiologic Procedures,20151.11,DRG
Level 2 Intraocular Procedures,3333.25796460177,DRG
 CRANIOTOMY & ENDOVASCULAR INTRACRANIAL PROCEDURES W MCC,42665.540541,Standard
Level 2 Pacemaker and Similar Procedures,7231.42,DRG
Level 3 Pacemaker and Similar Procedures,9986.89,DRG
Level 2 ICD and Similar Procedures,34452.79,DRG
Level 2 Upper GI Procedures,1323.72999999999,DRG
Level 3 Lower GI Procedures,2147.46,DRG
Complex GI Procedures,3760.5983333333293,DRG
Abdominal/Peritoneal/Biliary and Related Procedures,2593.8582352941103,DRG
Level 1 Laparoscopy and Related Services,4066.6472307692206,DRG
Level 2 Laparoscopy and Related Services,7317.557878787879,DRG
Level 3 Urology and Related Services,1545.1742857142801,DRG
Level 4 Urology and Related Services,2444.06136363636,DRG
Level 5 Urology and Related Services,3436.89,DRG
Level 3 Musculoskeletal Procedures,2416.51611940298,DRG
Level 2 Musculoskeletal Procedures,1251.91,DRG
Level 2 Breast/Lymphatic Surgery and Related Procedures,4462.429999999989,DRG
Level 1 Breast/Lymphatic Surgery and Related Procedures,2529.73999999999,DRG
Level 1 Intraocular Procedures,1768.58313868613,DRG
Level 1 Nerve Procedures,1493.54,DRG
Level 5 Gynecologic Procedures,3719.93,DRG
Level 4 Gynecologic Procedures,2107.71,DRG
Level 5 Musculoskeletal Procedures,9987.28999999999,DRG
Level 3 Airway Endoscopy,1214.7828125,DRG
"Level 3 Extraocular, Repair, and Plastic Eye Procedures",1652.1086466165302,DRG
Level 4 Airway Endoscopy,2426.55,DRG
Level 4 ENT Procedures,2039.34999999999,DRG
Level 5 ENT Procedures,3955.50169491525,DRG
Level 1 Endovascular Procedures,2246.11515957447,DRG
Level 2 Endovascular Procedures,4715.71,DRG
Level 2 Excision/ Biopsy/ Incision and Drainage,1169.24849206349,DRG
Level 3 Excision/ Biopsy/ Incision and Drainage,2086.47096774193,DRG
Level 5 Airway Endoscopy,4510.92,DRG
 CRANIOTOMY & ENDOVASCULAR INTRACRANIAL PROCEDURES W/O CC/MCC,25852.944444,Standard
 SYNCOPE & COLLAPSE,10141.272727,Standard
 DEGENERATIVE NERVOUS SYSTEM DISORDERS W/O MCC,13318.947368000001,Standard
 CELLULITIS W/O MCC,10257.36,Standard
 MEDICAL BACK PROBLEMS W/O MCC,11019.060606000001,Standard
 MEDICAL BACK PROBLEMS W MCC,16921.538462,Standard
 MAJOR JOINT/LIMB REATTACHMENT PROCEDURE OF UPPER EXTREMITIES,26543.222222,Standard
 HIP & FEMUR PROCEDURES EXCEPT MAJOR JOINT W CC,23438.105263,Standard
 HIP & FEMUR PROCEDURES EXCEPT MAJOR JOINT W MCC,33128.722222000004,Standard
 CERVICAL SPINAL FUSION W/O CC/MCC,27414.5,Standard
 CERVICAL SPINAL FUSION W CC,31866.785713999998,Standard
 MAJOR HIP AND KNEE JOINT REPLACEMENT OR REATTACHMENT OF LOWER EXTREM,23002.938356,Standard
 MAJOR HIP AND KNEE JOINT REPLACEMENT OR REATTACHMENT OF LOWER EXTREM,35629.619048,Standard
 REVISION OF HIP OR KNEE REPLACEMENT W/O CC/MCC,30715.5,Standard
 REVISION OF HIP OR KNEE REPLACEMENT W CC,37955.4375,Standard
" ""WND DEBRID & SKN GRFT EXC HAND, FOR MUSCULO",58462.909090999994,Standard
 SPINAL FUSION EXCEPT CERVICAL W/O MCC,43571.0,Standard
 COMBINED ANTERIOR/POSTERIOR SPINAL FUSION W/O CC/MCC,53761.0,Standard
 DISORDERS OF PANCREAS EXCEPT MALIGNANCY W CC,11207.230769,Standard
 OTHER DIGESTIVE SYSTEM DIAGNOSES W CC,11650.333333,Standard
" ""ESOPHAGITIS, GASTROENT & MISC DIGEST DISORDERS W/O MCC""",9679.2830189,Standard
" ESOPHAGITIS, GASTROENT & MISC DIGEST DISORDERS W MCC",15785.772727000001,Standard
 G.I. OBSTRUCTION W CC,10739.583333,Standard
 G.I. HEMORRHAGE W CC,12285.744681,Standard
 G.I. HEMORRHAGE W MCC,19385.566667,Standard
 MAJOR GASTROINTESTINAL DISORDERS & PERITONEAL INFECTIONS W CC,12119.181818000001,Standard
 DIABETES W MCC,17404.75,Standard
 DIABETES W CC,10293.0,Standard
" MISC DISORDERS OF NUTRITION,METABOLISM,FLUIDS/ELECTROLYTES W MCC",14978.45,Standard
" ""MISC DISORDERS OF NUTRITION,METABOLISM,FLUIDS/ELECTROLYTES W/O MCC""",9415.1304348,Standard
 NON,37355.636364,Standard
 EXTENSIVE O.R. PROCEDURE UNRELATED TO PRINCIPAL DIAGNOSIS W MCC,52096.928571,Standard
 SIGNS & SYMPTOMS W/O MCC,9716.047618999999,Standard
 COMPLICATIONS OF TREATMENT W CC,12695.933332999999,Standard
 COMPLICATIONS OF TREATMENT W MCC,20552.0,Standard
 POISONING & TOXIC EFFECTS OF DRUGS W MCC,16654.166666999998,Standard
 OTHER O.R. PROCEDURES FOR INJURIES W CC,26153.083333000002,Standard
 ALCOHOL/DRUG ABUSE OR DEPENDENCE W/O REHABILITATION THERAPY W/O MCC,10716.333333,Standard
 SEPTICEMIA OR SEVERE SEPSIS W/O MV >96 HOURS W/O MCC,13130.448276000001,Standard
 SEPTICEMIA OR SEVERE SEPSIS W/O MV >96 HOURS W MCC,23362.135294,Standard
 SEPTICEMIA OR SEVERE SEPSIS W MV >96 HOURS OR PERIPHERAL EXTRACORPOR,87648.357143,Standard
 MAJOR GASTROINTESTINAL DISORDERS & PERITONEAL INFECTIONS W MCC,18072.545455,Standard
 POSTOPERATIVE & POST,12446.75,Standard
 POSTOPERATIVE OR POST,45703.285714,Standard
 INFECTIOUS & PARASITIC DISEASES W O.R. PROCEDURE W MCC,65443.0,Standard
 CHEMOTHERAPY W/O ACUTE LEUKEMIA AS SECONDARY DIAGNOSIS W CC,14971.285713999998,Standard
 RED BLOOD CELL DISORDERS W/O MCC,11011.333333,Standard
 OTHER KIDNEY & URINARY TRACT DIAGNOSES W CC,12379.0,Standard
 OTHER KIDNEY & URINARY TRACT DIAGNOSES W MCC,17401.9375,Standard
 KIDNEY & URINARY TRACT INFECTIONS W/O MCC,9861.354838700001,Standard
 KIDNEY & URINARY TRACT INFECTIONS W MCC,16114.185185,Standard
 RENAL FAILURE W CC,11437.56,Standard
 RENAL FAILURE W MCC,18483.742857,Standard
 KIDNEY TRANSPLANT,36875.470588,Standard
 POSTOPERATIVE OR POST,23641.0,Standard
 MAJOR SMALL & LARGE BOWEL PROCEDURES W CC,28100.586207,Standard
 MAJOR SMALL & LARGE BOWEL PROCEDURES W MCC,50229.473684,Standard
 OTHER CIRCULATORY SYSTEM DIAGNOSES W CC,12519.952381000001,Standard
 OTHER CARDIOTHORACIC PROCEDURES W MCC,71524.785714,Standard
 CARDIAC VALVE & OTH MAJ CARDIOTHORACIC PROC W/O CARD CATH W CC,53223.5,Standard
 CARDIAC VALVE & OTH MAJ CARDIOTHORACIC PROC W/O CARD CATH W MCC,81546.804878,Standard
 CARDIAC VALVE & OTH MAJ CARDIOTHORACIC PROC W CARD CATH W MCC,104908.53846,Standard
 RESPIRATORY SYSTEM DIAGNOSIS W VENTILATOR SUPPORT >96 HOURS,72751.388889,Standard
 BRONCHITIS & ASTHMA W CC/MCC,11529.642856999999,Standard
 SIMPLE PNEUMONIA & PLEURISY W CC,11434.268293000001,Standard
 SIMPLE PNEUMONIA & PLEURISY W MCC,16138.170731999999,Standard
 CHRONIC OBSTRUCTIVE PULMONARY DISEASE W CC,10788.714286,Standard
 CHRONIC OBSTRUCTIVE PULMONARY DISEASE W MCC,13671.793103,Standard
 PULMONARY EDEMA & RESPIRATORY FAILURE,15940.666667,Standard
 CORONARY BYPASS W/O CARDIAC CATH W MCC,58652.76190499999,Standard
 RESPIRATORY INFECTIONS & INFLAMMATIONS W CC,14838.272727000001,Standard
 OTHER RESP SYSTEM O.R. PROCEDURES W CC,20090.833333000002,Standard
 OTHER RESP SYSTEM O.R. PROCEDURES W MCC,45554.0,Standard
 MAJOR CHEST PROCEDURES W CC,28513.818182,Standard
 SEIZURES W/O MCC,10281.238095,Standard
 SEIZURES W MCC,19082.666666999998,Standard
 OTHER DISORDERS OF NERVOUS SYSTEM W CC,11588.611111,Standard
 OTHER DISORDERS OF NERVOUS SYSTEM W MCC,17220.684211,Standard
" ""TRAUMATIC STUPOR & COMA, COMA <1 HR W CC""",12861.9375,Standard
" TRAUMATIC STUPOR & COMA, COMA <1 HR W MCC",26357.133333,Standard
 INTRACRANIAL HEMORRHAGE OR CEREBRAL INFARCTION W CC OR TPA IN 24 HRS,12500.588235,Standard
 INTRACRANIAL HEMORRHAGE OR CEREBRAL INFARCTION W MCC,21702.893616999998,Standard
 RESPIRATORY INFECTIONS & INFLAMMATIONS W MCC,21434.454545,Standard
 NERVOUS SYSTEM NEOPLASMS W MCC,18254.954545,Standard
 CORONARY BYPASS W/O CARDIAC CATH W/O MCC,42252.736842,Standard
 PERCUTANEOUS CARDIOVASCULAR PROCEDURES W DRUG,35928.05,Standard
 OTHER CIRCULATORY SYSTEM DIAGNOSES W MCC,25679.387097,Standard
Level 3 Endovascular Procedures,10870.76,DRG
 CARDIAC ARRHYTHMIA & CONDUCTION DISORDERS W/O CC/MCC,7728.043478300001,Standard
 CARDIAC ARRHYTHMIA & CONDUCTION DISORDERS W CC,9830.169811299998,Standard
 CARDIAC ARRHYTHMIA & CONDUCTION DISORDERS W MCC,16259.4,Standard
 HYPERTENSION W/O MCC,8663.6666667,Standard
 ATHEROSCLEROSIS W/O MCC,8670.0,Standard
 HEART FAILURE & SHOCK W CC,11695.037736,Standard
 HEART FAILURE & SHOCK W MCC,17648.231405000002,Standard
" CIRCULATORY DISORDERS EXCEPT AMI, W CARD CATH W/O MCC",14413.113636000002,Standard
" ""CIRCULATORY DISORDERS EXCEPT AMI, W CARD CATH W MCC""",26892.813559,Standard
 PERMANENT CARDIAC PACEMAKER IMPLANT W MCC,39649.411765,Standard
" ACUTE MYOCARDIAL INFARCTION, EXPIRED W MCC",21497.076923,Standard
" ACUTE MYOCARDIAL INFARCTION, DISCHARGED ALIVE W CC",12056.5,Standard
" ""ACUTE MYOCARDIAL INFARCTION, DISCHARGED ALIVE W MCC""",20522.875,Standard
 PERCUTANEOUS INTRACARDIAC PROCEDURES W/O MCC,31841.2,Standard
 PERCUTANEOUS INTRACARDIAC PROCEDURES W MCC,37428.142857,Standard
 OTHER MAJOR CARDIOVASCULAR PROCEDURES W MCC,63261.071428999996,Standard
 ENDOVASCULAR CARDIAC VALVE REPLACEMENT W/O MCC,63693.258621,Standard
 ENDOVASCULAR CARDIAC VALVE REPLACEMENT W MCC,83097.5,Standard
 OTHER VASCULAR PROCEDURES W/O CC/MCC,21055.545455,Standard
 OTHER VASCULAR PROCEDURES W CC,28109.95,Standard
 OTHER VASCULAR PROCEDURES W MCC,40422.666667000005,Standard
 PERC CARDIOVASC PROC W DRUG,23684.076923,Standard
" ""ACUTE MYOCARDIAL INFARCTION, DISCHARGED ALIVE W/O CC/MCC""",9780.4615385,Standard
Level 4 Musculoskeletal Procedures,5199.26,DRG
