Description,Charge,Category
 INFECTIOUS & PARASITIC DISEASES W O.R. PROCEDURE W MCC,33216.368421,Standard
Level 2 Laparoscopy and Related Services,7211.26826086957,DRG
 RED BLOOD CELL DISORDERS W/O MCC,6049.5416667,Standard
 RED BLOOD CELL DISORDERS W MCC,13643.5625,Standard
 OTHER KIDNEY & URINARY TRACT DIAGNOSES W CC,7091.461538500001,Standard
 OTHER KIDNEY & URINARY TRACT DIAGNOSES W MCC,10103.045455,Standard
Level 2 Upper GI Procedures,1274.2278461538401,DRG
 SEPTICEMIA OR SEVERE SEPSIS W/O MV >96 HOURS W/O MCC,7830.1836735,Standard
 POISONING & TOXIC EFFECTS OF DRUGS W MCC,9567.1875,Standard
 SEPTICEMIA OR SEVERE SEPSIS W/O MV >96 HOURS W MCC,12413.502618,Standard
Comprehensive Observation Services,2100.5222837706897,DRG
Level 1 Nerve Procedures,1383.1279120879099,DRG
Level 5 Gynecologic Procedures,3603.32,DRG
Level 4 Gynecologic Procedures,1984.91805555555,DRG
Level 5 Urology and Related Services,3234.90704225352,DRG
Level 4 Urology and Related Services,2393.4147619047603,DRG
Level 3 Urology and Related Services,1466.8237037037,DRG
Level 1 Laparoscopy and Related Services,3995.29418803419,DRG
Abdominal/Peritoneal/Biliary and Related Procedures,2461.28,DRG
 TRANSIENT ISCHEMIA W/O THROMBOLYTIC,5284.0,Standard
 OTHER DIGESTIVE SYSTEM DIAGNOSES W CC,7524.96,Standard
 MAJOR HIP AND KNEE JOINT REPLACEMENT OR REATTACHMENT OF LOWER EXTREM,22313.833333000002,Standard
 DISORDERS OF THE BILIARY TRACT W CC,7415.9166667,Standard
 OTHER DIGESTIVE SYSTEM DIAGNOSES W/O CC/MCC,4747.0,Standard
 OTHER DIGESTIVE SYSTEM DIAGNOSES W MCC,13017.0,Standard
" ""ESOPHAGITIS, GASTROENT & MISC DIGEST DISORDERS W/O MCC""",5363.4307692,Standard
" ESOPHAGITIS, GASTROENT & MISC DIGEST DISORDERS W MCC",8660.25,Standard
 G.I. OBSTRUCTION W/O CC/MCC,4613.5454545,Standard
 G.I. OBSTRUCTION W CC,5713.652173899999,Standard
 MAJOR HIP AND KNEE JOINT REPLACEMENT OR REATTACHMENT OF LOWER EXTREM,14564.496212,Standard
 G.I. OBSTRUCTION W MCC,10349.416667,Standard
 G.I. HEMORRHAGE W CC,6868.7,Standard
 G.I. HEMORRHAGE W MCC,11690.36,Standard
 MAJOR GASTROINTESTINAL DISORDERS & PERITONEAL INFECTIONS W CC,7491.8947368,Standard
 MAJOR SMALL & LARGE BOWEL PROCEDURES W/O CC/MCC,11419.466667,Standard
 MAJOR SMALL & LARGE BOWEL PROCEDURES W CC,16840.714286000002,Standard
 MAJOR SMALL & LARGE BOWEL PROCEDURES W MCC,36669.65,Standard
 OTHER CIRCULATORY SYSTEM DIAGNOSES W MCC,11902.545455,Standard
 CHEST PAIN,4695.0666667,Standard
 G.I. HEMORRHAGE W/O CC/MCC,4472.466666699999,Standard
 HIP & FEMUR PROCEDURES EXCEPT MAJOR JOINT W MCC,19805.357143,Standard
 HIP & FEMUR PROCEDURES EXCEPT MAJOR JOINT W CC,14111.035713999998,Standard
 MAJOR JOINT/LIMB REATTACHMENT PROCEDURE OF UPPER EXTREMITIES,16999.947368,Standard
 KIDNEY & URINARY TRACT INFECTIONS W MCC,7237.4791667,Standard
 KIDNEY & URINARY TRACT INFECTIONS W/O MCC,5526.5294118,Standard
 URINARY STONES W/O ESW LITHOTRIPSY W/O MCC,5900.6190476,Standard
Level 3 Endovascular Procedures,10488.8299999999,DRG
 RENAL FAILURE W/O CC/MCC,4351.5882353,Standard
 RENAL FAILURE W CC,6504.625,Standard
 RENAL FAILURE W MCC,10518.5,Standard
" ""MISC DISORDERS OF NUTRITION,METABOLISM,FLUIDS/ELECTROLYTES W/O MCC""",5204.3030303000005,Standard
" MISC DISORDERS OF NUTRITION,METABOLISM,FLUIDS/ELECTROLYTES W MCC",7935.5,Standard
 DIABETES W CC,5514.6875,Standard
 DIABETES W MCC,9254.842105299998,Standard
" ""TRAUMA TO THE SKIN, SUBCUT TISS & BREAST W/O MCC""",5943.0,Standard
 CELLULITIS W/O MCC,6089.6804124,Standard
 CELLULITIS W MCC,9493.423076899999,Standard
" FX, SPRN, STRN & DISL EXCEPT FEMUR, HIP, PELVIS & THIGH W/O MCC",5467.6111111,Standard
 MEDICAL BACK PROBLEMS W/O MCC,5945.1052632,Standard
 MEDICAL BACK PROBLEMS W MCC,10383.166667,Standard
 PATHOLOGICAL FRACTURES & MUSCULOSKELET & CONN TISS MALIG W CC,6517.9285714,Standard
 FRACTURES OF HIP & PELVIS W/O MCC,5201.722222199999,Standard
 SYNCOPE & COLLAPSE,5629.7586206999995,Standard
 CARDIAC ARRHYTHMIA & CONDUCTION DISORDERS W/O CC/MCC,3961.9230769,Standard
 MAJOR GASTROINTESTINAL DISORDERS & PERITONEAL INFECTIONS W MCC,12012.0,Standard
 CARDIAC ARRHYTHMIA & CONDUCTION DISORDERS W MCC,8075.418604699999,Standard
 RESPIRATORY INFECTIONS & INFLAMMATIONS W CC,9000.8461538,Standard
 RESPIRATORY INFECTIONS & INFLAMMATIONS W MCC,12365.333333,Standard
 PULMONARY EMBOLISM W/O MCC,6285.25,Standard
 PULMONARY EMBOLISM W MCC,9432.4736842,Standard
 OTITIS MEDIA & URI W/O MCC,5026.5,Standard
 CARDIAC ARRHYTHMIA & CONDUCTION DISORDERS W CC,5422.1851852,Standard
 INTRACRANIAL HEMORRHAGE OR CEREBRAL INFARCTION W MCC,11356.153846,Standard
Level 2 Endovascular Procedures,4567.89,DRG
Level 4 Airway Endoscopy,2350.48,DRG
Level 5 Musculoskeletal Procedures,9634.7575,DRG
Level 4 Musculoskeletal Procedures,4991.32312499999,DRG
Level 3 Musculoskeletal Procedures,2283.5845600000002,DRG
Level 2 Musculoskeletal Procedures,1203.4142962962899,DRG
Level 2 Breast/Lymphatic Surgery and Related Procedures,4183.10322580644,DRG
Level 1 Breast/Lymphatic Surgery and Related Procedures,2403.31615384615,DRG
Level 3 Excision/ Biopsy/ Incision and Drainage,2087.06675,DRG
Level 2 Excision/ Biopsy/ Incision and Drainage,1202.2693548387101,DRG
 PULMONARY EDEMA & RESPIRATORY FAILURE,8453.9876543,Standard
 CHRONIC OBSTRUCTIVE PULMONARY DISEASE W MCC,8027.287234,Standard
 INTRACRANIAL HEMORRHAGE OR CEREBRAL INFARCTION W CC OR TPA IN 24 HRS,7212.944444399999,Standard
 CHRONIC OBSTRUCTIVE PULMONARY DISEASE W CC,6276.3333333,Standard
 PERIPHERAL VASCULAR DISORDERS W CC,9638.5384615,Standard
 PERIPHERAL VASCULAR DISORDERS W MCC,10402.066667000001,Standard
 HEART FAILURE & SHOCK W/O CC/MCC,4660.92,Standard
 HEART FAILURE & SHOCK W CC,6541.8709677,Standard
 HEART FAILURE & SHOCK W MCC,9938.4623116,Standard
" ""ACUTE MYOCARDIAL INFARCTION, DISCHARGED ALIVE W/O CC/MCC""",5324.5789474,Standard
" ""ACUTE MYOCARDIAL INFARCTION, DISCHARGED ALIVE W MCC""",11361.25,Standard
 BRONCHITIS & ASTHMA W/O CC/MCC,4957.636363600001,Standard
 BRONCHITIS & ASTHMA W CC/MCC,6499.25,Standard
" ACUTE MYOCARDIAL INFARCTION, DISCHARGED ALIVE W CC",6944.944444399999,Standard
 SIMPLE PNEUMONIA & PLEURISY W/O CC/MCC,5381.6666667,Standard
 SIMPLE PNEUMONIA & PLEURISY W CC,6584.49,Standard
 CHRONIC OBSTRUCTIVE PULMONARY DISEASE W/O CC/MCC,5428.0454545,Standard
 SIMPLE PNEUMONIA & PLEURISY W MCC,9393.245283,Standard
