Description,Charge,Category
Level 4 Endovascular Procedures,13193.27,DRG
Level 2 Pacemaker and Similar Procedures,5361.24,DRG
 G.I. OBSTRUCTION W CC,4680.1470588,Standard
" CIRCULATORY DISORDERS EXCEPT AMI, W CARD CATH W/O MCC",6669.9333333,Standard
 HEART FAILURE & SHOCK W MCC,8275.1284722,Standard
 HEART FAILURE & SHOCK W CC,5361.847457600001,Standard
 HEART FAILURE & SHOCK W/O CC/MCC,3933.1666666999995,Standard
 PERIPHERAL VASCULAR DISORDERS W MCC,7464.6666667,Standard
 PERIPHERAL VASCULAR DISORDERS W CC,5709.65,Standard
 HYPERTENSION W/O MCC,4039.8181818000003,Standard
 CARDIAC ARRHYTHMIA & CONDUCTION DISORDERS W MCC,6746.2432432,Standard
 CARDIAC ARRHYTHMIA & CONDUCTION DISORDERS W CC,4472.3137255,Standard
 CARDIAC ARRHYTHMIA & CONDUCTION DISORDERS W/O CC/MCC,3509.34375,Standard
 OTHER CIRCULATORY SYSTEM DIAGNOSES W MCC,11494.375,Standard
 OTHER CIRCULATORY SYSTEM DIAGNOSES W CC,5524.6666667,Standard
 MAJOR SMALL & LARGE BOWEL PROCEDURES W MCC,26961.814814999998,Standard
 MAJOR SMALL & LARGE BOWEL PROCEDURES W CC,13695.048780000001,Standard
" ""CIRCULATORY DISORDERS EXCEPT AMI, W CARD CATH W MCC""",12227.708333,Standard
 MAJOR GASTROINTESTINAL DISORDERS & PERITONEAL INFECTIONS W MCC,9519.6842105,Standard
 G.I. HEMORRHAGE W MCC,9375.827586200001,Standard
 G.I. HEMORRHAGE W CC,5574.8611111,Standard
 COMPLICATED PEPTIC ULCER W CC,6075.8333333,Standard
 G.I. OBSTRUCTION W MCC,8562.047618999999,Standard
 POISONING & TOXIC EFFECTS OF DRUGS W MCC,7849.952381,Standard
 G.I. OBSTRUCTION W/O CC/MCC,3642.2222221999996,Standard
" ESOPHAGITIS, GASTROENT & MISC DIGEST DISORDERS W MCC",6986.6470588,Standard
" ""ESOPHAGITIS, GASTROENT & MISC DIGEST DISORDERS W/O MCC""",4466.9452055,Standard
 OTHER DIGESTIVE SYSTEM DIAGNOSES W MCC,9206.727272700002,Standard
 OTHER DIGESTIVE SYSTEM DIAGNOSES W CC,5407.7272727,Standard
 LAPAROSCOPIC CHOLECYSTECTOMY W/O C.D.E. W CC,9336.148148100001,Standard
 DISORDERS OF PANCREAS EXCEPT MALIGNANCY W MCC,9162.4545455,Standard
 DISORDERS OF PANCREAS EXCEPT MALIGNANCY W CC,5089.4,Standard
 DISORDERS OF PANCREAS EXCEPT MALIGNANCY W/O CC/MCC,3749.1818181999997,Standard
 MAJOR GASTROINTESTINAL DISORDERS & PERITONEAL INFECTIONS W CC,5970.8,Standard
" ACUTE MYOCARDIAL INFARCTION, DISCHARGED ALIVE W CC",5492.6,Standard
" ""ACUTE MYOCARDIAL INFARCTION, DISCHARGED ALIVE W MCC""",8986.3333333,Standard
 PERC CARDIOVASC PROC W DRUG,11943.481481,Standard
 CRANIOTOMY & ENDOVASCULAR INTRACRANIAL PROCEDURES W MCC,23172.4,Standard
 EXTRACRANIAL PROCEDURES W/O CC/MCC,6334.0,Standard
 INTRACRANIAL HEMORRHAGE OR CEREBRAL INFARCTION W MCC,9701.4615385,Standard
 INTRACRANIAL HEMORRHAGE OR CEREBRAL INFARCTION W CC OR TPA IN 24 HRS,5685.4081633000005,Standard
Level 3 Pacemaker and Similar Procedures,7513.609999999991,DRG
Level 2 ICD and Similar Procedures,25659.02,DRG
Level 2 Upper GI Procedures,1034.0,DRG
 TRANSIENT ISCHEMIA W/O THROMBOLYTIC,4491.142857100001,Standard
" TRAUMATIC STUPOR & COMA, COMA <1 HR W MCC",10859.181818000001,Standard
" ""TRAUMATIC STUPOR & COMA, COMA <1 HR W CC""",6464.3333333,Standard
 HEADACHES W/O MCC,4317.375,Standard
 OTHER RESP SYSTEM O.R. PROCEDURES W MCC,19973.702703,Standard
 PULMONARY EMBOLISM W MCC,8135.964285699999,Standard
 PULMONARY EMBOLISM W/O MCC,5029.4285714,Standard
 RESPIRATORY INFECTIONS & INFLAMMATIONS W MCC,9932.753246799999,Standard
 RESPIRATORY INFECTIONS & INFLAMMATIONS W CC,7320.7272727,Standard
 RESPIRATORY NEOPLASMS W MCC,10032.692308,Standard
 PERCUTANEOUS CARDIOVASCULAR PROCEDURES W DRUG,17811.2,Standard
 PERMANENT CARDIAC PACEMAKER IMPLANT W CC,14474.571429,Standard
 PERMANENT CARDIAC PACEMAKER IMPLANT W MCC,19589.916666999998,Standard
 CORONARY BYPASS W CARDIAC CATH W/O MCC,27757.181818,Standard
 RESPIRATORY SYSTEM DIAGNOSIS W VENTILATOR SUPPORT <=96 HOURS,13231.333333,Standard
 DIABETES W CC,4981.0625,Standard
 SPINAL FUSION EXCEPT CERVICAL W/O MCC,22921.863636000002,Standard
 BRONCHITIS & ASTHMA W CC/MCC,5313.5454545,Standard
 SIMPLE PNEUMONIA & PLEURISY W CC,5242.875,Standard
 SIMPLE PNEUMONIA & PLEURISY W MCC,7715.4606742,Standard
 CHRONIC OBSTRUCTIVE PULMONARY DISEASE W CC,5258.548387100001,Standard
 CHRONIC OBSTRUCTIVE PULMONARY DISEASE W MCC,6551.567567600001,Standard
 PULMONARY EDEMA & RESPIRATORY FAILURE,6993.3053435,Standard
 MAJOR CHEST TRAUMA W CC,5795.5,Standard
 SIMPLE PNEUMONIA & PLEURISY W/O CC/MCC,4241.7692308,Standard
 BILATERAL OR MULTIPLE MAJOR JOINT PROCS OF LOWER EXTREMITY W/O MCC,18328.448276,Standard
 REVISION OF HIP OR KNEE REPLACEMENT W CC,19200.153846,Standard
 MAJOR HIP AND KNEE JOINT REPLACEMENT OR REATTACHMENT OF LOWER EXTREM,17770.692308,Standard
Level 2 Laparoscopy and Related Services,5564.46,DRG
Level 3 Urology and Related Services,1221.6426277372198,DRG
Level 4 Urology and Related Services,1948.905,DRG
Level 5 Urology and Related Services,2619.02070381233,DRG
Level 6 Urology and Related Services,5565.21,DRG
Level 4 Gynecologic Procedures,1646.39,DRG
Level 5 Gynecologic Procedures,2905.73999999999,DRG
Level 1 Nerve Procedures,1137.65222929935,DRG
Level 2 Neurostimulator and Related Procedures,4386.679999999989,DRG
Level 3 Neurostimulator and Related Procedures,15319.84,DRG
Level 1 Intraocular Procedures,1372.17643153527,DRG
Comprehensive Observation Services,1675.57889238017,DRG
" ""AMPUTAT OF LOWER LIMB FOR ENDOCRINE,NUTRIT,& METABOL DIS W CC""",11316.090909,Standard
 DIABETES W MCC,7689.214285699999,Standard
" MISC DISORDERS OF NUTRITION,METABOLISM,FLUIDS/ELECTROLYTES W MCC",6517.0,Standard
" ""MISC DISORDERS OF NUTRITION,METABOLISM,FLUIDS/ELECTROLYTES W/O MCC""",4440.2857143,Standard
 TRANSURETHRAL PROCEDURES W CC,7795.4545455,Standard
 SEPTICEMIA OR SEVERE SEPSIS W/O MV >96 HOURS W/O MCC,5858.8082192,Standard
 SEPTICEMIA OR SEVERE SEPSIS W/O MV >96 HOURS W MCC,10081.296748,Standard
 SEPTICEMIA OR SEVERE SEPSIS W MV >96 HOURS OR PERIPHERAL EXTRACORPOR,33453.363636,Standard
 INFECTIOUS & PARASITIC DISEASES W O.R. PROCEDURE W CC,13229.363636,Standard
 INFECTIOUS & PARASITIC DISEASES W O.R. PROCEDURE W MCC,27477.136986,Standard
 COAGULATION DISORDERS,10312.5,Standard
Level 1 Laparoscopy and Related Services,3179.6390517241302,DRG
 RED BLOOD CELL DISORDERS W/O MCC,5074.136363600001,Standard
 OTHER KIDNEY & URINARY TRACT DIAGNOSES W MCC,8849.890625,Standard
 KIDNEY & URINARY TRACT INFECTIONS W/O MCC,4524.33,Standard
 KIDNEY & URINARY TRACT INFECTIONS W MCC,6018.2435897,Standard
 RENAL FAILURE W/O CC/MCC,3692.2142857,Standard
 RENAL FAILURE W CC,5274.4036697,Standard
 RENAL FAILURE W MCC,8102.883495100001,Standard
 OTHER KIDNEY & URINARY TRACT DIAGNOSES W CC,5896.9090909,Standard
" TRACH W MV >96 HRS OR PDX EXC FACE, MOUTH & NECK W/O MAJ O.R.",55626.083333,Standard
Abdominal/Peritoneal/Biliary and Related Procedures,2072.03239999999,DRG
Level 2 Excision/ Biopsy/ Incision and Drainage,955.42040540541,DRG
 MAJOR HIP AND KNEE JOINT REPLACEMENT OR REATTACHMENT OF LOWER EXTREM,11701.534247,Standard
 CERVICAL SPINAL FUSION W CC,15791.5625,Standard
 CERVICAL SPINAL FUSION W/O CC/MCC,13687.363636000002,Standard
 HIP & FEMUR PROCEDURES EXCEPT MAJOR JOINT W MCC,16265.615385,Standard
 HIP & FEMUR PROCEDURES EXCEPT MAJOR JOINT W CC,11292.951613,Standard
 MAJOR JOINT/LIMB REATTACHMENT PROCEDURE OF UPPER EXTREMITIES,13381.929576999999,Standard
" LOWER EXTREM & HUMER PROC EXCEPT HIP,FOOT,FEMUR W CC",12564.428570999999,Standard
" ""LOWER EXTREM & HUMER PROC EXCEPT HIP,FOOT,FEMUR W/O CC/MCC""",10322.125,Standard
 SOFT TISSUE PROCEDURES W CC,9176.5454545,Standard
 OTHER MUSCULOSKELET SYS & CONN TISS O.R. PROC W CC,10200.416667,Standard
 OTHER MUSCULOSKELET SYS & CONN TISS O.R. PROC W/O CC/MCC,8086.0,Standard
 FRACTURES OF HIP & PELVIS W/O MCC,4277.5714286,Standard
 MEDICAL BACK PROBLEMS W MCC,8639.8333333,Standard
 MEDICAL BACK PROBLEMS W/O MCC,4962.9473683999995,Standard
" FX, SPRN, STRN & DISL EXCEPT FEMUR, HIP, PELVIS & THIGH W/O MCC",4550.6666667,Standard
 CELLULITIS W MCC,7938.9,Standard
 CELLULITIS W/O MCC,4903.7377049,Standard
Level 3 Excision/ Biopsy/ Incision and Drainage,1661.43929824561,DRG
Level 1 Breast/Lymphatic Surgery and Related Procedures,1914.9277777777697,DRG
Level 2 Breast/Lymphatic Surgery and Related Procedures,3274.25586206896,DRG
Level 2 Musculoskeletal Procedures,956.702758620688,DRG
Level 3 Musculoskeletal Procedures,1872.0060629921302,DRG
Level 4 Musculoskeletal Procedures,4008.18573604061,DRG
Level 3 Lower GI Procedures,1677.45,DRG
Level 5 Musculoskeletal Procedures,7853.11,DRG
Level 4 Airway Endoscopy,1788.0018181818102,DRG
Level 5 Airway Endoscopy,3290.78666666666,DRG
Level 5 ENT Procedures,3143.03,DRG
Level 1 Endovascular Procedures,1740.0,DRG
Level 2 Endovascular Procedures,3683.57,DRG
Level 3 Endovascular Procedures,8122.80380434783,DRG
Level 3 Airway Endoscopy,958.889999999999,DRG
" ""ECMO OR TRACH W MV >96 HRS OR PDX EXC FACE, MOUTH & NECK W MAJ O.R.",81208.25,Standard
 POISONING & TOXIC EFFECTS OF DRUGS W/O MCC,4259.1666667,Standard
