Description,Charge,Category
" ""ESOPHAGITIS, GASTROENT & MISC DIGEST DISORDERS W/O MCC""",5669.527777800001,Standard
Level 3 Musculoskeletal Procedures,2008.91363636363,DRG
Comprehensive Observation Services,1788.95668749999,DRG
Level 1 Intraocular Procedures,1467.19333333333,DRG
Level 4 Musculoskeletal Procedures,4289.76,DRG
 CHRONIC OBSTRUCTIVE PULMONARY DISEASE W MCC,7981.8181818,Standard
 CHRONIC OBSTRUCTIVE PULMONARY DISEASE W CC,6421.0,Standard
 CHRONIC OBSTRUCTIVE PULMONARY DISEASE W/O CC/MCC,5255.1666667,Standard
 SIMPLE PNEUMONIA & PLEURISY W CC,6827.4871795,Standard
 SIMPLE PNEUMONIA & PLEURISY W/O CC/MCC,5820.782608699999,Standard
 CELLULITIS W/O MCC,6105.6111111,Standard
 HEART FAILURE & SHOCK W/O CC/MCC,4902.357142899999,Standard
 KIDNEY & URINARY TRACT INFECTIONS W/O MCC,5689.1111111,Standard
 SEPTICEMIA OR SEVERE SEPSIS W/O MV >96 HOURS W MCC,11822.166667,Standard
 SEPTICEMIA OR SEVERE SEPSIS W/O MV >96 HOURS W/O MCC,7358.2727273,Standard
 SIGNS & SYMPTOMS W/O MCC,5540.5833333,Standard
" ""MISC DISORDERS OF NUTRITION,METABOLISM,FLUIDS/ELECTROLYTES W/O MCC""",5374.6842105,Standard
 HEART FAILURE & SHOCK W MCC,9689.3913043,Standard
