Description,Charge,Category
 KIDNEY & URINARY TRACT INFECTIONS W MCC,6402.3207547,Standard
 RENAL FAILURE W/O CC/MCC,4173.5,Standard
 RENAL FAILURE W CC,5673.9259259,Standard
 CARDIAC ARRHYTHMIA & CONDUCTION DISORDERS W MCC,7503.7916667,Standard
 OTHER KIDNEY & URINARY TRACT PROCEDURES W MCC,20525.333333000002,Standard
 TRANSURETHRAL PROCEDURES W CC,8309.818181800001,Standard
 KIDNEY & URINARY TRACT INFECTIONS W/O MCC,4949.9661017,Standard
" ""MISC DISORDERS OF NUTRITION,METABOLISM,FLUIDS/ELECTROLYTES W/O MCC""",4770.4545455,Standard
 RENAL FAILURE W MCC,8687.6363636,Standard
 OTHER KIDNEY & URINARY TRACT DIAGNOSES W MCC,9298.607142899999,Standard
 RED BLOOD CELL DISORDERS W/O MCC,5530.16,Standard
 RED BLOOD CELL DISORDERS W MCC,8977.095238099999,Standard
 EXTENSIVE O.R. PROCEDURE UNRELATED TO PRINCIPAL DIAGNOSIS W CC,14776.5,Standard
 SEPTICEMIA OR SEVERE SEPSIS W/O MV >96 HOURS W/O MCC,6416.1016948999995,Standard
 SEPTICEMIA OR SEVERE SEPSIS W/O MV >96 HOURS W MCC,10769.918367,Standard
" MISC DISORDERS OF NUTRITION,METABOLISM,FLUIDS/ELECTROLYTES W MCC",6788.6764706,Standard
 COAGULATION DISORDERS,10220.294118000002,Standard
 SEPTICEMIA OR SEVERE SEPSIS W MV >96 HOURS OR PERIPHERAL EXTRACORPOR,33540.230769,Standard
 INFECTIOUS & PARASITIC DISEASES W O.R. PROCEDURE W CC,13791.45,Standard
 INFECTIOUS & PARASITIC DISEASES W O.R. PROCEDURE W MCC,28605.852941,Standard
 MAJOR HEMATOL/IMMUN DIAG EXC SICKLE CELL CRISIS & COAGUL W CC,7268.363636399999,Standard
 ORGANIC DISTURBANCES & INTELLECTUAL DISABILITY,7362.6666667,Standard
 DIABETES W CC,5318.0,Standard
 O.R. PROCEDURES FOR OBESITY W/O CC/MCC,9370.714285700002,Standard
 PSYCHOSES,7196.941379299999,Standard
 POISONING & TOXIC EFFECTS OF DRUGS W MCC,8290.840909100001,Standard
 POISONING & TOXIC EFFECTS OF DRUGS W/O MCC,4757.1739130000005,Standard
 COMPLICATIONS OF TREATMENT W MCC,11813.0,Standard
" ESOPHAGITIS, GASTROENT & MISC DIGEST DISORDERS W MCC",7522.4,Standard
" ""ESOPHAGITIS, GASTROENT & MISC DIGEST DISORDERS W/O MCC""",4869.5967742,Standard
 CARDIAC ARRHYTHMIA & CONDUCTION DISORDERS W CC,4907.7575758,Standard
 OTHER DIGESTIVE SYSTEM DIAGNOSES W CC,5853.75,Standard
 CIRRHOSIS & ALCOHOLIC HEPATITIS W MCC,10614.727273,Standard
 MALIGNANCY OF HEPATOBILIARY SYSTEM OR PANCREAS W MCC,9943.090909100001,Standard
 DISORDERS OF PANCREAS EXCEPT MALIGNANCY W MCC,10433.090909,Standard
 DISORDERS OF PANCREAS EXCEPT MALIGNANCY W CC,5170.125,Standard
 SIGNS & SYMPTOMS W MCC,6657.636363600001,Standard
 SIGNS & SYMPTOMS W/O MCC,5043.142857100001,Standard
 EXTENSIVE O.R. PROCEDURE UNRELATED TO PRINCIPAL DIAGNOSIS W MCC,23462.6,Standard
 DISORDERS OF THE BILIARY TRACT W MCC,9279.2777778,Standard
 DISORDERS OF THE BILIARY TRACT W CC,6501.741935499999,Standard
" ""AMPUTAT OF LOWER LIMB FOR ENDOCRINE,NUTRIT,& METABOL DIS W CC""",11890.9,Standard
 CELLULITIS W/O MCC,5288.979591800001,Standard
 CELLULITIS W MCC,8196.0,Standard
" FX, SPRN, STRN & DISL EXCEPT FEMUR, HIP, PELVIS & THIGH W/O MCC",5064.8181818,Standard
 MEDICAL BACK PROBLEMS W/O MCC,5460.25,Standard
 FRACTURES OF HIP & PELVIS W/O MCC,4557.9090909,Standard
 DIABETES W MCC,7766.2285714,Standard
" LOWER EXTREM & HUMER PROC EXCEPT HIP,FOOT,FEMUR W CC",12761.4,Standard
 HIP & FEMUR PROCEDURES EXCEPT MAJOR JOINT W/O CC/MCC,9464.388888899999,Standard
 HIP & FEMUR PROCEDURES EXCEPT MAJOR JOINT W CC,11764.44898,Standard
 HIP & FEMUR PROCEDURES EXCEPT MAJOR JOINT W MCC,16864.942857,Standard
 MAJOR HIP AND KNEE JOINT REPLACEMENT OR REATTACHMENT OF LOWER EXTREM,11855.668448999999,Standard
 MAJOR HIP AND KNEE JOINT REPLACEMENT OR REATTACHMENT OF LOWER EXTREM,16790.75,Standard
 DISORDERS OF THE BILIARY TRACT W/O CC/MCC,5079.0,Standard
 DEPRESSIVE NEUROSES,4817.2444444,Standard
 MAJOR JOINT/LIMB REATTACHMENT PROCEDURE OF UPPER EXTREMITIES,14018.272727000001,Standard
Level 4 Airway Endoscopy,1869.35,DRG
 HYPERTENSION W/O MCC,4465.9230769,Standard
 PLEURAL EFFUSION W MCC,8687.55,Standard
 PLEURAL EFFUSION W CC,6442.0909091,Standard
 PULMONARY EDEMA & RESPIRATORY FAILURE,7515.7573964,Standard
 CHRONIC OBSTRUCTIVE PULMONARY DISEASE W MCC,6993.125,Standard
 DEGENERATIVE NERVOUS SYSTEM DISORDERS W/O MCC,6787.8461538,Standard
Level 2 Musculoskeletal Procedures,945.1512,DRG
Level 3 Musculoskeletal Procedures,1889.82,DRG
Level 4 Musculoskeletal Procedures,3983.6116304347797,DRG
Comprehensive Observation Services,1678.6394938650399,DRG
Level 1 Nerve Procedures,1150.58,DRG
Level 5 Musculoskeletal Procedures,7726.92000000001,DRG
Level 5 Gynecologic Procedures,2865.74,DRG
Level 4 Gynecologic Procedures,1621.8336363636301,DRG
Level 5 Urology and Related Services,2636.0871929824602,DRG
Level 4 Urology and Related Services,1926.1569444444397,DRG
 RESPIRATORY NEOPLASMS W MCC,10040.769231,Standard
 RESPIRATORY INFECTIONS & INFLAMMATIONS W CC,7711.961538500001,Standard
 RESPIRATORY INFECTIONS & INFLAMMATIONS W MCC,10554.603959999999,Standard
 PULMONARY EMBOLISM W/O MCC,5546.3809524,Standard
Level 3 Excision/ Biopsy/ Incision and Drainage,1660.94,DRG
Level 1 Breast/Lymphatic Surgery and Related Procedures,1942.9919047619,DRG
Level 2 Breast/Lymphatic Surgery and Related Procedures,3437.74,DRG
 EXTRACRANIAL PROCEDURES W CC,9283.4,Standard
 EXTRACRANIAL PROCEDURES W/O CC/MCC,6767.025640999999,Standard
 INTRACRANIAL HEMORRHAGE OR CEREBRAL INFARCTION W MCC,9929.1666667,Standard
 INTRACRANIAL HEMORRHAGE OR CEREBRAL INFARCTION W CC OR TPA IN 24 HRS,6152.75,Standard
Level 3 Urology and Related Services,1210.67808823529,DRG
 INTRACRANIAL HEMORRHAGE OR CEREBRAL INFARCTION W/O CC/MCC,4780.3076923,Standard
 NONSPECIFIC CEREBROVASCULAR DISORDERS W MCC,9458.076923100001,Standard
" ""TRAUMATIC STUPOR & COMA, COMA <1 HR W CC""",7224.8461538,Standard
 SEIZURES W MCC,10130.428570999999,Standard
 SEIZURES W/O MCC,5476.782608699999,Standard
 MAJOR CHEST PROCEDURES W MCC,30307.0,Standard
 OTHER RESP SYSTEM O.R. PROCEDURES W MCC,21683.227273,Standard
 PULMONARY EMBOLISM W MCC,8807.714285700002,Standard
 TRANSIENT ISCHEMIA W/O THROMBOLYTIC,4791.5,Standard
Level 2 Excision/ Biopsy/ Incision and Drainage,959.362654462245,DRG
Level 2 Laparoscopy and Related Services,5469.77,DRG
Abdominal/Peritoneal/Biliary and Related Procedures,2075.36745762712,DRG
Level 2 Pacemaker and Similar Procedures,5269.35,DRG
Level 3 Electrophysiologic Procedures,15222.35,DRG
Level 2 Electrophysiologic Procedures,3796.69999999999,DRG
Level 4 Endovascular Procedures,12993.5699999999,DRG
 PERMANENT CARDIAC PACEMAKER IMPLANT W CC,14925.454544999999,Standard
 PERMANENT CARDIAC PACEMAKER IMPLANT W MCC,20506.727273,Standard
 CORONARY BYPASS W/O CARDIAC CATH W/O MCC,22186.470588,Standard
 CORONARY BYPASS W/O CARDIAC CATH W MCC,33000.529412,Standard
 CORONARY BYPASS W CARDIAC CATH W/O MCC,30041.705882,Standard
 CORONARY BYPASS W CARDIAC CATH W MCC,43730.666667000005,Standard
 OTHER CARDIOTHORACIC PROCEDURES W/O MCC,26016.0,Standard
 OTHER HEART ASSIST SYSTEM IMPLANT,77290.863636,Standard
 RESPIRATORY SYSTEM DIAGNOSIS W VENTILATOR SUPPORT <=96 HOURS,14380.368421000001,Standard
 RESPIRATORY SYSTEM DIAGNOSIS W VENTILATOR SUPPORT >96 HOURS,32208.181818,Standard
 BRONCHITIS & ASTHMA W CC/MCC,5784.0,Standard
Level 3 Pacemaker and Similar Procedures,7392.08999999999,DRG
Level 4 Pacemaker and Similar Procedures,14391.2999999999,DRG
Level 2 ICD and Similar Procedures,26337.06,DRG
Level 2 Upper GI Procedures,1016.68345679012,DRG
Complex GI Procedures,3067.48,DRG
Level 3 Lower GI Procedures,1632.49857142857,DRG
 CHRONIC OBSTRUCTIVE PULMONARY DISEASE W CC,5896.5535714,Standard
 CHRONIC OBSTRUCTIVE PULMONARY DISEASE W/O CC/MCC,4695.4642857,Standard
 SIMPLE PNEUMONIA & PLEURISY W MCC,8345.21,Standard
" ACUTE MYOCARDIAL INFARCTION, DISCHARGED ALIVE W CC",6102.5882353,Standard
" ""ACUTE MYOCARDIAL INFARCTION, DISCHARGED ALIVE W MCC""",9698.0,Standard
Level 1 Laparoscopy and Related Services,3205.61272189349,DRG
 PERCUTANEOUS INTRACARDIAC PROCEDURES W/O MCC,21683.703704,Standard
 ENDOVASCULAR CARDIAC VALVE REPLACEMENT W/O MCC,34051.25,Standard
 OTHER VASCULAR PROCEDURES W CC,15471.681818000001,Standard
 OTHER VASCULAR PROCEDURES W MCC,18552.444444,Standard
 PERC CARDIOVASC PROC W DRUG,12361.585366,Standard
 PERCUTANEOUS CARDIOVASCULAR PROCEDURES W DRUG,20069.053571,Standard
 PERMANENT CARDIAC PACEMAKER IMPLANT W/O CC/MCC,12346.8,Standard
Level 3 Upper GI Procedures,1950.4253333333302,DRG
 AORTIC AND HEART ASSIST PROCEDURES EXCEPT PULSATION BALLOON W/O MCC,24847.666666999998,Standard
 SIMPLE PNEUMONIA & PLEURISY W/O CC/MCC,4564.0,Standard
 SIMPLE PNEUMONIA & PLEURISY W CC,6002.0769231,Standard
 HEART FAILURE & SHOCK W/O CC/MCC,4223.4166667,Standard
" TRACH W MV >96 HRS OR PDX EXC FACE, MOUTH & NECK W/O MAJ O.R.",43246.714286,Standard
Level 5 ENT Procedures,3099.76,DRG
Level 3 Endovascular Procedures,8047.4368128654905,DRG
Level 3 Airway Endoscopy,944.184838709677,DRG
 HYPERTENSION W MCC,6462.857142899999,Standard
 PERIPHERAL VASCULAR DISORDERS W CC,6131.0,Standard
Level 2 Endovascular Procedures,3631.3009848484794,DRG
 HEART FAILURE & SHOCK W CC,5848.3695652,Standard
 HEART FAILURE & SHOCK W MCC,8900.631944399998,Standard
" CIRCULATORY DISORDERS EXCEPT AMI, W CARD CATH W/O MCC",7175.4482759,Standard
" ""CIRCULATORY DISORDERS EXCEPT AMI, W CARD CATH W MCC""",13719.2,Standard
Level 5 Airway Endoscopy,3475.09,DRG
Level 1 Endovascular Procedures,1735.0191792656399,DRG
 G.I. OBSTRUCTION W CC,5418.1034483,Standard
 CHEST PAIN,4514.363636399999,Standard
 G.I. OBSTRUCTION W/O CC/MCC,3891.6428571,Standard
 SYNCOPE & COLLAPSE,5054.4,Standard
 CARDIAC ARRHYTHMIA & CONDUCTION DISORDERS W/O CC/MCC,3727.8695651999997,Standard
 OTHER CIRCULATORY SYSTEM DIAGNOSES W MCC,11446.416667,Standard
 MAJOR SMALL & LARGE BOWEL PROCEDURES W CC,13702.066667,Standard
 MAJOR SMALL & LARGE BOWEL PROCEDURES W MCC,26387.842105,Standard
 MAJOR GASTROINTESTINAL DISORDERS & PERITONEAL INFECTIONS W CC,6378.3846154,Standard
 G.I. HEMORRHAGE W MCC,9801.4473684,Standard
 G.I. HEMORRHAGE W CC,5978.0135135,Standard
 G.I. OBSTRUCTION W MCC,9323.0666667,Standard
 MAJOR GASTROINTESTINAL DISORDERS & PERITONEAL INFECTIONS W MCC,9783.1666667,Standard
