Description,Charge,Category
 PULMONARY EMBOLISM W/O MCC,5519.047619,Standard
 PULMONARY EMBOLISM W MCC,8614.2,Standard
 OTHER RESP SYSTEM O.R. PROCEDURES W/O CC/MCC,8248.3636364,Standard
" ""TRAUMATIC STUPOR & COMA, COMA <1 HR W CC""",6920.368421100001,Standard
 OTHER DISORDERS OF NERVOUS SYSTEM W MCC,8493.076923100001,Standard
 SEIZURES W MCC,9158.9375,Standard
 TRANSIENT ISCHEMIA W/O THROMBOLYTIC,4671.5416667,Standard
 OTHER DISORDERS OF NERVOUS SYSTEM W CC,5634.9333333,Standard
 NONSPECIFIC CEREBROVASCULAR DISORDERS W CC,5390.3125,Standard
" TRAUMATIC STUPOR & COMA, COMA <1 HR W MCC",11730.0,Standard
 OTHER RESP SYSTEM O.R. PROCEDURES W MCC,22838.684211,Standard
 NONSPECIFIC CEREBROVASCULAR DISORDERS W MCC,14554.0,Standard
 RESPIRATORY INFECTIONS & INFLAMMATIONS W CC,7717.714285699999,Standard
 CHRONIC OBSTRUCTIVE PULMONARY DISEASE W MCC,6845.463768100001,Standard
 PULMONARY EDEMA & RESPIRATORY FAILURE,7365.459677399999,Standard
 RESPIRATORY NEOPLASMS W MCC,10055.055556,Standard
 RESPIRATORY INFECTIONS & INFLAMMATIONS W MCC,10417.641791,Standard
 CRANIOTOMY & ENDOVASCULAR INTRACRANIAL PROCEDURES W MCC,24816.333333000002,Standard
 CAROTID ARTERY STENT PROCEDURE W/O CC/MCC,11006.090909,Standard
 EXTRACRANIAL PROCEDURES W CC,9270.6363636,Standard
 EXTRACRANIAL PROCEDURES W/O CC/MCC,6645.25,Standard
 NERVOUS SYSTEM NEOPLASMS W MCC,7399.3333333,Standard
 DEGENERATIVE NERVOUS SYSTEM DISORDERS W/O MCC,6956.1875,Standard
 INTRACRANIAL HEMORRHAGE OR CEREBRAL INFARCTION W MCC,10758.4125,Standard
 INTRACRANIAL HEMORRHAGE OR CEREBRAL INFARCTION W/O CC/MCC,4737.55,Standard
 CHRONIC OBSTRUCTIVE PULMONARY DISEASE W CC,5358.863636399999,Standard
 INTRACRANIAL HEMORRHAGE OR CEREBRAL INFARCTION W CC OR TPA IN 24 HRS,6141.2317072999995,Standard
Level 2 Excision/ Biopsy/ Incision and Drainage,938.4197727272709,DRG
 SIMPLE PNEUMONIA & PLEURISY W MCC,8232.017699099999,Standard
 PERC CARDIOVASC PROC W DRUG,12618.297297,Standard
 PERC CARDIOVASC PROC W/O CORONARY ARTERY STENT W/O MCC,9786.375,Standard
 OTHER VASCULAR PROCEDURES W MCC,19448.2,Standard
 OTHER VASCULAR PROCEDURES W CC,14754.714286000002,Standard
 AORTIC AND HEART ASSIST PROCEDURES EXCEPT PULSATION BALLOON W/O MCC,24094.0,Standard
 OTHER MAJOR CARDIOVASCULAR PROCEDURES W MCC,34337.0,Standard
 OTHER MAJOR CARDIOVASCULAR PROCEDURES W CC,20519.0,Standard
 PERCUTANEOUS CARDIOVASCULAR PROCEDURES W DRUG,19837.098038999997,Standard
 PERCUTANEOUS INTRACARDIAC PROCEDURES W/O MCC,16510.5,Standard
" ACUTE MYOCARDIAL INFARCTION, DISCHARGED ALIVE W CC",5733.5,Standard
" ""ACUTE MYOCARDIAL INFARCTION, DISCHARGED ALIVE W/O CC/MCC""",4659.9166667,Standard
" ""CIRCULATORY DISORDERS EXCEPT AMI, W CARD CATH W MCC""",13551.232558000002,Standard
" CIRCULATORY DISORDERS EXCEPT AMI, W CARD CATH W/O MCC",7266.217391300001,Standard
 HEART FAILURE & SHOCK W MCC,8602.8974359,Standard
 HEART FAILURE & SHOCK W CC,5759.2592593,Standard
 HEART FAILURE & SHOCK W/O CC/MCC,4172.1,Standard
" ""ACUTE MYOCARDIAL INFARCTION, DISCHARGED ALIVE W MCC""",9845.081081100001,Standard
 PERMANENT CARDIAC PACEMAKER IMPLANT W/O CC/MCC,12775.7,Standard
 PERMANENT CARDIAC PACEMAKER IMPLANT W CC,17663.891304,Standard
 PERMANENT CARDIAC PACEMAKER IMPLANT W MCC,21964.111111000002,Standard
Level 3 Electrophysiologic Procedures,15329.039999999899,DRG
Level 2 Electrophysiologic Procedures,3735.50716049383,DRG
Level 4 Endovascular Procedures,12424.562280701699,DRG
Level 3 Endovascular Procedures,7814.2762756597995,DRG
Level 2 Endovascular Procedures,3460.03446153846,DRG
Level 1 Endovascular Procedures,1722.9878768021,DRG
Level 4 Airway Endoscopy,1847.7527868852399,DRG
Level 3 Airway Endoscopy,951.7999999999989,DRG
Level 5 Musculoskeletal Procedures,7781.64734375,DRG
 EXTENSIVE O.R. PROCEDURE UNRELATED TO PRINCIPAL DIAGNOSIS W CC,13819.857143000001,Standard
 CARDIAC VALVE & OTH MAJ CARDIOTHORACIC PROC W/O CARD CATH W MCC,45702.944444,Standard
 CARDIAC VALVE & OTH MAJ CARDIOTHORACIC PROC W/O CARD CATH W CC,29439.777777999996,Standard
 CARDIAC DEFIB IMPLANT W CARDIAC CATH W/O AMI/HF/SHOCK W/O MCC,35429.157895,Standard
 CARDIAC DEFIBRILLATOR IMPLANT W/O CARDIAC CATH W/O MCC,32758.233333,Standard
 CORONARY BYPASS W CARDIAC CATH W MCC,42577.416667000005,Standard
 CORONARY BYPASS W CARDIAC CATH W/O MCC,28055.615385,Standard
 CORONARY BYPASS W/O CARDIAC CATH W/O MCC,22703.32,Standard
 PERIPHERAL VASCULAR DISORDERS W CC,5611.0,Standard
 HYPERTENSION W/O MCC,4460.1666667,Standard
 CARDIAC ARRHYTHMIA & CONDUCTION DISORDERS W MCC,7445.3018868,Standard
 CARDIAC ARRHYTHMIA & CONDUCTION DISORDERS W CC,4868.3421053,Standard
" ""DISORDERS OF LIVER EXCEPT MALIG,CIRR,ALC HEPA W MCC""",10770.307692,Standard
" DISORDERS OF LIVER EXCEPT MALIG,CIRR,ALC HEPA W CC",5923.9230769,Standard
 COMBINED ANTERIOR/POSTERIOR SPINAL FUSION W/O CC/MCC,30264.0,Standard
 SPINAL FUSION EXCEPT CERVICAL W/O MCC,23154.111111000002,Standard
 REVISION OF HIP OR KNEE REPLACEMENT W/O CC/MCC,18113.307692,Standard
 MAJOR HIP AND KNEE JOINT REPLACEMENT OR REATTACHMENT OF LOWER EXTREM,18369.862069,Standard
 MAJOR HIP AND KNEE JOINT REPLACEMENT OR REATTACHMENT OF LOWER EXTREM,12434.54,Standard
 CERVICAL SPINAL FUSION W CC,18848.909091,Standard
 CERVICAL SPINAL FUSION W/O CC/MCC,13333.583333,Standard
 HIP & FEMUR PROCEDURES EXCEPT MAJOR JOINT W MCC,16415.08,Standard
 HIP & FEMUR PROCEDURES EXCEPT MAJOR JOINT W CC,11524.377048999999,Standard
 HIP & FEMUR PROCEDURES EXCEPT MAJOR JOINT W/O CC/MCC,9896.227272700002,Standard
 FRACTURES OF HIP & PELVIS W/O MCC,4668.2142857,Standard
Level 4 Musculoskeletal Procedures,3971.51544117645,DRG
Level 3 Musculoskeletal Procedures,1494.44428571428,DRG
Level 2 Musculoskeletal Procedures,970.65,DRG
Level 2 Breast/Lymphatic Surgery and Related Procedures,3393.94772727272,DRG
 DISORDERS OF PANCREAS EXCEPT MALIGNANCY W/O CC/MCC,4003.7272727,Standard
Level 2 Pacemaker and Similar Procedures,5093.1452,DRG
 CIRRHOSIS & ALCOHOLIC HEPATITIS W MCC,11421.166667,Standard
 LAPAROSCOPIC CHOLECYSTECTOMY W/O C.D.E. W CC,9881.2352941,Standard
 CARDIAC ARRHYTHMIA & CONDUCTION DISORDERS W/O CC/MCC,3638.0825688,Standard
 SYNCOPE & COLLAPSE,5041.4705882,Standard
 CHEST PAIN,4345.75,Standard
 OTHER CIRCULATORY SYSTEM DIAGNOSES W MCC,11854.666667,Standard
 MAJOR SMALL & LARGE BOWEL PROCEDURES W MCC,26423.24,Standard
 MAJOR SMALL & LARGE BOWEL PROCEDURES W CC,14947.825,Standard
 MAJOR SMALL & LARGE BOWEL PROCEDURES W/O CC/MCC,10522.888889,Standard
 MAJOR GASTROINTESTINAL DISORDERS & PERITONEAL INFECTIONS W CC,6361.25,Standard
 G.I. HEMORRHAGE W MCC,10107.30303,Standard
 G.I. HEMORRHAGE W CC,5865.5208333,Standard
 G.I. OBSTRUCTION W CC,5233.9411765,Standard
 G.I. OBSTRUCTION W/O CC/MCC,3978.3703704000004,Standard
" ESOPHAGITIS, GASTROENT & MISC DIGEST DISORDERS W MCC",7911.5517241,Standard
" ""ESOPHAGITIS, GASTROENT & MISC DIGEST DISORDERS W/O MCC""",4772.1898734,Standard
 OTHER DIGESTIVE SYSTEM DIAGNOSES W MCC,9284.095238099999,Standard
 OTHER DIGESTIVE SYSTEM DIAGNOSES W CC,5742.5789474,Standard
 LAPAROSCOPIC CHOLECYSTECTOMY W/O C.D.E. W MCC,14699.2,Standard
 LAPAROSCOPIC CHOLECYSTECTOMY W/O C.D.E. W/O CC/MCC,7776.2307692,Standard
Level 3 Pacemaker and Similar Procedures,7353.058771929829,DRG
 MAJOR CHEST PROCEDURES W CC,15499.6,Standard
Level 2 ICD and Similar Procedures,26510.2817391304,DRG
 KIDNEY & URINARY TRACT INFECTIONS W/O MCC,4904.5882353,Standard
 KIDNEY & URINARY TRACT INFECTIONS W MCC,6388.4285714,Standard
 RENAL FAILURE W CC,5665.0447761000005,Standard
 RENAL FAILURE W MCC,8468.958904100002,Standard
" ""MISC DISORDERS OF NUTRITION,METABOLISM,FLUIDS/ELECTROLYTES W/O MCC""",4703.2745098000005,Standard
" MISC DISORDERS OF NUTRITION,METABOLISM,FLUIDS/ELECTROLYTES W MCC",7156.0645161,Standard
 DIABETES W CC,5356.290322600001,Standard
 OTHER KIDNEY & URINARY TRACT DIAGNOSES W MCC,8825.6857143,Standard
 DIABETES W MCC,8007.8709677,Standard
 CELLULITIS W MCC,8220.818181800001,Standard
 MEDICAL BACK PROBLEMS W/O MCC,5225.7083333,Standard
Comprehensive Observation Services,1627.9634745762698,DRG
Level 1 ICD and Similar Procedures,17922.4799999999,DRG
Level 3 Neurostimulator and Related Procedures,15196.7,DRG
Level 2 Neurostimulator and Related Procedures,2402.32275862068,DRG
Level 5 Gynecologic Procedures,2884.23,DRG
 CELLULITIS W/O MCC,5240.7368421,Standard
 OTHER KIDNEY & URINARY TRACT DIAGNOSES W CC,6444.6666667,Standard
 MAJOR HEMATOL/IMMUN DIAG EXC SICKLE CELL CRISIS & COAGUL W CC,7175.0833333,Standard
 RED BLOOD CELL DISORDERS W/O MCC,5391.625,Standard
 SIMPLE PNEUMONIA & PLEURISY W CC,5581.6603774,Standard
 BRONCHITIS & ASTHMA W CC/MCC,5839.1666667,Standard
 RESPIRATORY SYSTEM DIAGNOSIS W VENTILATOR SUPPORT <=96 HOURS,13901.648649,Standard
 OTHER HEART ASSIST SYSTEM IMPLANT,83443.583333,Standard
Level 3 Excision/ Biopsy/ Incision and Drainage,1543.0707692307599,DRG
 MAJOR CHEST PROCEDURES W MCC,29772.666667,Standard
 EXTENSIVE O.R. PROCEDURE UNRELATED TO PRINCIPAL DIAGNOSIS W MCC,23404.384615,Standard
 SIGNS & SYMPTOMS W/O MCC,4653.6666667,Standard
 COMPLICATIONS OF TREATMENT W CC,6313.4444444,Standard
 POISONING & TOXIC EFFECTS OF DRUGS W MCC,7860.655172399999,Standard
 ALCOHOL/DRUG ABUSE OR DEPENDENCE W/O REHABILITATION THERAPY W/O MCC,4960.857142899999,Standard
 SEPTICEMIA OR SEVERE SEPSIS W/O MV >96 HOURS W/O MCC,6442.1290323,Standard
 SEPTICEMIA OR SEVERE SEPSIS W/O MV >96 HOURS W MCC,10660.719457,Standard
 SEPTICEMIA OR SEVERE SEPSIS W MV >96 HOURS OR PERIPHERAL EXTRACORPOR,34380.166667000005,Standard
 POSTOPERATIVE OR POST,10501.692308,Standard
 INFECTIOUS & PARASITIC DISEASES W O.R. PROCEDURE W MCC,32931.904762,Standard
 LYMPHOMA & NON,18303.307692,Standard
Level 4 Gynecologic Procedures,1634.19999999999,DRG
Level 7 Urology and Related Services,12795.959999999899,DRG
Level 4 Neurostimulator and Related Procedures,23753.660909090897,DRG
Level 5 Urology and Related Services,2617.05890625,DRG
Level 3 Urology and Related Services,1133.63026666666,DRG
Level 2 Upper GI Procedures,999.3543478260859,DRG
Level 3 Lower GI Procedures,1665.02999999999,DRG
Level 4 Urology and Related Services,1932.59695652174,DRG
Abdominal/Peritoneal/Biliary and Related Procedures,2064.1124,DRG
Level 3 Upper GI Procedures,1878.49083333333,DRG
Level 2 Laparoscopy and Related Services,5401.01877551019,DRG
Level 1 Laparoscopy and Related Services,3184.28026315791,DRG
