Description,Charge,Category
 CARDIAC ARRHYTHMIA & CONDUCTION DISORDERS W CC,5574.4337349,Standard
 CARDIAC ARRHYTHMIA & CONDUCTION DISORDERS W/O CC/MCC,4414.1785714,Standard
 SYNCOPE & COLLAPSE,5784.7464789,Standard
 CHEST PAIN,5058.395348800001,Standard
 MAJOR SMALL & LARGE BOWEL PROCEDURES W/O CC/MCC,13050.538462,Standard
 OTHER CIRCULATORY SYSTEM DIAGNOSES W CC,6684.75,Standard
 MAJOR SMALL & LARGE BOWEL PROCEDURES W MCC,39120.434783,Standard
 MAJOR SMALL & LARGE BOWEL PROCEDURES W CC,16801.678571,Standard
 OTHER MAJOR CARDIOVASCULAR PROCEDURES W CC,23050.666666999998,Standard
 MAJOR GASTROINTESTINAL DISORDERS & PERITONEAL INFECTIONS W CC,7416.0833333,Standard
 OTHER CIRCULATORY SYSTEM DIAGNOSES W MCC,13118.909091,Standard
 HYPERTENSION W/O MCC,4979.4444444,Standard
 HEART FAILURE & SHOCK W MCC,9963.997151000001,Standard
 HEART FAILURE & SHOCK W/O CC/MCC,4863.3333333,Standard
 HEART FAILURE & SHOCK W CC,6629.9012346,Standard
 G.I. HEMORRHAGE W MCC,12144.523809999999,Standard
" CIRCULATORY DISORDERS EXCEPT AMI, W CARD CATH W/O MCC",8505.5698925,Standard
" ""CIRCULATORY DISORDERS EXCEPT AMI, W CARD CATH W MCC""",15258.090909,Standard
" ACUTE MYOCARDIAL INFARCTION, EXPIRED W MCC",13916.636363999998,Standard
" ""ACUTE MYOCARDIAL INFARCTION, DISCHARGED ALIVE W/O CC/MCC""",5432.8888889,Standard
" ACUTE MYOCARDIAL INFARCTION, DISCHARGED ALIVE W CC",6942.0,Standard
" ""ACUTE MYOCARDIAL INFARCTION, DISCHARGED ALIVE W MCC""",12099.505495,Standard
 PERCUTANEOUS INTRACARDIAC PROCEDURES W/O MCC,19264.6625,Standard
 PERCUTANEOUS INTRACARDIAC PROCEDURES W MCC,25485.666666999998,Standard
 CARDIAC ARRHYTHMIA & CONDUCTION DISORDERS W MCC,9020.106666700001,Standard
 ATHEROSCLEROSIS W/O MCC,4790.466666699999,Standard
 G.I. HEMORRHAGE W/O CC/MCC,4669.9230769,Standard
 SIGNS & SYMPTOMS W/O MCC,5933.151515199999,Standard
 G.I. OBSTRUCTION W CC,6051.0714286,Standard
 DIABETES W CC,5990.6206897,Standard
 DIABETES W MCC,9187.090909100001,Standard
 O.R. PROCEDURES FOR OBESITY W/O CC/MCC,11632.058824,Standard
 CELLULITIS W/O MCC,5948.0727273,Standard
 CELLULITIS W MCC,9889.736842100001,Standard
" FX, SPRN, STRN & DISL EXCEPT FEMUR, HIP, PELVIS & THIGH W/O MCC",5743.0714286,Standard
 SIGNS & SYMPTOMS OF MUSCULOSKELETAL SYSTEM & CONN TISSUE W/O MCC,5556.5714286,Standard
 BONE DISEASES & ARTHROPATHIES W/O MCC,5375.0,Standard
 MEDICAL BACK PROBLEMS W/O MCC,6418.2,Standard
 OTHER MUSCULOSKELET SYS & CONN TISS O.R. PROC W/O CC/MCC,9858.0,Standard
 MAJOR JOINT/LIMB REATTACHMENT PROCEDURE OF UPPER EXTREMITIES,16558.631579,Standard
 HIP & FEMUR PROCEDURES EXCEPT MAJOR JOINT W CC,13895.571429,Standard
 G.I. OBSTRUCTION W MCC,10535.545455,Standard
 HIP & FEMUR PROCEDURES EXCEPT MAJOR JOINT W MCC,19811.333333000002,Standard
 OTHER MAJOR CARDIOVASCULAR PROCEDURES W MCC,35154.684211,Standard
 MAJOR HIP AND KNEE JOINT REPLACEMENT OR REATTACHMENT OF LOWER EXTREM,23539.789474,Standard
 SPINAL FUSION EXCEPT CERVICAL W/O MCC,32748.8125,Standard
 COMBINED ANTERIOR/POSTERIOR SPINAL FUSION W/O CC/MCC,34768.428571,Standard
 DISORDERS OF THE BILIARY TRACT W CC,8290.2727273,Standard
 DISORDERS OF PANCREAS EXCEPT MALIGNANCY W CC,6090.0909091,Standard
 LAPAROSCOPIC CHOLECYSTECTOMY W/O C.D.E. W CC,11501.666667,Standard
 OTHER DIGESTIVE SYSTEM DIAGNOSES W CC,6660.0,Standard
 OTHER DIGESTIVE SYSTEM DIAGNOSES W MCC,11330.769231,Standard
" ""ESOPHAGITIS, GASTROENT & MISC DIGEST DISORDERS W/O MCC""",5514.782051300001,Standard
" ESOPHAGITIS, GASTROENT & MISC DIGEST DISORDERS W MCC",8627.2352941,Standard
 G.I. OBSTRUCTION W/O CC/MCC,4348.5294118,Standard
 MAJOR HIP AND KNEE JOINT REPLACEMENT OR REATTACHMENT OF LOWER EXTREM,14698.895425,Standard
 AORTIC AND HEART ASSIST PROCEDURES EXCEPT PULSATION BALLOON W/O MCC,28534.5,Standard
 OTHER VASCULAR PROCEDURES W MCC,24666.673469,Standard
 ENDOVASCULAR CARDIAC VALVE REPLACEMENT W MCC,52283.358974,Standard
Level 2 Electrophysiologic Procedures,4589.14,DRG
Level 3 Electrophysiologic Procedures,18673.68,DRG
Level 2 Pacemaker and Similar Procedures,6639.30833333334,DRG
Level 3 Pacemaker and Similar Procedures,9202.26611940298,DRG
Level 1 ICD and Similar Procedures,20750.5326315789,DRG
Level 2 ICD and Similar Procedures,32108.28,DRG
Level 2 Upper GI Procedures,1208.6959615384599,DRG
Level 3 Upper GI Procedures,2362.2480952380897,DRG
Abdominal/Peritoneal/Biliary and Related Procedures,2455.44697674418,DRG
Level 1 Laparoscopy and Related Services,3872.218,DRG
Level 2 Laparoscopy and Related Services,6712.856,DRG
Level 3 Urology and Related Services,1464.3,DRG
Level 4 Urology and Related Services,2328.7599999999898,DRG
Level 5 Urology and Related Services,3167.66367346939,DRG
Level 4 Gynecologic Procedures,1899.0766666666602,DRG
Level 1 Nerve Procedures,1389.2343243243201,DRG
Comprehensive Observation Services,2015.07849405547,DRG
 KIDNEY & URINARY TRACT INFECTIONS W/O MCC,5588.136363600001,Standard
 KIDNEY & URINARY TRACT INFECTIONS W MCC,7483.054054100001,Standard
 RENAL FAILURE W/O CC/MCC,4555.0,Standard
 RENAL FAILURE W CC,6535.1627907,Standard
Implantation Wireless PA Pressure Monitor,33907.08,DRG
 RENAL FAILURE W MCC,10424.864865000001,Standard
Level 4 Endovascular Procedures,15569.9641025641,DRG
Level 2 Endovascular Procedures,4343.40032608696,DRG
 POISONING & TOXIC EFFECTS OF DRUGS W/O MCC,5370.733333300001,Standard
 POISONING & TOXIC EFFECTS OF DRUGS W MCC,9734.5416667,Standard
 ALCOHOL/DRUG ABUSE OR DEPENDENCE W/O REHABILITATION THERAPY W/O MCC,5628.6538462,Standard
 ALCOHOL/DRUG ABUSE OR DEPENDENCE W/O REHABILITATION THERAPY W MCC,11161.307692,Standard
 SEPTICEMIA OR SEVERE SEPSIS W/O MV >96 HOURS W/O MCC,7391.8101266,Standard
 SEPTICEMIA OR SEVERE SEPSIS W/O MV >96 HOURS W MCC,12828.811502,Standard
 INFECTIOUS & PARASITIC DISEASES W O.R. PROCEDURE W MCC,38324.238095,Standard
 RED BLOOD CELL DISORDERS W/O MCC,6265.5294118,Standard
 MAJOR MALE PELVIC PROCEDURES W/O CC/MCC,10111.321429000001,Standard
 OTHER KIDNEY & URINARY TRACT DIAGNOSES W CC,7372.375,Standard
 OTHER KIDNEY & URINARY TRACT DIAGNOSES W MCC,13095.8,Standard
Level 2 Excision/ Biopsy/ Incision and Drainage,1146.7296022727198,DRG
Level 3 Excision/ Biopsy/ Incision and Drainage,2002.4960714285698,DRG
Level 2 Breast/Lymphatic Surgery and Related Procedures,4155.27,DRG
Level 2 Musculoskeletal Procedures,1160.33692307692,DRG
Level 3 Musculoskeletal Procedures,2284.28,DRG
Level 4 Musculoskeletal Procedures,4742.586122448979,DRG
Level 5 Musculoskeletal Procedures,9613.78999999999,DRG
Level 3 Airway Endoscopy,1143.07,DRG
Level 4 Airway Endoscopy,2259.51999999999,DRG
Level 1 Endovascular Procedures,2093.75049327353,DRG
Level 3 Endovascular Procedures,9796.13709302328,DRG
 ENDOVASCULAR CARDIAC VALVE REPLACEMENT W/O MCC,41200.545455,Standard
 G.I. HEMORRHAGE W CC,6701.716666699999,Standard
 SIMPLE PNEUMONIA & PLEURISY W/O CC/MCC,5011.0,Standard
 SIMPLE PNEUMONIA & PLEURISY W CC,6651.046875,Standard
 SIMPLE PNEUMONIA & PLEURISY W MCC,9306.3737374,Standard
 CHRONIC OBSTRUCTIVE PULMONARY DISEASE W/O CC/MCC,5160.533333300001,Standard
 CHRONIC OBSTRUCTIVE PULMONARY DISEASE W CC,6110.375,Standard
 CHRONIC OBSTRUCTIVE PULMONARY DISEASE W MCC,8158.4634146,Standard
 RESPIRATORY INFECTIONS & INFLAMMATIONS W MCC,12837.192308,Standard
 PULMONARY EMBOLISM W/O MCC,6233.5,Standard
 PULMONARY EMBOLISM W MCC,10050.304348,Standard
 TRANSIENT ISCHEMIA W/O THROMBOLYTIC,5376.1764706,Standard
 OTHER RESP SYSTEM O.R. PROCEDURES W MCC,25679.0,Standard
 MAJOR CHEST PROCEDURES W MCC,31971.5,Standard
 DYSEQUILIBRIUM,5313.5384615,Standard
" ""MISC DISORDERS OF NUTRITION,METABOLISM,FLUIDS/ELECTROLYTES W/O MCC""",5315.2727273,Standard
" MISC DISORDERS OF NUTRITION,METABOLISM,FLUIDS/ELECTROLYTES W MCC",8068.260869600001,Standard
 EXTRACRANIAL PROCEDURES W/O CC/MCC,7942.951219499999,Standard
 DEGENERATIVE NERVOUS SYSTEM DISORDERS W/O MCC,7828.4117647,Standard
 INTRACRANIAL HEMORRHAGE OR CEREBRAL INFARCTION W MCC,12033.615385,Standard
 INTRACRANIAL HEMORRHAGE OR CEREBRAL INFARCTION W CC OR TPA IN 24 HRS,7285.714285699999,Standard
 MAJOR CHEST PROCEDURES W CC,18284.666666999998,Standard
 INTRACRANIAL HEMORRHAGE OR CEREBRAL INFARCTION W/O CC/MCC,5328.739130399999,Standard
 BRONCHITIS & ASTHMA W CC/MCC,6810.5925926,Standard
 CARDIAC VALVE & OTH MAJ CARDIOTHORACIC PROC W CARD CATH W MCC,73157.785714,Standard
 OTHER CIRCULATORY SYSTEM O.R. PROCEDURES,22444.384615,Standard
 OTHER VASCULAR PROCEDURES W/O CC/MCC,12533.074074,Standard
 OTHER VASCULAR PROCEDURES W CC,18848.333333000002,Standard
 EXTENSIVE O.R. PROCEDURE UNRELATED TO PRINCIPAL DIAGNOSIS W MCC,29797.416667,Standard
 PERC CARDIOVASC PROC W DRUG,15516.303571,Standard
 PERCUTANEOUS CARDIOVASCULAR PROCEDURES W DRUG,22311.22,Standard
 PERMANENT CARDIAC PACEMAKER IMPLANT W/O CC/MCC,14678.458333,Standard
 PERMANENT CARDIAC PACEMAKER IMPLANT W CC,19166.032258000003,Standard
 RESPIRATORY SYSTEM DIAGNOSIS W VENTILATOR SUPPORT <=96 HOURS,16180.272727000001,Standard
 PERMANENT CARDIAC PACEMAKER IMPLANT W MCC,24732.047619,Standard
 CORONARY BYPASS W/O CARDIAC CATH W MCC,42345.619048,Standard
 CORONARY BYPASS W CARDIAC CATH W/O MCC,36554.088235,Standard
 CORONARY BYPASS W CARDIAC CATH W MCC,56063.809524000004,Standard
 OTHER CARDIOTHORACIC PROCEDURES W/O MCC,32564.8,Standard
 OTHER CARDIOTHORACIC PROCEDURES W MCC,45349.833332999995,Standard
 CARDIAC VALVE & OTH MAJ CARDIOTHORACIC PROC W/O CARD CATH W/O CC/MCC,32594.272727,Standard
 CARDIAC VALVE & OTH MAJ CARDIOTHORACIC PROC W/O CARD CATH W CC,37677.146341,Standard
 CARDIAC VALVE & OTH MAJ CARDIOTHORACIC PROC W/O CARD CATH W MCC,56289.76,Standard
 CORONARY BYPASS W/O CARDIAC CATH W/O MCC,26199.259259,Standard
 OTHER DISORDERS OF NERVOUS SYSTEM W CC,6621.2307692,Standard
