Description,Charge,Category
" ACUTE MYOCARDIAL INFARCTION, DISCHARGED ALIVE W CC",7819.533333300001,Standard
 MAJOR GASTROINTESTINAL DISORDERS & PERITONEAL INFECTIONS W MCC,13742.181818000001,Standard
 MAJOR SMALL & LARGE BOWEL PROCEDURES W CC,19562.583333000002,Standard
 MAJOR GASTROINTESTINAL DISORDERS & PERITONEAL INFECTIONS W CC,8489.666666699999,Standard
 G.I. OBSTRUCTION W CC,6908.35,Standard
 G.I. OBSTRUCTION W/O CC/MCC,4978.7272727,Standard
" ""ESOPHAGITIS, GASTROENT & MISC DIGEST DISORDERS W/O MCC""",6215.3214286,Standard
 OTHER DIGESTIVE SYSTEM DIAGNOSES W CC,7623.65,Standard
 G.I. HEMORRHAGE W CC,7793.6458333,Standard
 CARDIAC ARRHYTHMIA & CONDUCTION DISORDERS W/O CC/MCC,4765.9166667,Standard
 HEART FAILURE & SHOCK W CC,7692.0,Standard
" ""MISC DISORDERS OF NUTRITION,METABOLISM,FLUIDS/ELECTROLYTES W/O MCC""",6025.6086957,Standard
 RENAL FAILURE W MCC,11803.233333,Standard
 RENAL FAILURE W CC,7512.3703704,Standard
 KIDNEY & URINARY TRACT INFECTIONS W MCC,8628.0833333,Standard
 KIDNEY & URINARY TRACT INFECTIONS W/O MCC,6449.1538462,Standard
 OTHER KIDNEY & URINARY TRACT DIAGNOSES W MCC,12679.708333,Standard
 OTHER KIDNEY & URINARY TRACT DIAGNOSES W CC,8307.3846154,Standard
 HEART FAILURE & SHOCK W MCC,11686.847458,Standard
 INFECTIOUS & PARASITIC DISEASES W O.R. PROCEDURE W MCC,44110.611111,Standard
 SEPTICEMIA OR SEVERE SEPSIS W/O MV >96 HOURS W/O MCC,8600.21875,Standard
 ALCOHOL/DRUG ABUSE OR DEPENDENCE W/O REHABILITATION THERAPY W/O MCC,7326.533333300001,Standard
 SIGNS & SYMPTOMS W/O MCC,6155.8181818,Standard
 SYNCOPE & COLLAPSE,6462.777777800001,Standard
 DISORDERS OF PANCREAS EXCEPT MALIGNANCY W CC,7373.6111111,Standard
 CARDIAC ARRHYTHMIA & CONDUCTION DISORDERS W CC,6250.2619048,Standard
 CARDIAC ARRHYTHMIA & CONDUCTION DISORDERS W MCC,11683.571429000001,Standard
 SEPTICEMIA OR SEVERE SEPSIS W/O MV >96 HOURS W MCC,14590.0,Standard
 MAJOR HIP AND KNEE JOINT REPLACEMENT OR REATTACHMENT OF LOWER EXTREM,16541.076923,Standard
 SIMPLE PNEUMONIA & PLEURISY W CC,7506.206896600001,Standard
 MAJOR JOINT/LIMB REATTACHMENT PROCEDURE OF UPPER EXTREMITIES,18733.047619,Standard
Abdominal/Peritoneal/Biliary and Related Procedures,2486.11,DRG
Level 2 Upper GI Procedures,1215.87955357142,DRG
Level 3 Pacemaker and Similar Procedures,9092.72,DRG
Level 2 Pacemaker and Similar Procedures,6555.28999999999,DRG
Level 4 ENT Procedures,1877.97,DRG
Level 4 Airway Endoscopy,2234.54,DRG
Level 3 Airway Endoscopy,1130.43,DRG
Level 1 Laparoscopy and Related Services,3833.3099999999895,DRG
Level 5 Musculoskeletal Procedures,9492.95999999999,DRG
Level 3 Musculoskeletal Procedures,2203.08918367346,DRG
Level 2 Musculoskeletal Procedures,1099.63199999999,DRG
" MISC DISORDERS OF NUTRITION,METABOLISM,FLUIDS/ELECTROLYTES W MCC",10091.0,Standard
Level 2 Breast/Lymphatic Surgery and Related Procedures,4109.32,DRG
Level 1 Breast/Lymphatic Surgery and Related Procedures,2329.56,DRG
Level 3 Excision/ Biopsy/ Incision and Drainage,1909.0576923076899,DRG
Level 2 Excision/ Biopsy/ Incision and Drainage,1120.85576923076,DRG
Level 4 Musculoskeletal Procedures,4785.0368627451,DRG
Level 3 Urology and Related Services,1447.9696923076801,DRG
Level 4 Urology and Related Services,2301.82706896551,DRG
Level 5 Urology and Related Services,3128.5514942528603,DRG
 FRACTURES OF HIP & PELVIS W/O MCC,6034.0,Standard
 CELLULITIS W/O MCC,6888.1818182,Standard
" ""ACUTE MYOCARDIAL INFARCTION, DISCHARGED ALIVE W MCC""",12513.421053,Standard
 PERMANENT CARDIAC PACEMAKER IMPLANT W CC,20874.466666999997,Standard
 RESPIRATORY SYSTEM DIAGNOSIS W VENTILATOR SUPPORT <=96 HOURS,18752.583333000002,Standard
 SIMPLE PNEUMONIA & PLEURISY W MCC,10971.878048999999,Standard
 CHRONIC OBSTRUCTIVE PULMONARY DISEASE W CC,7380.8235294,Standard
 CHRONIC OBSTRUCTIVE PULMONARY DISEASE W MCC,9236.055555600002,Standard
 PULMONARY EDEMA & RESPIRATORY FAILURE,9857.0588235,Standard
 RESPIRATORY INFECTIONS & INFLAMMATIONS W MCC,14759.214286000002,Standard
Comprehensive Observation Services,1997.76870535713,DRG
"Level 3 Extraocular, Repair, and Plastic Eye Procedures",1546.89,DRG
Level 1 Intraocular Procedures,1627.66078674946,DRG
Level 1 Nerve Procedures,1373.70322916666,DRG
Level 5 Gynecologic Procedures,3425.57,DRG
Level 4 Gynecologic Procedures,1722.1225,DRG
Level 7 Urology and Related Services,15444.13,DRG
 HIP & FEMUR PROCEDURES EXCEPT MAJOR JOINT W CC,16372.739130000002,Standard
 DIABETES W CC,6865.3181818,Standard
 G.I. HEMORRHAGE W MCC,15438.190476,Standard
 INTRACRANIAL HEMORRHAGE OR CEREBRAL INFARCTION W MCC,14643.434783,Standard
 INTRACRANIAL HEMORRHAGE OR CEREBRAL INFARCTION W/O CC/MCC,6042.0833333,Standard
 OTHER DISORDERS OF NERVOUS SYSTEM W CC,7546.0588235,Standard
 PULMONARY EMBOLISM W/O MCC,7209.785714300001,Standard
 INTRACRANIAL HEMORRHAGE OR CEREBRAL INFARCTION W CC OR TPA IN 24 HRS,8284.4878049,Standard
