Description,Charge,Category
Level 4 Gynecologic Procedures,1962.64,DRG
 SEPTICEMIA OR SEVERE SEPSIS W/O MV >96 HOURS W MCC,12760.625,Standard
Level 5 Urology and Related Services,3182.70285714286,DRG
Level 4 Urology and Related Services,2273.40558139534,DRG
Level 3 Urology and Related Services,1464.3,DRG
Level 2 Laparoscopy and Related Services,5901.88285714285,DRG
" ""ACUTE MYOCARDIAL INFARCTION, DISCHARGED ALIVE W MCC""",11830.439024,Standard
 PERC CARDIOVASC PROC W DRUG,15549.380952000001,Standard
 SEPTICEMIA OR SEVERE SEPSIS W/O MV >96 HOURS W/O MCC,7822.5,Standard
" ""MISC DISORDERS OF NUTRITION,METABOLISM,FLUIDS/ELECTROLYTES W/O MCC""",5613.0540541,Standard
 POISONING & TOXIC EFFECTS OF DRUGS W/O MCC,5909.7857143,Standard
 SIGNS & SYMPTOMS W/O MCC,5622.4375,Standard
 EXTENSIVE O.R. PROCEDURE UNRELATED TO PRINCIPAL DIAGNOSIS W MCC,27121.75,Standard
 KIDNEY & URINARY TRACT INFECTIONS W MCC,7814.8181818,Standard
Level 1 Laparoscopy and Related Services,3736.97,DRG
 RENAL FAILURE W CC,6911.1016949,Standard
 RENAL FAILURE W MCC,9951.5,Standard
Level 5 Gynecologic Procedures,3461.75166666666,DRG
 PERMANENT CARDIAC PACEMAKER IMPLANT W CC,18437.307692,Standard
 ALCOHOL/DRUG ABUSE OR DEPENDENCE W/O REHABILITATION THERAPY W/O MCC,6005.92,Standard
Level 1 Nerve Procedures,1321.203,DRG
 OTHER KIDNEY & URINARY TRACT DIAGNOSES W MCC,11319.615385,Standard
 RED BLOOD CELL DISORDERS W MCC,9751.8333333,Standard
 RESPIRATORY SYSTEM DIAGNOSIS W VENTILATOR SUPPORT <=96 HOURS,16426.941176,Standard
 KIDNEY & URINARY TRACT INFECTIONS W/O MCC,5990.067567600001,Standard
" ACUTE MYOCARDIAL INFARCTION, DISCHARGED ALIVE W CC",7276.1612903,Standard
" ""ACUTE MYOCARDIAL INFARCTION, DISCHARGED ALIVE W/O CC/MCC""",5773.733333300001,Standard
" CIRCULATORY DISORDERS EXCEPT AMI, W CARD CATH W/O MCC",8573.7307692,Standard
 HEART FAILURE & SHOCK W MCC,10411.980583,Standard
 HEART FAILURE & SHOCK W CC,7080.2941175999995,Standard
 HEART FAILURE & SHOCK W/O CC/MCC,5210.4285714,Standard
 OTHER KIDNEY & URINARY TRACT DIAGNOSES W CC,8072.0,Standard
 CARDIAC ARRHYTHMIA & CONDUCTION DISORDERS W MCC,9006.9375,Standard
 CARDIAC ARRHYTHMIA & CONDUCTION DISORDERS W CC,6022.472222199999,Standard
 CARDIAC ARRHYTHMIA & CONDUCTION DISORDERS W/O CC/MCC,4872.8846154,Standard
 SYNCOPE & COLLAPSE,6049.4166667,Standard
 CHEST PAIN,5578.9090909,Standard
 MAJOR SMALL & LARGE BOWEL PROCEDURES W CC,17655.0,Standard
 MAJOR SMALL & LARGE BOWEL PROCEDURES W/O CC/MCC,11553.545455,Standard
Comprehensive Observation Services,2002.4210062892898,DRG
Level 1 Intraocular Procedures,1654.63210526315,DRG
Level 4 Neurostimulator and Related Procedures,26366.8108333333,DRG
 RED BLOOD CELL DISORDERS W/O MCC,6638.7916667,Standard
 BRONCHITIS & ASTHMA W CC/MCC,6937.9333333,Standard
 HYPERTENSION W/O MCC,5322.4705882,Standard
 SIMPLE PNEUMONIA & PLEURISY W CC,6956.1126761000005,Standard
 G.I. HEMORRHAGE W CC,7129.8490566,Standard
 G.I. HEMORRHAGE W MCC,12099.0,Standard
 MAJOR GASTROINTESTINAL DISORDERS & PERITONEAL INFECTIONS W CC,7835.1333333,Standard
 DEGENERATIVE NERVOUS SYSTEM DISORDERS W/O MCC,7921.4166667,Standard
 RESPIRATORY INFECTIONS & INFLAMMATIONS W MCC,13226.103448,Standard
 PULMONARY EMBOLISM W/O MCC,6578.3333333,Standard
 OTITIS MEDIA & URI W/O MCC,5925.0,Standard
 DYSEQUILIBRIUM,5422.4285714,Standard
 SEIZURES W MCC,11410.5,Standard
 OTHER DISORDERS OF NERVOUS SYSTEM W MCC,12959.25,Standard
 TRANSIENT ISCHEMIA W/O THROMBOLYTIC,5743.6923077,Standard
 INTRACRANIAL HEMORRHAGE OR CEREBRAL INFARCTION W/O CC/MCC,5629.75,Standard
 INTRACRANIAL HEMORRHAGE OR CEREBRAL INFARCTION W CC OR TPA IN 24 HRS,7280.625,Standard
 INTRACRANIAL HEMORRHAGE OR CEREBRAL INFARCTION W MCC,11663.615385,Standard
 G.I. OBSTRUCTION W CC,6342.0,Standard
Abdominal/Peritoneal/Biliary and Related Procedures,2447.02289473684,DRG
Level 2 ICD and Similar Procedures,32108.28,DRG
Level 3 Pacemaker and Similar Procedures,9189.68666666666,DRG
 SIMPLE PNEUMONIA & PLEURISY W/O CC/MCC,5385.8125,Standard
Level 2 Endovascular Procedures,4388.35514285714,DRG
Level 1 Endovascular Procedures,2057.45041666666,DRG
Level 4 Airway Endoscopy,2258.05058823529,DRG
Level 5 Musculoskeletal Procedures,9585.59633333333,DRG
Level 4 Musculoskeletal Procedures,4716.79,DRG
Level 3 Musculoskeletal Procedures,2253.62987012986,DRG
Level 2 Musculoskeletal Procedures,1112.74227272727,DRG
Level 2 Breast/Lymphatic Surgery and Related Procedures,4152.717222222221,DRG
Level 1 Breast/Lymphatic Surgery and Related Procedures,2355.62,DRG
Level 3 Excision/ Biopsy/ Incision and Drainage,2007.61999999999,DRG
Level 2 Excision/ Biopsy/ Incision and Drainage,1132.45105263158,DRG
Level 2 Upper GI Procedures,1206.07388888888,DRG
 G.I. OBSTRUCTION W/O CC/MCC,4872.733333300001,Standard
Level 3 Endovascular Procedures,10024.5063636363,DRG
" ""ESOPHAGITIS, GASTROENT & MISC DIGEST DISORDERS W/O MCC""",5844.7721519,Standard
 DIABETES W CC,6423.9473683999995,Standard
" MISC DISORDERS OF NUTRITION,METABOLISM,FLUIDS/ELECTROLYTES W MCC",8575.444444399998,Standard
" FX, SPRN, STRN & DISL EXCEPT FEMUR, HIP, PELVIS & THIGH W/O MCC",5707.9444444,Standard
 BONE DISEASES & ARTHROPATHIES W/O MCC,6230.1818182,Standard
 MEDICAL BACK PROBLEMS W/O MCC,6666.5128205,Standard
 FRACTURES OF HIP & PELVIS W/O MCC,5306.4545455,Standard
 HIP & FEMUR PROCEDURES EXCEPT MAJOR JOINT W CC,14094.0,Standard
" ESOPHAGITIS, GASTROENT & MISC DIGEST DISORDERS W MCC",9294.85,Standard
 MAJOR HIP AND KNEE JOINT REPLACEMENT OR REATTACHMENT OF LOWER EXTREM,15885.008772,Standard
 SPINAL FUSION EXCEPT CERVICAL W/O MCC,40738.047619,Standard
" DISORDERS OF LIVER EXCEPT MALIG,CIRR,ALC HEPA W CC",6991.636363600001,Standard
 CELLULITIS W/O MCC,6493.6470588,Standard
 DISORDERS OF PANCREAS EXCEPT MALIGNANCY W CC,6592.1666667,Standard
 OTHER DIGESTIVE SYSTEM DIAGNOSES W CC,6950.652173899999,Standard
 CELLULITIS W MCC,10326.277778,Standard
 OTHER DIGESTIVE SYSTEM DIAGNOSES W MCC,11816.266667,Standard
 SIMPLE PNEUMONIA & PLEURISY W MCC,9895.4018692,Standard
 CHRONIC OBSTRUCTIVE PULMONARY DISEASE W/O CC/MCC,6183.782608699999,Standard
 CHRONIC OBSTRUCTIVE PULMONARY DISEASE W CC,6934.3962264,Standard
 CHRONIC OBSTRUCTIVE PULMONARY DISEASE W MCC,8623.7777778,Standard
 PULMONARY EDEMA & RESPIRATORY FAILURE,9133.6393443,Standard
 RESPIRATORY INFECTIONS & INFLAMMATIONS W CC,9026.0625,Standard
