Description,Charge,Category
" MISC DISORDERS OF NUTRITION,METABOLISM,FLUIDS/ELECTROLYTES W MCC",9124.3461538,Standard
 SIMPLE PNEUMONIA & PLEURISY W MCC,9676.4210526,Standard
 CHRONIC OBSTRUCTIVE PULMONARY DISEASE W/O CC/MCC,6889.5454545,Standard
 CHRONIC OBSTRUCTIVE PULMONARY DISEASE W CC,8139.5294118,Standard
 CHRONIC OBSTRUCTIVE PULMONARY DISEASE W MCC,8485.6,Standard
 PULMONARY EDEMA & RESPIRATORY FAILURE,9527.875,Standard
 RESPIRATORY INFECTIONS & INFLAMMATIONS W MCC,12512.941176,Standard
 TRANSIENT ISCHEMIA W/O THROMBOLYTIC,6588.6923077,Standard
 MAJOR HIP AND KNEE JOINT REPLACEMENT OR REATTACHMENT OF LOWER EXTREM,14883.3125,Standard
 HIP & FEMUR PROCEDURES EXCEPT MAJOR JOINT W MCC,22666.857143,Standard
 HIP & FEMUR PROCEDURES EXCEPT MAJOR JOINT W CC,14544.9375,Standard
 MEDICAL BACK PROBLEMS W/O MCC,7139.2222222,Standard
 CELLULITIS W/O MCC,7154.5517241,Standard
 DIABETES W CC,6943.8333333,Standard
 RED BLOOD CELL DISORDERS W/O MCC,7438.714285699999,Standard
 OTHER KIDNEY & URINARY TRACT DIAGNOSES W CC,8270.3846154,Standard
 OTHER KIDNEY & URINARY TRACT DIAGNOSES W MCC,11726.0,Standard
 KIDNEY & URINARY TRACT INFECTIONS W/O MCC,6814.1111111,Standard
 KIDNEY & URINARY TRACT INFECTIONS W MCC,8314.0625,Standard
 RENAL FAILURE W CC,7479.387096799999,Standard
 RENAL FAILURE W MCC,10234.217391,Standard
 SEPTICEMIA OR SEVERE SEPSIS W/O MV >96 HOURS W/O MCC,8805.0930233,Standard
" ""MISC DISORDERS OF NUTRITION,METABOLISM,FLUIDS/ELECTROLYTES W/O MCC""",6543.7692308,Standard
 SIMPLE PNEUMONIA & PLEURISY W CC,7668.4705882,Standard
 CELLULITIS W MCC,10743.384615,Standard
 BRONCHITIS & ASTHMA W CC/MCC,7894.857142899999,Standard
 OTHER DIGESTIVE SYSTEM DIAGNOSES W CC,7752.214285699999,Standard
 OTHER VASCULAR PROCEDURES W MCC,21923.428571,Standard
 SEPTICEMIA OR SEVERE SEPSIS W/O MV >96 HOURS W MCC,13034.904255,Standard
Comprehensive Observation Services,1760.4056284152898,DRG
Level 4 Gynecologic Procedures,1732.02,DRG
Level 5 Urology and Related Services,2820.30472222222,DRG
Level 4 Urology and Related Services,1942.89647058823,DRG
Level 1 Laparoscopy and Related Services,3191.5679999999998,DRG
Abdominal/Peritoneal/Biliary and Related Procedures,2218.51999999999,DRG
Level 2 Upper GI Procedures,1087.77999999999,DRG
Level 2 Excision/ Biopsy/ Incision and Drainage,1025.6317441860401,DRG
 OTHER DIGESTIVE SYSTEM DIAGNOSES W/O CC/MCC,6876.9166667,Standard
 OTHER DIGESTIVE SYSTEM DIAGNOSES W MCC,11895.230769,Standard
" ""ESOPHAGITIS, GASTROENT & MISC DIGEST DISORDERS W/O MCC""",6636.186440699999,Standard
 BRONCHITIS & ASTHMA W/O CC/MCC,6307.5,Standard
" ESOPHAGITIS, GASTROENT & MISC DIGEST DISORDERS W MCC",9836.1176471,Standard
 G.I. OBSTRUCTION W CC,7287.0,Standard
 G.I. HEMORRHAGE W CC,7873.863636399999,Standard
 MAJOR GASTROINTESTINAL DISORDERS & PERITONEAL INFECTIONS W CC,8278.5,Standard
 MAJOR SMALL & LARGE BOWEL PROCEDURES W CC,16394.9375,Standard
 MAJOR SMALL & LARGE BOWEL PROCEDURES W MCC,27897.461538,Standard
 OTHER CIRCULATORY SYSTEM DIAGNOSES W MCC,13868.0,Standard
 SYNCOPE & COLLAPSE,6849.6,Standard
 CARDIAC ARRHYTHMIA & CONDUCTION DISORDERS W MCC,9096.3333333,Standard
 HEART FAILURE & SHOCK W/O CC/MCC,5898.0,Standard
 HEART FAILURE & SHOCK W CC,7487.2,Standard
 HEART FAILURE & SHOCK W MCC,10190.014493,Standard
 G.I. OBSTRUCTION W/O CC/MCC,5582.8333333,Standard
 INFECTIOUS & PARASITIC DISEASES W O.R. PROCEDURE W MCC,31600.636363999998,Standard
