Description,Charge,Category
 HIP & FEMUR PROCEDURES EXCEPT MAJOR JOINT W/O CC/MCC,9608.157894700002,Standard
 MAJOR SMALL & LARGE BOWEL PROCEDURES W MCC,26961.363636000002,Standard
 OTHER CIRCULATORY SYSTEM DIAGNOSES W MCC,10069.043478,Standard
 CHEST PAIN,4566.4444444,Standard
 SYNCOPE & COLLAPSE,5029.875,Standard
 CARDIAC ARRHYTHMIA & CONDUCTION DISORDERS W/O CC/MCC,3596.3461538,Standard
 CARDIAC ARRHYTHMIA & CONDUCTION DISORDERS W CC,5073.4285714,Standard
 HYPERTENSION W/O MCC,4390.55,Standard
 HYPERTENSION W MCC,6151.357142899999,Standard
 PERIPHERAL VASCULAR DISORDERS W CC,5820.357142899999,Standard
 PERIPHERAL VASCULAR DISORDERS W MCC,7977.25,Standard
 HEART FAILURE & SHOCK W/O CC/MCC,4404.0,Standard
 HEART FAILURE & SHOCK W CC,5508.1506849,Standard
 CARDIAC ARRHYTHMIA & CONDUCTION DISORDERS W MCC,7305.785714300001,Standard
 MAJOR SMALL & LARGE BOWEL PROCEDURES W CC,14169.382979,Standard
 MAJOR GASTROINTESTINAL DISORDERS & PERITONEAL INFECTIONS W MCC,10468.052631999999,Standard
 MAJOR GASTROINTESTINAL DISORDERS & PERITONEAL INFECTIONS W CC,6316.813559300001,Standard
 LAPAROSCOPIC CHOLECYSTECTOMY W/O C.D.E. W CC,10458.575757999999,Standard
 LAPAROSCOPIC CHOLECYSTECTOMY W/O C.D.E. W MCC,14835.307691999998,Standard
 OTHER DIGESTIVE SYSTEM DIAGNOSES W/O CC/MCC,4226.3333333,Standard
 OTHER DIGESTIVE SYSTEM DIAGNOSES W CC,5730.235294100001,Standard
 OTHER DIGESTIVE SYSTEM DIAGNOSES W MCC,9422.533333299998,Standard
" ""ESOPHAGITIS, GASTROENT & MISC DIGEST DISORDERS W/O MCC""",4718.3185185,Standard
 HEART FAILURE & SHOCK W MCC,8514.4669261,Standard
" ESOPHAGITIS, GASTROENT & MISC DIGEST DISORDERS W MCC",7699.3611111,Standard
 G.I. OBSTRUCTION W CC,5190.5306122,Standard
 INFLAMMATORY BOWEL DISEASE W CC,7626.8235294,Standard
 G.I. HEMORRHAGE W/O CC/MCC,4066.75,Standard
 G.I. HEMORRHAGE W CC,6270.2882883,Standard
 G.I. HEMORRHAGE W MCC,9737.375,Standard
 MAJOR GASTROINTESTINAL DISORDERS & PERITONEAL INFECTIONS W/O CC/MCC,4598.357142899999,Standard
 G.I. OBSTRUCTION W/O CC/MCC,3898.6969696999995,Standard
" ""ACUTE MYOCARDIAL INFARCTION, DISCHARGED ALIVE W/O CC/MCC""",5281.4166667,Standard
" ACUTE MYOCARDIAL INFARCTION, DISCHARGED ALIVE W CC",5322.277777800001,Standard
" ""ACUTE MYOCARDIAL INFARCTION, DISCHARGED ALIVE W MCC""",9801.7,Standard
 DYSEQUILIBRIUM,4390.4375,Standard
 SEIZURES W/O MCC,5080.1111111,Standard
 SEIZURES W MCC,9261.0,Standard
 OTHER DISORDERS OF NERVOUS SYSTEM W CC,5442.2857143,Standard
 CRANIAL & PERIPHERAL NERVE DISORDERS W/O MCC,5773.4545455,Standard
 NONSPECIFIC CEREBROVASCULAR DISORDERS W CC,5489.095238100001,Standard
 NONSPECIFIC CEREBROVASCULAR DISORDERS W MCC,9361.4285714,Standard
 TRANSIENT ISCHEMIA W/O THROMBOLYTIC,4924.6296296,Standard
 INTRACRANIAL HEMORRHAGE OR CEREBRAL INFARCTION W/O CC/MCC,4562.363636399999,Standard
 INTRACRANIAL HEMORRHAGE OR CEREBRAL INFARCTION W CC OR TPA IN 24 HRS,6018.9866667,Standard
 INTRACRANIAL HEMORRHAGE OR CEREBRAL INFARCTION W MCC,10675.815789,Standard
 DEGENERATIVE NERVOUS SYSTEM DISORDERS W/O MCC,6388.4761905000005,Standard
 DEGENERATIVE NERVOUS SYSTEM DISORDERS W MCC,9737.8333333,Standard
 CRANIOTOMY & ENDOVASCULAR INTRACRANIAL PROCEDURES W MCC,26972.333333,Standard
 NERVOUS SYSTEM NEOPLASMS W MCC,7812.0,Standard
 OTHER RESP SYSTEM O.R. PROCEDURES W MCC,20057.644068,Standard
 LAPAROSCOPIC CHOLECYSTECTOMY W/O C.D.E. W/O CC/MCC,8054.137931,Standard
 OTHER RESP SYSTEM O.R. PROCEDURES W CC,10806.857143000001,Standard
 PULMONARY EMBOLISM W/O MCC,5374.0,Standard
 OTHER CIRCULATORY SYSTEM O.R. PROCEDURES,17949.214286000002,Standard
 HIP & FEMUR PROCEDURES EXCEPT MAJOR JOINT W CC,11519.761905,Standard
 RESPIRATORY SYSTEM DIAGNOSIS W VENTILATOR SUPPORT <=96 HOURS,13480.413793000002,Standard
 BRONCHITIS & ASTHMA W/O CC/MCC,4395.0,Standard
 BRONCHITIS & ASTHMA W CC/MCC,5596.0196078,Standard
 SIMPLE PNEUMONIA & PLEURISY W/O CC/MCC,5185.1351351,Standard
 SIMPLE PNEUMONIA & PLEURISY W CC,5907.778625999999,Standard
 SIMPLE PNEUMONIA & PLEURISY W MCC,7914.737142899999,Standard
 CHRONIC OBSTRUCTIVE PULMONARY DISEASE W/O CC/MCC,4452.25,Standard
 CHRONIC OBSTRUCTIVE PULMONARY DISEASE W CC,5527.5,Standard
 CHRONIC OBSTRUCTIVE PULMONARY DISEASE W MCC,6750.322580600001,Standard
 PULMONARY EDEMA & RESPIRATORY FAILURE,7368.5603448,Standard
 RESPIRATORY NEOPLASMS W MCC,9899.2352941,Standard
 RESPIRATORY INFECTIONS & INFLAMMATIONS W CC,7367.0,Standard
 RESPIRATORY INFECTIONS & INFLAMMATIONS W MCC,10613.722222,Standard
 PULMONARY EMBOLISM W MCC,8474.9,Standard
 CIRRHOSIS & ALCOHOLIC HEPATITIS W MCC,10523.428570999999,Standard
 OTHER VASCULAR PROCEDURES W MCC,20664.095237999998,Standard
 CELLULITIS W MCC,7685.5238094999995,Standard
Level 4 Urology and Related Services,2019.36999999999,DRG
 CIRRHOSIS & ALCOHOLIC HEPATITIS W CC,6161.3333333,Standard
Comprehensive Observation Services,1750.4776572797698,DRG
Level 4 Neurostimulator and Related Procedures,24794.01,DRG
Level 2 Neurostimulator and Related Procedures,4534.52,DRG
Level 1 Nerve Procedures,1171.174375,DRG
Level 5 Gynecologic Procedures,3003.6699999999896,DRG
Level 4 Gynecologic Procedures,1699.27145454545,DRG
Level 1 Laparoscopy and Related Services,3311.01313432835,DRG
Abdominal/Peritoneal/Biliary and Related Procedures,2179.368875,DRG
Complex GI Procedures,3215.12,DRG
Level 3 Upper GI Procedures,2054.32,DRG
Level 2 Upper GI Procedures,1068.8499999999901,DRG
Level 3 Endovascular Procedures,8524.77,DRG
Level 2 Endovascular Procedures,3569.7375,DRG
Level 4 Airway Endoscopy,1959.32,DRG
Level 3 Airway Endoscopy,991.1999999999989,DRG
Level 5 Urology and Related Services,2773.09929577464,DRG
 DISORDERS OF PANCREAS EXCEPT MALIGNANCY W CC,5773.3913043,Standard
Level 2 Laparoscopy and Related Services,5796.25,DRG
" ""MISC DISORDERS OF NUTRITION,METABOLISM,FLUIDS/ELECTROLYTES W/O MCC""",4788.728813600001,Standard
 NON,28180.928570999997,Standard
 EXTENSIVE O.R. PROCEDURE UNRELATED TO PRINCIPAL DIAGNOSIS W CC,13844.153846000001,Standard
 ORGANIC DISTURBANCES & INTELLECTUAL DISABILITY,6520.4,Standard
 ALCOHOL/DRUG ABUSE OR DEPENDENCE W/O REHABILITATION THERAPY W/O MCC,4869.733333300001,Standard
 SEPTICEMIA OR SEVERE SEPSIS W/O MV >96 HOURS W/O MCC,6303.7954545,Standard
 SEPTICEMIA OR SEVERE SEPSIS W/O MV >96 HOURS W MCC,10725.268170000001,Standard
 FEVER AND INFLAMMATORY CONDITIONS,5315.8,Standard
 INFECTIOUS & PARASITIC DISEASES W O.R. PROCEDURE W MCC,27762.329545,Standard
 RED BLOOD CELL DISORDERS W/O MCC,5593.8461538,Standard
 RED BLOOD CELL DISORDERS W MCC,7691.1875,Standard
 MAJOR HEMATOL/IMMUN DIAG EXC SICKLE CELL CRISIS & COAGUL W CC,7051.5,Standard
 DISORDERS OF PANCREAS EXCEPT MALIGNANCY W/O CC/MCC,4970.0,Standard
 OTHER KIDNEY & URINARY TRACT DIAGNOSES W CC,6168.5405405,Standard
 URINARY STONES W/O ESW LITHOTRIPSY W/O MCC,5787.451612899999,Standard
 KIDNEY & URINARY TRACT INFECTIONS W/O MCC,4892.22,Standard
 KIDNEY & URINARY TRACT INFECTIONS W MCC,6282.8441557999995,Standard
 RENAL FAILURE W CC,5680.5411765,Standard
 RENAL FAILURE W MCC,8496.3103448,Standard
 TRANSURETHRAL PROCEDURES W CC,8563.7727273,Standard
 POISONING & TOXIC EFFECTS OF DRUGS W MCC,8013.892857100001,Standard
 SIGNS & SYMPTOMS W/O MCC,4669.1739130000005,Standard
 EXTENSIVE O.R. PROCEDURE UNRELATED TO PRINCIPAL DIAGNOSIS W MCC,22733.076923,Standard
 OTHER KIDNEY & URINARY TRACT DIAGNOSES W MCC,8935.317073200002,Standard
Level 5 Musculoskeletal Procedures,8162.03000000001,DRG
Level 3 Urology and Related Services,1269.75,DRG
 DISORDERS OF THE BILIARY TRACT W CC,6366.75,Standard
 CELLULITIS W/O MCC,5307.1126761000005,Standard
" ""TRAUMA TO THE SKIN, SUBCUT TISS & BREAST W/O MCC""",5831.7692308,Standard
 DIABETES W MCC,7686.25,Standard
" DISORDERS OF LIVER EXCEPT MALIG,CIRR,ALC HEPA W CC",5509.4375,Standard
 DIABETES W CC,5117.34375,Standard
 MEDICAL BACK PROBLEMS W/O MCC,5448.3333333,Standard
 FRACTURES OF HIP & PELVIS W/O MCC,4674.75,Standard
Level 4 Musculoskeletal Procedures,4173.57315217392,DRG
Level 3 Musculoskeletal Procedures,1980.79,DRG
Level 2 Musculoskeletal Procedures,978.3379999999989,DRG
" ""TENDONITIS, MYOSITIS & BURSITIS W/O MCC""",5195.8461538,Standard
Level 3 Excision/ Biopsy/ Incision and Drainage,1740.89,DRG
Level 2 Excision/ Biopsy/ Incision and Drainage,1005.91513888888,DRG
 BACK & NECK PROC EXC SPINAL FUSION W/O CC/MCC,7710.1818182,Standard
 OTHER MUSCULOSKELET SYS & CONN TISS O.R. PROC W CC,10642.909091,Standard
" LOWER EXTREM & HUMER PROC EXCEPT HIP,FOOT,FEMUR W CC",12793.529412,Standard
 HIP & FEMUR PROCEDURES EXCEPT MAJOR JOINT W MCC,16462.714286000002,Standard
 MAJOR HIP AND KNEE JOINT REPLACEMENT OR REATTACHMENT OF LOWER EXTREM,12511.354167,Standard
 MAJOR HIP AND KNEE JOINT REPLACEMENT OR REATTACHMENT OF LOWER EXTREM,17308.703704,Standard
 SPINAL FUSION EXCEPT CERVICAL W/O MCC,22940.901961000003,Standard
" MISC DISORDERS OF NUTRITION,METABOLISM,FLUIDS/ELECTROLYTES W MCC",6861.2058824000005,Standard
" FX, SPRN, STRN & DISL EXCEPT FEMUR, HIP, PELVIS & THIGH W/O MCC",4981.3809524,Standard
