Description,Charge,Category
Level 1 Laparoscopy and Related Services,3249.3888,DRG
 G.I. HEMORRHAGE W/O CC/MCC,4069.5,Standard
 SIMPLE PNEUMONIA & PLEURISY W CC,5672.9012346,Standard
 CARDIAC ARRHYTHMIA & CONDUCTION DISORDERS W/O CC/MCC,3652.625,Standard
 CHRONIC OBSTRUCTIVE PULMONARY DISEASE W CC,5625.5666667,Standard
 CHRONIC OBSTRUCTIVE PULMONARY DISEASE W/O CC/MCC,4541.097561,Standard
 SIMPLE PNEUMONIA & PLEURISY W MCC,8033.692307699999,Standard
 G.I. HEMORRHAGE W CC,5870.142857100001,Standard
 SIMPLE PNEUMONIA & PLEURISY W/O CC/MCC,4510.5769231,Standard
 HEART FAILURE & SHOCK W/O CC/MCC,4251.0,Standard
Abdominal/Peritoneal/Biliary and Related Procedures,2195.21,DRG
Level 2 Upper GI Procedures,1076.34,DRG
Level 3 Musculoskeletal Procedures,1994.6799999999898,DRG
 RESPIRATORY SYSTEM DIAGNOSIS W VENTILATOR SUPPORT <=96 HOURS,13605.434783,Standard
Level 1 Breast/Lymphatic Surgery and Related Procedures,2056.98,DRG
Level 2 Excision/ Biopsy/ Incision and Drainage,998.917777777778,DRG
Level 3 Urology and Related Services,1278.65,DRG
 CARDIAC ARRHYTHMIA & CONDUCTION DISORDERS W CC,4770.8461538,Standard
 CARDIAC ARRHYTHMIA & CONDUCTION DISORDERS W MCC,7021.1538462,Standard
 HEART FAILURE & SHOCK W MCC,8933.033333299998,Standard
 HEART FAILURE & SHOCK W CC,5769.9761905000005,Standard
 RESPIRATORY SYSTEM DIAGNOSIS W VENTILATOR SUPPORT >96 HOURS,31379.785713999998,Standard
Level 2 Musculoskeletal Procedures,973.700869565217,DRG
 RESPIRATORY INFECTIONS & INFLAMMATIONS W CC,7598.714285699999,Standard
 INTRACRANIAL HEMORRHAGE OR CEREBRAL INFARCTION W CC OR TPA IN 24 HRS,6178.217391300001,Standard
 SIGNS & SYMPTOMS W/O MCC,4790.4615385,Standard
 CELLULITIS W/O MCC,5200.2083333,Standard
 OTITIS MEDIA & URI W/O MCC,4370.363636399999,Standard
" ""MISC DISORDERS OF NUTRITION,METABOLISM,FLUIDS/ELECTROLYTES W/O MCC""",4680.7586206999995,Standard
 DEGENERATIVE NERVOUS SYSTEM DISORDERS W/O MCC,6734.636363600001,Standard
 SEPTICEMIA OR SEVERE SEPSIS W/O MV >96 HOURS W MCC,10476.578947,Standard
 RED BLOOD CELL DISORDERS W/O MCC,5390.0588235,Standard
Comprehensive Observation Services,1746.1475480769197,DRG
" ""ESOPHAGITIS, GASTROENT & MISC DIGEST DISORDERS W/O MCC""",4786.8095238000005,Standard
 RESPIRATORY INFECTIONS & INFLAMMATIONS W MCC,10654.0,Standard
 KIDNEY & URINARY TRACT INFECTIONS W MCC,6455.4285714,Standard
 RENAL FAILURE W CC,5604.9,Standard
 PULMONARY EDEMA & RESPIRATORY FAILURE,7217.0625,Standard
 CHRONIC OBSTRUCTIVE PULMONARY DISEASE W MCC,6858.5,Standard
 KIDNEY & URINARY TRACT INFECTIONS W/O MCC,4903.3265306,Standard
 MAJOR HIP AND KNEE JOINT REPLACEMENT OR REATTACHMENT OF LOWER EXTREM,11813.311110999999,Standard
