Description,Charge,Category
" MISC DISORDERS OF NUTRITION,METABOLISM,FLUIDS/ELECTROLYTES W MCC",6931.9166667,Standard
 CARDIAC ARRHYTHMIA & CONDUCTION DISORDERS W CC,4845.1,Standard
 SIMPLE PNEUMONIA & PLEURISY W MCC,8832.7,Standard
 CARDIAC ARRHYTHMIA & CONDUCTION DISORDERS W MCC,7253.7368421,Standard
 HEART FAILURE & SHOCK W CC,5770.4444444,Standard
 HEART FAILURE & SHOCK W MCC,8148.396825399999,Standard
" ""ACUTE MYOCARDIAL INFARCTION, DISCHARGED ALIVE W MCC""",8371.611111100001,Standard
 BRONCHITIS & ASTHMA W CC/MCC,5684.7307692,Standard
Comprehensive Observation Services,1713.41210242587,DRG
 SIMPLE PNEUMONIA & PLEURISY W CC,5676.2424242,Standard
 SYNCOPE & COLLAPSE,5031.4545455,Standard
 MAJOR GASTROINTESTINAL DISORDERS & PERITONEAL INFECTIONS W CC,6300.6666667,Standard
 G.I. HEMORRHAGE W CC,6676.15,Standard
 CHRONIC OBSTRUCTIVE PULMONARY DISEASE W CC,5686.125,Standard
 G.I. OBSTRUCTION W CC,5354.1875,Standard
 OTHER DIGESTIVE SYSTEM DIAGNOSES W CC,5865.0714286,Standard
 REVISION OF HIP OR KNEE REPLACEMENT W CC,19263.4,Standard
 MAJOR HIP AND KNEE JOINT REPLACEMENT OR REATTACHMENT OF LOWER EXTREM,19390.0,Standard
 MAJOR HIP AND KNEE JOINT REPLACEMENT OR REATTACHMENT OF LOWER EXTREM,12946.384615,Standard
 HIP & FEMUR PROCEDURES EXCEPT MAJOR JOINT W CC,11800.416667,Standard
 MAJOR JOINT/LIMB REATTACHMENT PROCEDURE OF UPPER EXTREMITIES,15259.925,Standard
 MEDICAL BACK PROBLEMS W/O MCC,5583.9230769,Standard
 CELLULITIS W/O MCC,5526.277777800001,Standard
 O.R. PROCEDURES FOR OBESITY W/O CC/MCC,11168.272727,Standard
 DIABETES W CC,5334.3076923,Standard
" ""ESOPHAGITIS, GASTROENT & MISC DIGEST DISORDERS W/O MCC""",4956.3611111,Standard
Level 5 Urology and Related Services,2729.62172839505,DRG
 CHRONIC OBSTRUCTIVE PULMONARY DISEASE W MCC,7014.8888889,Standard
Level 3 Urology and Related Services,1249.01,DRG
 SEPTICEMIA OR SEVERE SEPSIS W/O MV >96 HOURS W/O MCC,7366.609756100001,Standard
 SEPTICEMIA OR SEVERE SEPSIS W/O MV >96 HOURS W MCC,10958.530973,Standard
 INFECTIOUS & PARASITIC DISEASES W O.R. PROCEDURE W MCC,31891.625,Standard
 OTHER KIDNEY & URINARY TRACT DIAGNOSES W CC,6443.642857100001,Standard
 OTHER KIDNEY & URINARY TRACT DIAGNOSES W MCC,9063.1153846,Standard
Level 4 Urology and Related Services,1903.6141666666601,DRG
 PULMONARY EDEMA & RESPIRATORY FAILURE,7770.0769231,Standard
 ORGANIC DISTURBANCES & INTELLECTUAL DISABILITY,7827.6153846,Standard
 INTRACRANIAL HEMORRHAGE OR CEREBRAL INFARCTION W MCC,11667.909091,Standard
 INTRACRANIAL HEMORRHAGE OR CEREBRAL INFARCTION W CC OR TPA IN 24 HRS,6212.9444444,Standard
 DEGENERATIVE NERVOUS SYSTEM DISORDERS W/O MCC,6738.142857100001,Standard
 RESPIRATORY INFECTIONS & INFLAMMATIONS W MCC,10281.764706,Standard
" ""MISC DISORDERS OF NUTRITION,METABOLISM,FLUIDS/ELECTROLYTES W/O MCC""",4730.1052632,Standard
 RENAL FAILURE W MCC,11236.652173999999,Standard
 RENAL FAILURE W CC,5669.642857100001,Standard
 KIDNEY & URINARY TRACT INFECTIONS W MCC,6636.5405405,Standard
 KIDNEY & URINARY TRACT INFECTIONS W/O MCC,5427.222222199999,Standard
 SEIZURES W/O MCC,5134.357142899999,Standard
 PSYCHOSES,7223.115107899999,Standard
Level 5 ENT Procedures,3195.88,DRG
Level 5 Musculoskeletal Procedures,8007.28000000001,DRG
Level 4 Musculoskeletal Procedures,4129.589999999989,DRG
Level 2 Excision/ Biopsy/ Incision and Drainage,992.94,DRG
