Description,Charge,Category
 HEART FAILURE & SHOCK W/O CC/MCC,4160.2142857,Standard
 HYPERTENSION W/O MCC,4263.5185185,Standard
 HEART FAILURE & SHOCK W MCC,8474.658385100001,Standard
" CIRCULATORY DISORDERS EXCEPT AMI, W CARD CATH W/O MCC",7216.46,Standard
" ""CIRCULATORY DISORDERS EXCEPT AMI, W CARD CATH W MCC""",12874.157895,Standard
 HEART FAILURE & SHOCK W CC,5656.53125,Standard
" ACUTE MYOCARDIAL INFARCTION, DISCHARGED ALIVE W CC",5838.857142899999,Standard
 PERMANENT CARDIAC PACEMAKER IMPLANT W CC,14865.4375,Standard
 OTHER VASCULAR PROCEDURES W MCC,19466.705882,Standard
 PERC CARDIOVASC PROC W DRUG,12549.45098,Standard
 PERCUTANEOUS CARDIOVASCULAR PROCEDURES W DRUG,21762.947368,Standard
 PERMANENT CARDIAC PACEMAKER IMPLANT W MCC,20560.357143,Standard
 CARDIAC ARRHYTHMIA & CONDUCTION DISORDERS W MCC,7899.75,Standard
 RESPIRATORY SYSTEM DIAGNOSIS W VENTILATOR SUPPORT <=96 HOURS,13831.833333,Standard
 CORONARY BYPASS W CARDIAC CATH W/O MCC,36823.363636,Standard
" ""ACUTE MYOCARDIAL INFARCTION, DISCHARGED ALIVE W MCC""",10752.018519,Standard
 CARDIAC ARRHYTHMIA & CONDUCTION DISORDERS W CC,4710.1875,Standard
 G.I. OBSTRUCTION W/O CC/MCC,3973.125,Standard
 SYNCOPE & COLLAPSE,4831.3018868,Standard
 LAPAROSCOPIC CHOLECYSTECTOMY W/O C.D.E. W MCC,13761.0,Standard
 BRONCHITIS & ASTHMA W CC/MCC,5567.5142857,Standard
 OTHER DIGESTIVE SYSTEM DIAGNOSES W CC,5607.0555556,Standard
 OTHER DIGESTIVE SYSTEM DIAGNOSES W MCC,9561.0625,Standard
" ""ESOPHAGITIS, GASTROENT & MISC DIGEST DISORDERS W/O MCC""",4912.7622951,Standard
" ESOPHAGITIS, GASTROENT & MISC DIGEST DISORDERS W MCC",7291.0526316,Standard
 G.I. OBSTRUCTION W CC,5106.857142899999,Standard
 CARDIAC ARRHYTHMIA & CONDUCTION DISORDERS W/O CC/MCC,3842.46875,Standard
 G.I. HEMORRHAGE W CC,5810.1090908999995,Standard
 DIGESTIVE MALIGNANCY W CC,7905.6153846,Standard
 DIGESTIVE MALIGNANCY W MCC,11620.909091,Standard
 MAJOR GASTROINTESTINAL DISORDERS & PERITONEAL INFECTIONS W CC,7290.0,Standard
 MAJOR SMALL & LARGE BOWEL PROCEDURES W CC,16550.058824,Standard
 OTHER CIRCULATORY SYSTEM DIAGNOSES W CC,6088.9285714,Standard
 OTHER CIRCULATORY SYSTEM DIAGNOSES W MCC,10851.956522,Standard
 CHEST PAIN,4475.795918399999,Standard
 G.I. HEMORRHAGE W MCC,10093.40625,Standard
 SIMPLE PNEUMONIA & PLEURISY W CC,5623.3559322,Standard
 RED BLOOD CELL DISORDERS W/O MCC,5326.8235294,Standard
 CHRONIC OBSTRUCTIVE PULMONARY DISEASE W/O CC/MCC,4455.6153846,Standard
Level 5 Musculoskeletal Procedures,8007.28,DRG
Level 1 Endovascular Procedures,1751.38295454545,DRG
Level 2 Endovascular Procedures,3582.68086956521,DRG
Level 3 Endovascular Procedures,8188.497142857141,DRG
Level 2 Upper GI Procedures,989.5435294117641,DRG
Abdominal/Peritoneal/Biliary and Related Procedures,2144.3,DRG
Level 1 Laparoscopy and Related Services,3235.88914893617,DRG
Level 2 Laparoscopy and Related Services,5680.13,DRG
Level 3 Urology and Related Services,1241.03944444444,DRG
Level 4 Urology and Related Services,1986.38,DRG
Level 5 Urology and Related Services,2729.8,DRG
Level 4 Gynecologic Procedures,1674.08,DRG
Level 5 Gynecologic Procedures,2757.636,DRG
Comprehensive Observation Services,1680.0984280302898,DRG
 DISORDERS OF PANCREAS EXCEPT MALIGNANCY W CC,6293.047619,Standard
Level 4 Musculoskeletal Procedures,3900.1683333333294,DRG
Level 2 Breast/Lymphatic Surgery and Related Procedures,3413.0874074074,DRG
Level 1 Breast/Lymphatic Surgery and Related Procedures,2009.27999999999,DRG
Level 2 Excision/ Biopsy/ Incision and Drainage,967.686222222223,DRG
 CHRONIC OBSTRUCTIVE PULMONARY DISEASE W CC,5440.25,Standard
 CHRONIC OBSTRUCTIVE PULMONARY DISEASE W MCC,6695.222222199999,Standard
 PULMONARY EDEMA & RESPIRATORY FAILURE,7206.3947368,Standard
 RESPIRATORY INFECTIONS & INFLAMMATIONS W CC,7674.8125,Standard
 RED BLOOD CELL DISORDERS W MCC,7751.461538500001,Standard
 PULMONARY EMBOLISM W/O MCC,5664.7272727,Standard
 OTHER RESP SYSTEM O.R. PROCEDURES W MCC,19928.090909,Standard
 SIMPLE PNEUMONIA & PLEURISY W MCC,7958.25,Standard
 DYSEQUILIBRIUM,4336.1333333,Standard
 SEIZURES W MCC,10301.416667,Standard
 OTHER DISORDERS OF NERVOUS SYSTEM W CC,5972.1176471,Standard
 TRANSIENT ISCHEMIA W/O THROMBOLYTIC,4599.3030303000005,Standard
 INTRACRANIAL HEMORRHAGE OR CEREBRAL INFARCTION W/O CC/MCC,4542.25,Standard
 INTRACRANIAL HEMORRHAGE OR CEREBRAL INFARCTION W CC OR TPA IN 24 HRS,5921.904761899999,Standard
 INTRACRANIAL HEMORRHAGE OR CEREBRAL INFARCTION W MCC,10002.914286,Standard
 DEGENERATIVE NERVOUS SYSTEM DISORDERS W/O MCC,6635.5384615,Standard
 SEIZURES W/O MCC,5025.4,Standard
 SPINAL FUSION EXCEPT CERVICAL W/O MCC,26545.6,Standard
 RESPIRATORY INFECTIONS & INFLAMMATIONS W MCC,10621.225,Standard
 MAJOR HIP AND KNEE JOINT REPLACEMENT OR REATTACHMENT OF LOWER EXTREM,12094.48062,Standard
 INFECTIOUS & PARASITIC DISEASES W O.R. PROCEDURE W CC,15805.769231,Standard
 SEPTICEMIA OR SEVERE SEPSIS W/O MV >96 HOURS W MCC,10623.438486,Standard
 SEPTICEMIA OR SEVERE SEPSIS W/O MV >96 HOURS W/O MCC,6404.275,Standard
" ""MISC DISORDERS OF NUTRITION,METABOLISM,FLUIDS/ELECTROLYTES W/O MCC""",4654.0,Standard
 ORGANIC DISTURBANCES & INTELLECTUAL DISABILITY,7144.952381,Standard
 PSYCHOSES,7796.75,Standard
 ALCOHOL/DRUG ABUSE OR DEPENDENCE W/O REHABILITATION THERAPY W/O MCC,5717.0,Standard
 SIGNS & SYMPTOMS W/O MCC,4628.357142899999,Standard
 MAJOR HEMATOL/IMMUN DIAG EXC SICKLE CELL CRISIS & COAGUL W CC,7072.9090909,Standard
 COMPLICATIONS OF TREATMENT W CC,5975.3846154,Standard
 OTHER KIDNEY & URINARY TRACT DIAGNOSES W CC,5973.0,Standard
" MISC DISORDERS OF NUTRITION,METABOLISM,FLUIDS/ELECTROLYTES W MCC",8419.2564103,Standard
 DIABETES W CC,5204.1,Standard
 INFECTIOUS & PARASITIC DISEASES W O.R. PROCEDURE W MCC,30564.076923,Standard
" ""AMPUTAT OF LOWER LIMB FOR ENDOCRINE,NUTRIT,& METABOL DIS W CC""",11195.0,Standard
 CELLULITIS W MCC,8268.642857100001,Standard
" FX, SPRN, STRN & DISL EXCEPT FEMUR, HIP, PELVIS & THIGH W/O MCC",5892.75,Standard
 MEDICAL BACK PROBLEMS W/O MCC,5782.1612903000005,Standard
 FRACTURES OF HIP & PELVIS W/O MCC,4412.7857143,Standard
" LOWER EXTREM & HUMER PROC EXCEPT HIP,FOOT,FEMUR W CC",12405.066667000001,Standard
 MAJOR JOINT/LIMB REATTACHMENT PROCEDURE OF UPPER EXTREMITIES,14447.653846000001,Standard
 HIP & FEMUR PROCEDURES EXCEPT MAJOR JOINT W CC,11618.566667000001,Standard
 OTHER KIDNEY & URINARY TRACT DIAGNOSES W MCC,9111.151515200001,Standard
 URINARY STONES W/O ESW LITHOTRIPSY W/O MCC,4948.9230769,Standard
 KIDNEY & URINARY TRACT INFECTIONS W/O MCC,4911.589041100001,Standard
 KIDNEY & URINARY TRACT INFECTIONS W MCC,6193.275362300001,Standard
 RENAL FAILURE W CC,5874.2258065,Standard
 RENAL FAILURE W MCC,8621.8444444,Standard
 CELLULITIS W/O MCC,5059.5932203,Standard
