Description,Charge,Category
Level 4 Airway Endoscopy,1922.64,DRG
Level 2 Upper GI Procedures,1022.31679999999,DRG
Level 3 Upper GI Procedures,1941.6144,DRG
Abdominal/Peritoneal/Biliary and Related Procedures,2139.09999999999,DRG
Level 1 Laparoscopy and Related Services,3053.9537037037,DRG
Level 2 Laparoscopy and Related Services,5663.16,DRG
Level 3 Endovascular Procedures,8087.85454545453,DRG
Level 2 Endovascular Procedures,3736.44999999999,DRG
Level 3 Urology and Related Services,1245.98,DRG
Level 2 Pacemaker and Similar Procedures,5456.521428571429,DRG
Level 3 Electrophysiologic Procedures,15685.031707316999,DRG
Level 4 Endovascular Procedures,13066.413999999999,DRG
Level 3 Airway Endoscopy,918.961454545455,DRG
Level 1 Endovascular Procedures,1716.76223880597,DRG
Level 5 Musculoskeletal Procedures,7637.50086956522,DRG
 DEGENERATIVE NERVOUS SYSTEM DISORDERS W MCC,10176.526316,Standard
Level 2 Musculoskeletal Procedures,964.386111111111,DRG
Level 2 Breast/Lymphatic Surgery and Related Procedures,3535.75,DRG
Level 3 Excision/ Biopsy/ Incision and Drainage,1708.29999999999,DRG
Level 2 Excision/ Biopsy/ Incision and Drainage,978.105789473683,DRG
 EXTRACRANIAL PROCEDURES W/O CC/MCC,9379.3157895,Standard
Level 4 Urology and Related Services,1981.55999999999,DRG
Level 5 Urology and Related Services,2718.8505607476604,DRG
Level 7 Urology and Related Services,13095.2066666666,DRG
Level 4 Neurostimulator and Related Procedures,24305.27,DRG
Level 2 ICD and Similar Procedures,26120.7266666666,DRG
Implantation of Drug Infusion Device,13021.6222222222,DRG
Comprehensive Observation Services,1689.37836241609,DRG
" TRACH W MV >96 HRS OR PDX EXC FACE, MOUTH & NECK W/O MAJ O.R.",63344.75,Standard
 EXTRACRANIAL PROCEDURES W CC,9968.4615385,Standard
Level 4 Musculoskeletal Procedures,4117.396212121211,DRG
 SYNCOPE & COLLAPSE,5342.8333333,Standard
Level 3 Pacemaker and Similar Procedures,7640.29,DRG
 RED BLOOD CELL DISORDERS W/O MCC,5814.1777778000005,Standard
 MEDICAL BACK PROBLEMS W/O MCC,5805.6285714,Standard
 FRACTURES OF HIP & PELVIS W/O MCC,4897.4705882,Standard
 OTHER MUSCULOSKELET SYS & CONN TISS O.R. PROC W/O CC/MCC,9409.4545455,Standard
 OTHER MUSCULOSKELET SYS & CONN TISS O.R. PROC W CC,11851.0,Standard
" LOWER EXTREM & HUMER PROC EXCEPT HIP,FOOT,FEMUR W CC",13877.65,Standard
 HIP & FEMUR PROCEDURES EXCEPT MAJOR JOINT W CC,13547.25,Standard
 HIP & FEMUR PROCEDURES EXCEPT MAJOR JOINT W MCC,21290.666666999998,Standard
 BIOPSIES OF MUSCULOSKELETAL SYSTEM & CONNECTIVE TISSUE W CC,13680.7,Standard
 CERVICAL SPINAL FUSION W/O CC/MCC,14525.333333,Standard
 CERVICAL SPINAL FUSION W CC,18328.333333000002,Standard
 MAJOR HIP AND KNEE JOINT REPLACEMENT OR REATTACHMENT OF LOWER EXTREM,13370.730159,Standard
 MAJOR HIP AND KNEE JOINT REPLACEMENT OR REATTACHMENT OF LOWER EXTREM,19561.0,Standard
 SPINAL FUSION EXCEPT CERVICAL W/O MCC,26518.791666999998,Standard
 DISORDERS OF PANCREAS EXCEPT MALIGNANCY W CC,6719.8888889,Standard
 DISORDERS OF PANCREAS EXCEPT MALIGNANCY W MCC,10732.666667,Standard
 CIRRHOSIS & ALCOHOLIC HEPATITIS W MCC,12884.368421,Standard
 LAPAROSCOPIC CHOLECYSTECTOMY W/O C.D.E. W CC,10773.545455,Standard
 OTHER DIGESTIVE SYSTEM DIAGNOSES W CC,6171.028571399999,Standard
 OTHER DIGESTIVE SYSTEM DIAGNOSES W MCC,10481.705881999998,Standard
" ""ESOPHAGITIS, GASTROENT & MISC DIGEST DISORDERS W/O MCC""",5264.7641509,Standard
" ESOPHAGITIS, GASTROENT & MISC DIGEST DISORDERS W MCC",7898.09375,Standard
 G.I. OBSTRUCTION W CC,5610.9444444,Standard
 G.I. OBSTRUCTION W MCC,9480.8333333,Standard
 G.I. HEMORRHAGE W MCC,10729.424242000001,Standard
 MAJOR SMALL & LARGE BOWEL PROCEDURES W CC,15174.777778,Standard
 MAJOR SMALL & LARGE BOWEL PROCEDURES W MCC,33565.473684,Standard
 OTHER CIRCULATORY SYSTEM DIAGNOSES W CC,6070.2142857,Standard
 OTHER CIRCULATORY SYSTEM DIAGNOSES W MCC,11370.206897,Standard
 CHEST PAIN,4711.2,Standard
" FX, SPRN, STRN & DISL EXCEPT FEMUR, HIP, PELVIS & THIGH W/O MCC",5516.75,Standard
 CELLULITIS W MCC,8978.8181818,Standard
 CELLULITIS W/O MCC,6263.0571429,Standard
" ""AMPUTAT OF LOWER LIMB FOR ENDOCRINE,NUTRIT,& METABOL DIS W CC""",23374.333333000002,Standard
 NON,19991.153846,Standard
 HIV W MAJOR RELATED CONDITION W MCC,16909.833333000002,Standard
 SIGNS & SYMPTOMS W/O MCC,4569.0,Standard
 COMPLICATIONS OF TREATMENT W MCC,12229.818181999999,Standard
 POISONING & TOXIC EFFECTS OF DRUGS W/O MCC,5055.9166667,Standard
 POISONING & TOXIC EFFECTS OF DRUGS W MCC,8852.3913043,Standard
 OTHER O.R. PROCEDURES FOR INJURIES W MCC,25296.090909,Standard
 ALCOHOL/DRUG ABUSE OR DEPENDENCE W/O REHABILITATION THERAPY W/O MCC,4761.2307692,Standard
 ALCOHOL/DRUG ABUSE OR DEPENDENCE W/O REHABILITATION THERAPY W MCC,10481.0,Standard
 PSYCHOSES,7543.125,Standard
 SEPTICEMIA OR SEVERE SEPSIS W/O MV >96 HOURS W/O MCC,6780.2692308,Standard
 SEPTICEMIA OR SEVERE SEPSIS W/O MV >96 HOURS W MCC,11585.697196,Standard
 SEPTICEMIA OR SEVERE SEPSIS W MV >96 HOURS OR PERIPHERAL EXTRACORPOR,35308.454545,Standard
 FEVER AND INFLAMMATORY CONDITIONS,5777.6666667,Standard
 CARDIAC ARRHYTHMIA & CONDUCTION DISORDERS W/O CC/MCC,4122.2727273,Standard
 POSTOPERATIVE & POST,11550.428570999999,Standard
 INFECTIOUS & PARASITIC DISEASES W O.R. PROCEDURE W MCC,29427.045872000002,Standard
 RED BLOOD CELL DISORDERS W MCC,8619.4285714,Standard
 OTHER KIDNEY & URINARY TRACT DIAGNOSES W CC,7090.2083333,Standard
 OTHER KIDNEY & URINARY TRACT DIAGNOSES W MCC,10856.942857,Standard
 KIDNEY & URINARY TRACT INFECTIONS W/O MCC,5280.2962963,Standard
 KIDNEY & URINARY TRACT INFECTIONS W MCC,7007.1975309,Standard
 RENAL FAILURE W CC,5962.0208333,Standard
 RENAL FAILURE W MCC,9316.7238095,Standard
 OTHER KIDNEY & URINARY TRACT PROCEDURES W MCC,22459.846154,Standard
 ENDOCRINE DISORDERS W CC,6589.4166667,Standard
" ""MISC DISORDERS OF NUTRITION,METABOLISM,FLUIDS/ELECTROLYTES W/O MCC""",5168.641025600001,Standard
" MISC DISORDERS OF NUTRITION,METABOLISM,FLUIDS/ELECTROLYTES W MCC",7634.9,Standard
 DIABETES W CC,6500.828571399999,Standard
 DIABETES W MCC,8347.1052632,Standard
 INFECTIOUS & PARASITIC DISEASES W O.R. PROCEDURE W CC,13552.684211000002,Standard
 CARDIAC ARRHYTHMIA & CONDUCTION DISORDERS W CC,5151.690909100001,Standard
 G.I. HEMORRHAGE W CC,7027.8461538,Standard
 PNEUMOTHORAX W CC,7041.307692300001,Standard
 DYSEQUILIBRIUM,4756.8666667,Standard
 SIMPLE PNEUMONIA & PLEURISY W/O CC/MCC,4687.142857100001,Standard
 SIMPLE PNEUMONIA & PLEURISY W CC,6257.9210526,Standard
 SIMPLE PNEUMONIA & PLEURISY W MCC,8654.373333299998,Standard
 CHRONIC OBSTRUCTIVE PULMONARY DISEASE W/O CC/MCC,4924.5714286,Standard
 CHRONIC OBSTRUCTIVE PULMONARY DISEASE W CC,5997.5428571,Standard
 CHRONIC OBSTRUCTIVE PULMONARY DISEASE W MCC,7400.892307699999,Standard
 PULMONARY EDEMA & RESPIRATORY FAILURE,7673.567164200001,Standard
 MAJOR CHEST TRAUMA W MCC,10837.909091,Standard
 RESPIRATORY NEOPLASMS W CC,7471.2727273,Standard
 RESPIRATORY NEOPLASMS W MCC,10754.692308,Standard
 RESPIRATORY INFECTIONS & INFLAMMATIONS W MCC,11042.32,Standard
 PULMONARY EMBOLISM W/O MCC,5926.9411765,Standard
 PULMONARY EMBOLISM W MCC,9207.5714286,Standard
 BRONCHITIS & ASTHMA W CC/MCC,6070.9473683999995,Standard
 OTHER RESP SYSTEM O.R. PROCEDURES W CC,12558.2,Standard
 CARDIAC ARRHYTHMIA & CONDUCTION DISORDERS W MCC,7838.393939399999,Standard
 DEGENERATIVE NERVOUS SYSTEM DISORDERS W/O MCC,6500.9411765,Standard
" ""ISCHEMIC STROKE, PRECEREBRAL OCCLUSION OR TRANSIENT ISCHEMIA W THRO",12287.733333,Standard
 INTRACRANIAL HEMORRHAGE OR CEREBRAL INFARCTION W MCC,11222.538462,Standard
 INTRACRANIAL HEMORRHAGE OR CEREBRAL INFARCTION W CC OR TPA IN 24 HRS,6518.425531899999,Standard
 INTRACRANIAL HEMORRHAGE OR CEREBRAL INFARCTION W/O CC/MCC,4969.35,Standard
 TRANSIENT ISCHEMIA W/O THROMBOLYTIC,5029.6037736,Standard
 CRANIAL & PERIPHERAL NERVE DISORDERS W/O MCC,6239.7142857,Standard
" ""TRAUMATIC STUPOR & COMA, COMA <1 HR W CC""",7487.5625,Standard
" TRAUMATIC STUPOR & COMA, COMA <1 HR W/O CC/MCC",5453.7142857,Standard
 OTHER DISORDERS OF NERVOUS SYSTEM W MCC,9639.24,Standard
 OTHER DISORDERS OF NERVOUS SYSTEM W CC,6687.8125,Standard
 SEIZURES W MCC,10482.785714,Standard
 SEIZURES W/O MCC,5706.3333333,Standard
 OTHER RESP SYSTEM O.R. PROCEDURES W MCC,22603.179104,Standard
 RESPIRATORY SYSTEM DIAGNOSIS W VENTILATOR SUPPORT <=96 HOURS,14823.607843000002,Standard
 MAJOR CHEST PROCEDURES W CC,13595.2,Standard
 CARDIAC VALVE & OTH MAJ CARDIOTHORACIC PROC W/O CARD CATH W CC,31350.0,Standard
 HYPERTENSION W/O MCC,4948.7727273,Standard
 PERIPHERAL VASCULAR DISORDERS W CC,6822.6969696999995,Standard
 OTHER HEART ASSIST SYSTEM IMPLANT,79487.722222,Standard
 HEART FAILURE & SHOCK W/O CC/MCC,5349.0,Standard
 HEART FAILURE & SHOCK W CC,6482.3170732,Standard
 HEART FAILURE & SHOCK W MCC,9403.7958115,Standard
" CIRCULATORY DISORDERS EXCEPT AMI, W CARD CATH W/O MCC",7602.8108108,Standard
" ""CIRCULATORY DISORDERS EXCEPT AMI, W CARD CATH W MCC""",14011.264706,Standard
" ACUTE MYOCARDIAL INFARCTION, DISCHARGED ALIVE W CC",6507.9090909,Standard
 PERIPHERAL VASCULAR DISORDERS W MCC,8710.2307692,Standard
 PERCUTANEOUS INTRACARDIAC PROCEDURES W/O MCC,17309.647059,Standard
 OTHER CARDIOTHORACIC PROCEDURES W/O MCC,28959.25,Standard
" ""ACUTE MYOCARDIAL INFARCTION, DISCHARGED ALIVE W MCC""",10465.272727,Standard
 PERC CARDIOVASC PROC W DRUG,13527.690476,Standard
 OTHER VASCULAR PROCEDURES W MCC,20586.08,Standard
 PERCUTANEOUS CARDIOVASCULAR PROCEDURES W DRUG,27945.0,Standard
 OTHER CIRCULATORY SYSTEM O.R. PROCEDURES,17352.0,Standard
 ENDOVASCULAR CARDIAC VALVE REPLACEMENT W/O MCC,41720.684211,Standard
 PERCUTANEOUS INTRACARDIAC PROCEDURES W MCC,22303.947368,Standard
 OTHER VASCULAR PROCEDURES W CC,16062.277778,Standard
