Description,Charge,Category
 MAJOR SMALL & LARGE BOWEL PROCEDURES W/O CC/MCC,10808.875,Standard
 MAJOR SMALL & LARGE BOWEL PROCEDURES W CC,13996.818181999999,Standard
 OTHER CIRCULATORY SYSTEM DIAGNOSES W MCC,10774.642856999999,Standard
 SYNCOPE & COLLAPSE,4922.6666667,Standard
 CARDIAC ARRHYTHMIA & CONDUCTION DISORDERS W CC,4845.8,Standard
Level 3 Urology and Related Services,1245.98,DRG
 SIMPLE PNEUMONIA & PLEURISY W MCC,7692.0560748,Standard
Level 2 Laparoscopy and Related Services,5468.41,DRG
 CHRONIC OBSTRUCTIVE PULMONARY DISEASE W MCC,6363.44,Standard
 CELLULITIS W MCC,7830.0833333,Standard
 CELLULITIS W/O MCC,5176.024390199999,Standard
 O.R. PROCEDURES FOR OBESITY W/O CC/MCC,11643.571429000001,Standard
 DIABETES W MCC,7696.5625,Standard
 INTRACRANIAL HEMORRHAGE OR CEREBRAL INFARCTION W MCC,9451.8235294,Standard
Level 2 Excision/ Biopsy/ Incision and Drainage,950.9087999999989,DRG
Level 3 Excision/ Biopsy/ Incision and Drainage,1708.29999999999,DRG
Level 2 Musculoskeletal Procedures,950.6091666666659,DRG
Level 3 Musculoskeletal Procedures,1666.03714285714,DRG
Level 4 Musculoskeletal Procedures,3985.25427027026,DRG
Level 5 Musculoskeletal Procedures,7984.65999999999,DRG
Level 4 Airway Endoscopy,1821.44842105263,DRG
Level 5 Airway Endoscopy,3574.1699999999896,DRG
Level 1 Endovascular Procedures,1735.8007462686498,DRG
Level 2 Endovascular Procedures,3396.7727272727197,DRG
Level 3 Endovascular Procedures,7893.782142857131,DRG
Level 3 Pacemaker and Similar Procedures,7151.563124999991,DRG
Level 2 Upper GI Procedures,1048.84,DRG
Level 1 Laparoscopy and Related Services,3249.04208955223,DRG
 CARDIAC ARRHYTHMIA & CONDUCTION DISORDERS W/O CC/MCC,3800.0,Standard
Level 4 Urology and Related Services,1978.52173913043,DRG
Level 5 Urology and Related Services,2663.44833333333,DRG
 PULMONARY EDEMA & RESPIRATORY FAILURE,7475.8461538,Standard
 DIABETES W CC,5313.125,Standard
Level 1 Nerve Procedures,1183.39,DRG
Level 3 Neurostimulator and Related Procedures,15558.54,DRG
Level 4 Neurostimulator and Related Procedures,24057.257040816297,DRG
Comprehensive Observation Services,1691.36580838323,DRG
Level 6 Gynecologic Procedures,4483.78,DRG
Level 5 Gynecologic Procedures,2947.44,DRG
 CARDIAC ARRHYTHMIA & CONDUCTION DISORDERS W MCC,7171.2,Standard
 HEART FAILURE & SHOCK W CC,5746.2857143,Standard
 HEART FAILURE & SHOCK W MCC,8500.5633803,Standard
" CIRCULATORY DISORDERS EXCEPT AMI, W CARD CATH W/O MCC",7429.952381,Standard
" ""CIRCULATORY DISORDERS EXCEPT AMI, W CARD CATH W MCC""",12468.227273,Standard
" ACUTE MYOCARDIAL INFARCTION, DISCHARGED ALIVE W CC",5840.2727273,Standard
" ""ACUTE MYOCARDIAL INFARCTION, DISCHARGED ALIVE W MCC""",8731.1176471,Standard
 PERC CARDIOVASC PROC W DRUG,13258.454545,Standard
 RESPIRATORY SYSTEM DIAGNOSIS W VENTILATOR SUPPORT <=96 HOURS,14109.888888999998,Standard
 SIMPLE PNEUMONIA & PLEURISY W CC,5727.4761905000005,Standard
 POISONING & TOXIC EFFECTS OF DRUGS W MCC,8320.2941176,Standard
" MISC DISORDERS OF NUTRITION,METABOLISM,FLUIDS/ELECTROLYTES W MCC",6918.7222222,Standard
" ""MISC DISORDERS OF NUTRITION,METABOLISM,FLUIDS/ELECTROLYTES W/O MCC""",4563.5,Standard
 RENAL FAILURE W MCC,8431.5438596,Standard
 RENAL FAILURE W CC,5496.8780488,Standard
 KIDNEY & URINARY TRACT INFECTIONS W MCC,6322.5681818,Standard
 FRACTURES OF HIP & PELVIS W/O MCC,4445.4545455,Standard
Level 7 Urology and Related Services,13105.17,DRG
 KIDNEY & URINARY TRACT INFECTIONS W/O MCC,4867.4193548,Standard
 RED BLOOD CELL DISORDERS W MCC,7900.75,Standard
 RED BLOOD CELL DISORDERS W/O MCC,5398.0,Standard
 INFECTIOUS & PARASITIC DISEASES W O.R. PROCEDURE W MCC,24634.076923,Standard
 POSTOPERATIVE & POST,5888.3076923,Standard
 SEPTICEMIA OR SEVERE SEPSIS W/O MV >96 HOURS W MCC,10401.366667,Standard
 SEPTICEMIA OR SEVERE SEPSIS W/O MV >96 HOURS W/O MCC,6591.7916667,Standard
 OTHER KIDNEY & URINARY TRACT DIAGNOSES W MCC,8839.090909100001,Standard
 INTRACRANIAL HEMORRHAGE OR CEREBRAL INFARCTION W CC OR TPA IN 24 HRS,5631.3333333,Standard
 MEDICAL BACK PROBLEMS W/O MCC,5291.25,Standard
 PULMONARY EMBOLISM W/O MCC,5366.9333333,Standard
 MAJOR HIP AND KNEE JOINT REPLACEMENT OR REATTACHMENT OF LOWER EXTREM,16138.619047999999,Standard
 MAJOR HIP AND KNEE JOINT REPLACEMENT OR REATTACHMENT OF LOWER EXTREM,12681.287554,Standard
 CERVICAL SPINAL FUSION W CC,16683.911765,Standard
 CERVICAL SPINAL FUSION W/O CC/MCC,19385.954545,Standard
 HIP & FEMUR PROCEDURES EXCEPT MAJOR JOINT W MCC,15959.4375,Standard
 HIP & FEMUR PROCEDURES EXCEPT MAJOR JOINT W CC,11647.703704000001,Standard
 HIP & FEMUR PROCEDURES EXCEPT MAJOR JOINT W/O CC/MCC,9609.2380952,Standard
 MAJOR JOINT/LIMB REATTACHMENT PROCEDURE OF UPPER EXTREMITIES,14200.688525,Standard
" LOWER EXTREM & HUMER PROC EXCEPT HIP,FOOT,FEMUR W CC",12391.076923,Standard
 COMBINED ANTERIOR/POSTERIOR SPINAL FUSION W/O CC/MCC,30323.789474,Standard
 COMBINED ANTERIOR/POSTERIOR SPINAL FUSION W CC,39333.052632,Standard
" DISORDERS OF LIVER EXCEPT MALIG,CIRR,ALC HEPA W CC",5437.0909091,Standard
 RESPIRATORY INFECTIONS & INFLAMMATIONS W MCC,9988.5714286,Standard
 REVISION OF HIP OR KNEE REPLACEMENT W CC,19702.933333,Standard
 SPINAL FUSION EXCEPT CERVICAL W/O MCC,23909.584415999998,Standard
 SEIZURES W/O MCC,5018.72,Standard
 TRANSIENT ISCHEMIA W/O THROMBOLYTIC,4666.9090909,Standard
 CHRONIC OBSTRUCTIVE PULMONARY DISEASE W CC,5434.636363600001,Standard
 G.I. HEMORRHAGE W MCC,9854.692307700001,Standard
 G.I. HEMORRHAGE W CC,5714.9736842,Standard
" ESOPHAGITIS, GASTROENT & MISC DIGEST DISORDERS W MCC",7876.0,Standard
" ""ESOPHAGITIS, GASTROENT & MISC DIGEST DISORDERS W/O MCC""",4778.1304348,Standard
 OTHER RESP SYSTEM O.R. PROCEDURES W MCC,19195.272727,Standard
