Description,Charge,Category
 G.I. HEMORRHAGE W CC,5304.363636399999,Standard
 CARDIAC ARRHYTHMIA & CONDUCTION DISORDERS W MCC,6484.357142899999,Standard
 CARDIAC ARRHYTHMIA & CONDUCTION DISORDERS W CC,4218.478260899999,Standard
 CARDIAC ARRHYTHMIA & CONDUCTION DISORDERS W/O CC/MCC,3484.5294118,Standard
 SYNCOPE & COLLAPSE,4618.407407399999,Standard
 CHEST PAIN,3838.4615384999997,Standard
 MAJOR SMALL & LARGE BOWEL PROCEDURES W CC,12637.363636,Standard
" ""ESOPHAGITIS, GASTROENT & MISC DIGEST DISORDERS W/O MCC""",4152.217391300001,Standard
 RENAL FAILURE W MCC,7849.733333300001,Standard
 MAJOR JOINT/LIMB REATTACHMENT PROCEDURE OF UPPER EXTREMITIES,13231.785714,Standard
 CELLULITIS W/O MCC,6173.2307692,Standard
" ""MISC DISORDERS OF NUTRITION,METABOLISM,FLUIDS/ELECTROLYTES W/O MCC""",3951.0666666999996,Standard
 SEPTICEMIA OR SEVERE SEPSIS W/O MV >96 HOURS W/O MCC,5694.0882353,Standard
 HEART FAILURE & SHOCK W CC,4835.1176471,Standard
 RENAL FAILURE W CC,4902.8076923,Standard
 KIDNEY & URINARY TRACT INFECTIONS W MCC,8440.76,Standard
 KIDNEY & URINARY TRACT INFECTIONS W/O MCC,4243.0357143,Standard
 SEPTICEMIA OR SEVERE SEPSIS W/O MV >96 HOURS W MCC,9955.439252299999,Standard
 MAJOR HIP AND KNEE JOINT REPLACEMENT OR REATTACHMENT OF LOWER EXTREM,12845.867188,Standard
 HEART FAILURE & SHOCK W MCC,7295.854545499999,Standard
Level 6 Musculoskeletal Procedures,11723.3718749999,DRG
 SIMPLE PNEUMONIA & PLEURISY W MCC,7375.0,Standard
Level 1 Laparoscopy and Related Services,2951.4697142857103,DRG
Level 3 Urology and Related Services,1215.42782608695,DRG
Level 4 Urology and Related Services,1939.44,DRG
Level 5 Urology and Related Services,2665.31,DRG
Level 1 Nerve Procedures,1158.23,DRG
Level 1 Intraocular Procedures,1365.9936126629302,DRG
Comprehensive Observation Services,1661.02952586207,DRG
 CHRONIC OBSTRUCTIVE PULMONARY DISEASE W MCC,6288.625,Standard
 SIMPLE PNEUMONIA & PLEURISY W CC,6904.6956522,Standard
 CHRONIC OBSTRUCTIVE PULMONARY DISEASE W CC,5000.95,Standard
Level 3 Excision/ Biopsy/ Incision and Drainage,1671.99,DRG
Level 2 Musculoskeletal Procedures,970.85,DRG
Level 3 Musculoskeletal Procedures,1826.6266666666602,DRG
Level 4 Musculoskeletal Procedures,3853.5863043478203,DRG
Level 5 Musculoskeletal Procedures,6813.66,DRG
Level 2 Upper GI Procedures,992.3316666666659,DRG
Abdominal/Peritoneal/Biliary and Related Procedures,1977.3266666666602,DRG
 CHRONIC OBSTRUCTIVE PULMONARY DISEASE W/O CC/MCC,3970.1818181999997,Standard
Level 2 Excision/ Biopsy/ Incision and Drainage,969.47,DRG
