Description,Charge,Category
 SEPTICEMIA OR SEVERE SEPSIS W/O MV >96 HOURS W MCC,12408.929134,Standard
Level 4 Urology and Related Services,2055.14,DRG
 SEPTICEMIA OR SEVERE SEPSIS W/O MV >96 HOURS W/O MCC,7229.038461499999,Standard
 HEART FAILURE & SHOCK W CC,6667.7631579,Standard
 SYNCOPE & COLLAPSE,5808.3030303000005,Standard
 CARDIAC ARRHYTHMIA & CONDUCTION DISORDERS W/O CC/MCC,4301.709677399999,Standard
 CARDIAC ARRHYTHMIA & CONDUCTION DISORDERS W CC,5698.1153846,Standard
 CARDIAC ARRHYTHMIA & CONDUCTION DISORDERS W MCC,9214.5454545,Standard
 HYPERTENSION W/O MCC,5065.1818182,Standard
 HEART FAILURE & SHOCK W/O CC/MCC,4926.24,Standard
 HEART FAILURE & SHOCK W MCC,9714.561224500001,Standard
 BRONCHITIS & ASTHMA W CC/MCC,6447.1666667,Standard
 INFECTIOUS & PARASITIC DISEASES W O.R. PROCEDURE W MCC,34657.615385000005,Standard
 SIMPLE PNEUMONIA & PLEURISY W/O CC/MCC,5909.857142899999,Standard
 SIMPLE PNEUMONIA & PLEURISY W CC,6492.8888889,Standard
 SIMPLE PNEUMONIA & PLEURISY W MCC,9404.48,Standard
 CHRONIC OBSTRUCTIVE PULMONARY DISEASE W/O CC/MCC,5411.0909091,Standard
 CHRONIC OBSTRUCTIVE PULMONARY DISEASE W CC,6525.6666667,Standard
 CHRONIC OBSTRUCTIVE PULMONARY DISEASE W MCC,7748.1388889,Standard
 PULMONARY EDEMA & RESPIRATORY FAILURE,8181.0625,Standard
 RESPIRATORY INFECTIONS & INFLAMMATIONS W MCC,14344.5,Standard
 TRANSIENT ISCHEMIA W/O THROMBOLYTIC,5604.3888889,Standard
 SIGNS & SYMPTOMS W/O MCC,5340.6111111,Standard
Level 2 Excision/ Biopsy/ Incision and Drainage,1014.9014084507,DRG
 RESPIRATORY SYSTEM DIAGNOSIS W VENTILATOR SUPPORT <=96 HOURS,16211.083333,Standard
 RED BLOOD CELL DISORDERS W/O MCC,6187.1111111,Standard
Level 2 Breast/Lymphatic Surgery and Related Procedures,3576.2328947368396,DRG
Level 1 Breast/Lymphatic Surgery and Related Procedures,2078.83,DRG
 COMBINED ANTERIOR/POSTERIOR SPINAL FUSION W/O CC/MCC,31873.846154000003,Standard
 SPINAL FUSION EXCEPT CERVICAL W/O MCC,27696.678570999997,Standard
 MAJOR HIP AND KNEE JOINT REPLACEMENT OR REATTACHMENT OF LOWER EXTREM,14064.122449,Standard
 HIP & FEMUR PROCEDURES EXCEPT MAJOR JOINT W CC,13501.4,Standard
" LOWER EXTREM & HUMER PROC EXCEPT HIP,FOOT,FEMUR W CC",14878.181818000001,Standard
 FRACTURES OF HIP & PELVIS W/O MCC,5370.047619,Standard
 MEDICAL BACK PROBLEMS W/O MCC,6172.863636399999,Standard
" FX, SPRN, STRN & DISL EXCEPT FEMUR, HIP, PELVIS & THIGH W/O MCC",5849.9444444,Standard
 CELLULITIS W/O MCC,6124.7058824,Standard
" ""TRAUMA TO THE SKIN, SUBCUT TISS & BREAST W/O MCC""",5974.6153846,Standard
" ""MISC DISORDERS OF NUTRITION,METABOLISM,FLUIDS/ELECTROLYTES W/O MCC""",5246.4827586,Standard
 OTHER KIDNEY & URINARY TRACT DIAGNOSES W MCC,11233.769231,Standard
 RENAL FAILURE W CC,6340.8,Standard
Level 3 Urology and Related Services,1284.3335294117599,DRG
Abdominal/Peritoneal/Biliary and Related Procedures,2208.71357142857,DRG
Level 4 Musculoskeletal Procedures,4272.53,DRG
 OTHER DIGESTIVE SYSTEM DIAGNOSES W CC,6554.0666667,Standard
" ""ESOPHAGITIS, GASTROENT & MISC DIGEST DISORDERS W/O MCC""",5690.813559300001,Standard
 G.I. OBSTRUCTION W/O CC/MCC,4249.266666699999,Standard
 G.I. HEMORRHAGE W CC,6696.09375,Standard
 DIGESTIVE MALIGNANCY W CC,7817.0,Standard
 CHEST PAIN,5331.8125,Standard
Level 3 Musculoskeletal Procedures,1844.7015789473603,DRG
 KIDNEY & URINARY TRACT INFECTIONS W/O MCC,6010.4366197,Standard
 KIDNEY & URINARY TRACT INFECTIONS W MCC,7224.956521699999,Standard
 MAJOR GASTROINTESTINAL DISORDERS & PERITONEAL INFECTIONS W CC,7209.5,Standard
 PULMONARY EMBOLISM W/O MCC,6259.5454545,Standard
Comprehensive Observation Services,1731.77182320441,DRG
Level 5 Urology and Related Services,2824.2899999999895,DRG
Level 4 Gynecologic Procedures,1673.1699999999898,DRG
Level 6 Urology and Related Services,5798.67869565217,DRG
