Description,Charge,Category
 NONSPECIFIC CEREBROVASCULAR DISORDERS W CC,10591.210526,Standard
 NONSPECIFIC CEREBROVASCULAR DISORDERS W MCC,17030.818182,Standard
 CHRONIC OBSTRUCTIVE PULMONARY DISEASE W MCC,9861.3974359,Standard
 RESPIRATORY SYSTEM DIAGNOSIS W VENTILATOR SUPPORT <=96 HOURS,24606.16,Standard
 INTRACRANIAL HEMORRHAGE OR CEREBRAL INFARCTION W/O CC/MCC,6181.5,Standard
 INTRACRANIAL HEMORRHAGE OR CEREBRAL INFARCTION W CC OR TPA IN 24 HRS,9401.2211538,Standard
 CHRONIC OBSTRUCTIVE PULMONARY DISEASE W CC,9908.0943396,Standard
 HEART FAILURE & SHOCK W CC,9164.2040816,Standard
 HEART FAILURE & SHOCK W/O CC/MCC,5850.75,Standard
 TRANSIENT ISCHEMIA W/O THROMBOLYTIC,6988.6842105000005,Standard
 OTHER VASCULAR PROCEDURES W MCC,25854.3,Standard
 CHRONIC OBSTRUCTIVE PULMONARY DISEASE W/O CC/MCC,6951.95,Standard
 SEIZURES W MCC,18125.055556,Standard
 PULMONARY EMBOLISM W/O MCC,7526.391304299999,Standard
 RESPIRATORY INFECTIONS & INFLAMMATIONS W MCC,16964.8,Standard
 PULMONARY EMBOLISM W MCC,20871.636363999998,Standard
 RESPIRATORY INFECTIONS & INFLAMMATIONS W CC,9685.25,Standard
 BRONCHITIS & ASTHMA W CC/MCC,9735.6666667,Standard
 SIMPLE PNEUMONIA & PLEURISY W/O CC/MCC,6196.2631579,Standard
 OTHER VASCULAR PROCEDURES W CC,29918.545455,Standard
" ""ACUTE MYOCARDIAL INFARCTION, DISCHARGED ALIVE W MCC""",8998.7222222,Standard
 PULMONARY EDEMA & RESPIRATORY FAILURE,16367.097561000002,Standard
" ""ACUTE MYOCARDIAL INFARCTION, DISCHARGED ALIVE W/O CC/MCC""",3958.8461538,Standard
 HEART FAILURE & SHOCK W MCC,11578.515873,Standard
 PERIPHERAL VASCULAR DISORDERS W MCC,10738.666667,Standard
 PERIPHERAL VASCULAR DISORDERS W CC,13052.16,Standard
 HYPERTENSION W/O MCC,5869.142857100001,Standard
 SIMPLE PNEUMONIA & PLEURISY W CC,8817.580357100001,Standard
 SEIZURES W/O MCC,7067.857142899999,Standard
 SIMPLE PNEUMONIA & PLEURISY W MCC,12544.826087000001,Standard
 RESPIRATORY NEOPLASMS W MCC,20120.529412,Standard
" ACUTE MYOCARDIAL INFARCTION, DISCHARGED ALIVE W CC",5668.0526316000005,Standard
 SYNCOPE & COLLAPSE,6548.8,Standard
 CARDIAC ARRHYTHMIA & CONDUCTION DISORDERS W CC,8150.0227273,Standard
 G.I. OBSTRUCTION W/O CC/MCC,5154.2916667,Standard
 G.I. OBSTRUCTION W CC,8437.125,Standard
 G.I. OBSTRUCTION W MCC,15013.5,Standard
 G.I. HEMORRHAGE W/O CC/MCC,6986.2352941,Standard
 G.I. HEMORRHAGE W CC,11397.758929000001,Standard
 EXTENSIVE O.R. PROCEDURE UNRELATED TO PRINCIPAL DIAGNOSIS W CC,19985.0,Standard
" ESOPHAGITIS, GASTROENT & MISC DIGEST DISORDERS W MCC",7693.4705882,Standard
 EXTENSIVE O.R. PROCEDURE UNRELATED TO PRINCIPAL DIAGNOSIS W MCC,44266.444444,Standard
 ORGANIC DISTURBANCES & INTELLECTUAL DISABILITY,8964.8695652,Standard
 SEPTICEMIA OR SEVERE SEPSIS W/O MV >96 HOURS W/O MCC,9114.9647059,Standard
 SEPTICEMIA OR SEVERE SEPSIS W/O MV >96 HOURS W MCC,21489.738095,Standard
 G.I. HEMORRHAGE W MCC,15899.257143,Standard
 SEPTICEMIA OR SEVERE SEPSIS W MV >96 HOURS OR PERIPHERAL EXTRACORPOR,59133.44444400001,Standard
 CARDIAC ARRHYTHMIA & CONDUCTION DISORDERS W MCC,10702.5,Standard
 SIGNS & SYMPTOMS W/O MCC,7015.6470588,Standard
 INFECTIOUS & PARASITIC DISEASES W O.R. PROCEDURE W MCC,38993.857143,Standard
" ""ESOPHAGITIS, GASTROENT & MISC DIGEST DISORDERS W/O MCC""",7226.431034499999,Standard
 OTHER DIGESTIVE SYSTEM DIAGNOSES W CC,8346.7777778,Standard
 CELLULITIS W/O MCC,8132.8181818,Standard
 CELLULITIS W MCC,12089.5625,Standard
 SKIN ULCERS W MCC,18600.727273,Standard
" ""AMPUTAT OF LOWER LIMB FOR ENDOCRINE,NUTRIT,& METABOL DIS W CC""",21788.833333000002,Standard
" FX, SPRN, STRN & DISL EXCEPT FEMUR, HIP, PELVIS & THIGH W/O MCC",8146.1333333,Standard
 SIGNS & SYMPTOMS OF MUSCULOSKELETAL SYSTEM & CONN TISSUE W/O MCC,6766.8181818,Standard
 OTHER DIGESTIVE SYSTEM DIAGNOSES W MCC,16527.857143,Standard
 BONE DISEASES & ARTHROPATHIES W/O MCC,6082.1538462,Standard
 HIP & FEMUR PROCEDURES EXCEPT MAJOR JOINT W CC,27275.6875,Standard
 CERVICAL SPINAL FUSION W CC,26802.785713999998,Standard
 MAJOR HIP AND KNEE JOINT REPLACEMENT OR REATTACHMENT OF LOWER EXTREM,22311.26087,Standard
 SPINAL FUSION EXCEPT CERVICAL W/O MCC,47621.52381,Standard
 DISORDERS OF PANCREAS EXCEPT MALIGNANCY W CC,6674.8181818,Standard
 LAPAROSCOPIC CHOLECYSTECTOMY W/O C.D.E. W CC,17216.928571,Standard
 MEDICAL BACK PROBLEMS W/O MCC,6967.4074074,Standard
 COAGULATION DISORDERS,14079.545455000001,Standard
 INFECTIOUS & PARASITIC DISEASES W O.R. PROCEDURE W CC,27325.357143,Standard
 RED BLOOD CELL DISORDERS W MCC,10894.190476,Standard
 CARDIAC ARRHYTHMIA & CONDUCTION DISORDERS W/O CC/MCC,5958.1,Standard
 DEGENERATIVE NERVOUS SYSTEM DISORDERS W/O MCC,7677.217391300001,Standard
 CHEST PAIN,5141.1851852,Standard
 OTHER CIRCULATORY SYSTEM DIAGNOSES W MCC,18442.236842,Standard
 OTHER CIRCULATORY SYSTEM DIAGNOSES W CC,6345.6,Standard
 MAJOR SMALL & LARGE BOWEL PROCEDURES W MCC,43586.428571,Standard
 RED BLOOD CELL DISORDERS W/O MCC,6327.0714286,Standard
 MAJOR SMALL & LARGE BOWEL PROCEDURES W CC,21710.96,Standard
" ""SKIN GRAFTS & WOUND DEBRID FOR ENDOC, NUTRIT & METAB DIS W CC""",21071.833333000002,Standard
 DIABETES W MCC,10014.3125,Standard
 DIABETES W CC,8015.9019608,Standard
 INTRACRANIAL HEMORRHAGE OR CEREBRAL INFARCTION W MCC,15329.454544999999,Standard
" ""MISC DISORDERS OF NUTRITION,METABOLISM,FLUIDS/ELECTROLYTES W/O MCC""",6587.367088600001,Standard
 RENAL FAILURE W MCC,15339.567900999999,Standard
 MAJOR GASTROINTESTINAL DISORDERS & PERITONEAL INFECTIONS W CC,10614.523809999999,Standard
 RENAL FAILURE W CC,9053.192307700001,Standard
 RENAL FAILURE W/O CC/MCC,6394.1875,Standard
 MAJOR GASTROINTESTINAL DISORDERS & PERITONEAL INFECTIONS W MCC,10982.785714,Standard
 KIDNEY & URINARY TRACT INFECTIONS W MCC,9022.695652200002,Standard
 OTHER KIDNEY & URINARY TRACT DIAGNOSES W CC,9147.8695652,Standard
 OTHER KIDNEY & URINARY TRACT DIAGNOSES W MCC,14878.652174,Standard
 URINARY STONES W/O ESW LITHOTRIPSY W/O MCC,8385.5714286,Standard
 KIDNEY & URINARY TRACT INFECTIONS W/O MCC,6992.321212100001,Standard
" MISC DISORDERS OF NUTRITION,METABOLISM,FLUIDS/ELECTROLYTES W MCC",10800.765957,Standard
