Description,Charge,Category
" FX, SPRN, STRN & DISL EXCEPT FEMUR, HIP, PELVIS & THIGH W/O MCC",9259.909090899999,Standard
 RENAL FAILURE W CC,11280.431373000001,Standard
 RENAL FAILURE W MCC,19198.666666999998,Standard
" ""MISC DISORDERS OF NUTRITION,METABOLISM,FLUIDS/ELECTROLYTES W/O MCC""",12152.684211,Standard
" MISC DISORDERS OF NUTRITION,METABOLISM,FLUIDS/ELECTROLYTES W MCC",15116.472222,Standard
 CELLULITIS W/O MCC,9972.74,Standard
 DIABETES W CC,10663.866667,Standard
 DIABETES W MCC,20610.6,Standard
 KIDNEY & URINARY TRACT INFECTIONS W MCC,13031.333333,Standard
 DIABETES W/O CC/MCC,9327.0,Standard
 KIDNEY & URINARY TRACT INFECTIONS W/O MCC,11526.104478,Standard
 SIGNS & SYMPTOMS W/O MCC,8758.9545455,Standard
 RED BLOOD CELL DISORDERS W/O MCC,8847.625,Standard
 COAGULATION DISORDERS,14179.2,Standard
 INFECTIOUS & PARASITIC DISEASES W O.R. PROCEDURE W MCC,43431.8,Standard
 SEPTICEMIA OR SEVERE SEPSIS W MV >96 HOURS OR PERIPHERAL EXTRACORPOR,47959.083332999995,Standard
 SEPTICEMIA OR SEVERE SEPSIS W/O MV >96 HOURS W MCC,23782.234568,Standard
 SEPTICEMIA OR SEVERE SEPSIS W/O MV >96 HOURS W/O MCC,13217.271186,Standard
 ORGANIC DISTURBANCES & INTELLECTUAL DISABILITY,11455.166667,Standard
 POISONING & TOXIC EFFECTS OF DRUGS W MCC,22174.692308,Standard
 EXTENSIVE O.R. PROCEDURE UNRELATED TO PRINCIPAL DIAGNOSIS W MCC,46447.777777999996,Standard
 EXTENSIVE O.R. PROCEDURE UNRELATED TO PRINCIPAL DIAGNOSIS W CC,21338.25,Standard
 BONE DISEASES & ARTHROPATHIES W/O MCC,10072.933332999999,Standard
 OTHER KIDNEY & URINARY TRACT DIAGNOSES W MCC,23108.833333000002,Standard
 MEDICAL BACK PROBLEMS W/O MCC,14057.933333,Standard
 HIP & FEMUR PROCEDURES EXCEPT MAJOR JOINT W MCC,34688.318182,Standard
" ""LOWER EXTREM & HUMER PROC EXCEPT HIP,FOOT,FEMUR W/O CC/MCC""",20716.291666999998,Standard
 CORONARY BYPASS W/O CARDIAC CATH W MCC,62537.285714,Standard
 CORONARY BYPASS W/O CARDIAC CATH W/O MCC,32446.189188999997,Standard
 PERMANENT CARDIAC PACEMAKER IMPLANT W MCC,32111.533333,Standard
 PERMANENT CARDIAC PACEMAKER IMPLANT W CC,22745.0,Standard
 PERMANENT CARDIAC PACEMAKER IMPLANT W/O CC/MCC,18209.047619,Standard
 PERCUTANEOUS CARDIOVASCULAR PROCEDURES W DRUG,31005.041237,Standard
 PERC CARDIOVASC PROC W DRUG,17127.369747999997,Standard
 CORONARY BYPASS W CARDIAC CATH W/O MCC,41599.272726999996,Standard
 OTHER VASCULAR PROCEDURES W MCC,45263.483871,Standard
 ENDOVASCULAR CARDIAC VALVE REPLACEMENT W MCC,76348.083333,Standard
 ENDOVASCULAR CARDIAC VALVE REPLACEMENT W/O MCC,62728.186813,Standard
 OTHER MAJOR CARDIOVASCULAR PROCEDURES W MCC,66256.3125,Standard
 PERCUTANEOUS INTRACARDIAC PROCEDURES W MCC,36905.692308,Standard
 PERCUTANEOUS INTRACARDIAC PROCEDURES W/O MCC,35086.409091,Standard
" ""ACUTE MYOCARDIAL INFARCTION, DISCHARGED ALIVE W MCC""",23049.409638999998,Standard
" ACUTE MYOCARDIAL INFARCTION, DISCHARGED ALIVE W CC",12668.156863,Standard
 FRACTURES OF HIP & PELVIS W/O MCC,7876.363636399999,Standard
" ""ACUTE MYOCARDIAL INFARCTION, DISCHARGED ALIVE W/O CC/MCC""",9607.4545455,Standard
 CORONARY BYPASS W CARDIAC CATH W MCC,52152.09375,Standard
 CARDIAC VALVE & OTH MAJ CARDIOTHORACIC PROC W/O CARD CATH W MCC,66641.916667,Standard
 INTRACRANIAL HEMORRHAGE OR CEREBRAL INFARCTION W MCC,23562.62069,Standard
 INTRACRANIAL HEMORRHAGE OR CEREBRAL INFARCTION W CC OR TPA IN 24 HRS,14013.6,Standard
 INTRACRANIAL HEMORRHAGE OR CEREBRAL INFARCTION W/O CC/MCC,10395.785714,Standard
 SEIZURES W/O MCC,9765.481481499999,Standard
 PULMONARY EMBOLISM W/O MCC,10104.578947,Standard
 PULMONARY EDEMA & RESPIRATORY FAILURE,19163.152174000003,Standard
 CHRONIC OBSTRUCTIVE PULMONARY DISEASE W MCC,14720.547618999999,Standard
 CARDIAC VALVE & OTH MAJ CARDIOTHORACIC PROC W/O CARD CATH W CC,47379.06383,Standard
 CHRONIC OBSTRUCTIVE PULMONARY DISEASE W CC,10132.509434,Standard
 SIMPLE PNEUMONIA & PLEURISY W MCC,15223.371428999999,Standard
 SIMPLE PNEUMONIA & PLEURISY W CC,11057.052631999999,Standard
 SIMPLE PNEUMONIA & PLEURISY W/O CC/MCC,8058.285714300001,Standard
 BRONCHITIS & ASTHMA W CC/MCC,11696.363636,Standard
 RESPIRATORY SYSTEM DIAGNOSIS W VENTILATOR SUPPORT <=96 HOURS,23786.083333000002,Standard
 CARDIAC VALVE & OTH MAJ CARDIOTHORACIC PROC W CARD CATH W MCC,66040.916667,Standard
 CARDIAC VALVE & OTH MAJ CARDIOTHORACIC PROC W CARD CATH W CC,55285.071428999996,Standard
 CHRONIC OBSTRUCTIVE PULMONARY DISEASE W/O CC/MCC,7409.4545455,Standard
" ""CIRCULATORY DISORDERS EXCEPT AMI, W CARD CATH W MCC""",27746.782608999998,Standard
 OTHER VASCULAR PROCEDURES W CC,33164.647058999995,Standard
 DISORDERS OF PANCREAS EXCEPT MALIGNANCY W CC,9509.157894700002,Standard
 G.I. OBSTRUCTION W CC,10830.142856999999,Standard
 MAJOR JOINT/LIMB REATTACHMENT PROCEDURE OF UPPER EXTREMITIES,26109.655172,Standard
" ""ESOPHAGITIS, GASTROENT & MISC DIGEST DISORDERS W/O MCC""",10667.139535,Standard
 OTHER DIGESTIVE SYSTEM DIAGNOSES W MCC,13913.636363999998,Standard
 OTHER DIGESTIVE SYSTEM DIAGNOSES W CC,10085.266667,Standard
" CIRCULATORY DISORDERS EXCEPT AMI, W CARD CATH W/O MCC",14068.688312,Standard
 COMBINED ANTERIOR/POSTERIOR SPINAL FUSION W/O CC/MCC,47361.52381,Standard
 SPINAL FUSION EXCEPT CERVICAL W/O MCC,43724.4625,Standard
 BILATERAL OR MULTIPLE MAJOR JOINT PROCS OF LOWER EXTREMITY W/O MCC,27231.433962,Standard
" WND DEBRID & SKN GRFT EXC HAND, FOR MUSCULO",34609.058824,Standard
 REVISION OF HIP OR KNEE REPLACEMENT W CC,41461.025,Standard
 REVISION OF HIP OR KNEE REPLACEMENT W/O CC/MCC,35101.114286,Standard
 MAJOR HIP AND KNEE JOINT REPLACEMENT OR REATTACHMENT OF LOWER EXTREM,36256.019607999995,Standard
 MAJOR HIP AND KNEE JOINT REPLACEMENT OR REATTACHMENT OF LOWER EXTREM,19341.37193,Standard
 CERVICAL SPINAL FUSION W CC,30771.8125,Standard
 HIP & FEMUR PROCEDURES EXCEPT MAJOR JOINT W CC,27945.296295999997,Standard
 HIP & FEMUR PROCEDURES EXCEPT MAJOR JOINT W/O CC/MCC,25477.727273,Standard
 G.I. HEMORRHAGE W/O CC/MCC,8588.7692308,Standard
 G.I. HEMORRHAGE W CC,14281.782609,Standard
" ESOPHAGITIS, GASTROENT & MISC DIGEST DISORDERS W MCC",11232.153846,Standard
 CARDIAC ARRHYTHMIA & CONDUCTION DISORDERS W/O CC/MCC,8045.6153846,Standard
 HEART FAILURE & SHOCK W MCC,18393.338028,Standard
 HEART FAILURE & SHOCK W CC,12969.615385,Standard
 HEART FAILURE & SHOCK W/O CC/MCC,9275.6521739,Standard
 PERIPHERAL VASCULAR DISORDERS W MCC,29604.181818,Standard
 PERIPHERAL VASCULAR DISORDERS W CC,11814.9375,Standard
 HYPERTENSION W MCC,15684.5,Standard
 HYPERTENSION W/O MCC,8338.526315800002,Standard
 CARDIAC ARRHYTHMIA & CONDUCTION DISORDERS W MCC,15735.137931000001,Standard
 CARDIAC ARRHYTHMIA & CONDUCTION DISORDERS W CC,10631.589743999999,Standard
" LOWER EXTREM & HUMER PROC EXCEPT HIP,FOOT,FEMUR W CC",26438.967741999997,Standard
 SYNCOPE & COLLAPSE,9243.2894737,Standard
 CHEST PAIN,9867.772727299998,Standard
 OTHER CIRCULATORY SYSTEM DIAGNOSES W MCC,23362.853659,Standard
 MAJOR GASTROINTESTINAL DISORDERS & PERITONEAL INFECTIONS W CC,9569.75,Standard
 G.I. HEMORRHAGE W MCC,23293.685714,Standard
