Description,Charge,Category
 OTHER DISORDERS OF NERVOUS SYSTEM W MCC,17669.2,Standard
 SEIZURES W MCC,13683.090909,Standard
 DEPRESSIVE NEUROSES,5700.1034483,Standard
 SEPTICEMIA OR SEVERE SEPSIS W/O MV >96 HOURS W/O MCC,9714.169811299998,Standard
 KIDNEY & URINARY TRACT INFECTIONS W/O MCC,8030.7956988999995,Standard
 SEPTICEMIA OR SEVERE SEPSIS W/O MV >96 HOURS W MCC,16395.531136,Standard
 INFECTIOUS & PARASITIC DISEASES W O.R. PROCEDURE W MCC,38057.0,Standard
 DIABETES W MCC,15219.03125,Standard
 RED BLOOD CELL DISORDERS W MCC,9992.388888899999,Standard
 CELLULITIS W/O MCC,9158.2539683,Standard
 PULMONARY EMBOLISM W/O MCC,9027.1764706,Standard
 OTHER KIDNEY & URINARY TRACT DIAGNOSES W MCC,12984.461538,Standard
 OTHER KIDNEY & URINARY TRACT DIAGNOSES W CC,13775.291667,Standard
 TRANSIENT ISCHEMIA W/O THROMBOLYTIC,8226.9285714,Standard
" FX, SPRN, STRN & DISL EXCEPT FEMUR, HIP, PELVIS & THIGH W/O MCC",8617.1176471,Standard
 RED BLOOD CELL DISORDERS W/O MCC,8438.205128200001,Standard
 EXTENSIVE O.R. PROCEDURE UNRELATED TO PRINCIPAL DIAGNOSIS W MCC,28421.6875,Standard
" MISC DISORDERS OF NUTRITION,METABOLISM,FLUIDS/ELECTROLYTES W MCC",11591.403226,Standard
 SIGNS & SYMPTOMS W/O MCC,8420.166666699999,Standard
" ""MISC DISORDERS OF NUTRITION,METABOLISM,FLUIDS/ELECTROLYTES W/O MCC""",8218.551282100001,Standard
 RENAL FAILURE W MCC,12120.5,Standard
 RENAL FAILURE W CC,10679.024691,Standard
 RENAL FAILURE W/O CC/MCC,7649.3333333,Standard
 POISONING & TOXIC EFFECTS OF DRUGS W MCC,14406.923077000001,Standard
 ALCOHOL/DRUG ABUSE OR DEPENDENCE W/O REHABILITATION THERAPY W/O MCC,6747.4,Standard
 PSYCHOSES,8241.717948700001,Standard
 HIV W MAJOR RELATED CONDITION W MCC,27765.384615,Standard
 ORGANIC DISTURBANCES & INTELLECTUAL DISABILITY,10783.096774,Standard
 POISONING & TOXIC EFFECTS OF DRUGS W/O MCC,8144.75,Standard
 DIABETES W CC,9384.0,Standard
" ""ISCHEMIC STROKE, PRECEREBRAL OCCLUSION OR TRANSIENT ISCHEMIA W THRO",17564.454545,Standard
 INTRACRANIAL HEMORRHAGE OR CEREBRAL INFARCTION W MCC,17928.159091,Standard
 INTRACRANIAL HEMORRHAGE OR CEREBRAL INFARCTION W CC OR TPA IN 24 HRS,11241.347826000001,Standard
 INTRACRANIAL HEMORRHAGE OR CEREBRAL INFARCTION W/O CC/MCC,9017.275862100001,Standard
 SIGNS & SYMPTOMS W MCC,8600.8181818,Standard
 KIDNEY & URINARY TRACT INFECTIONS W MCC,9500.842105299998,Standard
 DEGENERATIVE NERVOUS SYSTEM DISORDERS W/O MCC,11045.789474,Standard
 RESPIRATORY INFECTIONS & INFLAMMATIONS W MCC,16776.666666999998,Standard
 CELLULITIS W MCC,14196.6,Standard
 MAJOR JOINT/LIMB REATTACHMENT PROCEDURE OF UPPER EXTREMITIES,22349.666666999998,Standard
 HIP & FEMUR PROCEDURES EXCEPT MAJOR JOINT W/O CC/MCC,16447.238095,Standard
 HIP & FEMUR PROCEDURES EXCEPT MAJOR JOINT W CC,19770.538462,Standard
 OTHER RESP SYSTEM O.R. PROCEDURES W MCC,26825.181818,Standard
 PULMONARY EMBOLISM W MCC,10125.833333,Standard
 HIP & FEMUR PROCEDURES EXCEPT MAJOR JOINT W MCC,23244.818182,Standard
 FRACTURES OF HIP & PELVIS W/O MCC,7362.0,Standard
 MAJOR HIP AND KNEE JOINT REPLACEMENT OR REATTACHMENT OF LOWER EXTREM,24382.881818,Standard
 MAJOR HIP AND KNEE JOINT REPLACEMENT OR REATTACHMENT OF LOWER EXTREM,29329.0,Standard
" ""TENDONITIS, MYOSITIS & BURSITIS W/O MCC""",7650.5238094999995,Standard
 BONE DISEASES & ARTHROPATHIES W/O MCC,8712.909090899999,Standard
 DYSEQUILIBRIUM,7613.0,Standard
 OTHER CIRCULATORY SYSTEM DIAGNOSES W MCC,17522.289474,Standard
 MAJOR SMALL & LARGE BOWEL PROCEDURES W CC,39256.181818,Standard
 DIGESTIVE MALIGNANCY W MCC,20043.090909,Standard
 G.I. HEMORRHAGE W MCC,17850.918367,Standard
 G.I. HEMORRHAGE W CC,12248.535211,Standard
 G.I. HEMORRHAGE W/O CC/MCC,7629.975609800001,Standard
 G.I. OBSTRUCTION W MCC,15640.285713999998,Standard
 G.I. OBSTRUCTION W CC,11294.75,Standard
 MEDICAL BACK PROBLEMS W/O MCC,8296.066666699999,Standard
 G.I. OBSTRUCTION W/O CC/MCC,8988.1818182,Standard
" ESOPHAGITIS, GASTROENT & MISC DIGEST DISORDERS W MCC",10919.633333,Standard
" ""ESOPHAGITIS, GASTROENT & MISC DIGEST DISORDERS W/O MCC""",8109.3538462,Standard
 MAJOR SMALL & LARGE BOWEL PROCEDURES W MCC,43718.25,Standard
 OTHER DIGESTIVE SYSTEM DIAGNOSES W MCC,16220.357143000001,Standard
 SEIZURES W/O MCC,8597.340909100001,Standard
 SYNCOPE & COLLAPSE,7429.90625,Standard
 RESPIRATORY INFECTIONS & INFLAMMATIONS W CC,15273.666667,Standard
 PULMONARY EDEMA & RESPIRATORY FAILURE,15989.885246000002,Standard
 CHRONIC OBSTRUCTIVE PULMONARY DISEASE W MCC,12976.826531,Standard
 CHRONIC OBSTRUCTIVE PULMONARY DISEASE W CC,10454.025316,Standard
 CHRONIC OBSTRUCTIVE PULMONARY DISEASE W/O CC/MCC,8846.848484799999,Standard
 SIMPLE PNEUMONIA & PLEURISY W MCC,14029.163934,Standard
 SIMPLE PNEUMONIA & PLEURISY W CC,10327.324074,Standard
 SIMPLE PNEUMONIA & PLEURISY W/O CC/MCC,8148.3421053,Standard
 BRONCHITIS & ASTHMA W CC/MCC,9899.6129032,Standard
 BRONCHITIS & ASTHMA W/O CC/MCC,8006.8666667,Standard
 OTHER RESPIRATORY SYSTEM DIAGNOSES W/O MCC,8476.0,Standard
 RESPIRATORY SYSTEM DIAGNOSIS W VENTILATOR SUPPORT <=96 HOURS,21188.354166999998,Standard
" ""ACUTE MYOCARDIAL INFARCTION, DISCHARGED ALIVE W MCC""",10992.903226,Standard
" ACUTE MYOCARDIAL INFARCTION, DISCHARGED ALIVE W CC",7294.6538462,Standard
" ""ACUTE MYOCARDIAL INFARCTION, DISCHARGED ALIVE W/O CC/MCC""",5221.7,Standard
 HEART FAILURE & SHOCK W MCC,11262.771028000001,Standard
 HEART FAILURE & SHOCK W CC,9064.0743802,Standard
 HEART FAILURE & SHOCK W/O CC/MCC,6545.8208955,Standard
 PERIPHERAL VASCULAR DISORDERS W MCC,14563.0,Standard
 PERIPHERAL VASCULAR DISORDERS W CC,10817.333333,Standard
 HYPERTENSION W/O MCC,6369.1111111,Standard
 CARDIAC ARRHYTHMIA & CONDUCTION DISORDERS W MCC,11287.409091,Standard
 CARDIAC ARRHYTHMIA & CONDUCTION DISORDERS W CC,9706.7027027,Standard
 CARDIAC ARRHYTHMIA & CONDUCTION DISORDERS W/O CC/MCC,6168.0714286,Standard
 CHEST PAIN,12430.277778,Standard
 OTHER DIGESTIVE SYSTEM DIAGNOSES W CC,8774.5,Standard
